\relax 
\providecommand\hyper@newdestlabel[2]{}
\providecommand\HyperFirstAtBeginDocument{\AtBeginDocument}
\HyperFirstAtBeginDocument{\ifx\hyper@anchor\@undefined
\global\let\oldcontentsline\contentsline
\gdef\contentsline#1#2#3#4{\oldcontentsline{#1}{#2}{#3}}
\global\let\oldnewlabel\newlabel
\gdef\newlabel#1#2{\newlabelxx{#1}#2}
\gdef\newlabelxx#1#2#3#4#5#6{\oldnewlabel{#1}{{#2}{#3}}}
\AtEndDocument{\ifx\hyper@anchor\@undefined
\let\contentsline\oldcontentsline
\let\newlabel\oldnewlabel
\fi}
\fi}
\global\let\hyper@last\relax 
\gdef\HyperFirstAtBeginDocument#1{#1}
\providecommand\HyField@AuxAddToFields[1]{}
\providecommand\HyField@AuxAddToCoFields[2]{}
\select@language{english}
\@writefile{toc}{\select@language{english}}
\@writefile{lof}{\select@language{english}}
\@writefile{lot}{\select@language{english}}
\pgfsyspdfmark {pgfid2}{0}{0}
\pgfsyspdfmark {pgfid1}{6577079}{47493192}
\@writefile{toc}{\contentsline {section}{\numberline {1}Introduction}{1}{section.1}}
\@writefile{toc}{\contentsline {section}{\numberline {2}Model and open loop analysis}{1}{section.2}}
\newlabel{sec:model}{{2}{1}{Model and open loop analysis}{section.2}{}}
\@writefile{lof}{\contentsline {figure}{\numberline {1}{\ignorespaces The pole-zero map of the open-loop system\relax }}{2}{figure.caption.2}}
\providecommand*\caption@xref[2]{\@setref\relax\@undefined{#1}}
\newlabel{fig:pzmap}{{1}{2}{The pole-zero map of the open-loop system\relax }{figure.caption.2}{}}
\@writefile{toc}{\contentsline {section}{\numberline {3}LQR Controller based on exact state feedback}{2}{section.3}}
\@writefile{lof}{\contentsline {figure}{\numberline {2}{\ignorespaces Simulink model for the continuous-time LQR controller of the seesaw.\relax }}{3}{figure.caption.3}}
\newlabel{fig:simulink_lqr}{{2}{3}{Simulink model for the continuous-time LQR controller of the seesaw.\relax }{figure.caption.3}{}}
\@writefile{toc}{\contentsline {subsection}{\numberline {3.1}LQR model in \texttt  {Simulink}}{3}{subsection.3.1}}
\@writefile{toc}{\contentsline {subsection}{\numberline {3.2}Choosing the weighing matrices $\boldsymbol  {Q}$ and $\boldsymbol  {R}$}{3}{subsection.3.2}}
\@writefile{lof}{\contentsline {figure}{\numberline {3}{\ignorespaces States for the first experiment\relax }}{4}{figure.caption.4}}
\newlabel{fig:r10}{{3}{4}{States for the first experiment\relax }{figure.caption.4}{}}
\@writefile{toc}{\contentsline {section}{\numberline {4}LQR Controller based on measured state feedback}{4}{section.4}}
\@writefile{lof}{\contentsline {figure}{\numberline {4}{\ignorespaces States for the second experiment, the steady-state error is reduced by a fair amount.\relax }}{5}{figure.caption.5}}
\newlabel{fig:experiment2}{{4}{5}{States for the second experiment, the steady-state error is reduced by a fair amount.\relax }{figure.caption.5}{}}
\@writefile{lof}{\contentsline {figure}{\numberline {5}{\ignorespaces States for the third experiment, the overshoots for $x$ and $\theta $ are negligible.\relax }}{5}{figure.caption.6}}
\newlabel{fig:Q10004000100100R1}{{5}{5}{States for the third experiment, the overshoots for $x$ and $\theta $ are negligible.\relax }{figure.caption.6}{}}
\@writefile{lof}{\contentsline {figure}{\numberline {6}{\ignorespaces The inputs of the seesaw for the final controller from section 2.2. The inputs remain quite low.\relax }}{6}{figure.caption.7}}
\newlabel{fig:inputslqr}{{6}{6}{The inputs of the seesaw for the final controller from section 2.2. The inputs remain quite low.\relax }{figure.caption.7}{}}
\@writefile{lof}{\contentsline {figure}{\numberline {7}{\ignorespaces The poles of the closed-loop system designed with an LQR controller, with the full state vector available\relax }}{6}{figure.caption.8}}
\newlabel{fig:poles_lqr}{{7}{6}{The poles of the closed-loop system designed with an LQR controller, with the full state vector available\relax }{figure.caption.8}{}}
\@writefile{toc}{\contentsline {subsection}{\numberline {4.1}LQR model in \texttt  {Simulink}}{7}{subsection.4.1}}
\@writefile{toc}{\contentsline {subsection}{\numberline {4.2}Choosing the weighting matrices $\boldsymbol  {Q}$ and $\boldsymbol  {R}$}{7}{subsection.4.2}}
\newlabel{RF1}{8}
\@writefile{lof}{\contentsline {figure}{\numberline {8}{\ignorespaces \texttt  {Simulink} model for the continuous-time LQR controller of the seesaw, based on the outputs of the real system\relax }}{8}{figure.caption.9}}
\newlabel{fig:simulink_practical_lqr}{{8}{8}{\texttt {Simulink} model for the continuous-time LQR controller of the seesaw, based on the outputs of the real system\relax }{figure.caption.9}{}}
\@writefile{lof}{\contentsline {figure}{\numberline {9}{\ignorespaces The simulation results for the more realistic setup, with computation of $\mathaccentV {dot}05F{x}$ and $\mathaccentV {dot}05F{\theta }$. The weighting matrices are the same as in the previous experiment\relax }}{9}{figure.caption.10}}
\newlabel{fig:Q10004000300300R1practical}{{9}{9}{The simulation results for the more realistic setup, with computation of $\dot {x}$ and $\dot {\theta }$. The weighting matrices are the same as in the previous experiment\relax }{figure.caption.10}{}}
\@writefile{toc}{\contentsline {subsection}{\numberline {4.3}Effect of the cut-off frequency on the controller}{9}{subsection.4.3}}
\newlabel{sec:cutoff}{{4.3}{9}{Effect of the cut-off frequency on the controller}{subsection.4.3}{}}
\@writefile{lof}{\contentsline {figure}{\numberline {10}{\ignorespaces The simulation results for the more realistic setup, with computation of $\mathaccentV {dot}05F{x}$ and $\mathaccentV {dot}05F{\theta }$ and new weighting matrices\relax }}{10}{figure.caption.11}}
\newlabel{fig:Q10004000100100R1practical}{{10}{10}{The simulation results for the more realistic setup, with computation of $\dot {x}$ and $\dot {\theta }$ and new weighting matrices\relax }{figure.caption.11}{}}
\@writefile{lof}{\contentsline {figure}{\numberline {11}{\ignorespaces The inputs of the final controller for more realistic setup\relax }}{10}{figure.caption.12}}
\newlabel{fig:input_practical}{{11}{10}{The inputs of the final controller for more realistic setup\relax }{figure.caption.12}{}}
\@writefile{lof}{\contentsline {figure}{\numberline {12}{\ignorespaces The poles of the closed-loop system designed with an LQR controller, based on the realistic setup\relax }}{11}{figure.caption.13}}
\newlabel{fig:poles_lqr_practical}{{12}{11}{The poles of the closed-loop system designed with an LQR controller, based on the realistic setup\relax }{figure.caption.13}{}}
\@writefile{toc}{\contentsline {section}{\numberline {5}Experimental results ("The proof of the pudding")}{11}{section.5}}
\@writefile{toc}{\contentsline {subsection}{\numberline {5.1}LQR model in \texttt  {Simulink}}{11}{subsection.5.1}}
\@writefile{lof}{\contentsline {figure}{\numberline {13}{\ignorespaces System output for the LQR matrices of section 3.2. The oscillations have a higher amplitude.\relax }}{12}{figure.caption.14}}
\newlabel{fig:Q10004000100100R1practical2hz}{{13}{12}{System output for the LQR matrices of section 3.2. The oscillations have a higher amplitude.\relax }{figure.caption.14}{}}
\@writefile{lof}{\contentsline {figure}{\numberline {14}{\ignorespaces System response for a cut-off frequency of 200Hz. The oscillations are a higher, especially for $\mathaccentV {dot}05F{x}$ and $\mathaccentV {dot}05F{\theta }$.\relax }}{12}{figure.caption.15}}
\newlabel{fig:Q10004000100100R1practical200hz}{{14}{12}{System response for a cut-off frequency of 200Hz. The oscillations are a higher, especially for $\dot {x}$ and $\dot {\theta }$.\relax }{figure.caption.15}{}}
\@writefile{lof}{\contentsline {figure}{\numberline {15}{\ignorespaces System response for a cut-off frequency of 0.2Hz. The system dynamics is also filtered by the low-pass filter.\relax }}{13}{figure.caption.16}}
\newlabel{fig:Q10004000100100R1practical02hz}{{15}{13}{System response for a cut-off frequency of 0.2Hz. The system dynamics is also filtered by the low-pass filter.\relax }{figure.caption.16}{}}
\@writefile{toc}{\contentsline {subsection}{\numberline {5.2}Design of the LQR controller}{13}{subsection.5.2}}
\@writefile{toc}{\contentsline {subsubsection}{\numberline {5.2.1}Tuning the practical LQR controller}{13}{subsubsection.5.2.1}}
\newlabel{RF2}{14}
\@writefile{lof}{\contentsline {figure}{\numberline {16}{\ignorespaces \texttt  {Simulink} model for the continuous-time LQR controller of the seesaw, used in the real setup\relax }}{14}{figure.caption.17}}
\newlabel{fig:simulink_real_setup}{{16}{14}{\texttt {Simulink} model for the continuous-time LQR controller of the seesaw, used in the real setup\relax }{figure.caption.17}{}}
\@writefile{lof}{\contentsline {figure}{\numberline {17}{\ignorespaces Experimental results for the simulation-based controller on the real setup.\relax }}{15}{figure.caption.18}}
\newlabel{fig:originalpractical}{{17}{15}{Experimental results for the simulation-based controller on the real setup.\relax }{figure.caption.18}{}}
\@writefile{lof}{\contentsline {figure}{\numberline {18}{\ignorespaces Experimental outputs for the controlled system with 1100 as velocity component in $\boldsymbol  {Q}$.\relax }}{15}{figure.caption.19}}
\newlabel{fig:practical1100}{{18}{15}{Experimental outputs for the controlled system with 1100 as velocity component in $\boldsymbol {Q}$.\relax }{figure.caption.19}{}}
\@writefile{lof}{\contentsline {figure}{\numberline {19}{\ignorespaces System output when we increase the $\boldsymbol  {Q}$ component corresponding to $\theta $ to 20000.\relax }}{16}{figure.caption.20}}
\newlabel{fig:practical20000}{{19}{16}{System output when we increase the $\boldsymbol {Q}$ component corresponding to $\theta $ to 20000.\relax }{figure.caption.20}{}}
\@writefile{toc}{\contentsline {subsubsection}{\numberline {5.2.2}Explanations for the deviations between simulations and experiments}{16}{subsubsection.5.2.2}}
\@writefile{lof}{\contentsline {figure}{\numberline {20}{\ignorespaces Experimental results for a proportionality constant between the $x$ and $\theta $ component in $\boldsymbol  {Q}$, as well as for the derivatives.\relax }}{17}{figure.caption.21}}
\newlabel{fig:practicalconversion}{{20}{17}{Experimental results for a proportionality constant between the $x$ and $\theta $ component in $\boldsymbol {Q}$, as well as for the derivatives.\relax }{figure.caption.21}{}}
\@writefile{toc}{\contentsline {subsection}{\numberline {5.3}Determining the noise variance}{17}{subsection.5.3}}
\@writefile{lof}{\contentsline {figure}{\numberline {21}{\ignorespaces The system outputs for a zero input.\relax }}{18}{figure.caption.22}}
\newlabel{fig:zeroinput}{{21}{18}{The system outputs for a zero input.\relax }{figure.caption.22}{}}
\@writefile{toc}{\contentsline {subsection}{\numberline {5.4}Disturbance rejection}{18}{subsection.5.4}}
\@writefile{toc}{\contentsline {subsection}{\numberline {5.5}Influence of the cut-off frequency}{18}{subsection.5.5}}
\@writefile{toc}{\contentsline {section}{\numberline {6}Conclusion}{18}{section.6}}
\newlabel{fig:dist_theta}{{22a}{19}{$\theta $\relax }{figure.caption.23}{}}
\newlabel{sub@fig:dist_theta}{{a}{19}{$\theta $\relax }{figure.caption.23}{}}
\newlabel{fig:dist_x}{{22b}{19}{$x$\relax }{figure.caption.23}{}}
\newlabel{sub@fig:dist_x}{{b}{19}{$x$\relax }{figure.caption.23}{}}
\newlabel{fig:dist_in}{{22c}{19}{Inputs\relax }{figure.caption.23}{}}
\newlabel{sub@fig:dist_in}{{c}{19}{Inputs\relax }{figure.caption.23}{}}
\newlabel{fig:dist_xdot}{{22d}{19}{$\dot {\theta }$\relax }{figure.caption.23}{}}
\newlabel{sub@fig:dist_xdot}{{d}{19}{$\dot {\theta }$\relax }{figure.caption.23}{}}
\newlabel{fig:dist_thetadot}{{22e}{19}{$\dot {x}$\relax }{figure.caption.23}{}}
\newlabel{sub@fig:dist_thetadot}{{e}{19}{$\dot {x}$\relax }{figure.caption.23}{}}
\@writefile{lof}{\contentsline {figure}{\numberline {22}{\ignorespaces A disturbance rejection test\relax }}{19}{figure.caption.23}}
\newlabel{fig:disturbance_rej}{{22}{19}{A disturbance rejection test\relax }{figure.caption.23}{}}
\newlabel{fig:cfl_x}{{23a}{20}{$x$\relax }{figure.caption.24}{}}
\newlabel{sub@fig:cfl_x}{{a}{20}{$x$\relax }{figure.caption.24}{}}
\newlabel{fig:cfl_xdot}{{23b}{20}{$x$\relax }{figure.caption.24}{}}
\newlabel{sub@fig:cfl_xdot}{{b}{20}{$x$\relax }{figure.caption.24}{}}
\newlabel{fig:cfl_theta}{{23c}{20}{$\theta $\relax }{figure.caption.24}{}}
\newlabel{sub@fig:cfl_theta}{{c}{20}{$\theta $\relax }{figure.caption.24}{}}
\newlabel{fig:cfl_thetadot}{{23d}{20}{inputs\relax }{figure.caption.24}{}}
\newlabel{sub@fig:cfl_thetadot}{{d}{20}{inputs\relax }{figure.caption.24}{}}
\@writefile{lof}{\contentsline {figure}{\numberline {23}{\ignorespaces State response for a cut-off frequency of 0.2Hz\relax }}{20}{figure.caption.24}}
\newlabel{fig:cf_test_low}{{23}{20}{State response for a cut-off frequency of 0.2Hz\relax }{figure.caption.24}{}}
\newlabel{fig:cfh_xdot}{{24a}{21}{$\dot {x}$, cut-off frequency $\SI {2000}{\hertz }$\relax }{figure.caption.25}{}}
\newlabel{sub@fig:cfh_xdot}{{a}{21}{$\dot {x}$, cut-off frequency $\SI {2000}{\hertz }$\relax }{figure.caption.25}{}}
\newlabel{fig:cfh_xdot_normal}{{24b}{21}{$\dot {x}$, cut-off frequency $\SI {2}{\hertz }$\relax }{figure.caption.25}{}}
\newlabel{sub@fig:cfh_xdot_normal}{{b}{21}{$\dot {x}$, cut-off frequency $\SI {2}{\hertz }$\relax }{figure.caption.25}{}}
\newlabel{fig:cfh_theta}{{24c}{21}{$\theta $, cut-off frequency $\SI {2000}{\hertz }$\relax }{figure.caption.25}{}}
\newlabel{sub@fig:cfh_theta}{{c}{21}{$\theta $, cut-off frequency $\SI {2000}{\hertz }$\relax }{figure.caption.25}{}}
\@writefile{lof}{\contentsline {figure}{\numberline {24}{\ignorespaces Comparison of $\mathaccentV {dot}05F{x}$ for $\SI {2000}{\hertz }$ and $\SI {2}{\hertz }$ and $\theta $ for $\SI {2000}{\hertz }$\relax }}{21}{figure.caption.25}}
\newlabel{fig:cfh}{{24}{21}{Comparison of $\dot {x}$ for $\SI {2000}{\hertz }$ and $\SI {2}{\hertz }$ and $\theta $ for $\SI {2000}{\hertz }$\relax }{figure.caption.25}{}}
\newlabel{LastPage}{{}{22}{}{page.22}{}}
\xdef\lastpage@lastpage{22}
\xdef\lastpage@lastpageHy{22}
