%!PS-Adobe-3.0 EPSF-3.0
%%Creator: (MATLAB, The Mathworks, Inc. Version 9.1.0.441655 \(R2016b\). Operating System: Windows 8)
%%Title: C:/Users/simon/Documents/Unief/M1/CACSD_MPC/Exercises/Practicum/cacsd/report/images/cutoff/theta_high.eps
%%CreationDate: 2017-05-17T20:59:09
%%Pages: (atend)
%%BoundingBox: 0 0 420 315
%%LanguageLevel: 3
%%EndComments
%%BeginProlog
%%BeginResource: procset (Apache XML Graphics Std ProcSet) 1.2 0
%%Version: 1.2 0
%%Copyright: (Copyright 2001-2003,2010 The Apache Software Foundation. License terms: http://www.apache.org/licenses/LICENSE-2.0)
/bd{bind def}bind def
/ld{load def}bd
/GR/grestore ld
/M/moveto ld
/LJ/setlinejoin ld
/C/curveto ld
/f/fill ld
/LW/setlinewidth ld
/GC/setgray ld
/t/show ld
/N/newpath ld
/CT/concat ld
/cp/closepath ld
/S/stroke ld
/L/lineto ld
/CC/setcmykcolor ld
/A/ashow ld
/GS/gsave ld
/RC/setrgbcolor ld
/RM/rmoveto ld
/ML/setmiterlimit ld
/re {4 2 roll M
1 index 0 rlineto
0 exch rlineto
neg 0 rlineto
cp } bd
/_ctm matrix def
/_tm matrix def
/BT { _ctm currentmatrix pop matrix _tm copy pop 0 0 moveto } bd
/ET { _ctm setmatrix } bd
/iTm { _ctm setmatrix _tm concat } bd
/Tm { _tm astore pop iTm 0 0 moveto } bd
/ux 0.0 def
/uy 0.0 def
/F {
  /Tp exch def
  /Tf exch def
  Tf findfont Tp scalefont setfont
  /cf Tf def  /cs Tp def
} bd
/ULS {currentpoint /uy exch def /ux exch def} bd
/ULE {
  /Tcx currentpoint pop def
  gsave
  newpath
  cf findfont cs scalefont dup
  /FontMatrix get 0 get /Ts exch def /FontInfo get dup
  /UnderlinePosition get Ts mul /To exch def
  /UnderlineThickness get Ts mul /Tt exch def
  ux uy To add moveto  Tcx uy To add lineto
  Tt setlinewidth stroke
  grestore
} bd
/OLE {
  /Tcx currentpoint pop def
  gsave
  newpath
  cf findfont cs scalefont dup
  /FontMatrix get 0 get /Ts exch def /FontInfo get dup
  /UnderlinePosition get Ts mul /To exch def
  /UnderlineThickness get Ts mul /Tt exch def
  ux uy To add cs add moveto Tcx uy To add cs add lineto
  Tt setlinewidth stroke
  grestore
} bd
/SOE {
  /Tcx currentpoint pop def
  gsave
  newpath
  cf findfont cs scalefont dup
  /FontMatrix get 0 get /Ts exch def /FontInfo get dup
  /UnderlinePosition get Ts mul /To exch def
  /UnderlineThickness get Ts mul /Tt exch def
  ux uy To add cs 10 mul 26 idiv add moveto Tcx uy To add cs 10 mul 26 idiv add lineto
  Tt setlinewidth stroke
  grestore
} bd
/QT {
/Y22 exch store
/X22 exch store
/Y21 exch store
/X21 exch store
currentpoint
/Y21 load 2 mul add 3 div exch
/X21 load 2 mul add 3 div exch
/X21 load 2 mul /X22 load add 3 div
/Y21 load 2 mul /Y22 load add 3 div
/X22 load /Y22 load curveto
} bd
/SSPD {
dup length /d exch dict def
{
/v exch def
/k exch def
currentpagedevice k known {
/cpdv currentpagedevice k get def
v cpdv ne {
/upd false def
/nullv v type /nulltype eq def
/nullcpdv cpdv type /nulltype eq def
nullv nullcpdv or
{
/upd true def
} {
/sametype v type cpdv type eq def
sametype {
v type /arraytype eq {
/vlen v length def
/cpdvlen cpdv length def
vlen cpdvlen eq {
0 1 vlen 1 sub {
/i exch def
/obj v i get def
/cpdobj cpdv i get def
obj cpdobj ne {
/upd true def
exit
} if
} for
} {
/upd true def
} ifelse
} {
v type /dicttype eq {
v {
/dv exch def
/dk exch def
/cpddv cpdv dk get def
dv cpddv ne {
/upd true def
exit
} if
} forall
} {
/upd true def
} ifelse
} ifelse
} if
} ifelse
upd true eq {
d k v put
} if
} if
} if
} forall
d length 0 gt {
d setpagedevice
} if
} bd
/RE { % /NewFontName [NewEncodingArray] /FontName RE -
  findfont dup length dict begin
  {
    1 index /FID ne
    {def} {pop pop} ifelse
  } forall
  /Encoding exch def
  /FontName 1 index def
  currentdict definefont pop
  end
} bind def
%%EndResource
%%BeginResource: procset (Apache XML Graphics EPS ProcSet) 1.0 0
%%Version: 1.0 0
%%Copyright: (Copyright 2002-2003 The Apache Software Foundation. License terms: http://www.apache.org/licenses/LICENSE-2.0)
/BeginEPSF { %def
/b4_Inc_state save def         % Save state for cleanup
/dict_count countdictstack def % Count objects on dict stack
/op_count count 1 sub def      % Count objects on operand stack
userdict begin                 % Push userdict on dict stack
/showpage { } def              % Redefine showpage, { } = null proc
0 setgray 0 setlinecap         % Prepare graphics state
1 setlinewidth 0 setlinejoin
10 setmiterlimit [ ] 0 setdash newpath
/languagelevel where           % If level not equal to 1 then
{pop languagelevel             % set strokeadjust and
1 ne                           % overprint to their defaults.
{false setstrokeadjust false setoverprint
} if
} if
} bd
/EndEPSF { %def
count op_count sub {pop} repeat            % Clean up stacks
countdictstack dict_count sub {end} repeat
b4_Inc_state restore
} bd
%%EndResource
%FOPBeginFontDict
%%IncludeResource: font Courier-Bold
%%IncludeResource: font Helvetica
%%IncludeResource: font Courier-BoldOblique
%%IncludeResource: font Courier-Oblique
%%IncludeResource: font Times-Roman
%%IncludeResource: font Helvetica-BoldOblique
%%IncludeResource: font Helvetica-Bold
%%IncludeResource: font Helvetica-Oblique
%%IncludeResource: font Times-BoldItalic
%%IncludeResource: font Courier
%%IncludeResource: font Times-Italic
%%IncludeResource: font Times-Bold
%%IncludeResource: font Symbol
%%IncludeResource: font ZapfDingbats
%FOPEndFontDict
%%BeginResource: encoding WinAnsiEncoding
/WinAnsiEncoding [
/.notdef /.notdef /.notdef /.notdef /.notdef
/.notdef /.notdef /.notdef /.notdef /.notdef
/.notdef /.notdef /.notdef /.notdef /.notdef
/.notdef /.notdef /.notdef /.notdef /.notdef
/.notdef /.notdef /.notdef /.notdef /.notdef
/.notdef /.notdef /.notdef /.notdef /.notdef
/.notdef /.notdef /space /exclam /quotedbl
/numbersign /dollar /percent /ampersand /quotesingle
/parenleft /parenright /asterisk /plus /comma
/hyphen /period /slash /zero /one
/two /three /four /five /six
/seven /eight /nine /colon /semicolon
/less /equal /greater /question /at
/A /B /C /D /E
/F /G /H /I /J
/K /L /M /N /O
/P /Q /R /S /T
/U /V /W /X /Y
/Z /bracketleft /backslash /bracketright /asciicircum
/underscore /quoteleft /a /b /c
/d /e /f /g /h
/i /j /k /l /m
/n /o /p /q /r
/s /t /u /v /w
/x /y /z /braceleft /bar
/braceright /asciitilde /bullet /Euro /bullet
/quotesinglbase /florin /quotedblbase /ellipsis /dagger
/daggerdbl /circumflex /perthousand /Scaron /guilsinglleft
/OE /bullet /Zcaron /bullet /bullet
/quoteleft /quoteright /quotedblleft /quotedblright /bullet
/endash /emdash /asciitilde /trademark /scaron
/guilsinglright /oe /bullet /zcaron /Ydieresis
/space /exclamdown /cent /sterling /currency
/yen /brokenbar /section /dieresis /copyright
/ordfeminine /guillemotleft /logicalnot /sfthyphen /registered
/macron /degree /plusminus /twosuperior /threesuperior
/acute /mu /paragraph /middot /cedilla
/onesuperior /ordmasculine /guillemotright /onequarter /onehalf
/threequarters /questiondown /Agrave /Aacute /Acircumflex
/Atilde /Adieresis /Aring /AE /Ccedilla
/Egrave /Eacute /Ecircumflex /Edieresis /Igrave
/Iacute /Icircumflex /Idieresis /Eth /Ntilde
/Ograve /Oacute /Ocircumflex /Otilde /Odieresis
/multiply /Oslash /Ugrave /Uacute /Ucircumflex
/Udieresis /Yacute /Thorn /germandbls /agrave
/aacute /acircumflex /atilde /adieresis /aring
/ae /ccedilla /egrave /eacute /ecircumflex
/edieresis /igrave /iacute /icircumflex /idieresis
/eth /ntilde /ograve /oacute /ocircumflex
/otilde /odieresis /divide /oslash /ugrave
/uacute /ucircumflex /udieresis /yacute /thorn
/ydieresis
] def
%%EndResource
%FOPBeginFontReencode
/Courier-Bold findfont
dup length dict begin
  {1 index /FID ne {def} {pop pop} ifelse} forall
  /Encoding WinAnsiEncoding def
  currentdict
end
/Courier-Bold exch definefont pop
/Helvetica findfont
dup length dict begin
  {1 index /FID ne {def} {pop pop} ifelse} forall
  /Encoding WinAnsiEncoding def
  currentdict
end
/Helvetica exch definefont pop
/Courier-BoldOblique findfont
dup length dict begin
  {1 index /FID ne {def} {pop pop} ifelse} forall
  /Encoding WinAnsiEncoding def
  currentdict
end
/Courier-BoldOblique exch definefont pop
/Courier-Oblique findfont
dup length dict begin
  {1 index /FID ne {def} {pop pop} ifelse} forall
  /Encoding WinAnsiEncoding def
  currentdict
end
/Courier-Oblique exch definefont pop
/Times-Roman findfont
dup length dict begin
  {1 index /FID ne {def} {pop pop} ifelse} forall
  /Encoding WinAnsiEncoding def
  currentdict
end
/Times-Roman exch definefont pop
/Helvetica-BoldOblique findfont
dup length dict begin
  {1 index /FID ne {def} {pop pop} ifelse} forall
  /Encoding WinAnsiEncoding def
  currentdict
end
/Helvetica-BoldOblique exch definefont pop
/Helvetica-Bold findfont
dup length dict begin
  {1 index /FID ne {def} {pop pop} ifelse} forall
  /Encoding WinAnsiEncoding def
  currentdict
end
/Helvetica-Bold exch definefont pop
/Helvetica-Oblique findfont
dup length dict begin
  {1 index /FID ne {def} {pop pop} ifelse} forall
  /Encoding WinAnsiEncoding def
  currentdict
end
/Helvetica-Oblique exch definefont pop
/Times-BoldItalic findfont
dup length dict begin
  {1 index /FID ne {def} {pop pop} ifelse} forall
  /Encoding WinAnsiEncoding def
  currentdict
end
/Times-BoldItalic exch definefont pop
/Courier findfont
dup length dict begin
  {1 index /FID ne {def} {pop pop} ifelse} forall
  /Encoding WinAnsiEncoding def
  currentdict
end
/Courier exch definefont pop
/Times-Italic findfont
dup length dict begin
  {1 index /FID ne {def} {pop pop} ifelse} forall
  /Encoding WinAnsiEncoding def
  currentdict
end
/Times-Italic exch definefont pop
/Times-Bold findfont
dup length dict begin
  {1 index /FID ne {def} {pop pop} ifelse} forall
  /Encoding WinAnsiEncoding def
  currentdict
end
/Times-Bold exch definefont pop
%FOPEndFontReencode
%%EndProlog
%%Page: 1 1
%%PageBoundingBox: 0 0 420 315
%%BeginPageSetup
[1 0 0 -1 0 315] CT
%%EndPageSetup
GS
[0.6 0 0 0.6 0 0] CT
1 GC
N
0 0 700 525 re
f
GR
GS
[0.6 0 0 0.6 0 0] CT
1 GC
N
0 0 700 525 re
f
GR
GS
[0.6 0 0 0.6 0 0] CT
1 GC
N
91 467 M
634 467 L
634 39 L
91 39 L
cp
f
GR
GS
[0.6 0 0 0.6 0 0] CT
0.149 GC
2 setlinecap
1 LJ
0.833 LW
N
91 467 M
634 467 L
S
GR
GS
[0.6 0 0 0.6 0 0] CT
0.149 GC
2 setlinecap
1 LJ
0.833 LW
N
91 467 M
91 461.57 L
S
GR
GS
[0.6 0 0 0.6 0 0] CT
0.149 GC
2 setlinecap
1 LJ
0.833 LW
N
158.875 467 M
158.875 461.57 L
S
GR
GS
[0.6 0 0 0.6 0 0] CT
0.149 GC
2 setlinecap
1 LJ
0.833 LW
N
226.75 467 M
226.75 461.57 L
S
GR
GS
[0.6 0 0 0.6 0 0] CT
0.149 GC
2 setlinecap
1 LJ
0.833 LW
N
294.625 467 M
294.625 461.57 L
S
GR
GS
[0.6 0 0 0.6 0 0] CT
0.149 GC
2 setlinecap
1 LJ
0.833 LW
N
362.5 467 M
362.5 461.57 L
S
GR
GS
[0.6 0 0 0.6 0 0] CT
0.149 GC
2 setlinecap
1 LJ
0.833 LW
N
430.375 467 M
430.375 461.57 L
S
GR
GS
[0.6 0 0 0.6 0 0] CT
0.149 GC
2 setlinecap
1 LJ
0.833 LW
N
498.25 467 M
498.25 461.57 L
S
GR
GS
[0.6 0 0 0.6 0 0] CT
0.149 GC
2 setlinecap
1 LJ
0.833 LW
N
566.125 467 M
566.125 461.57 L
S
GR
GS
[0.6 0 0 0.6 0 0] CT
0.149 GC
2 setlinecap
1 LJ
0.833 LW
N
634 467 M
634 461.57 L
S
GR
GS
[0.6 0 0 0.6 54.6 284.19999] CT
0.149 GC
/Helvetica 16.667 F
GS
[1 0 0 1 0 0] CT
-5 18 moveto 
1 -1 scale
(0) t 
GR
GR
GS
[0.6 0 0 0.6 95.325 284.19999] CT
0.149 GC
/Helvetica 16.667 F
GS
[1 0 0 1 0 0] CT
-5 18 moveto 
1 -1 scale
(2) t 
GR
GR
GS
[0.6 0 0 0.6 136.05 284.19999] CT
0.149 GC
/Helvetica 16.667 F
GS
[1 0 0 1 0 0] CT
-5 18 moveto 
1 -1 scale
(4) t 
GR
GR
GS
[0.6 0 0 0.6 176.775 284.19999] CT
0.149 GC
/Helvetica 16.667 F
GS
[1 0 0 1 0 0] CT
-5 18 moveto 
1 -1 scale
(6) t 
GR
GR
GS
[0.6 0 0 0.6 217.5 284.19999] CT
0.149 GC
/Helvetica 16.667 F
GS
[1 0 0 1 0 0] CT
-5 18 moveto 
1 -1 scale
(8) t 
GR
GR
GS
[0.6 0 0 0.6 258.225 284.19999] CT
0.149 GC
/Helvetica 16.667 F
GS
[1 0 0 1 0 0] CT
-9.5 18 moveto 
1 -1 scale
(10) t 
GR
GR
GS
[0.6 0 0 0.6 298.95 284.19999] CT
0.149 GC
/Helvetica 16.667 F
GS
[1 0 0 1 0 0] CT
-9.5 18 moveto 
1 -1 scale
(12) t 
GR
GR
GS
[0.6 0 0 0.6 339.675 284.19999] CT
0.149 GC
/Helvetica 16.667 F
GS
[1 0 0 1 0 0] CT
-9.5 18 moveto 
1 -1 scale
(14) t 
GR
GR
GS
[0.6 0 0 0.6 380.4 284.19999] CT
0.149 GC
/Helvetica 16.667 F
GS
[1 0 0 1 0 0] CT
-9.5 18 moveto 
1 -1 scale
(16) t 
GR
GR
GS
[0.6 0 0 0.6 217.50015 298.39999] CT
0.149 GC
N
-30.462 13.244 M
-30.462 8.275 L
-31.962 8.275 L
-31.962 7.806 L
-30.791 7.806 -30.236 6.705 QT
-29.681 5.603 -29.681 4.322 QT
-29.166 4.322 L
-29.166 7.634 L
-26.619 7.634 L
-26.619 8.275 L
-29.166 8.275 L
-29.166 13.197 L
-29.166 13.947 -28.916 14.509 QT
-28.666 15.072 -28.009 15.072 QT
-27.4 15.072 -27.126 14.478 QT
-26.853 13.884 -26.853 13.197 QT
-26.853 12.134 L
-26.322 12.134 L
-26.322 13.244 L
-26.322 13.806 -26.533 14.353 QT
-26.744 14.9 -27.15 15.251 QT
-27.556 15.603 -28.134 15.603 QT
-29.212 15.603 -29.837 14.955 QT
-30.462 14.306 -30.462 13.244 QT
cp
f
GR
GS
[0.6 0 0 0.6 217.50015 298.39999] CT
0.149 GC
N
-24.63 15.4 M
-24.63 14.759 L
-24.005 14.759 -23.614 14.666 QT
-23.223 14.572 -23.223 14.197 QT
-23.223 9.275 L
-23.223 8.587 -23.489 8.431 QT
-23.755 8.275 -24.536 8.275 QT
-24.536 7.634 L
-21.958 7.447 L
-21.958 14.197 L
-21.958 14.572 -21.614 14.666 QT
-21.27 14.759 -20.692 14.759 QT
-20.692 15.4 L
-24.63 15.4 L
cp
-23.864 4.353 M
-23.864 3.962 -23.559 3.658 QT
-23.255 3.353 -22.88 3.353 QT
-22.614 3.353 -22.38 3.486 QT
-22.145 3.619 -22.012 3.861 QT
-21.88 4.103 -21.88 4.353 QT
-21.88 4.744 -22.177 5.041 QT
-22.473 5.337 -22.88 5.337 QT
-23.255 5.337 -23.559 5.041 QT
-23.864 4.744 -23.864 4.353 QT
cp
f
GR
GS
[0.6 0 0 0.6 217.50015 298.39999] CT
0.149 GC
N
-19.553 15.4 M
-19.553 14.759 L
-18.928 14.759 -18.537 14.666 QT
-18.146 14.572 -18.146 14.197 QT
-18.146 9.275 L
-18.146 8.806 -18.287 8.587 QT
-18.428 8.369 -18.701 8.322 QT
-18.975 8.275 -19.553 8.275 QT
-19.553 7.634 L
-16.943 7.447 L
-16.943 9.197 L
-16.584 8.431 -15.873 7.939 QT
-15.162 7.447 -14.334 7.447 QT
-12.256 7.447 -11.896 9.134 QT
-11.537 8.384 -10.842 7.916 QT
-10.146 7.447 -9.318 7.447 QT
-8.506 7.447 -7.943 7.712 QT
-7.381 7.978 -7.1 8.517 QT
-6.818 9.056 -6.818 9.869 QT
-6.818 14.197 L
-6.818 14.572 -6.42 14.666 QT
-6.021 14.759 -5.412 14.759 QT
-5.412 15.4 L
-9.537 15.4 L
-9.537 14.759 L
-8.928 14.759 -8.529 14.666 QT
-8.131 14.572 -8.131 14.197 QT
-8.131 9.931 L
-8.131 9.025 -8.389 8.47 QT
-8.646 7.916 -9.428 7.916 QT
-10.475 7.916 -11.146 8.751 QT
-11.818 9.587 -11.818 10.65 QT
-11.818 14.197 L
-11.818 14.572 -11.428 14.666 QT
-11.037 14.759 -10.412 14.759 QT
-10.412 15.4 L
-14.537 15.4 L
-14.537 14.759 L
-13.928 14.759 -13.529 14.666 QT
-13.131 14.572 -13.131 14.197 QT
-13.131 9.931 L
-13.131 9.041 -13.389 8.478 QT
-13.646 7.916 -14.428 7.916 QT
-15.475 7.916 -16.146 8.751 QT
-16.818 9.587 -16.818 10.65 QT
-16.818 14.197 L
-16.818 14.572 -16.428 14.666 QT
-16.037 14.759 -15.428 14.759 QT
-15.428 15.4 L
-19.553 15.4 L
cp
f
GR
GS
[0.6 0 0 0.6 217.50015 298.39999] CT
0.149 GC
N
-0.322 15.603 M
-1.415 15.603 -2.337 15.025 QT
-3.259 14.447 -3.783 13.486 QT
-4.306 12.525 -4.306 11.447 QT
-4.306 10.4 -3.83 9.447 QT
-3.353 8.494 -2.494 7.916 QT
-1.634 7.337 -0.572 7.337 QT
0.241 7.337 0.858 7.611 QT
1.475 7.884 1.866 8.376 QT
2.256 8.869 2.46 9.541 QT
2.663 10.212 2.663 11.009 QT
2.663 11.244 2.475 11.244 QT
-2.728 11.244 L
-2.728 11.431 L
-2.728 12.931 -2.126 14.001 QT
-1.525 15.072 -0.165 15.072 QT
0.381 15.072 0.858 14.83 QT
1.335 14.587 1.678 14.142 QT
2.022 13.697 2.147 13.197 QT
2.163 13.134 2.21 13.087 QT
2.256 13.041 2.319 13.041 QT
2.475 13.041 L
2.663 13.041 2.663 13.275 QT
2.413 14.291 1.569 14.947 QT
0.725 15.603 -0.322 15.603 QT
cp
-2.712 10.791 M
1.397 10.791 L
1.397 10.119 1.202 9.423 QT
1.006 8.728 0.569 8.267 QT
0.131 7.806 -0.572 7.806 QT
-1.603 7.806 -2.158 8.759 QT
-2.712 9.712 -2.712 10.791 QT
cp
f
GR
GS
[0.6 0 0 0.6 217.50015 298.39999] CT
0.149 GC
N
15.031 19.869 M
14.031 19.072 13.305 18.048 QT
12.578 17.025 12.117 15.869 QT
11.656 14.712 11.43 13.447 QT
11.203 12.181 11.203 10.9 QT
11.203 9.603 11.43 8.337 QT
11.656 7.072 12.125 5.908 QT
12.594 4.744 13.328 3.72 QT
14.063 2.697 15.031 1.931 QT
15.031 1.9 15.125 1.9 QT
15.297 1.9 L
15.344 1.9 15.391 1.947 QT
15.438 1.994 15.438 2.056 QT
15.438 2.134 15.391 2.166 QT
14.516 3.041 13.93 4.025 QT
13.344 5.009 12.992 6.119 QT
12.641 7.228 12.477 8.416 QT
12.313 9.603 12.313 10.9 QT
12.313 16.619 15.375 19.587 QT
15.438 19.65 15.438 19.744 QT
15.438 19.791 15.383 19.845 QT
15.328 19.9 15.297 19.9 QT
15.125 19.9 L
15.031 19.9 15.031 19.869 QT
cp
f
GR
GS
[0.6 0 0 0.6 217.50015 298.39999] CT
0.149 GC
N
18.145 14.306 M
18.63 15.134 20.083 15.134 QT
20.723 15.134 21.294 14.916 QT
21.864 14.697 22.239 14.267 QT
22.614 13.837 22.614 13.212 QT
22.614 12.759 22.278 12.455 QT
21.942 12.15 21.458 12.056 QT
20.489 11.853 L
19.817 11.697 19.387 11.236 QT
18.958 10.775 18.958 10.119 QT
18.958 9.322 19.395 8.712 QT
19.833 8.103 20.544 7.775 QT
21.255 7.447 22.02 7.447 QT
22.833 7.447 23.481 7.837 QT
24.13 8.228 24.13 8.994 QT
24.13 9.4 23.895 9.72 QT
23.661 10.041 23.239 10.041 QT
23.005 10.041 22.833 9.884 QT
22.661 9.728 22.661 9.494 QT
22.661 9.275 22.778 9.08 QT
22.895 8.884 23.098 8.767 QT
23.302 8.65 23.505 8.65 QT
23.348 8.259 22.911 8.087 QT
22.473 7.916 21.973 7.916 QT
21.52 7.916 21.067 8.095 QT
20.614 8.275 20.333 8.634 QT
20.052 8.994 20.052 9.478 QT
20.052 9.806 20.278 10.048 QT
20.505 10.291 20.848 10.4 QT
21.895 10.603 L
22.395 10.712 22.809 10.978 QT
23.223 11.244 23.466 11.658 QT
23.708 12.072 23.708 12.603 QT
23.708 13.259 23.333 13.916 QT
22.958 14.572 22.427 14.947 QT
21.458 15.603 20.067 15.603 QT
19.114 15.603 18.317 15.166 QT
17.52 14.728 17.52 13.853 QT
17.52 13.353 17.802 12.994 QT
18.083 12.634 18.583 12.634 QT
18.864 12.634 19.067 12.806 QT
19.27 12.978 19.27 13.275 QT
19.27 13.681 18.958 13.994 QT
18.645 14.306 18.239 14.306 QT
18.145 14.306 L
cp
f
GR
GS
[0.6 0 0 0.6 217.50015 298.39999] CT
0.149 GC
N
26.348 19.9 M
26.192 19.9 26.192 19.744 QT
26.192 19.666 26.223 19.634 QT
29.302 16.619 29.302 10.9 QT
29.302 5.181 26.255 2.212 QT
26.192 2.166 26.192 2.056 QT
26.192 1.994 26.239 1.947 QT
26.286 1.9 26.348 1.9 QT
26.52 1.9 L
26.567 1.9 26.598 1.931 QT
27.895 2.947 28.755 4.408 QT
29.614 5.869 30.012 7.525 QT
30.411 9.181 30.411 10.9 QT
30.411 12.181 30.2 13.416 QT
29.989 14.65 29.52 15.845 QT
29.052 17.041 28.325 18.056 QT
27.598 19.072 26.598 19.869 QT
26.567 19.9 26.52 19.9 QT
26.348 19.9 L
cp
f
GR
GS
[0.6 0 0 0.6 0 0] CT
0.149 GC
2 setlinecap
1 LJ
0.833 LW
N
91 467 M
91 39 L
S
GR
GS
[0.6 0 0 0.6 0 0] CT
0.149 GC
2 setlinecap
1 LJ
0.833 LW
N
91 467 M
96.43 467 L
S
GR
GS
[0.6 0 0 0.6 0 0] CT
0.149 GC
2 setlinecap
1 LJ
0.833 LW
N
91 424.2 M
96.43 424.2 L
S
GR
GS
[0.6 0 0 0.6 0 0] CT
0.149 GC
2 setlinecap
1 LJ
0.833 LW
N
91 381.4 M
96.43 381.4 L
S
GR
GS
[0.6 0 0 0.6 0 0] CT
0.149 GC
2 setlinecap
1 LJ
0.833 LW
N
91 338.6 M
96.43 338.6 L
S
GR
GS
[0.6 0 0 0.6 0 0] CT
0.149 GC
2 setlinecap
1 LJ
0.833 LW
N
91 295.8 M
96.43 295.8 L
S
GR
GS
[0.6 0 0 0.6 0 0] CT
0.149 GC
2 setlinecap
1 LJ
0.833 LW
N
91 253 M
96.43 253 L
S
GR
GS
[0.6 0 0 0.6 0 0] CT
0.149 GC
2 setlinecap
1 LJ
0.833 LW
N
91 210.2 M
96.43 210.2 L
S
GR
GS
[0.6 0 0 0.6 0 0] CT
0.149 GC
2 setlinecap
1 LJ
0.833 LW
N
91 167.4 M
96.43 167.4 L
S
GR
GS
[0.6 0 0 0.6 0 0] CT
0.149 GC
2 setlinecap
1 LJ
0.833 LW
N
91 124.6 M
96.43 124.6 L
S
GR
GS
[0.6 0 0 0.6 0 0] CT
0.149 GC
2 setlinecap
1 LJ
0.833 LW
N
91 81.8 M
96.43 81.8 L
S
GR
GS
[0.6 0 0 0.6 0 0] CT
0.149 GC
2 setlinecap
1 LJ
0.833 LW
N
91 39 M
96.43 39 L
S
GR
GS
[0.6 0 0 0.6 50.6 280.2] CT
0.149 GC
/Helvetica 16.667 F
GS
[1 0 0 1 0 0] CT
-16 7 moveto 
1 -1 scale
(-1) t 
GR
GR
GS
[0.6 0 0 0.6 50.6 254.52001] CT
0.149 GC
/Helvetica 16.667 F
GS
[1 0 0 1 0 0] CT
-30 7 moveto 
1 -1 scale
(-0.8) t 
GR
GR
GS
[0.6 0 0 0.6 50.6 228.84] CT
0.149 GC
/Helvetica 16.667 F
GS
[1 0 0 1 0 0] CT
-30 7 moveto 
1 -1 scale
(-0.6) t 
GR
GR
GS
[0.6 0 0 0.6 50.6 203.16] CT
0.149 GC
/Helvetica 16.667 F
GS
[1 0 0 1 0 0] CT
-30 7 moveto 
1 -1 scale
(-0.4) t 
GR
GR
GS
[0.6 0 0 0.6 50.6 177.47999] CT
0.149 GC
/Helvetica 16.667 F
GS
[1 0 0 1 0 0] CT
-30 7 moveto 
1 -1 scale
(-0.2) t 
GR
GR
GS
[0.6 0 0 0.6 50.6 151.8] CT
0.149 GC
/Helvetica 16.667 F
GS
[1 0 0 1 0 0] CT
-10 7 moveto 
1 -1 scale
(0) t 
GR
GR
GS
[0.6 0 0 0.6 50.6 126.12] CT
0.149 GC
/Helvetica 16.667 F
GS
[1 0 0 1 0 0] CT
-24 7 moveto 
1 -1 scale
(0.2) t 
GR
GR
GS
[0.6 0 0 0.6 50.6 100.44] CT
0.149 GC
/Helvetica 16.667 F
GS
[1 0 0 1 0 0] CT
-24 7 moveto 
1 -1 scale
(0.4) t 
GR
GR
GS
[0.6 0 0 0.6 50.6 74.76] CT
0.149 GC
/Helvetica 16.667 F
GS
[1 0 0 1 0 0] CT
-24 7 moveto 
1 -1 scale
(0.6) t 
GR
GR
GS
[0.6 0 0 0.6 50.6 49.08] CT
0.149 GC
/Helvetica 16.667 F
GS
[1 0 0 1 0 0] CT
-24 7 moveto 
1 -1 scale
(0.8) t 
GR
GR
GS
[0.6 0 0 0.6 50.6 23.4] CT
0.149 GC
/Helvetica 16.667 F
GS
[1 0 0 1 0 0] CT
-10 7 moveto 
1 -1 scale
(1) t 
GR
GR
GS
[0 -0.6 0.6 0 29.6 151.79988] CT
0.149 GC
N
-40.941 -6.397 M
-41.769 -6.397 -42.261 -6.999 QT
-42.754 -7.6 -42.941 -8.444 QT
-43.129 -9.288 -43.129 -10.1 QT
-43.129 -10.131 L
-43.129 -11.022 -42.957 -11.991 QT
-42.785 -12.959 -42.457 -13.92 QT
-42.129 -14.881 -41.754 -15.631 QT
-41.488 -16.163 -41.074 -16.811 QT
-40.66 -17.459 -40.144 -18.03 QT
-39.629 -18.6 -39.035 -18.944 QT
-38.441 -19.288 -37.832 -19.288 QT
-37.816 -19.288 L
-37.16 -19.288 -36.73 -18.928 QT
-36.3 -18.569 -36.058 -18.006 QT
-35.816 -17.444 -35.714 -16.803 QT
-35.613 -16.163 -35.613 -15.584 QT
-35.613 -14.225 -35.988 -12.803 QT
-36.363 -11.381 -37.004 -10.053 QT
-37.254 -9.553 -37.691 -8.874 QT
-38.129 -8.194 -38.613 -7.663 QT
-39.097 -7.131 -39.707 -6.764 QT
-40.316 -6.397 -40.925 -6.397 QT
-40.941 -6.397 L
cp
-40.91 -6.866 M
-40.316 -6.866 -39.769 -7.506 QT
-39.222 -8.147 -38.808 -9.053 QT
-38.394 -9.959 -38.082 -10.92 QT
-37.769 -11.881 -37.613 -12.538 QT
-41.285 -12.538 L
-41.566 -11.413 -41.73 -10.592 QT
-41.894 -9.772 -41.894 -8.975 QT
-41.894 -6.866 -40.91 -6.866 QT
cp
-41.144 -13.178 M
-37.457 -13.178 L
-37.269 -13.959 -37.152 -14.491 QT
-37.035 -15.022 -36.957 -15.616 QT
-36.879 -16.209 -36.879 -16.709 QT
-36.879 -18.819 -37.832 -18.819 QT
-38.972 -18.819 -39.808 -16.983 QT
-40.644 -15.147 -41.144 -13.178 QT
cp
f
GR
GS
[0 -0.6 0.6 0 29.6 151.79988] CT
0.149 GC
N
-23.042 -2.131 M
-24.042 -2.928 -24.769 -3.952 QT
-25.495 -4.975 -25.956 -6.131 QT
-26.417 -7.288 -26.644 -8.553 QT
-26.87 -9.819 -26.87 -11.1 QT
-26.87 -12.397 -26.644 -13.663 QT
-26.417 -14.928 -25.949 -16.092 QT
-25.48 -17.256 -24.745 -18.28 QT
-24.011 -19.303 -23.042 -20.069 QT
-23.042 -20.1 -22.949 -20.1 QT
-22.777 -20.1 L
-22.73 -20.1 -22.683 -20.053 QT
-22.636 -20.006 -22.636 -19.944 QT
-22.636 -19.866 -22.683 -19.834 QT
-23.558 -18.959 -24.144 -17.975 QT
-24.73 -16.991 -25.081 -15.881 QT
-25.433 -14.772 -25.597 -13.584 QT
-25.761 -12.397 -25.761 -11.1 QT
-25.761 -5.381 -22.699 -2.413 QT
-22.636 -2.35 -22.636 -2.256 QT
-22.636 -2.209 -22.691 -2.155 QT
-22.745 -2.1 -22.777 -2.1 QT
-22.949 -2.1 L
-23.042 -2.1 -23.042 -2.131 QT
cp
f
GR
GS
[0 -0.6 0.6 0 29.6 151.79988] CT
0.149 GC
N
-17.1 -6.397 M
-18.163 -6.397 -19.038 -6.975 QT
-19.913 -7.553 -20.405 -8.491 QT
-20.897 -9.428 -20.897 -10.491 QT
-20.897 -11.569 -20.366 -12.506 QT
-19.835 -13.444 -18.92 -13.999 QT
-18.006 -14.553 -16.897 -14.553 QT
-16.241 -14.553 -15.655 -14.28 QT
-15.069 -14.006 -14.631 -13.506 QT
-14.631 -17.256 L
-14.631 -17.741 -14.78 -17.952 QT
-14.928 -18.163 -15.194 -18.209 QT
-15.46 -18.256 -16.038 -18.256 QT
-16.038 -18.897 L
-13.366 -19.084 L
-13.366 -8.241 L
-13.366 -7.756 -13.225 -7.545 QT
-13.085 -7.334 -12.811 -7.288 QT
-12.538 -7.241 -11.975 -7.241 QT
-11.975 -6.6 L
-14.694 -6.397 L
-14.694 -7.538 L
-15.147 -6.991 -15.795 -6.694 QT
-16.444 -6.397 -17.1 -6.397 QT
cp
-18.928 -8.163 M
-18.631 -7.569 -18.116 -7.217 QT
-17.6 -6.866 -16.991 -6.866 QT
-16.241 -6.866 -15.616 -7.303 QT
-14.991 -7.741 -14.694 -8.413 QT
-14.694 -12.741 L
-14.897 -13.131 -15.217 -13.444 QT
-15.538 -13.756 -15.936 -13.92 QT
-16.335 -14.084 -16.788 -14.084 QT
-17.725 -14.084 -18.295 -13.553 QT
-18.866 -13.022 -19.1 -12.194 QT
-19.335 -11.366 -19.335 -10.475 QT
-19.335 -9.741 -19.256 -9.209 QT
-19.178 -8.678 -18.928 -8.163 QT
cp
f
GR
GS
[0 -0.6 0.6 0 29.6 151.79988] CT
0.149 GC
N
-6.821 -6.397 M
-7.915 -6.397 -8.837 -6.975 QT
-9.759 -7.553 -10.282 -8.514 QT
-10.806 -9.475 -10.806 -10.553 QT
-10.806 -11.6 -10.329 -12.553 QT
-9.852 -13.506 -8.993 -14.084 QT
-8.134 -14.663 -7.071 -14.663 QT
-6.259 -14.663 -5.641 -14.389 QT
-5.024 -14.116 -4.634 -13.624 QT
-4.243 -13.131 -4.04 -12.459 QT
-3.837 -11.788 -3.837 -10.991 QT
-3.837 -10.756 -4.024 -10.756 QT
-9.227 -10.756 L
-9.227 -10.569 L
-9.227 -9.069 -8.626 -7.999 QT
-8.024 -6.928 -6.665 -6.928 QT
-6.118 -6.928 -5.641 -7.17 QT
-5.165 -7.413 -4.821 -7.858 QT
-4.477 -8.303 -4.352 -8.803 QT
-4.337 -8.866 -4.29 -8.913 QT
-4.243 -8.959 -4.181 -8.959 QT
-4.024 -8.959 L
-3.837 -8.959 -3.837 -8.725 QT
-4.087 -7.709 -4.931 -7.053 QT
-5.774 -6.397 -6.821 -6.397 QT
cp
-9.212 -11.209 M
-5.102 -11.209 L
-5.102 -11.881 -5.298 -12.577 QT
-5.493 -13.272 -5.931 -13.733 QT
-6.368 -14.194 -7.071 -14.194 QT
-8.102 -14.194 -8.657 -13.241 QT
-9.212 -12.288 -9.212 -11.209 QT
cp
f
GR
GS
[0 -0.6 0.6 0 29.6 151.79988] CT
0.149 GC
N
-2.657 -5.194 M
-2.657 -5.834 -2.189 -6.311 QT
-1.72 -6.788 -1.079 -6.991 QT
-1.439 -7.272 -1.626 -7.686 QT
-1.814 -8.1 -1.814 -8.553 QT
-1.814 -9.397 -1.282 -10.053 QT
-2.111 -10.866 -2.111 -11.913 QT
-2.111 -12.475 -1.868 -12.967 QT
-1.626 -13.459 -1.196 -13.819 QT
-0.767 -14.178 -0.236 -14.366 QT
0.296 -14.553 0.843 -14.553 QT
1.921 -14.553 2.764 -13.928 QT
3.139 -14.319 3.639 -14.538 QT
4.139 -14.756 4.686 -14.756 QT
5.077 -14.756 5.327 -14.483 QT
5.577 -14.209 5.577 -13.819 QT
5.577 -13.6 5.405 -13.428 QT
5.233 -13.256 5.014 -13.256 QT
4.796 -13.256 4.624 -13.428 QT
4.452 -13.6 4.452 -13.819 QT
4.452 -14.147 4.671 -14.288 QT
3.749 -14.288 3.077 -13.647 QT
3.405 -13.319 3.6 -12.85 QT
3.796 -12.381 3.796 -11.913 QT
3.796 -11.147 3.374 -10.538 QT
2.952 -9.928 2.264 -9.584 QT
1.577 -9.241 0.843 -9.241 QT
-0.142 -9.241 -0.954 -9.788 QT
-1.22 -9.428 -1.22 -8.991 QT
-1.22 -8.522 -0.907 -8.163 QT
-0.595 -7.803 -0.111 -7.803 QT
1.358 -7.803 L
2.436 -7.803 3.296 -7.608 QT
4.155 -7.413 4.741 -6.834 QT
5.327 -6.256 5.327 -5.194 QT
5.327 -4.397 4.655 -3.874 QT
3.983 -3.35 3.061 -3.124 QT
2.139 -2.897 1.343 -2.897 QT
0.546 -2.897 -0.384 -3.124 QT
-1.314 -3.35 -1.986 -3.874 QT
-2.657 -4.397 -2.657 -5.194 QT
cp
-1.642 -5.194 M
-1.642 -4.584 -1.15 -4.178 QT
-0.657 -3.772 0.038 -3.577 QT
0.733 -3.381 1.343 -3.381 QT
1.952 -3.381 2.647 -3.577 QT
3.343 -3.772 3.827 -4.178 QT
4.311 -4.584 4.311 -5.194 QT
4.311 -6.131 3.452 -6.413 QT
2.593 -6.694 1.358 -6.694 QT
-0.111 -6.694 L
-0.532 -6.694 -0.876 -6.491 QT
-1.22 -6.288 -1.431 -5.936 QT
-1.642 -5.584 -1.642 -5.194 QT
cp
0.843 -9.725 M
2.374 -9.725 2.374 -11.913 QT
2.374 -12.85 2.046 -13.459 QT
1.718 -14.069 0.843 -14.069 QT
-0.032 -14.069 -0.361 -13.459 QT
-0.689 -12.85 -0.689 -11.913 QT
-0.689 -11.319 -0.564 -10.834 QT
-0.439 -10.35 -0.103 -10.038 QT
0.233 -9.725 0.843 -9.725 QT
cp
f
GR
GS
[0 -0.6 0.6 0 29.6 151.79988] CT
0.149 GC
N
6.478 -6.6 M
6.478 -7.241 L
7.087 -7.241 7.486 -7.334 QT
7.884 -7.428 7.884 -7.803 QT
7.884 -12.725 L
7.884 -13.194 7.736 -13.413 QT
7.587 -13.631 7.314 -13.678 QT
7.041 -13.725 6.478 -13.725 QT
6.478 -14.366 L
9.056 -14.553 L
9.056 -12.803 L
9.337 -13.584 9.876 -14.069 QT
10.416 -14.553 11.181 -14.553 QT
11.712 -14.553 12.134 -14.241 QT
12.556 -13.928 12.556 -13.397 QT
12.556 -13.084 12.322 -12.842 QT
12.087 -12.6 11.744 -12.6 QT
11.416 -12.6 11.181 -12.834 QT
10.947 -13.069 10.947 -13.397 QT
10.947 -13.881 11.291 -14.084 QT
11.181 -14.084 L
10.447 -14.084 9.986 -13.561 QT
9.525 -13.038 9.33 -12.256 QT
9.134 -11.475 9.134 -10.756 QT
9.134 -7.803 L
9.134 -7.241 10.884 -7.241 QT
10.884 -6.6 L
6.478 -6.6 L
cp
f
GR
GS
[0 -0.6 0.6 0 29.6 151.79988] CT
0.149 GC
N
17.674 -6.397 M
16.58 -6.397 15.659 -6.975 QT
14.737 -7.553 14.213 -8.514 QT
13.69 -9.475 13.69 -10.553 QT
13.69 -11.6 14.166 -12.553 QT
14.643 -13.506 15.502 -14.084 QT
16.362 -14.663 17.424 -14.663 QT
18.237 -14.663 18.854 -14.389 QT
19.471 -14.116 19.862 -13.624 QT
20.252 -13.131 20.455 -12.459 QT
20.659 -11.788 20.659 -10.991 QT
20.659 -10.756 20.471 -10.756 QT
15.268 -10.756 L
15.268 -10.569 L
15.268 -9.069 15.87 -7.999 QT
16.471 -6.928 17.83 -6.928 QT
18.377 -6.928 18.854 -7.17 QT
19.33 -7.413 19.674 -7.858 QT
20.018 -8.303 20.143 -8.803 QT
20.159 -8.866 20.205 -8.913 QT
20.252 -8.959 20.315 -8.959 QT
20.471 -8.959 L
20.659 -8.959 20.659 -8.725 QT
20.409 -7.709 19.565 -7.053 QT
18.721 -6.397 17.674 -6.397 QT
cp
15.284 -11.209 M
19.393 -11.209 L
19.393 -11.881 19.198 -12.577 QT
19.002 -13.272 18.565 -13.733 QT
18.127 -14.194 17.424 -14.194 QT
16.393 -14.194 15.838 -13.241 QT
15.284 -12.288 15.284 -11.209 QT
cp
f
GR
GS
[0 -0.6 0.6 0 29.6 151.79988] CT
0.149 GC
N
25.822 -6.397 M
24.729 -6.397 23.807 -6.975 QT
22.885 -7.553 22.361 -8.514 QT
21.838 -9.475 21.838 -10.553 QT
21.838 -11.6 22.315 -12.553 QT
22.791 -13.506 23.651 -14.084 QT
24.51 -14.663 25.572 -14.663 QT
26.385 -14.663 27.002 -14.389 QT
27.619 -14.116 28.01 -13.624 QT
28.401 -13.131 28.604 -12.459 QT
28.807 -11.788 28.807 -10.991 QT
28.807 -10.756 28.619 -10.756 QT
23.416 -10.756 L
23.416 -10.569 L
23.416 -9.069 24.018 -7.999 QT
24.619 -6.928 25.979 -6.928 QT
26.526 -6.928 27.002 -7.17 QT
27.479 -7.413 27.822 -7.858 QT
28.166 -8.303 28.291 -8.803 QT
28.307 -8.866 28.354 -8.913 QT
28.401 -8.959 28.463 -8.959 QT
28.619 -8.959 L
28.807 -8.959 28.807 -8.725 QT
28.557 -7.709 27.713 -7.053 QT
26.869 -6.397 25.822 -6.397 QT
cp
23.432 -11.209 M
27.541 -11.209 L
27.541 -11.881 27.346 -12.577 QT
27.151 -13.272 26.713 -13.733 QT
26.276 -14.194 25.572 -14.194 QT
24.541 -14.194 23.986 -13.241 QT
23.432 -12.288 23.432 -11.209 QT
cp
f
GR
GS
[0 -0.6 0.6 0 29.6 151.79988] CT
0.149 GC
N
30.08 -6.553 M
30.08 -9.491 L
30.08 -9.631 30.236 -9.631 QT
30.455 -9.631 L
30.564 -9.631 30.596 -9.491 QT
31.111 -6.866 33.033 -6.866 QT
33.877 -6.866 34.455 -7.256 QT
35.033 -7.647 35.033 -8.459 QT
35.033 -9.038 34.588 -9.444 QT
34.142 -9.85 33.517 -10.006 QT
32.314 -10.241 L
31.705 -10.366 31.213 -10.639 QT
30.721 -10.913 30.4 -11.366 QT
30.08 -11.819 30.08 -12.413 QT
30.08 -13.209 30.502 -13.717 QT
30.924 -14.225 31.588 -14.444 QT
32.252 -14.663 33.033 -14.663 QT
33.955 -14.663 34.642 -14.178 QT
35.158 -14.631 L
35.158 -14.663 35.236 -14.663 QT
35.377 -14.663 L
35.424 -14.663 35.471 -14.616 QT
35.517 -14.569 35.517 -14.522 QT
35.517 -12.163 L
35.517 -11.991 35.377 -11.991 QT
35.158 -11.991 L
35.002 -11.991 35.002 -12.163 QT
35.002 -13.1 34.478 -13.67 QT
33.955 -14.241 33.017 -14.241 QT
32.205 -14.241 31.611 -13.944 QT
31.017 -13.647 31.017 -12.913 QT
31.017 -12.413 31.439 -12.092 QT
31.861 -11.772 32.439 -11.631 QT
33.658 -11.413 L
34.283 -11.272 34.814 -10.936 QT
35.346 -10.6 35.658 -10.092 QT
35.971 -9.584 35.971 -8.944 QT
35.971 -8.288 35.744 -7.811 QT
35.517 -7.334 35.119 -7.014 QT
34.721 -6.694 34.174 -6.545 QT
33.627 -6.397 33.033 -6.397 QT
31.908 -6.397 31.111 -7.147 QT
30.439 -6.444 L
30.439 -6.397 30.346 -6.397 QT
30.236 -6.397 L
30.08 -6.397 30.08 -6.553 QT
cp
f
GR
GS
[0 -0.6 0.6 0 29.6 151.79988] CT
0.149 GC
N
37.89 -2.1 M
37.733 -2.1 37.733 -2.256 QT
37.733 -2.334 37.765 -2.366 QT
40.843 -5.381 40.843 -11.1 QT
40.843 -16.819 37.796 -19.788 QT
37.733 -19.834 37.733 -19.944 QT
37.733 -20.006 37.78 -20.053 QT
37.827 -20.1 37.89 -20.1 QT
38.061 -20.1 L
38.108 -20.1 38.14 -20.069 QT
39.436 -19.053 40.296 -17.592 QT
41.155 -16.131 41.554 -14.475 QT
41.952 -12.819 41.952 -11.1 QT
41.952 -9.819 41.741 -8.584 QT
41.53 -7.35 41.061 -6.155 QT
40.593 -4.959 39.866 -3.944 QT
39.14 -2.928 38.14 -2.131 QT
38.108 -2.1 38.061 -2.1 QT
37.89 -2.1 L
cp
f
GR
GS
[0.6 0 0 0.6 0 0] CT
0 0.447 0.741 RC
1 LJ
3.333 LW
N
91 309.848 M
91.17 309.848 L
91.339 309.848 L
91.509 309.848 L
91.679 309.848 L
91.848 309.848 L
92.018 309.848 L
92.188 309.848 L
92.357 309.848 L
92.527 309.848 L
92.697 309.848 L
92.867 309.848 L
93.036 309.848 L
93.206 309.848 L
93.376 309.848 L
93.545 309.848 L
93.715 309.848 L
93.885 309.848 L
94.054 309.848 L
94.224 309.848 L
94.394 309.848 L
94.563 309.848 L
94.733 309.848 L
94.903 309.848 L
95.073 309.848 L
95.242 309.848 L
95.412 309.848 L
95.582 309.848 L
95.751 309.848 L
95.921 309.848 L
96.091 309.848 L
96.26 309.848 L
96.43 309.848 L
96.6 309.848 L
96.769 309.848 L
96.939 309.848 L
97.109 310.467 L
97.278 310.467 L
97.448 310.467 L
97.618 310.467 L
97.787 310.467 L
97.957 310.467 L
98.127 310.467 L
98.297 310.467 L
98.466 310.467 L
98.636 310.467 L
98.806 310.157 L
98.975 310.157 L
99.145 310.157 L
99.315 310.157 L
99.484 310.157 L
99.654 310.157 L
99.824 310.157 L
99.993 310.157 L
100.163 310.157 L
100.333 310.157 L
100.503 309.538 L
100.672 309.538 L
100.842 309.538 L
101.012 309.538 L
101.181 309.538 L
101.351 309.538 L
101.521 309.538 L
101.69 309.538 L
101.86 309.538 L
102.03 309.538 L
102.199 310.157 L
102.369 310.157 L
102.539 310.157 L
102.708 310.157 L
102.878 310.157 L
103.048 310.157 L
103.217 310.157 L
103.387 310.157 L
103.557 310.157 L
103.727 310.157 L
103.896 309.229 L
104.066 309.229 L
104.236 309.229 L
104.405 309.229 L
104.575 309.229 L
104.745 309.229 L
104.914 309.229 L
105.084 309.229 L
105.254 309.229 L
105.423 309.229 L
105.593 310.157 L
105.763 310.157 L
105.933 310.157 L
106.102 310.157 L
106.272 310.157 L
106.442 310.157 L
106.611 310.157 L
106.781 310.157 L
106.951 310.157 L
107.12 310.157 L
107.29 309.848 L
107.46 309.848 L
107.629 309.848 L
107.799 309.848 L
107.969 309.848 L
108.138 309.848 L
108.308 309.848 L
108.478 309.848 L
108.647 309.848 L
108.817 309.848 L
108.987 309.848 L
109.157 309.848 L
109.326 309.848 L
109.496 309.848 L
109.666 309.848 L
109.835 309.848 L
110.005 309.848 L
110.175 309.848 L
110.344 309.848 L
110.514 309.848 L
110.684 309.848 L
110.853 309.848 L
111.023 309.848 L
111.193 309.848 L
111.363 309.848 L
111.532 309.848 L
111.702 309.848 L
111.872 309.848 L
112.041 309.848 L
112.211 309.848 L
112.381 310.467 L
112.55 310.467 L
112.72 310.467 L
112.89 310.467 L
113.059 310.467 L
113.229 310.467 L
113.399 310.467 L
113.568 310.467 L
113.738 310.467 L
113.908 310.467 L
114.077 310.157 L
114.247 310.157 L
114.417 310.157 L
114.587 310.157 L
114.756 310.157 L
114.926 310.157 L
115.096 310.157 L
115.265 310.157 L
115.435 310.157 L
115.605 310.157 L
115.774 309.848 L
115.944 309.848 L
116.114 309.848 L
116.283 309.848 L
116.453 309.848 L
116.623 309.848 L
116.793 309.848 L
116.962 309.848 L
117.132 309.848 L
117.302 309.848 L
117.471 309.848 L
117.641 309.848 L
117.811 309.848 L
117.98 309.848 L
118.15 309.848 L
118.32 309.848 L
118.489 309.848 L
118.659 309.848 L
118.829 309.848 L
118.998 309.848 L
119.168 309.848 L
119.338 309.848 L
119.507 309.848 L
119.677 309.848 L
119.847 309.848 L
120.017 309.848 L
120.186 309.848 L
120.356 309.848 L
120.526 309.848 L
120.695 309.848 L
120.865 309.538 L
121.035 309.538 L
121.204 309.538 L
121.374 309.538 L
121.544 309.538 L
121.713 309.538 L
121.883 309.538 L
122.053 309.538 L
122.223 309.538 L
122.392 309.538 L
122.562 309.848 L
122.732 309.848 L
122.901 309.848 L
123.071 309.848 L
123.241 309.848 L
123.41 309.848 L
123.58 309.848 L
123.75 309.848 L
123.919 309.848 L
124.089 309.848 L
124.259 309.538 L
124.428 309.538 L
124.598 309.538 L
124.768 309.538 L
124.938 309.538 L
125.107 309.538 L
125.277 309.538 L
125.447 309.538 L
125.616 309.538 L
125.786 309.538 L
125.956 309.848 L
126.125 309.848 L
126.295 309.848 L
126.465 309.848 L
126.634 309.848 L
126.804 309.848 L
126.974 309.848 L
127.143 309.848 L
127.313 309.848 L
127.483 309.848 L
127.653 309.538 L
127.822 309.538 L
127.992 309.538 L
128.162 309.538 L
128.331 309.538 L
128.501 309.538 L
128.671 309.538 L
128.84 309.538 L
129.01 309.538 L
129.18 309.538 L
129.349 309.848 L
129.519 309.848 L
129.689 309.848 L
129.858 309.848 L
130.028 309.848 L
130.198 309.848 L
130.367 309.848 L
130.537 309.848 L
130.707 309.848 L
130.877 309.848 L
131.046 310.467 L
131.216 310.467 L
131.386 310.467 L
131.555 310.467 L
131.725 310.467 L
131.895 310.467 L
132.064 310.467 L
132.234 310.467 L
132.404 310.467 L
132.573 310.467 L
132.743 309.848 L
132.913 309.848 L
133.083 309.848 L
133.252 309.848 L
133.422 309.848 L
133.592 309.848 L
133.761 309.848 L
133.931 309.848 L
134.101 309.848 L
134.27 309.848 L
134.44 309.848 L
134.61 309.848 L
134.779 309.848 L
134.949 309.848 L
135.119 309.848 L
135.288 309.848 L
135.458 309.848 L
135.628 309.848 L
135.798 309.848 L
135.967 309.848 L
136.137 310.157 L
136.307 310.157 L
136.476 310.157 L
136.646 310.157 L
136.816 310.157 L
136.985 310.157 L
137.155 310.157 L
137.325 310.157 L
137.494 310.157 L
137.664 310.157 L
137.834 310.157 L
138.003 310.157 L
138.173 310.157 L
138.343 310.157 L
138.512 310.157 L
138.682 310.157 L
138.852 310.157 L
139.022 310.157 L
139.191 310.157 L
139.361 310.157 L
139.531 309.538 L
139.7 309.538 L
139.87 309.538 L
140.04 309.538 L
140.209 309.538 L
140.379 309.538 L
140.549 309.538 L
140.718 309.538 L
140.888 309.538 L
141.058 309.538 L
141.227 309.229 L
141.397 309.229 L
141.567 309.229 L
141.737 309.229 L
141.906 309.229 L
142.076 309.229 L
142.246 309.229 L
142.415 309.229 L
142.585 309.229 L
142.755 309.229 L
142.924 309.848 L
143.094 309.848 L
143.264 309.848 L
143.433 309.848 L
143.603 309.848 L
143.773 309.848 L
143.943 309.848 L
144.112 309.848 L
144.282 309.848 L
144.452 309.848 L
144.621 309.229 L
144.791 309.229 L
144.961 309.229 L
145.13 309.229 L
145.3 309.229 L
145.47 309.229 L
145.639 309.229 L
145.809 309.229 L
145.979 309.229 L
146.148 309.229 L
146.318 309.848 L
146.488 309.848 L
146.658 309.848 L
146.827 309.848 L
146.997 309.848 L
147.167 309.848 L
147.336 309.848 L
147.506 309.848 L
147.676 309.848 L
147.845 309.848 L
148.015 308.301 L
148.185 308.301 L
148.354 308.301 L
148.524 308.301 L
148.694 308.301 L
148.863 308.301 L
149.033 308.301 L
149.203 308.301 L
149.372 308.301 L
149.542 308.301 L
149.712 309.229 L
149.882 309.229 L
150.051 309.229 L
150.221 309.229 L
150.391 309.229 L
150.56 309.229 L
150.73 309.229 L
150.9 309.229 L
151.069 309.229 L
151.239 309.229 L
151.409 309.538 L
151.578 309.538 L
151.748 309.538 L
151.918 309.538 L
152.087 309.538 L
152.257 309.538 L
152.427 309.538 L
152.597 309.538 L
152.766 309.538 L
152.936 309.538 L
153.106 309.848 L
153.275 309.848 L
153.445 309.848 L
153.615 309.848 L
153.784 309.848 L
153.954 309.848 L
154.124 309.848 L
154.293 309.848 L
154.463 309.848 L
154.633 309.848 L
154.803 308.92 L
154.972 308.92 L
155.142 308.92 L
155.312 308.92 L
155.481 308.92 L
155.651 308.92 L
155.821 308.92 L
155.99 308.92 L
156.16 308.92 L
156.33 308.92 L
156.499 309.848 L
156.669 309.848 L
156.839 309.848 L
157.008 309.848 L
157.178 309.848 L
157.348 309.848 L
157.518 309.848 L
157.687 309.848 L
157.857 309.848 L
158.027 309.848 L
158.196 309.229 L
158.366 309.229 L
158.536 309.229 L
158.705 309.229 L
158.875 309.229 L
159.045 309.229 L
159.214 309.229 L
159.384 309.229 L
159.554 309.229 L
159.723 309.229 L
159.893 309.848 L
160.063 309.848 L
160.232 309.848 L
160.402 309.848 L
160.572 309.848 L
160.742 309.848 L
160.911 309.848 L
161.081 309.848 L
161.251 309.848 L
161.42 309.848 L
161.59 309.848 L
161.76 309.848 L
161.929 309.848 L
162.099 309.848 L
162.269 309.848 L
162.438 309.848 L
162.608 309.848 L
162.778 309.848 L
162.947 309.848 L
163.117 309.848 L
163.287 309.229 L
163.457 309.229 L
163.626 309.229 L
163.796 309.229 L
163.966 309.229 L
164.135 309.229 L
164.305 309.229 L
164.475 309.229 L
164.644 309.229 L
164.814 309.229 L
164.984 309.538 L
165.153 309.538 L
165.323 309.538 L
165.493 309.538 L
165.663 309.538 L
165.832 309.538 L
166.002 309.538 L
166.172 309.538 L
166.341 309.538 L
166.511 309.538 L
166.681 309.848 L
166.85 309.848 L
167.02 309.848 L
167.19 309.848 L
167.359 309.848 L
167.529 309.848 L
167.699 309.848 L
167.868 309.848 L
168.038 309.848 L
168.208 309.848 L
168.378 309.229 L
168.547 309.229 L
168.717 309.229 L
168.887 309.229 L
169.056 309.229 L
169.226 309.229 L
169.396 309.229 L
169.565 309.229 L
169.735 309.229 L
169.905 309.229 L
170.074 309.848 L
170.244 309.848 L
170.414 309.848 L
170.583 309.848 L
170.753 309.848 L
170.923 309.848 L
171.092 309.848 L
171.262 309.848 L
171.432 309.848 L
171.602 309.848 L
171.771 308.92 L
171.941 308.92 L
172.111 308.92 L
172.28 308.92 L
172.45 308.92 L
172.62 308.92 L
172.789 308.92 L
172.959 308.92 L
173.129 308.92 L
173.298 308.92 L
173.468 309.229 L
173.638 309.229 L
173.807 309.229 L
173.977 309.229 L
174.147 309.229 L
174.317 309.229 L
174.486 309.229 L
174.656 309.229 L
174.826 309.229 L
174.995 309.229 L
175.165 308.92 L
175.335 308.92 L
175.504 308.92 L
175.674 308.92 L
175.844 308.92 L
176.013 308.92 L
176.183 308.92 L
176.353 308.92 L
176.523 308.92 L
176.692 308.92 L
176.862 309.229 L
177.032 309.229 L
177.201 309.229 L
177.371 309.229 L
177.541 309.229 L
177.71 309.229 L
177.88 309.229 L
178.05 309.229 L
178.219 309.229 L
178.389 309.229 L
178.559 308.61 L
178.728 308.61 L
178.898 308.61 L
179.068 308.61 L
179.238 308.61 L
179.407 308.61 L
179.577 308.61 L
179.747 308.61 L
179.916 308.61 L
180.086 308.61 L
180.256 309.229 L
180.425 309.229 L
180.595 309.229 L
180.765 309.229 L
180.934 309.229 L
181.104 309.229 L
181.274 309.229 L
181.443 309.229 L
181.613 309.229 L
181.783 309.229 L
181.952 308.92 L
182.122 308.92 L
182.292 308.92 L
182.462 308.92 L
182.631 308.92 L
182.801 308.92 L
182.971 308.92 L
183.14 308.92 L
183.31 308.92 L
183.48 308.92 L
183.649 309.229 L
183.819 309.229 L
183.989 309.229 L
184.158 309.229 L
184.328 309.229 L
184.498 309.229 L
184.667 309.229 L
184.837 309.229 L
185.007 309.229 L
185.177 309.229 L
185.346 308.301 L
185.516 308.301 L
185.686 308.301 L
185.855 308.301 L
186.025 308.301 L
186.195 308.301 L
186.364 308.301 L
186.534 308.301 L
186.704 308.301 L
186.873 308.301 L
187.043 309.229 L
187.213 309.229 L
187.382 309.229 L
187.552 309.229 L
187.722 309.229 L
187.892 309.229 L
188.061 309.229 L
188.231 309.229 L
188.401 309.229 L
188.57 309.229 L
188.74 308.92 L
188.91 308.92 L
189.079 308.92 L
189.249 308.92 L
189.419 308.92 L
189.588 308.92 L
189.758 308.92 L
189.928 308.92 L
190.098 308.92 L
190.267 308.92 L
190.437 309.229 L
190.607 309.229 L
190.776 309.229 L
190.946 309.229 L
191.116 309.229 L
191.285 309.229 L
191.455 309.229 L
191.625 309.229 L
191.794 309.229 L
191.964 309.229 L
192.134 308.92 L
192.303 308.92 L
192.473 308.92 L
192.643 308.92 L
192.813 308.92 L
192.982 308.92 L
193.152 308.92 L
193.322 308.92 L
193.491 308.92 L
193.661 308.92 L
193.831 309.229 L
194 309.229 L
194.17 309.229 L
194.34 309.229 L
194.509 309.229 L
194.679 309.229 L
194.849 309.229 L
195.018 309.229 L
195.188 309.229 L
195.358 309.229 L
195.527 308.92 L
195.697 308.92 L
195.867 308.92 L
196.037 308.92 L
196.206 308.92 L
196.376 308.92 L
196.546 308.92 L
196.715 308.92 L
196.885 308.92 L
197.055 308.92 L
197.224 309.848 L
197.394 309.848 L
197.564 309.848 L
197.733 309.848 L
197.903 309.848 L
198.073 309.848 L
198.243 309.848 L
198.412 309.848 L
198.582 309.848 L
198.752 309.848 L
198.921 308.61 L
199.091 308.61 L
199.261 308.61 L
199.43 308.61 L
199.6 308.61 L
199.77 308.61 L
199.939 308.61 L
200.109 308.61 L
200.279 308.61 L
200.448 308.61 L
200.618 309.538 L
200.788 309.538 L
200.958 309.538 L
201.127 309.538 L
201.297 309.538 L
201.467 309.538 L
201.636 309.538 L
201.806 309.538 L
201.976 309.538 L
202.145 309.538 L
202.315 308.92 L
202.485 308.92 L
202.654 308.92 L
202.824 308.92 L
202.994 308.92 L
203.163 308.92 L
203.333 308.92 L
203.503 308.92 L
203.673 308.92 L
203.842 308.92 L
204.012 309.229 L
204.182 309.229 L
204.351 309.229 L
204.521 309.229 L
204.691 309.229 L
204.86 309.229 L
205.03 309.229 L
205.2 309.229 L
205.369 309.229 L
205.539 309.229 L
205.709 308.61 L
205.878 308.61 L
206.048 308.61 L
206.218 308.61 L
206.387 308.61 L
206.557 308.61 L
206.727 308.61 L
206.897 308.61 L
207.066 308.61 L
207.236 308.61 L
207.406 309.229 L
207.575 309.229 L
207.745 309.229 L
207.915 309.229 L
208.084 309.229 L
208.254 309.229 L
208.424 309.229 L
208.593 309.229 L
208.763 309.229 L
208.933 309.229 L
209.102 308.92 L
209.272 308.92 L
209.442 308.92 L
209.612 308.92 L
209.781 308.92 L
209.951 308.92 L
210.121 308.92 L
210.29 308.92 L
210.46 308.92 L
210.63 308.92 L
210.799 309.229 L
210.969 309.229 L
211.139 309.229 L
211.308 309.229 L
211.478 309.229 L
211.648 309.229 L
211.818 309.229 L
211.987 309.229 L
212.157 309.229 L
212.327 309.229 L
212.496 308.61 L
212.666 308.61 L
212.836 308.61 L
213.005 308.61 L
213.175 308.61 L
213.345 308.61 L
213.514 308.61 L
213.684 308.61 L
213.854 308.61 L
214.023 308.61 L
214.193 308.92 L
214.363 308.92 L
214.533 308.92 L
214.702 308.92 L
214.872 308.92 L
215.042 308.92 L
215.211 308.92 L
215.381 308.92 L
215.551 308.92 L
215.72 308.92 L
215.89 309.229 L
216.06 309.229 L
216.229 309.229 L
216.399 309.229 L
216.569 309.229 L
216.738 309.229 L
216.908 309.229 L
217.078 309.229 L
217.247 309.229 L
217.417 309.229 L
217.587 309.229 L
217.757 309.229 L
217.926 309.229 L
218.096 309.229 L
218.266 309.229 L
218.435 309.229 L
218.605 309.229 L
218.775 309.229 L
218.944 309.229 L
219.114 309.229 L
219.284 308.61 L
219.453 308.61 L
219.623 308.61 L
219.793 308.61 L
219.962 308.61 L
220.132 308.61 L
220.302 308.61 L
220.472 308.61 L
220.641 308.61 L
220.811 308.61 L
220.981 309.848 L
221.15 309.848 L
221.32 309.848 L
221.49 309.848 L
221.659 309.848 L
221.829 309.848 L
221.999 309.848 L
222.168 309.848 L
222.338 309.848 L
222.508 309.848 L
222.678 309.229 L
222.847 309.229 L
223.017 309.229 L
223.187 309.229 L
223.356 309.229 L
223.526 309.229 L
223.696 309.229 L
223.865 309.229 L
224.035 309.229 L
224.205 309.229 L
224.374 309.848 L
224.544 309.848 L
224.714 309.848 L
224.883 309.848 L
225.053 309.848 L
225.223 309.848 L
225.393 309.848 L
225.562 309.848 L
225.732 309.848 L
225.902 309.848 L
226.071 309.538 L
226.241 309.538 L
226.411 309.538 L
226.58 309.538 L
226.75 309.538 L
226.92 309.538 L
227.089 309.538 L
227.259 309.538 L
227.429 309.538 L
227.598 309.538 L
227.768 309.848 L
227.938 309.848 L
228.107 309.848 L
228.277 309.848 L
228.447 309.848 L
228.617 309.848 L
228.786 309.848 L
228.956 309.848 L
229.126 309.848 L
229.295 309.848 L
229.465 309.848 L
229.635 309.848 L
229.804 309.848 L
229.974 309.848 L
230.144 309.848 L
230.313 309.848 L
230.483 309.848 L
230.653 309.848 L
230.822 309.848 L
230.992 309.848 L
231.162 309.229 L
231.332 309.229 L
231.501 309.229 L
231.671 309.229 L
231.841 309.229 L
232.01 309.229 L
232.18 309.229 L
232.35 309.229 L
232.519 309.229 L
232.689 309.229 L
232.859 309.848 L
233.028 309.848 L
233.198 309.848 L
233.368 309.848 L
233.537 309.848 L
233.707 309.848 L
233.877 309.848 L
234.047 309.848 L
234.216 309.848 L
234.386 309.848 L
234.556 309.538 L
234.725 309.538 L
234.895 309.538 L
235.065 309.538 L
235.234 309.538 L
235.404 309.538 L
235.574 309.538 L
235.743 309.538 L
235.913 309.538 L
236.083 309.538 L
236.253 309.229 L
236.422 309.229 L
236.592 309.229 L
236.762 309.229 L
236.931 309.229 L
237.101 309.229 L
237.271 309.229 L
237.44 309.229 L
237.61 309.229 L
237.78 309.229 L
237.949 309.848 L
238.119 309.848 L
238.289 309.848 L
238.458 309.848 L
238.628 309.848 L
238.798 309.848 L
238.967 309.848 L
239.137 309.848 L
239.307 309.848 L
239.477 309.848 L
239.646 308.61 L
239.816 308.61 L
239.986 308.61 L
240.155 308.61 L
240.325 308.61 L
240.495 308.61 L
240.664 308.61 L
240.834 308.61 L
241.004 308.61 L
241.173 308.61 L
241.343 309.229 L
241.513 309.229 L
241.682 309.229 L
241.852 309.229 L
242.022 309.229 L
242.192 309.229 L
242.361 309.229 L
242.531 309.229 L
242.701 309.229 L
242.87 309.229 L
243.04 309.229 L
243.21 309.229 L
243.379 309.229 L
243.549 309.229 L
243.719 309.229 L
243.888 309.229 L
244.058 309.229 L
244.228 309.229 L
244.398 309.229 L
244.567 309.229 L
244.737 309.538 L
244.907 309.538 L
245.076 309.538 L
245.246 309.538 L
245.416 309.538 L
245.585 309.538 L
245.755 309.538 L
245.925 309.538 L
246.094 309.538 L
246.264 309.538 L
246.434 308.92 L
246.603 308.92 L
246.773 308.92 L
246.943 308.92 L
247.113 308.92 L
247.282 308.92 L
247.452 308.92 L
247.622 308.92 L
247.791 308.92 L
247.961 308.92 L
248.131 309.848 L
248.3 309.848 L
248.47 309.848 L
248.64 309.848 L
248.809 309.848 L
248.979 309.848 L
249.149 309.848 L
249.318 309.848 L
249.488 309.848 L
249.658 309.848 L
249.827 309.848 L
249.997 309.848 L
250.167 309.848 L
250.337 309.848 L
250.506 309.848 L
250.676 309.848 L
250.846 309.848 L
251.015 309.848 L
251.185 309.848 L
251.355 309.848 L
251.524 309.538 L
251.694 309.538 L
251.864 309.538 L
252.033 309.538 L
252.203 309.538 L
252.373 309.538 L
252.543 309.538 L
252.712 309.538 L
252.882 309.538 L
253.052 309.538 L
253.221 310.157 L
253.391 310.157 L
253.561 310.157 L
253.73 310.157 L
253.9 310.157 L
254.07 310.157 L
254.239 310.157 L
254.409 310.157 L
254.579 310.157 L
254.748 310.157 L
254.918 309.229 L
255.088 309.229 L
255.258 309.229 L
255.427 309.229 L
255.597 309.229 L
255.767 309.229 L
255.936 309.229 L
256.106 309.229 L
256.276 309.229 L
256.445 309.229 L
256.615 309.229 L
256.785 309.229 L
256.954 309.229 L
257.124 309.229 L
257.294 309.229 L
257.463 309.229 L
257.633 309.229 L
257.803 309.229 L
257.973 309.229 L
258.142 309.229 L
258.312 308.92 L
258.482 308.92 L
258.651 308.92 L
258.821 308.92 L
258.991 308.92 L
259.16 308.92 L
259.33 308.92 L
259.5 308.92 L
259.669 308.92 L
259.839 308.92 L
260.009 308.92 L
260.178 308.92 L
260.348 308.92 L
260.518 308.92 L
260.688 308.92 L
260.857 308.92 L
261.027 308.92 L
261.197 308.92 L
261.366 308.92 L
261.536 308.92 L
261.706 309.229 L
261.875 309.229 L
262.045 309.229 L
262.215 309.229 L
262.384 309.229 L
262.554 309.229 L
262.724 309.229 L
262.893 309.229 L
263.063 309.229 L
263.233 309.229 L
263.402 308.92 L
263.572 308.92 L
263.742 308.92 L
263.912 308.92 L
264.081 308.92 L
264.251 308.92 L
264.421 308.92 L
264.59 308.92 L
264.76 308.92 L
264.93 308.92 L
265.099 309.848 L
265.269 309.848 L
265.439 309.848 L
265.608 309.848 L
265.778 309.848 L
265.948 309.848 L
266.117 309.848 L
266.287 309.848 L
266.457 309.848 L
266.627 309.848 L
266.796 309.538 L
266.966 309.538 L
267.136 309.538 L
267.305 309.538 L
267.475 309.538 L
267.645 309.538 L
267.814 309.538 L
267.984 309.538 L
268.154 309.538 L
268.323 309.538 L
268.493 309.538 L
268.663 309.538 L
268.832 309.538 L
269.002 309.538 L
269.172 309.538 L
269.342 309.538 L
269.511 309.538 L
269.681 309.538 L
269.851 309.538 L
270.02 309.538 L
270.19 309.848 L
270.36 309.848 L
270.529 309.848 L
270.699 309.848 L
270.869 309.848 L
271.038 309.848 L
271.208 309.848 L
271.378 309.848 L
271.548 309.848 L
271.717 309.848 L
271.887 309.538 L
272.057 309.538 L
272.226 309.538 L
272.396 309.538 L
272.566 309.538 L
272.735 309.538 L
272.905 309.538 L
273.075 309.538 L
273.244 309.538 L
273.414 309.538 L
273.584 309.229 L
273.753 309.229 L
273.923 309.229 L
274.093 309.229 L
274.263 309.229 L
274.432 309.229 L
274.602 309.229 L
274.772 309.229 L
274.941 309.229 L
275.111 309.229 L
275.281 309.848 L
275.45 309.848 L
275.62 309.848 L
275.79 309.848 L
275.959 309.848 L
276.129 309.848 L
276.299 309.848 L
276.468 309.848 L
276.638 309.848 L
276.808 309.848 L
276.978 309.229 L
277.147 309.229 L
277.317 309.229 L
277.487 309.229 L
277.656 309.229 L
277.826 309.229 L
277.996 309.229 L
278.165 309.229 L
278.335 309.229 L
278.505 309.229 L
278.674 309.229 L
278.844 309.229 L
279.014 309.229 L
279.183 309.229 L
279.353 309.229 L
279.523 309.229 L
279.693 309.229 L
279.862 309.229 L
280.032 309.229 L
280.202 309.229 L
280.371 309.848 L
280.541 309.848 L
280.711 309.848 L
280.88 309.848 L
281.05 309.848 L
281.22 309.848 L
281.389 309.848 L
281.559 309.848 L
281.729 309.848 L
281.898 309.848 L
282.068 309.538 L
282.238 309.538 L
282.408 309.538 L
282.577 309.538 L
282.747 309.538 L
282.917 309.538 L
283.086 309.538 L
283.256 309.538 L
283.426 309.538 L
283.595 309.538 L
283.765 309.229 L
283.935 309.229 L
284.104 309.229 L
284.274 309.229 L
284.444 309.229 L
284.613 309.229 L
284.783 309.229 L
284.953 309.229 L
285.122 309.229 L
285.292 309.229 L
285.462 309.538 L
285.632 309.538 L
285.801 309.538 L
285.971 309.538 L
286.141 309.538 L
286.31 309.538 L
286.48 309.538 L
286.65 309.538 L
286.819 309.538 L
286.989 309.538 L
287.159 308.92 L
287.328 308.92 L
287.498 308.92 L
287.668 308.92 L
287.837 308.92 L
288.007 308.92 L
288.177 308.92 L
288.347 308.92 L
288.516 308.92 L
288.686 308.92 L
288.856 309.848 L
289.025 309.848 L
289.195 309.848 L
289.365 309.848 L
289.534 309.848 L
289.704 309.848 L
289.874 309.848 L
290.043 309.848 L
290.213 309.848 L
290.383 309.848 L
290.552 309.229 L
290.722 309.229 L
290.892 309.229 L
291.062 309.229 L
291.231 309.229 L
291.401 309.229 L
291.571 309.229 L
291.74 309.229 L
291.91 309.229 L
292.08 309.229 L
292.249 309.848 L
292.419 309.848 L
292.589 309.848 L
292.758 309.848 L
292.928 309.848 L
293.098 309.848 L
293.267 309.848 L
293.437 309.848 L
293.607 309.848 L
293.777 309.848 L
293.946 308.92 L
294.116 308.92 L
294.286 308.92 L
294.455 308.92 L
294.625 308.92 L
294.795 308.92 L
294.964 308.92 L
295.134 308.92 L
295.304 308.92 L
295.473 308.92 L
295.643 309.229 L
295.813 309.229 L
295.983 309.229 L
296.152 309.229 L
296.322 309.229 L
296.492 309.229 L
296.661 309.229 L
296.831 309.229 L
297.001 309.229 L
297.17 309.229 L
297.34 309.229 L
297.51 309.229 L
297.679 309.229 L
297.849 309.229 L
298.019 309.229 L
298.188 309.229 L
298.358 309.229 L
298.528 309.229 L
298.698 309.229 L
298.867 309.229 L
299.037 309.229 L
299.207 309.229 L
299.376 309.229 L
299.546 309.229 L
299.716 309.229 L
299.885 309.229 L
300.055 309.229 L
300.225 309.229 L
300.394 309.229 L
300.564 309.229 L
300.734 309.229 L
300.903 309.229 L
301.073 309.229 L
301.243 309.229 L
301.413 309.229 L
301.582 309.229 L
301.752 309.229 L
301.922 309.229 L
302.091 309.229 L
302.261 309.229 L
302.431 309.538 L
302.6 309.538 L
302.77 309.538 L
302.94 309.538 L
303.109 309.538 L
303.279 309.538 L
303.449 309.538 L
303.618 309.538 L
303.788 309.538 L
303.958 309.538 L
304.128 309.229 L
304.297 309.229 L
304.467 309.229 L
304.637 309.229 L
304.806 309.229 L
304.976 309.229 L
305.146 309.229 L
305.315 309.229 L
305.485 309.229 L
305.655 309.229 L
305.824 309.229 L
305.994 309.229 L
306.164 309.229 L
306.333 309.229 L
306.503 309.229 L
306.673 309.229 L
306.842 309.229 L
307.012 309.229 L
307.182 309.229 L
307.352 309.229 L
307.521 309.229 L
307.691 309.229 L
307.861 309.229 L
308.03 309.229 L
308.2 309.229 L
308.37 309.229 L
308.539 309.229 L
308.709 309.229 L
308.879 309.229 L
309.048 309.229 L
309.218 309.229 L
309.388 309.229 L
309.557 309.229 L
309.727 309.229 L
309.897 309.229 L
310.067 309.229 L
310.236 309.229 L
310.406 309.229 L
310.576 309.229 L
310.745 309.229 L
310.915 309.229 L
311.085 309.229 L
311.254 309.229 L
311.424 309.229 L
311.594 309.229 L
311.763 309.229 L
311.933 309.229 L
312.103 309.229 L
312.272 309.229 L
312.442 309.229 L
312.612 309.848 L
312.782 309.848 L
312.951 309.848 L
313.121 309.848 L
313.291 309.848 L
313.46 309.848 L
313.63 309.848 L
313.8 309.848 L
313.969 309.848 L
314.139 309.848 L
314.309 308.92 L
314.478 308.92 L
314.648 308.92 L
314.818 308.92 L
314.987 308.92 L
315.157 308.92 L
315.327 308.92 L
315.497 308.92 L
315.666 308.92 L
315.836 308.92 L
316.006 309.229 L
316.175 309.229 L
316.345 309.229 L
316.515 309.229 L
316.684 309.229 L
316.854 309.229 L
317.024 309.229 L
317.193 309.229 L
317.363 309.229 L
317.533 309.229 L
317.702 309.848 L
317.872 309.848 L
318.042 309.848 L
318.212 309.848 L
318.381 309.848 L
318.551 309.848 L
318.721 309.848 L
318.89 309.848 L
319.06 309.848 L
319.23 309.848 L
319.399 309.538 L
319.569 309.538 L
319.739 309.538 L
319.908 309.538 L
320.078 309.538 L
320.248 309.538 L
320.418 309.538 L
320.587 309.538 L
320.757 309.538 L
320.927 309.538 L
321.096 309.229 L
321.266 309.229 L
321.436 309.229 L
321.605 309.229 L
321.775 309.229 L
321.945 309.229 L
322.114 309.229 L
322.284 309.229 L
322.454 309.229 L
322.623 309.229 L
322.793 309.848 L
322.963 309.848 L
323.133 309.848 L
323.302 309.848 L
323.472 309.848 L
323.642 309.848 L
323.811 309.848 L
323.981 309.848 L
324.151 309.848 L
324.32 309.848 L
324.49 309.229 L
324.66 309.229 L
324.829 309.229 L
324.999 309.229 L
325.169 309.229 L
325.338 309.229 L
325.508 309.229 L
325.678 309.229 L
325.848 309.229 L
326.017 309.229 L
326.187 309.229 L
326.357 309.229 L
326.526 309.229 L
326.696 309.229 L
326.866 309.229 L
327.035 309.229 L
327.205 309.229 L
327.375 309.229 L
327.544 309.229 L
327.714 309.229 L
327.884 309.229 L
328.053 309.229 L
328.223 309.229 L
328.393 309.229 L
328.563 309.229 L
328.732 309.229 L
328.902 309.229 L
329.072 309.229 L
329.241 309.229 L
329.411 309.229 L
329.581 308.92 L
329.75 308.92 L
329.92 308.92 L
330.09 308.92 L
330.259 308.92 L
330.429 308.92 L
330.599 308.92 L
330.768 308.92 L
330.938 308.92 L
331.108 308.92 L
331.277 308.92 L
331.447 308.92 L
331.617 308.92 L
331.787 308.92 L
331.956 308.92 L
332.126 308.92 L
332.296 308.92 L
332.465 308.92 L
332.635 308.92 L
332.805 308.92 L
332.974 309.229 L
333.144 309.229 L
333.314 309.229 L
333.483 309.229 L
333.653 309.229 L
333.823 309.229 L
333.992 309.229 L
334.162 309.229 L
334.332 309.229 L
334.502 309.229 L
334.671 309.229 L
334.841 309.229 L
335.011 309.229 L
335.18 309.229 L
335.35 309.229 L
335.52 309.229 L
335.689 309.229 L
335.859 309.229 L
336.029 309.229 L
336.198 309.229 L
336.368 308.92 L
336.538 308.92 L
336.707 308.92 L
336.877 308.92 L
337.047 308.92 L
337.217 308.92 L
337.386 308.92 L
337.556 308.92 L
337.726 308.92 L
337.895 308.92 L
338.065 309.229 L
338.235 309.229 L
338.404 309.229 L
338.574 309.229 L
338.744 309.229 L
338.913 309.229 L
339.083 309.229 L
339.253 309.229 L
339.423 309.229 L
339.592 309.229 L
339.762 309.538 L
339.932 309.538 L
340.101 309.538 L
340.271 309.538 L
340.441 309.538 L
340.61 309.538 L
340.78 309.538 L
340.95 309.538 L
341.119 309.538 L
341.289 309.538 L
341.459 308.92 L
341.628 308.92 L
341.798 308.92 L
341.968 308.92 L
342.138 308.92 L
342.307 308.92 L
342.477 308.92 L
342.647 308.92 L
342.816 308.92 L
342.986 308.92 L
343.156 309.229 L
343.325 309.229 L
343.495 309.229 L
343.665 309.229 L
343.834 309.229 L
344.004 309.229 L
344.174 309.229 L
344.343 309.229 L
344.513 309.229 L
344.683 309.229 L
344.853 309.229 L
345.022 309.229 L
345.192 309.229 L
345.362 309.229 L
345.531 309.229 L
345.701 309.229 L
345.871 309.229 L
346.04 309.229 L
346.21 309.229 L
346.38 309.229 L
346.549 309.848 L
346.719 309.848 L
346.889 309.848 L
347.058 309.848 L
347.228 309.848 L
347.398 309.848 L
347.568 309.848 L
347.737 309.848 L
347.907 309.848 L
348.077 309.848 L
348.246 309.229 L
348.416 309.229 L
348.586 309.229 L
348.755 309.229 L
348.925 309.229 L
349.095 309.229 L
349.264 309.229 L
349.434 309.229 L
349.604 309.229 L
349.773 309.229 L
349.943 308.301 L
350.113 308.301 L
350.283 308.301 L
350.452 308.301 L
350.622 308.301 L
350.792 308.301 L
350.961 308.301 L
351.131 308.301 L
351.301 308.301 L
351.47 308.301 L
351.64 309.848 L
351.81 309.848 L
351.979 309.848 L
352.149 309.848 L
352.319 309.848 L
352.488 309.848 L
352.658 309.848 L
352.828 309.848 L
352.997 309.848 L
353.167 309.848 L
353.337 309.229 L
353.507 309.229 L
353.676 309.229 L
353.846 309.229 L
354.016 309.229 L
354.185 309.229 L
354.355 309.229 L
354.525 309.229 L
354.694 309.229 L
354.864 309.229 L
355.034 309.848 L
355.203 309.848 L
355.373 309.848 L
355.543 309.848 L
355.712 309.848 L
355.882 309.848 L
356.052 309.848 L
356.222 309.848 L
356.391 309.848 L
356.561 309.848 L
356.731 309.229 L
356.9 309.229 L
357.07 309.229 L
357.24 309.229 L
357.409 309.229 L
357.579 309.229 L
357.749 309.229 L
357.918 309.229 L
358.088 309.229 L
358.258 309.229 L
358.427 309.848 L
358.597 309.848 L
358.767 309.848 L
358.937 309.848 L
359.106 309.848 L
359.276 309.848 L
359.446 309.848 L
359.615 309.848 L
359.785 309.848 L
359.955 309.848 L
360.124 309.848 L
360.294 309.848 L
360.464 309.848 L
360.633 309.848 L
360.803 309.848 L
360.973 309.848 L
361.142 309.848 L
361.312 309.848 L
361.482 309.848 L
361.652 309.848 L
361.821 308.92 L
361.991 308.92 L
362.161 308.92 L
362.33 308.92 L
362.5 308.92 L
362.67 308.92 L
362.839 308.92 L
363.009 308.92 L
363.179 308.92 L
363.348 308.92 L
363.518 309.538 L
363.688 309.538 L
363.858 309.538 L
364.027 309.538 L
364.197 309.538 L
364.367 309.538 L
364.536 309.538 L
364.706 309.538 L
364.876 309.538 L
365.045 309.538 L
365.215 308.61 L
365.385 308.61 L
365.554 308.61 L
365.724 308.61 L
365.894 308.61 L
366.063 308.61 L
366.233 308.61 L
366.403 308.61 L
366.573 308.61 L
366.742 308.61 L
366.912 309.538 L
367.082 309.538 L
367.251 309.538 L
367.421 309.538 L
367.591 309.538 L
367.76 309.538 L
367.93 309.538 L
368.1 309.538 L
368.269 309.538 L
368.439 309.538 L
368.609 309.229 L
368.778 309.229 L
368.948 309.229 L
369.118 309.229 L
369.288 309.229 L
369.457 309.229 L
369.627 309.229 L
369.797 309.229 L
369.966 309.229 L
370.136 309.229 L
370.306 309.229 L
370.475 309.229 L
370.645 309.229 L
370.815 309.229 L
370.984 309.229 L
371.154 309.229 L
371.324 309.229 L
371.493 309.229 L
371.663 309.229 L
371.833 309.229 L
372.003 309.229 L
372.172 309.229 L
372.342 309.229 L
372.512 309.229 L
372.681 309.229 L
372.851 309.229 L
373.021 309.229 L
373.19 309.229 L
373.36 309.229 L
373.53 309.229 L
373.699 309.229 L
373.869 309.229 L
374.039 309.229 L
374.208 309.229 L
374.378 309.229 L
374.548 309.229 L
374.717 309.229 L
374.887 309.229 L
375.057 309.229 L
375.227 309.229 L
375.396 309.229 L
375.566 309.229 L
375.736 309.229 L
375.905 309.229 L
376.075 309.229 L
376.245 309.229 L
376.414 309.229 L
376.584 309.229 L
376.754 309.229 L
376.923 309.229 L
377.093 310.157 L
377.263 310.157 L
377.432 310.157 L
377.602 310.157 L
377.772 310.157 L
377.942 310.157 L
378.111 310.157 L
378.281 310.157 L
378.451 310.157 L
378.62 310.157 L
378.79 309.538 L
378.96 309.538 L
379.129 309.538 L
379.299 309.538 L
379.469 309.538 L
379.638 309.538 L
379.808 309.538 L
379.978 309.538 L
380.148 309.538 L
380.317 309.538 L
380.487 309.848 L
380.657 309.848 L
380.826 309.848 L
380.996 309.848 L
381.166 309.848 L
381.335 309.848 L
381.505 309.848 L
381.675 309.848 L
381.844 309.848 L
382.014 309.848 L
382.184 309.538 L
382.353 309.538 L
382.523 309.538 L
382.693 309.538 L
382.863 309.538 L
383.032 309.538 L
383.202 309.538 L
383.372 309.538 L
383.541 309.538 L
383.711 309.538 L
383.881 309.848 L
384.05 309.848 L
384.22 309.848 L
384.39 309.848 L
384.559 309.848 L
384.729 309.848 L
384.899 309.848 L
385.068 309.848 L
385.238 309.848 L
385.408 309.848 L
385.578 308.61 L
385.747 308.61 L
385.917 308.61 L
386.087 308.61 L
386.256 308.61 L
386.426 308.61 L
386.596 308.61 L
386.765 308.61 L
386.935 308.61 L
387.105 308.61 L
387.274 309.538 L
387.444 309.538 L
387.614 309.538 L
387.783 309.538 L
387.953 309.538 L
388.123 309.538 L
388.293 309.538 L
388.462 309.538 L
388.632 309.538 L
388.802 309.538 L
388.971 309.538 L
389.141 309.538 L
389.311 309.538 L
389.48 309.538 L
389.65 309.538 L
389.82 309.538 L
389.989 309.538 L
390.159 309.538 L
390.329 309.538 L
390.498 309.538 L
390.668 309.848 L
390.838 309.848 L
391.008 309.848 L
391.177 309.848 L
391.347 309.848 L
391.517 309.848 L
391.686 309.848 L
391.856 309.848 L
392.026 309.848 L
392.195 309.848 L
392.365 309.538 L
392.535 309.538 L
392.704 309.538 L
392.874 309.538 L
393.044 309.538 L
393.213 309.538 L
393.383 309.538 L
393.553 309.538 L
393.723 309.538 L
393.892 309.538 L
394.062 310.157 L
394.232 310.157 L
394.401 310.157 L
394.571 310.157 L
394.741 310.157 L
394.91 310.157 L
395.08 310.157 L
395.25 310.157 L
395.419 310.157 L
395.589 310.157 L
395.759 308.92 L
395.928 308.92 L
396.098 308.92 L
396.268 308.92 L
396.438 308.92 L
396.607 308.92 L
396.777 308.92 L
396.947 308.92 L
397.116 308.92 L
397.286 308.92 L
397.456 309.229 L
397.625 309.229 L
397.795 309.229 L
397.965 309.229 L
398.134 309.229 L
398.304 309.229 L
398.474 309.229 L
398.643 309.229 L
398.813 309.229 L
398.983 309.229 L
399.152 309.229 L
399.322 309.229 L
399.492 309.229 L
399.662 309.229 L
399.831 309.229 L
400.001 309.229 L
400.171 309.229 L
400.34 309.229 L
400.51 309.229 L
400.68 309.229 L
400.849 309.229 L
401.019 309.229 L
401.189 309.229 L
401.358 309.229 L
401.528 309.229 L
401.698 309.229 L
401.867 309.229 L
402.037 309.229 L
402.207 309.229 L
402.377 309.229 L
402.546 309.229 L
402.716 309.229 L
402.886 309.229 L
403.055 309.229 L
403.225 309.229 L
403.395 309.229 L
403.564 309.229 L
403.734 309.229 L
403.904 309.229 L
404.073 309.229 L
404.243 309.848 L
404.413 309.848 L
404.582 309.848 L
404.752 309.848 L
404.922 309.848 L
405.092 309.848 L
405.261 309.848 L
405.431 309.848 L
405.601 309.848 L
405.77 309.848 L
405.94 308.61 L
406.11 308.61 L
406.279 308.61 L
406.449 308.61 L
406.619 308.61 L
406.788 308.61 L
406.958 308.61 L
407.128 308.61 L
407.297 308.61 L
407.467 308.61 L
407.637 309.848 L
407.807 309.848 L
407.976 309.848 L
408.146 309.848 L
408.316 309.848 L
408.485 309.848 L
408.655 309.848 L
408.825 309.848 L
408.994 309.848 L
409.164 309.848 L
409.334 309.848 L
409.503 309.848 L
409.673 309.848 L
409.843 309.848 L
410.012 309.848 L
410.182 309.848 L
410.352 309.848 L
410.522 309.848 L
410.691 309.848 L
410.861 309.848 L
411.031 310.467 L
411.2 310.467 L
411.37 310.467 L
411.54 310.467 L
411.709 310.467 L
411.879 310.467 L
412.049 310.467 L
412.218 310.467 L
412.388 310.467 L
412.558 310.467 L
412.727 309.848 L
412.897 309.848 L
413.067 309.848 L
413.237 309.848 L
413.406 309.848 L
413.576 309.848 L
413.746 309.848 L
413.915 309.848 L
414.085 309.848 L
414.255 309.848 L
414.424 309.848 L
414.594 309.848 L
414.764 309.848 L
414.933 309.848 L
415.103 309.848 L
415.273 309.848 L
415.443 309.848 L
415.612 309.848 L
415.782 309.848 L
415.952 309.848 L
416.121 308.92 L
416.291 308.92 L
416.461 308.92 L
416.63 308.92 L
416.8 308.92 L
416.97 308.92 L
417.139 308.92 L
417.309 308.92 L
417.479 308.92 L
417.648 308.92 L
417.818 309.229 L
417.988 309.229 L
418.158 309.229 L
418.327 309.229 L
418.497 309.229 L
418.667 309.229 L
418.836 309.229 L
419.006 309.229 L
419.176 309.229 L
419.345 309.229 L
419.515 308.92 L
419.685 308.92 L
419.854 308.92 L
420.024 308.92 L
420.194 308.92 L
420.363 308.92 L
420.533 308.92 L
420.703 308.92 L
420.872 308.92 L
421.042 308.92 L
421.212 309.229 L
421.382 309.229 L
421.551 309.229 L
421.721 309.229 L
421.891 309.229 L
422.06 309.229 L
422.23 309.229 L
422.4 309.229 L
422.569 309.229 L
422.739 309.229 L
422.909 309.229 L
423.078 309.229 L
423.248 309.229 L
423.418 309.229 L
423.587 309.229 L
423.757 309.229 L
423.927 309.229 L
424.097 309.229 L
424.266 309.229 L
424.436 309.229 L
424.606 309.229 L
424.775 309.229 L
424.945 309.229 L
425.115 309.229 L
425.284 309.229 L
425.454 309.229 L
425.624 309.229 L
425.793 309.229 L
425.963 309.229 L
426.133 309.229 L
426.302 309.229 L
426.472 309.229 L
426.642 309.229 L
426.812 309.229 L
426.981 309.229 L
427.151 309.229 L
427.321 309.229 L
427.49 309.229 L
427.66 309.229 L
427.83 309.229 L
427.999 309.848 L
428.169 309.848 L
428.339 309.848 L
428.508 309.848 L
428.678 309.848 L
428.848 309.848 L
429.017 309.848 L
429.187 309.848 L
429.357 309.848 L
429.527 309.848 L
429.696 309.229 L
429.866 309.229 L
430.036 309.229 L
430.205 309.229 L
430.375 309.229 L
430.545 309.229 L
430.714 309.229 L
430.884 309.229 L
431.054 309.229 L
431.223 309.229 L
431.393 309.848 L
431.563 309.848 L
431.733 309.848 L
431.902 309.848 L
432.072 309.848 L
432.242 309.848 L
432.411 309.848 L
432.581 309.848 L
432.751 309.848 L
432.92 309.848 L
433.09 308.61 L
433.26 308.61 L
433.429 308.61 L
433.599 308.61 L
433.769 308.61 L
433.938 308.61 L
434.108 308.61 L
434.278 308.61 L
434.448 308.61 L
434.617 308.61 L
434.787 309.848 L
434.957 309.848 L
435.126 309.848 L
435.296 309.848 L
435.466 309.848 L
435.635 309.848 L
435.805 309.848 L
435.975 309.848 L
436.144 309.848 L
436.314 309.848 L
436.484 308.92 L
436.653 308.92 L
436.823 308.92 L
436.993 308.92 L
437.163 308.92 L
437.332 308.92 L
437.502 308.92 L
437.672 308.92 L
437.841 308.92 L
438.011 308.92 L
438.181 309.848 L
438.35 309.848 L
438.52 309.848 L
438.69 309.848 L
438.859 309.848 L
439.029 309.848 L
439.199 309.848 L
439.368 309.848 L
439.538 309.848 L
439.708 309.848 L
439.878 308.61 L
440.047 308.61 L
440.217 308.61 L
440.387 308.61 L
440.556 308.61 L
440.726 308.61 L
440.896 308.61 L
441.065 308.61 L
441.235 308.61 L
441.405 308.61 L
441.574 308.92 L
441.744 308.92 L
441.914 308.92 L
442.083 308.92 L
442.253 308.92 L
442.423 308.92 L
442.592 308.92 L
442.762 308.92 L
442.932 308.92 L
443.102 308.92 L
443.271 309.538 L
443.441 309.538 L
443.611 309.538 L
443.78 309.538 L
443.95 309.538 L
444.12 309.538 L
444.289 309.538 L
444.459 309.538 L
444.629 309.538 L
444.798 309.538 L
444.968 309.229 L
445.138 309.229 L
445.307 309.229 L
445.477 309.229 L
445.647 309.229 L
445.817 309.229 L
445.986 309.229 L
446.156 309.229 L
446.326 309.229 L
446.495 309.229 L
446.665 309.848 L
446.835 309.848 L
447.004 309.848 L
447.174 309.848 L
447.344 309.848 L
447.513 309.848 L
447.683 309.848 L
447.853 309.848 L
448.023 309.848 L
448.192 309.848 L
448.362 308.92 L
448.532 308.92 L
448.701 308.92 L
448.871 308.92 L
449.041 308.92 L
449.21 308.92 L
449.38 308.92 L
449.55 308.92 L
449.719 308.92 L
449.889 308.92 L
450.059 309.229 L
450.228 309.229 L
450.398 309.229 L
450.568 309.229 L
450.738 309.229 L
450.907 309.229 L
451.077 309.229 L
451.247 309.229 L
451.416 309.229 L
451.586 309.229 L
451.756 309.229 L
451.925 309.229 L
452.095 309.229 L
452.265 309.229 L
452.434 309.229 L
452.604 309.229 L
452.774 309.229 L
452.943 309.229 L
453.113 309.229 L
453.283 309.229 L
453.453 309.538 L
453.622 309.538 L
453.792 309.538 L
453.962 309.538 L
454.131 309.538 L
454.301 309.538 L
454.471 309.538 L
454.64 309.538 L
454.81 309.538 L
454.98 309.538 L
455.149 309.538 L
455.319 309.538 L
455.489 309.538 L
455.658 309.538 L
455.828 309.538 L
455.998 309.538 L
456.168 309.538 L
456.337 309.538 L
456.507 309.538 L
456.677 309.538 L
456.846 309.848 L
457.016 309.848 L
457.186 309.848 L
457.355 309.848 L
457.525 309.848 L
457.695 309.848 L
457.864 309.848 L
458.034 309.848 L
458.204 309.848 L
458.373 309.848 L
458.543 309.848 L
458.713 309.848 L
458.883 309.848 L
459.052 309.848 L
459.222 309.848 L
459.392 309.848 L
459.561 309.848 L
459.731 309.848 L
459.901 309.848 L
460.07 309.848 L
460.24 309.848 L
460.41 309.848 L
460.579 309.848 L
460.749 309.848 L
460.919 309.848 L
461.088 309.848 L
461.258 309.848 L
461.428 309.848 L
461.598 309.848 L
461.767 309.848 L
461.937 309.848 L
462.107 309.848 L
462.276 309.848 L
462.446 309.848 L
462.616 309.848 L
462.785 309.848 L
462.955 309.848 L
463.125 309.848 L
463.294 309.848 L
463.464 309.848 L
463.634 309.229 L
463.803 309.229 L
463.973 309.229 L
464.143 309.229 L
464.313 309.229 L
464.482 309.229 L
464.652 309.229 L
464.822 309.229 L
464.991 309.229 L
465.161 309.229 L
465.331 309.229 L
465.5 309.229 L
465.67 309.229 L
465.84 309.229 L
466.009 309.229 L
466.179 309.229 L
466.349 309.229 L
466.518 309.229 L
466.688 309.229 L
466.858 309.229 L
467.027 309.848 L
467.197 309.848 L
467.367 309.848 L
467.537 309.848 L
467.706 309.848 L
467.876 309.848 L
468.046 309.848 L
468.215 309.848 L
468.385 309.848 L
468.555 309.848 L
468.724 310.157 L
468.894 310.157 L
469.064 310.157 L
469.233 310.157 L
469.403 310.157 L
469.573 310.157 L
469.742 310.157 L
469.912 310.157 L
470.082 310.157 L
470.252 310.157 L
470.421 308.92 L
470.591 308.92 L
470.761 308.92 L
470.93 308.92 L
471.1 308.92 L
471.27 308.92 L
471.439 308.92 L
471.609 308.92 L
471.779 308.92 L
471.948 308.92 L
472.118 309.848 L
472.288 309.848 L
472.457 309.848 L
472.627 309.848 L
472.797 309.848 L
472.967 309.848 L
473.136 309.848 L
473.306 309.848 L
473.476 309.848 L
473.645 309.848 L
473.815 309.229 L
473.985 309.229 L
474.154 309.229 L
474.324 309.229 L
474.494 309.229 L
474.663 309.229 L
474.833 309.229 L
475.003 309.229 L
475.172 309.229 L
475.342 309.229 L
475.512 309.229 L
475.682 309.229 L
475.851 309.229 L
476.021 309.229 L
476.191 309.229 L
476.36 309.229 L
476.53 309.229 L
476.7 309.229 L
476.869 309.229 L
477.039 309.229 L
477.209 309.538 L
477.378 309.538 L
477.548 309.538 L
477.718 309.538 L
477.887 309.538 L
478.057 309.538 L
478.227 309.538 L
478.397 309.538 L
478.566 309.538 L
478.736 309.538 L
478.906 309.229 L
479.075 309.229 L
479.245 309.229 L
479.415 309.229 L
479.584 309.229 L
479.754 309.229 L
479.924 309.229 L
480.093 309.229 L
480.263 309.229 L
480.433 309.229 L
480.602 309.229 L
480.772 309.229 L
480.942 309.229 L
481.112 309.229 L
481.281 309.229 L
481.451 309.229 L
481.621 309.229 L
481.79 309.229 L
481.96 309.229 L
482.13 309.229 L
482.299 309.538 L
482.469 309.538 L
482.639 309.538 L
482.808 309.538 L
482.978 309.538 L
483.148 309.538 L
483.318 309.538 L
483.487 309.538 L
483.657 309.538 L
483.827 309.538 L
483.996 309.229 L
484.166 309.229 L
484.336 309.229 L
484.505 309.229 L
484.675 309.229 L
484.845 309.229 L
485.014 309.229 L
485.184 309.229 L
485.354 309.229 L
485.523 309.229 L
485.693 309.229 L
485.863 309.229 L
486.033 309.229 L
486.202 309.229 L
486.372 309.229 L
486.542 309.229 L
486.711 309.229 L
486.881 309.229 L
487.051 309.229 L
487.22 309.229 L
487.39 309.229 L
487.56 309.229 L
487.729 309.229 L
487.899 309.229 L
488.069 309.229 L
488.238 309.229 L
488.408 309.229 L
488.578 309.229 L
488.747 309.229 L
488.917 309.229 L
489.087 309.229 L
489.257 309.229 L
489.426 309.229 L
489.596 309.229 L
489.766 309.229 L
489.935 309.229 L
490.105 309.229 L
490.275 309.229 L
490.444 309.229 L
490.614 309.229 L
490.784 308.92 L
490.953 308.92 L
491.123 308.92 L
491.293 308.92 L
491.462 308.92 L
491.632 308.92 L
491.802 308.92 L
491.972 308.92 L
492.141 308.92 L
492.311 308.92 L
492.481 309.848 L
492.65 309.848 L
492.82 309.848 L
492.99 309.848 L
493.159 309.848 L
493.329 309.848 L
493.499 309.848 L
493.668 309.848 L
493.838 309.848 L
494.008 309.848 L
494.177 309.229 L
494.347 309.229 L
494.517 309.229 L
494.687 309.229 L
494.856 309.229 L
495.026 309.229 L
495.196 309.229 L
495.365 309.229 L
495.535 309.229 L
495.705 309.229 L
495.874 309.848 L
496.044 309.848 L
496.214 309.848 L
496.383 309.848 L
496.553 309.848 L
496.723 309.848 L
496.892 309.848 L
497.062 309.848 L
497.232 309.848 L
497.402 309.848 L
497.571 309.229 L
497.741 309.229 L
497.911 309.229 L
498.08 309.229 L
498.25 309.229 L
498.42 309.229 L
498.589 309.229 L
498.759 309.229 L
498.929 309.229 L
499.098 309.229 L
499.268 309.848 L
499.438 309.848 L
499.608 309.848 L
499.777 309.848 L
499.947 309.848 L
500.117 309.848 L
500.286 309.848 L
500.456 309.848 L
500.626 309.848 L
500.795 309.848 L
500.965 309.229 L
501.135 309.229 L
501.304 309.229 L
501.474 309.229 L
501.644 309.229 L
501.813 309.229 L
501.983 309.229 L
502.153 309.229 L
502.323 309.229 L
502.492 309.229 L
502.662 309.229 L
502.832 309.229 L
503.001 309.229 L
503.171 309.229 L
503.341 309.229 L
503.51 309.229 L
503.68 309.229 L
503.85 309.229 L
504.019 309.229 L
504.189 309.229 L
504.359 309.229 L
504.528 309.229 L
504.698 309.229 L
504.868 309.229 L
505.038 309.229 L
505.207 309.229 L
505.377 309.229 L
505.547 309.229 L
505.716 309.229 L
505.886 309.229 L
506.056 309.848 L
506.225 309.848 L
506.395 309.848 L
506.565 309.848 L
506.734 309.848 L
506.904 309.848 L
507.074 309.848 L
507.243 309.848 L
507.413 309.848 L
507.583 309.848 L
507.753 309.229 L
507.922 309.229 L
508.092 309.229 L
508.262 309.229 L
508.431 309.229 L
508.601 309.229 L
508.771 309.229 L
508.94 309.229 L
509.11 309.229 L
509.28 309.229 L
509.449 309.229 L
509.619 309.229 L
509.789 309.229 L
509.958 309.229 L
510.128 309.229 L
510.298 309.229 L
510.467 309.229 L
510.637 309.229 L
510.807 309.229 L
510.977 309.229 L
511.146 309.229 L
511.316 309.229 L
511.486 309.229 L
511.655 309.229 L
511.825 309.229 L
511.995 309.229 L
512.164 309.229 L
512.334 309.229 L
512.504 309.229 L
512.673 309.229 L
512.843 309.848 L
513.013 309.848 L
513.182 309.848 L
513.352 309.848 L
513.522 309.848 L
513.692 309.848 L
513.861 309.848 L
514.031 309.848 L
514.201 309.848 L
514.37 309.848 L
514.54 308.92 L
514.71 308.92 L
514.879 308.92 L
515.049 308.92 L
515.219 308.92 L
515.388 308.92 L
515.558 308.92 L
515.728 308.92 L
515.898 308.92 L
516.067 308.92 L
516.237 310.157 L
516.407 310.157 L
516.576 310.157 L
516.746 310.157 L
516.916 310.157 L
517.085 310.157 L
517.255 310.157 L
517.425 310.157 L
517.594 310.157 L
517.764 310.157 L
517.934 309.229 L
518.103 309.229 L
518.273 309.229 L
518.443 309.229 L
518.612 309.229 L
518.782 309.229 L
518.952 309.229 L
519.122 309.229 L
519.291 309.229 L
519.461 309.229 L
519.631 309.848 L
519.8 309.848 L
519.97 309.848 L
520.14 309.848 L
520.309 309.848 L
520.479 309.848 L
520.649 309.848 L
520.818 309.848 L
520.988 309.848 L
521.158 309.848 L
521.328 309.229 L
521.497 309.229 L
521.667 309.229 L
521.837 309.229 L
522.006 309.229 L
522.176 309.229 L
522.346 309.229 L
522.515 309.229 L
522.685 309.229 L
522.855 309.229 L
523.024 309.848 L
523.194 309.848 L
523.364 309.848 L
523.533 309.848 L
523.703 309.848 L
523.873 309.848 L
524.042 309.848 L
524.212 309.848 L
524.382 309.848 L
524.552 309.848 L
524.721 309.848 L
524.891 309.848 L
525.061 309.848 L
525.23 309.848 L
525.4 309.848 L
525.57 309.848 L
525.739 309.848 L
525.909 309.848 L
526.079 309.848 L
526.248 309.848 L
526.418 309.538 L
526.588 309.538 L
526.758 309.538 L
526.927 309.538 L
527.097 309.538 L
527.267 309.538 L
527.436 309.538 L
527.606 309.538 L
527.776 309.538 L
527.945 309.538 L
528.115 309.848 L
528.285 309.848 L
528.454 309.848 L
528.624 309.848 L
528.794 309.848 L
528.963 309.848 L
529.133 309.848 L
529.303 309.848 L
529.472 309.848 L
529.642 309.848 L
529.812 309.848 L
529.982 309.848 L
530.151 309.848 L
530.321 309.848 L
530.491 309.848 L
530.66 309.848 L
530.83 309.848 L
531 309.848 L
531.169 309.848 L
531.339 309.848 L
531.509 309.229 L
531.678 309.229 L
531.848 309.229 L
532.018 309.229 L
532.188 309.229 L
532.357 309.229 L
532.527 309.229 L
532.697 309.229 L
532.866 309.229 L
533.036 309.229 L
533.206 309.848 L
533.375 309.848 L
533.545 309.848 L
533.715 309.848 L
533.884 309.848 L
534.054 309.848 L
534.224 309.848 L
534.393 309.848 L
534.563 309.848 L
534.733 309.848 L
534.903 309.229 L
535.072 309.229 L
535.242 309.229 L
535.412 309.229 L
535.581 309.229 L
535.751 309.229 L
535.921 309.229 L
536.09 309.229 L
536.26 309.229 L
536.43 309.229 L
536.599 309.229 L
536.769 309.229 L
536.939 309.229 L
537.108 309.229 L
537.278 309.229 L
537.448 309.229 L
537.617 309.229 L
537.787 309.229 L
537.957 309.229 L
538.127 309.229 L
538.296 309.229 L
538.466 309.229 L
538.636 309.229 L
538.805 309.229 L
538.975 309.229 L
539.145 309.229 L
539.314 309.229 L
539.484 309.229 L
539.654 309.229 L
539.823 309.229 L
539.993 309.229 L
540.163 309.229 L
540.333 309.229 L
540.502 309.229 L
540.672 309.229 L
540.842 309.229 L
541.011 309.229 L
541.181 309.229 L
541.351 309.229 L
541.52 309.229 L
541.69 308.92 L
541.86 308.92 L
542.029 308.92 L
542.199 308.92 L
542.369 308.92 L
542.538 308.92 L
542.708 308.92 L
542.878 308.92 L
543.047 308.92 L
543.217 308.92 L
543.387 310.157 L
543.557 310.157 L
543.726 310.157 L
543.896 310.157 L
544.066 310.157 L
544.235 310.157 L
544.405 310.157 L
544.575 310.157 L
544.744 310.157 L
544.914 310.157 L
545.084 308.61 L
545.253 308.61 L
545.423 308.61 L
545.593 308.61 L
545.763 308.61 L
545.932 308.61 L
546.102 308.61 L
546.272 308.61 L
546.441 308.61 L
546.611 308.61 L
546.781 309.848 L
546.95 309.848 L
547.12 309.848 L
547.29 309.848 L
547.459 309.848 L
547.629 309.848 L
547.799 309.848 L
547.968 309.848 L
548.138 309.848 L
548.308 309.848 L
548.477 309.848 L
548.647 309.848 L
548.817 309.848 L
548.987 309.848 L
549.156 309.848 L
549.326 309.848 L
549.496 309.848 L
549.665 309.848 L
549.835 309.848 L
550.005 309.848 L
550.174 310.157 L
550.344 310.157 L
550.514 310.157 L
550.683 310.157 L
550.853 310.157 L
551.023 310.157 L
551.193 310.157 L
551.362 310.157 L
551.532 310.157 L
551.702 310.157 L
551.871 309.848 L
552.041 309.848 L
552.211 309.848 L
552.38 309.848 L
552.55 309.848 L
552.72 309.848 L
552.889 309.848 L
553.059 309.848 L
553.229 309.848 L
553.398 309.848 L
553.568 309.848 L
553.738 309.848 L
553.908 309.848 L
554.077 309.848 L
554.247 309.848 L
554.417 309.848 L
554.586 309.848 L
554.756 309.848 L
554.926 309.848 L
555.095 309.848 L
555.265 309.848 L
555.435 309.848 L
555.604 309.848 L
555.774 309.848 L
555.944 309.848 L
556.113 309.848 L
556.283 309.848 L
556.453 309.848 L
556.622 309.848 L
556.792 309.848 L
556.962 309.229 L
557.132 309.229 L
557.301 309.229 L
557.471 309.229 L
557.641 309.229 L
557.81 309.229 L
557.98 309.229 L
558.15 309.229 L
558.319 309.229 L
558.489 309.229 L
558.659 309.848 L
558.828 309.848 L
558.998 309.848 L
559.168 309.848 L
559.338 309.848 L
559.507 309.848 L
559.677 309.848 L
559.847 309.848 L
560.016 309.848 L
560.186 309.848 L
560.356 308.92 L
560.525 308.92 L
560.695 308.92 L
560.865 308.92 L
561.034 308.92 L
561.204 308.92 L
561.374 308.92 L
561.543 308.92 L
561.713 308.92 L
561.883 308.92 L
562.052 309.229 L
562.222 309.229 L
562.392 309.229 L
562.562 309.229 L
562.731 309.229 L
562.901 309.229 L
563.071 309.229 L
563.24 309.229 L
563.41 309.229 L
563.58 309.229 L
563.749 309.229 L
563.919 309.229 L
564.089 309.229 L
564.258 309.229 L
564.428 309.229 L
564.598 309.229 L
564.768 309.229 L
564.937 309.229 L
565.107 309.229 L
565.277 309.229 L
565.446 308.61 L
565.616 308.61 L
565.786 308.61 L
565.955 308.61 L
566.125 308.61 L
566.295 308.61 L
566.464 308.61 L
566.634 308.61 L
566.804 308.61 L
566.973 308.61 L
567.143 309.848 L
567.313 309.848 L
567.482 309.848 L
567.652 309.848 L
567.822 309.848 L
567.992 309.848 L
568.161 309.848 L
568.331 309.848 L
568.501 309.848 L
568.67 309.848 L
568.84 309.229 L
569.01 309.229 L
569.179 309.229 L
569.349 309.229 L
569.519 309.229 L
569.688 309.229 L
569.858 309.229 L
570.028 309.229 L
570.198 309.229 L
570.367 309.229 L
570.537 309.848 L
570.707 309.848 L
570.876 309.848 L
571.046 309.848 L
571.216 309.848 L
571.385 309.848 L
571.555 309.848 L
571.725 309.848 L
571.894 309.848 L
572.064 309.848 L
572.234 308.92 L
572.403 308.92 L
572.573 308.92 L
572.743 308.92 L
572.912 308.92 L
573.082 308.92 L
573.252 308.92 L
573.422 308.92 L
573.591 308.92 L
573.761 308.92 L
573.931 310.157 L
574.1 310.157 L
574.27 310.157 L
574.44 310.157 L
574.609 310.157 L
574.779 310.157 L
574.949 310.157 L
575.118 310.157 L
575.288 310.157 L
575.458 310.157 L
575.628 308.92 L
575.797 308.92 L
575.967 308.92 L
576.137 308.92 L
576.306 308.92 L
576.476 308.92 L
576.646 308.92 L
576.815 308.92 L
576.985 308.92 L
577.155 308.92 L
577.324 309.848 L
577.494 309.848 L
577.664 309.848 L
577.833 309.848 L
578.003 309.848 L
578.173 309.848 L
578.342 309.848 L
578.512 309.848 L
578.682 309.848 L
578.852 309.848 L
579.021 309.229 L
579.191 309.229 L
579.361 309.229 L
579.53 309.229 L
579.7 309.229 L
579.87 309.229 L
580.039 309.229 L
580.209 309.229 L
580.379 309.229 L
580.548 309.229 L
580.718 309.848 L
580.888 309.848 L
581.057 309.848 L
581.227 309.848 L
581.397 309.848 L
581.567 309.848 L
581.736 309.848 L
581.906 309.848 L
582.076 309.848 L
582.245 309.848 L
582.415 309.229 L
582.585 309.229 L
582.754 309.229 L
582.924 309.229 L
583.094 309.229 L
583.263 309.229 L
583.433 309.229 L
583.603 309.229 L
583.773 309.229 L
583.942 309.229 L
584.112 309.229 L
584.282 309.229 L
584.451 309.229 L
584.621 309.229 L
584.791 309.229 L
584.96 309.229 L
585.13 309.229 L
585.3 309.229 L
585.469 309.229 L
585.639 309.229 L
585.809 309.229 L
585.978 309.229 L
586.148 309.229 L
586.318 309.229 L
586.487 309.229 L
586.657 309.229 L
586.827 309.229 L
586.997 309.229 L
587.166 309.229 L
587.336 309.229 L
587.506 309.538 L
587.675 309.538 L
587.845 309.538 L
588.015 309.538 L
588.184 309.538 L
588.354 309.538 L
588.524 309.538 L
588.693 309.538 L
588.863 309.538 L
589.033 309.538 L
589.203 309.229 L
589.372 309.229 L
589.542 309.229 L
589.712 309.229 L
589.881 309.229 L
590.051 309.229 L
590.221 309.229 L
590.39 309.229 L
590.56 309.229 L
590.73 309.229 L
590.899 309.848 L
591.069 309.848 L
591.239 309.848 L
591.408 309.848 L
591.578 309.848 L
591.748 309.848 L
591.917 309.848 L
592.087 309.848 L
592.257 309.848 L
592.427 309.848 L
592.596 309.848 L
592.766 309.848 L
592.936 309.848 L
593.105 309.848 L
593.275 309.848 L
593.445 309.848 L
593.614 309.848 L
593.784 309.848 L
593.954 309.848 L
594.123 309.848 L
594.293 309.538 L
594.463 309.538 L
594.633 309.538 L
594.802 309.538 L
594.972 309.538 L
595.142 309.538 L
595.311 309.538 L
595.481 309.538 L
595.651 309.538 L
595.82 309.538 L
595.99 309.229 L
596.16 309.229 L
596.329 309.229 L
596.499 309.229 L
596.669 309.229 L
596.838 309.229 L
597.008 309.229 L
597.178 309.229 L
597.347 309.229 L
597.517 309.229 L
597.687 310.467 L
597.857 310.467 L
598.026 310.467 L
598.196 310.467 L
598.366 310.467 L
598.535 310.467 L
598.705 310.467 L
598.875 310.467 L
599.044 310.467 L
599.214 310.467 L
599.384 309.229 L
599.553 309.229 L
599.723 309.229 L
599.893 309.229 L
600.063 309.229 L
600.232 309.229 L
600.402 309.229 L
600.572 309.229 L
600.741 309.229 L
600.911 309.229 L
601.081 310.157 L
601.25 310.157 L
601.42 310.157 L
601.59 310.157 L
601.759 310.157 L
601.929 310.157 L
602.099 310.157 L
602.268 310.157 L
602.438 310.157 L
602.608 310.157 L
602.778 309.229 L
602.947 309.229 L
603.117 309.229 L
603.287 309.229 L
603.456 309.229 L
603.626 309.229 L
603.796 309.229 L
603.965 309.229 L
604.135 309.229 L
604.305 309.229 L
604.474 309.229 L
604.644 309.229 L
604.814 309.229 L
604.983 309.229 L
605.153 309.229 L
605.323 309.229 L
605.492 309.229 L
605.662 309.229 L
605.832 309.229 L
606.002 309.229 L
606.171 309.229 L
606.341 309.229 L
606.511 309.229 L
606.68 309.229 L
606.85 309.229 L
607.02 309.229 L
607.189 309.229 L
607.359 309.229 L
607.529 309.229 L
607.698 309.229 L
607.868 309.229 L
608.038 309.229 L
608.208 309.229 L
608.377 309.229 L
608.547 309.229 L
608.717 309.229 L
608.886 309.229 L
609.056 309.229 L
609.226 309.229 L
609.395 309.229 L
609.565 309.229 L
609.735 309.229 L
609.904 309.229 L
610.074 309.229 L
610.244 309.229 L
610.413 309.229 L
610.583 309.229 L
610.753 309.229 L
610.922 309.229 L
611.092 309.229 L
611.262 310.157 L
611.432 310.157 L
611.601 310.157 L
611.771 310.157 L
611.941 310.157 L
612.11 310.157 L
612.28 310.157 L
612.45 310.157 L
612.619 310.157 L
612.789 310.157 L
612.959 309.229 L
613.128 309.229 L
613.298 309.229 L
613.468 309.229 L
613.638 309.229 L
613.807 309.229 L
613.977 309.229 L
614.147 309.229 L
614.316 309.229 L
614.486 309.229 L
614.656 309.848 L
614.825 309.848 L
614.995 309.848 L
615.165 309.848 L
615.334 309.848 L
615.504 309.848 L
615.674 309.848 L
615.843 309.848 L
616.013 309.848 L
616.183 309.848 L
616.352 308.61 L
616.522 308.61 L
616.692 308.61 L
616.862 308.61 L
617.031 308.61 L
617.201 308.61 L
617.371 308.61 L
617.54 308.61 L
617.71 308.61 L
617.88 308.61 L
618.049 309.848 L
618.219 309.848 L
618.389 309.848 L
618.558 309.848 L
618.728 309.848 L
618.898 309.848 L
619.068 309.848 L
619.237 309.848 L
619.407 309.848 L
619.577 309.848 L
619.746 308.92 L
619.916 308.92 L
620.086 308.92 L
620.255 308.92 L
620.425 308.92 L
620.595 308.92 L
620.764 308.92 L
620.934 308.92 L
621.104 308.92 L
621.273 308.92 L
621.443 309.848 L
621.613 309.848 L
621.783 309.848 L
621.952 309.848 L
622.122 309.848 L
622.292 309.848 L
622.461 309.848 L
622.631 309.848 L
622.801 309.848 L
622.97 309.848 L
623.14 309.229 L
623.31 309.229 L
623.479 309.229 L
623.649 309.229 L
623.819 309.229 L
623.988 309.229 L
624.158 309.229 L
624.328 309.229 L
624.497 309.229 L
624.667 309.229 L
624.837 309.848 L
625.007 309.848 L
625.176 309.848 L
625.346 309.848 L
625.516 309.848 L
625.685 309.848 L
625.855 309.848 L
626.025 309.848 L
626.194 309.848 L
626.364 309.848 L
626.534 309.229 L
626.703 309.229 L
626.873 309.229 L
627.043 309.229 L
627.213 309.229 L
627.382 309.229 L
627.552 309.229 L
627.722 309.229 L
627.891 309.229 L
628.061 309.229 L
628.231 309.229 L
628.4 309.229 L
628.57 309.229 L
628.74 309.229 L
628.909 309.229 L
629.079 309.229 L
629.249 309.229 L
629.418 309.229 L
629.588 309.229 L
629.758 309.229 L
629.927 309.229 L
630.097 309.229 L
630.267 309.229 L
630.437 309.229 L
630.606 309.229 L
630.776 309.229 L
630.946 309.229 L
631.115 309.229 L
631.285 309.229 L
631.455 309.229 L
631.624 309.848 L
631.794 309.848 L
631.964 309.848 L
632.133 309.848 L
632.303 309.848 L
632.473 309.848 L
632.643 309.848 L
632.812 309.848 L
632.982 309.848 L
633.152 309.848 L
633.321 309.229 L
633.491 309.229 L
633.661 309.229 L
633.83 309.229 L
634 309.229 L
634.065 309.229 L
S
GR
%%Trailer
%%Pages: 1
%%EOF
