%!PS-Adobe-3.0 EPSF-3.0
%%Creator: (MATLAB, The Mathworks, Inc. Version 9.1.0.441655 \(R2016b\). Operating System: Windows 8)
%%Title: C:/Users/simon/Documents/Unief/M1/CACSD_MPC/Exercises/Practicum/cacsd/report/images/cutoff/thetadot.eps
%%CreationDate: 2017-05-21T22:26:42
%%Pages: (atend)
%%BoundingBox: 0 0 420 315
%%LanguageLevel: 3
%%EndComments
%%BeginProlog
%%BeginResource: procset (Apache XML Graphics Std ProcSet) 1.2 0
%%Version: 1.2 0
%%Copyright: (Copyright 2001-2003,2010 The Apache Software Foundation. License terms: http://www.apache.org/licenses/LICENSE-2.0)
/bd{bind def}bind def
/ld{load def}bd
/GR/grestore ld
/M/moveto ld
/LJ/setlinejoin ld
/C/curveto ld
/f/fill ld
/LW/setlinewidth ld
/GC/setgray ld
/t/show ld
/N/newpath ld
/CT/concat ld
/cp/closepath ld
/S/stroke ld
/L/lineto ld
/CC/setcmykcolor ld
/A/ashow ld
/GS/gsave ld
/RC/setrgbcolor ld
/RM/rmoveto ld
/ML/setmiterlimit ld
/re {4 2 roll M
1 index 0 rlineto
0 exch rlineto
neg 0 rlineto
cp } bd
/_ctm matrix def
/_tm matrix def
/BT { _ctm currentmatrix pop matrix _tm copy pop 0 0 moveto } bd
/ET { _ctm setmatrix } bd
/iTm { _ctm setmatrix _tm concat } bd
/Tm { _tm astore pop iTm 0 0 moveto } bd
/ux 0.0 def
/uy 0.0 def
/F {
  /Tp exch def
  /Tf exch def
  Tf findfont Tp scalefont setfont
  /cf Tf def  /cs Tp def
} bd
/ULS {currentpoint /uy exch def /ux exch def} bd
/ULE {
  /Tcx currentpoint pop def
  gsave
  newpath
  cf findfont cs scalefont dup
  /FontMatrix get 0 get /Ts exch def /FontInfo get dup
  /UnderlinePosition get Ts mul /To exch def
  /UnderlineThickness get Ts mul /Tt exch def
  ux uy To add moveto  Tcx uy To add lineto
  Tt setlinewidth stroke
  grestore
} bd
/OLE {
  /Tcx currentpoint pop def
  gsave
  newpath
  cf findfont cs scalefont dup
  /FontMatrix get 0 get /Ts exch def /FontInfo get dup
  /UnderlinePosition get Ts mul /To exch def
  /UnderlineThickness get Ts mul /Tt exch def
  ux uy To add cs add moveto Tcx uy To add cs add lineto
  Tt setlinewidth stroke
  grestore
} bd
/SOE {
  /Tcx currentpoint pop def
  gsave
  newpath
  cf findfont cs scalefont dup
  /FontMatrix get 0 get /Ts exch def /FontInfo get dup
  /UnderlinePosition get Ts mul /To exch def
  /UnderlineThickness get Ts mul /Tt exch def
  ux uy To add cs 10 mul 26 idiv add moveto Tcx uy To add cs 10 mul 26 idiv add lineto
  Tt setlinewidth stroke
  grestore
} bd
/QT {
/Y22 exch store
/X22 exch store
/Y21 exch store
/X21 exch store
currentpoint
/Y21 load 2 mul add 3 div exch
/X21 load 2 mul add 3 div exch
/X21 load 2 mul /X22 load add 3 div
/Y21 load 2 mul /Y22 load add 3 div
/X22 load /Y22 load curveto
} bd
/SSPD {
dup length /d exch dict def
{
/v exch def
/k exch def
currentpagedevice k known {
/cpdv currentpagedevice k get def
v cpdv ne {
/upd false def
/nullv v type /nulltype eq def
/nullcpdv cpdv type /nulltype eq def
nullv nullcpdv or
{
/upd true def
} {
/sametype v type cpdv type eq def
sametype {
v type /arraytype eq {
/vlen v length def
/cpdvlen cpdv length def
vlen cpdvlen eq {
0 1 vlen 1 sub {
/i exch def
/obj v i get def
/cpdobj cpdv i get def
obj cpdobj ne {
/upd true def
exit
} if
} for
} {
/upd true def
} ifelse
} {
v type /dicttype eq {
v {
/dv exch def
/dk exch def
/cpddv cpdv dk get def
dv cpddv ne {
/upd true def
exit
} if
} forall
} {
/upd true def
} ifelse
} ifelse
} if
} ifelse
upd true eq {
d k v put
} if
} if
} if
} forall
d length 0 gt {
d setpagedevice
} if
} bd
/RE { % /NewFontName [NewEncodingArray] /FontName RE -
  findfont dup length dict begin
  {
    1 index /FID ne
    {def} {pop pop} ifelse
  } forall
  /Encoding exch def
  /FontName 1 index def
  currentdict definefont pop
  end
} bind def
%%EndResource
%%BeginResource: procset (Apache XML Graphics EPS ProcSet) 1.0 0
%%Version: 1.0 0
%%Copyright: (Copyright 2002-2003 The Apache Software Foundation. License terms: http://www.apache.org/licenses/LICENSE-2.0)
/BeginEPSF { %def
/b4_Inc_state save def         % Save state for cleanup
/dict_count countdictstack def % Count objects on dict stack
/op_count count 1 sub def      % Count objects on operand stack
userdict begin                 % Push userdict on dict stack
/showpage { } def              % Redefine showpage, { } = null proc
0 setgray 0 setlinecap         % Prepare graphics state
1 setlinewidth 0 setlinejoin
10 setmiterlimit [ ] 0 setdash newpath
/languagelevel where           % If level not equal to 1 then
{pop languagelevel             % set strokeadjust and
1 ne                           % overprint to their defaults.
{false setstrokeadjust false setoverprint
} if
} if
} bd
/EndEPSF { %def
count op_count sub {pop} repeat            % Clean up stacks
countdictstack dict_count sub {end} repeat
b4_Inc_state restore
} bd
%%EndResource
%FOPBeginFontDict
%%IncludeResource: font Courier-Bold
%%IncludeResource: font Helvetica
%%IncludeResource: font Courier-BoldOblique
%%IncludeResource: font Courier-Oblique
%%IncludeResource: font Times-Roman
%%IncludeResource: font Helvetica-BoldOblique
%%IncludeResource: font Helvetica-Bold
%%IncludeResource: font Helvetica-Oblique
%%IncludeResource: font Times-BoldItalic
%%IncludeResource: font Courier
%%IncludeResource: font Times-Italic
%%IncludeResource: font Times-Bold
%%IncludeResource: font Symbol
%%IncludeResource: font ZapfDingbats
%FOPEndFontDict
%%BeginResource: encoding WinAnsiEncoding
/WinAnsiEncoding [
/.notdef /.notdef /.notdef /.notdef /.notdef
/.notdef /.notdef /.notdef /.notdef /.notdef
/.notdef /.notdef /.notdef /.notdef /.notdef
/.notdef /.notdef /.notdef /.notdef /.notdef
/.notdef /.notdef /.notdef /.notdef /.notdef
/.notdef /.notdef /.notdef /.notdef /.notdef
/.notdef /.notdef /space /exclam /quotedbl
/numbersign /dollar /percent /ampersand /quotesingle
/parenleft /parenright /asterisk /plus /comma
/hyphen /period /slash /zero /one
/two /three /four /five /six
/seven /eight /nine /colon /semicolon
/less /equal /greater /question /at
/A /B /C /D /E
/F /G /H /I /J
/K /L /M /N /O
/P /Q /R /S /T
/U /V /W /X /Y
/Z /bracketleft /backslash /bracketright /asciicircum
/underscore /quoteleft /a /b /c
/d /e /f /g /h
/i /j /k /l /m
/n /o /p /q /r
/s /t /u /v /w
/x /y /z /braceleft /bar
/braceright /asciitilde /bullet /Euro /bullet
/quotesinglbase /florin /quotedblbase /ellipsis /dagger
/daggerdbl /circumflex /perthousand /Scaron /guilsinglleft
/OE /bullet /Zcaron /bullet /bullet
/quoteleft /quoteright /quotedblleft /quotedblright /bullet
/endash /emdash /asciitilde /trademark /scaron
/guilsinglright /oe /bullet /zcaron /Ydieresis
/space /exclamdown /cent /sterling /currency
/yen /brokenbar /section /dieresis /copyright
/ordfeminine /guillemotleft /logicalnot /sfthyphen /registered
/macron /degree /plusminus /twosuperior /threesuperior
/acute /mu /paragraph /middot /cedilla
/onesuperior /ordmasculine /guillemotright /onequarter /onehalf
/threequarters /questiondown /Agrave /Aacute /Acircumflex
/Atilde /Adieresis /Aring /AE /Ccedilla
/Egrave /Eacute /Ecircumflex /Edieresis /Igrave
/Iacute /Icircumflex /Idieresis /Eth /Ntilde
/Ograve /Oacute /Ocircumflex /Otilde /Odieresis
/multiply /Oslash /Ugrave /Uacute /Ucircumflex
/Udieresis /Yacute /Thorn /germandbls /agrave
/aacute /acircumflex /atilde /adieresis /aring
/ae /ccedilla /egrave /eacute /ecircumflex
/edieresis /igrave /iacute /icircumflex /idieresis
/eth /ntilde /ograve /oacute /ocircumflex
/otilde /odieresis /divide /oslash /ugrave
/uacute /ucircumflex /udieresis /yacute /thorn
/ydieresis
] def
%%EndResource
%FOPBeginFontReencode
/Courier-Bold findfont
dup length dict begin
  {1 index /FID ne {def} {pop pop} ifelse} forall
  /Encoding WinAnsiEncoding def
  currentdict
end
/Courier-Bold exch definefont pop
/Helvetica findfont
dup length dict begin
  {1 index /FID ne {def} {pop pop} ifelse} forall
  /Encoding WinAnsiEncoding def
  currentdict
end
/Helvetica exch definefont pop
/Courier-BoldOblique findfont
dup length dict begin
  {1 index /FID ne {def} {pop pop} ifelse} forall
  /Encoding WinAnsiEncoding def
  currentdict
end
/Courier-BoldOblique exch definefont pop
/Courier-Oblique findfont
dup length dict begin
  {1 index /FID ne {def} {pop pop} ifelse} forall
  /Encoding WinAnsiEncoding def
  currentdict
end
/Courier-Oblique exch definefont pop
/Times-Roman findfont
dup length dict begin
  {1 index /FID ne {def} {pop pop} ifelse} forall
  /Encoding WinAnsiEncoding def
  currentdict
end
/Times-Roman exch definefont pop
/Helvetica-BoldOblique findfont
dup length dict begin
  {1 index /FID ne {def} {pop pop} ifelse} forall
  /Encoding WinAnsiEncoding def
  currentdict
end
/Helvetica-BoldOblique exch definefont pop
/Helvetica-Bold findfont
dup length dict begin
  {1 index /FID ne {def} {pop pop} ifelse} forall
  /Encoding WinAnsiEncoding def
  currentdict
end
/Helvetica-Bold exch definefont pop
/Helvetica-Oblique findfont
dup length dict begin
  {1 index /FID ne {def} {pop pop} ifelse} forall
  /Encoding WinAnsiEncoding def
  currentdict
end
/Helvetica-Oblique exch definefont pop
/Times-BoldItalic findfont
dup length dict begin
  {1 index /FID ne {def} {pop pop} ifelse} forall
  /Encoding WinAnsiEncoding def
  currentdict
end
/Times-BoldItalic exch definefont pop
/Courier findfont
dup length dict begin
  {1 index /FID ne {def} {pop pop} ifelse} forall
  /Encoding WinAnsiEncoding def
  currentdict
end
/Courier exch definefont pop
/Times-Italic findfont
dup length dict begin
  {1 index /FID ne {def} {pop pop} ifelse} forall
  /Encoding WinAnsiEncoding def
  currentdict
end
/Times-Italic exch definefont pop
/Times-Bold findfont
dup length dict begin
  {1 index /FID ne {def} {pop pop} ifelse} forall
  /Encoding WinAnsiEncoding def
  currentdict
end
/Times-Bold exch definefont pop
%FOPEndFontReencode
%%EndProlog
%%Page: 1 1
%%PageBoundingBox: 0 0 420 315
%%BeginPageSetup
[1 0 0 -1 0 315] CT
%%EndPageSetup
GS
[0.6 0 0 0.6 0 0] CT
1 GC
N
0 0 700 525 re
f
GR
GS
[0.6 0 0 0.6 0 0] CT
1 GC
N
0 0 700 525 re
f
GR
GS
[0.6 0 0 0.6 0 0] CT
1 GC
N
91 463 M
634 463 L
634 39 L
91 39 L
cp
f
GR
GS
[0.6 0 0 0.6 0 0] CT
0.149 GC
2 setlinecap
1 LJ
0.833 LW
N
91 463 M
634 463 L
S
GR
GS
[0.6 0 0 0.6 0 0] CT
0.149 GC
2 setlinecap
1 LJ
0.833 LW
N
91 39 M
634 39 L
S
GR
GS
[0.6 0 0 0.6 0 0] CT
0.149 GC
2 setlinecap
1 LJ
0.833 LW
N
91 463 M
91 457.57 L
S
GR
GS
[0.6 0 0 0.6 0 0] CT
0.149 GC
2 setlinecap
1 LJ
0.833 LW
N
142.785 463 M
142.785 457.57 L
S
GR
GS
[0.6 0 0 0.6 0 0] CT
0.149 GC
2 setlinecap
1 LJ
0.833 LW
N
194.569 463 M
194.569 457.57 L
S
GR
GS
[0.6 0 0 0.6 0 0] CT
0.149 GC
2 setlinecap
1 LJ
0.833 LW
N
246.354 463 M
246.354 457.57 L
S
GR
GS
[0.6 0 0 0.6 0 0] CT
0.149 GC
2 setlinecap
1 LJ
0.833 LW
N
298.139 463 M
298.139 457.57 L
S
GR
GS
[0.6 0 0 0.6 0 0] CT
0.149 GC
2 setlinecap
1 LJ
0.833 LW
N
349.923 463 M
349.923 457.57 L
S
GR
GS
[0.6 0 0 0.6 0 0] CT
0.149 GC
2 setlinecap
1 LJ
0.833 LW
N
401.708 463 M
401.708 457.57 L
S
GR
GS
[0.6 0 0 0.6 0 0] CT
0.149 GC
2 setlinecap
1 LJ
0.833 LW
N
453.493 463 M
453.493 457.57 L
S
GR
GS
[0.6 0 0 0.6 0 0] CT
0.149 GC
2 setlinecap
1 LJ
0.833 LW
N
505.277 463 M
505.277 457.57 L
S
GR
GS
[0.6 0 0 0.6 0 0] CT
0.149 GC
2 setlinecap
1 LJ
0.833 LW
N
557.062 463 M
557.062 457.57 L
S
GR
GS
[0.6 0 0 0.6 0 0] CT
0.149 GC
2 setlinecap
1 LJ
0.833 LW
N
608.847 463 M
608.847 457.57 L
S
GR
GS
[0.6 0 0 0.6 0 0] CT
0.149 GC
2 setlinecap
1 LJ
0.833 LW
N
91 39 M
91 44.43 L
S
GR
GS
[0.6 0 0 0.6 0 0] CT
0.149 GC
2 setlinecap
1 LJ
0.833 LW
N
142.785 39 M
142.785 44.43 L
S
GR
GS
[0.6 0 0 0.6 0 0] CT
0.149 GC
2 setlinecap
1 LJ
0.833 LW
N
194.569 39 M
194.569 44.43 L
S
GR
GS
[0.6 0 0 0.6 0 0] CT
0.149 GC
2 setlinecap
1 LJ
0.833 LW
N
246.354 39 M
246.354 44.43 L
S
GR
GS
[0.6 0 0 0.6 0 0] CT
0.149 GC
2 setlinecap
1 LJ
0.833 LW
N
298.139 39 M
298.139 44.43 L
S
GR
GS
[0.6 0 0 0.6 0 0] CT
0.149 GC
2 setlinecap
1 LJ
0.833 LW
N
349.923 39 M
349.923 44.43 L
S
GR
GS
[0.6 0 0 0.6 0 0] CT
0.149 GC
2 setlinecap
1 LJ
0.833 LW
N
401.708 39 M
401.708 44.43 L
S
GR
GS
[0.6 0 0 0.6 0 0] CT
0.149 GC
2 setlinecap
1 LJ
0.833 LW
N
453.493 39 M
453.493 44.43 L
S
GR
GS
[0.6 0 0 0.6 0 0] CT
0.149 GC
2 setlinecap
1 LJ
0.833 LW
N
505.277 39 M
505.277 44.43 L
S
GR
GS
[0.6 0 0 0.6 0 0] CT
0.149 GC
2 setlinecap
1 LJ
0.833 LW
N
557.062 39 M
557.062 44.43 L
S
GR
GS
[0.6 0 0 0.6 0 0] CT
0.149 GC
2 setlinecap
1 LJ
0.833 LW
N
608.847 39 M
608.847 44.43 L
S
GR
GS
[0.6 0 0 0.6 54.6 281.79999] CT
0.149 GC
/Helvetica 16.667 F
GS
[1 0 0 1 0 0] CT
-5 18 moveto 
1 -1 scale
(0) t 
GR
GR
GS
[0.6 0 0 0.6 85.67081 281.79999] CT
0.149 GC
/Helvetica 16.667 F
GS
[1 0 0 1 0 0] CT
-5 18 moveto 
1 -1 scale
(2) t 
GR
GR
GS
[0.6 0 0 0.6 116.74161 281.79999] CT
0.149 GC
/Helvetica 16.667 F
GS
[1 0 0 1 0 0] CT
-5 18 moveto 
1 -1 scale
(4) t 
GR
GR
GS
[0.6 0 0 0.6 147.81242 281.79999] CT
0.149 GC
/Helvetica 16.667 F
GS
[1 0 0 1 0 0] CT
-5 18 moveto 
1 -1 scale
(6) t 
GR
GR
GS
[0.6 0 0 0.6 178.88322 281.79999] CT
0.149 GC
/Helvetica 16.667 F
GS
[1 0 0 1 0 0] CT
-5 18 moveto 
1 -1 scale
(8) t 
GR
GR
GS
[0.6 0 0 0.6 209.95402 281.79999] CT
0.149 GC
/Helvetica 16.667 F
GS
[1 0 0 1 0 0] CT
-9.5 18 moveto 
1 -1 scale
(10) t 
GR
GR
GS
[0.6 0 0 0.6 241.02484 281.79999] CT
0.149 GC
/Helvetica 16.667 F
GS
[1 0 0 1 0 0] CT
-9.5 18 moveto 
1 -1 scale
(12) t 
GR
GR
GS
[0.6 0 0 0.6 272.09564 281.79999] CT
0.149 GC
/Helvetica 16.667 F
GS
[1 0 0 1 0 0] CT
-9.5 18 moveto 
1 -1 scale
(14) t 
GR
GR
GS
[0.6 0 0 0.6 303.16644 281.79999] CT
0.149 GC
/Helvetica 16.667 F
GS
[1 0 0 1 0 0] CT
-9.5 18 moveto 
1 -1 scale
(16) t 
GR
GR
GS
[0.6 0 0 0.6 334.23724 281.79999] CT
0.149 GC
/Helvetica 16.667 F
GS
[1 0 0 1 0 0] CT
-9.5 18 moveto 
1 -1 scale
(18) t 
GR
GR
GS
[0.6 0 0 0.6 365.30804 281.79999] CT
0.149 GC
/Helvetica 16.667 F
GS
[1 0 0 1 0 0] CT
-9.5 18 moveto 
1 -1 scale
(20) t 
GR
GR
GS
[0.6 0 0 0.6 217.50015 295.8] CT
0.149 GC
N
-44.241 19.15 M
-44.241 11.712 L
-46.475 11.712 L
-46.475 11.009 L
-44.71 11.009 -43.881 9.361 QT
-43.053 7.712 -43.053 5.791 QT
-42.272 5.791 L
-42.272 10.759 L
-38.46 10.759 L
-38.46 11.712 L
-42.272 11.712 L
-42.272 19.103 L
-42.272 20.228 -41.897 21.072 QT
-41.522 21.916 -40.538 21.916 QT
-39.616 21.916 -39.21 21.025 QT
-38.803 20.134 -38.803 19.103 QT
-38.803 17.509 L
-38.022 17.509 L
-38.022 19.15 L
-38.022 19.994 -38.335 20.822 QT
-38.647 21.65 -39.256 22.173 QT
-39.866 22.697 -40.725 22.697 QT
-42.35 22.697 -43.295 21.728 QT
-44.241 20.759 -44.241 19.15 QT
cp
f
GR
GS
[0.6 0 0 0.6 217.50015 295.8] CT
0.149 GC
N
-35.792 22.4 M
-35.792 21.447 L
-34.87 21.447 -34.277 21.306 QT
-33.683 21.166 -33.683 20.587 QT
-33.683 13.228 L
-33.683 12.181 -34.081 11.947 QT
-34.48 11.712 -35.667 11.712 QT
-35.667 10.759 L
-31.777 10.462 L
-31.777 20.587 L
-31.777 21.166 -31.269 21.306 QT
-30.761 21.447 -29.902 21.447 QT
-29.902 22.4 L
-35.792 22.4 L
cp
-34.636 5.822 M
-34.636 5.228 -34.191 4.783 QT
-33.745 4.337 -33.167 4.337 QT
-32.777 4.337 -32.425 4.533 QT
-32.074 4.728 -31.878 5.087 QT
-31.683 5.447 -31.683 5.822 QT
-31.683 6.416 -32.128 6.861 QT
-32.574 7.306 -33.167 7.306 QT
-33.745 7.306 -34.191 6.861 QT
-34.636 6.416 -34.636 5.822 QT
cp
f
GR
GS
[0.6 0 0 0.6 217.50015 295.8] CT
0.149 GC
N
-28.416 22.4 M
-28.416 21.447 L
-27.479 21.447 -26.893 21.306 QT
-26.307 21.166 -26.307 20.587 QT
-26.307 13.228 L
-26.307 12.494 -26.518 12.173 QT
-26.729 11.853 -27.143 11.783 QT
-27.557 11.712 -28.416 11.712 QT
-28.416 10.759 L
-24.494 10.462 L
-24.494 13.103 L
-23.947 11.947 -22.885 11.205 QT
-21.822 10.462 -20.572 10.462 QT
-17.463 10.462 -16.932 12.994 QT
-16.385 11.869 -15.346 11.166 QT
-14.307 10.462 -13.057 10.462 QT
-11.838 10.462 -11.002 10.861 QT
-10.166 11.259 -9.744 12.072 QT
-9.322 12.884 -9.322 14.103 QT
-9.322 20.587 L
-9.322 21.166 -8.721 21.306 QT
-8.119 21.447 -7.213 21.447 QT
-7.213 22.4 L
-13.385 22.4 L
-13.385 21.447 L
-12.463 21.447 -11.869 21.306 QT
-11.275 21.166 -11.275 20.587 QT
-11.275 14.181 L
-11.275 12.822 -11.658 11.994 QT
-12.041 11.166 -13.229 11.166 QT
-14.791 11.166 -15.807 12.416 QT
-16.822 13.666 -16.822 15.275 QT
-16.822 20.587 L
-16.822 21.166 -16.229 21.306 QT
-15.635 21.447 -14.713 21.447 QT
-14.713 22.4 L
-20.9 22.4 L
-20.9 21.447 L
-19.979 21.447 -19.385 21.306 QT
-18.791 21.166 -18.791 20.587 QT
-18.791 14.181 L
-18.791 12.869 -19.174 12.017 QT
-19.557 11.166 -20.729 11.166 QT
-22.307 11.166 -23.315 12.416 QT
-24.322 13.666 -24.322 15.275 QT
-24.322 20.587 L
-24.322 21.166 -23.729 21.306 QT
-23.135 21.447 -22.229 21.447 QT
-22.229 22.4 L
-28.416 22.4 L
cp
f
GR
GS
[0.6 0 0 0.6 217.50015 295.8] CT
0.149 GC
N
-0.272 22.697 M
-1.913 22.697 -3.288 21.837 QT
-4.663 20.978 -5.452 19.533 QT
-6.241 18.087 -6.241 16.478 QT
-6.241 14.9 -5.522 13.478 QT
-4.803 12.056 -3.514 11.173 QT
-2.225 10.291 -0.647 10.291 QT
0.587 10.291 1.502 10.712 QT
2.416 11.134 3.009 11.869 QT
3.603 12.603 3.908 13.603 QT
4.212 14.603 4.212 15.806 QT
4.212 16.166 3.931 16.166 QT
-3.881 16.166 L
-3.881 16.447 L
-3.881 18.697 -2.975 20.306 QT
-2.069 21.916 -0.022 21.916 QT
0.806 21.916 1.509 21.548 QT
2.212 21.181 2.736 20.517 QT
3.259 19.853 3.431 19.103 QT
3.462 19.009 3.533 18.939 QT
3.603 18.869 3.697 18.869 QT
3.931 18.869 L
4.212 18.869 4.212 19.212 QT
3.837 20.744 2.572 21.72 QT
1.306 22.697 -0.272 22.697 QT
cp
-3.85 15.494 M
2.306 15.494 L
2.306 14.478 2.025 13.439 QT
1.744 12.4 1.08 11.705 QT
0.416 11.009 -0.647 11.009 QT
-2.178 11.009 -3.014 12.439 QT
-3.85 13.869 -3.85 15.494 QT
cp
f
GR
GS
[0.6 0 0 0.6 217.50015 295.8] CT
0.149 GC
N
22.125 29.103 M
20.625 27.916 19.531 26.376 QT
18.438 24.837 17.75 23.095 QT
17.063 21.353 16.719 19.455 QT
16.375 17.556 16.375 15.65 QT
16.375 13.712 16.719 11.814 QT
17.063 9.916 17.766 8.166 QT
18.469 6.416 19.563 4.884 QT
20.656 3.353 22.125 2.197 QT
22.125 2.15 22.25 2.15 QT
22.5 2.15 L
22.578 2.15 22.648 2.22 QT
22.719 2.291 22.719 2.384 QT
22.719 2.509 22.656 2.556 QT
21.344 3.853 20.469 5.33 QT
19.594 6.806 19.055 8.47 QT
18.516 10.134 18.281 11.923 QT
18.047 13.712 18.047 15.65 QT
18.047 24.228 22.641 28.681 QT
22.719 28.775 22.719 28.916 QT
22.719 28.978 22.641 29.064 QT
22.563 29.15 22.5 29.15 QT
22.25 29.15 L
22.125 29.15 22.125 29.103 QT
cp
f
GR
GS
[0.6 0 0 0.6 217.50015 295.8] CT
0.149 GC
N
26.464 20.759 M
27.199 21.994 29.386 21.994 QT
30.324 21.994 31.183 21.666 QT
32.042 21.337 32.605 20.697 QT
33.167 20.056 33.167 19.134 QT
33.167 18.431 32.667 17.986 QT
32.167 17.541 31.433 17.384 QT
29.98 17.087 L
28.98 16.837 28.331 16.15 QT
27.683 15.462 27.683 14.494 QT
27.683 13.291 28.331 12.369 QT
28.98 11.447 30.05 10.955 QT
31.12 10.462 32.261 10.462 QT
33.495 10.462 34.464 11.048 QT
35.433 11.634 35.433 12.791 QT
35.433 13.416 35.081 13.884 QT
34.73 14.353 34.12 14.353 QT
33.761 14.353 33.503 14.126 QT
33.245 13.9 33.245 13.541 QT
33.245 13.228 33.425 12.931 QT
33.605 12.634 33.902 12.455 QT
34.199 12.275 34.511 12.275 QT
34.277 11.697 33.62 11.431 QT
32.964 11.166 32.214 11.166 QT
31.527 11.166 30.839 11.447 QT
30.152 11.728 29.738 12.259 QT
29.324 12.791 29.324 13.509 QT
29.324 14.009 29.667 14.376 QT
30.011 14.744 30.511 14.9 QT
32.089 15.212 L
32.839 15.369 33.464 15.775 QT
34.089 16.181 34.449 16.791 QT
34.808 17.4 34.808 18.197 QT
34.808 19.197 34.253 20.173 QT
33.699 21.15 32.87 21.728 QT
31.433 22.697 29.355 22.697 QT
27.917 22.697 26.714 22.041 QT
25.511 21.384 25.511 20.072 QT
25.511 19.337 25.941 18.791 QT
26.37 18.244 27.12 18.244 QT
27.542 18.244 27.839 18.509 QT
28.136 18.775 28.136 19.212 QT
28.136 19.822 27.675 20.291 QT
27.214 20.759 26.605 20.759 QT
26.464 20.759 L
cp
f
GR
GS
[0.6 0 0 0.6 217.50015 295.8] CT
0.149 GC
N
38.37 29.15 M
38.136 29.15 38.136 28.916 QT
38.136 28.791 38.183 28.744 QT
42.808 24.228 42.808 15.65 QT
42.808 7.072 38.245 2.619 QT
38.136 2.541 38.136 2.384 QT
38.136 2.291 38.206 2.22 QT
38.277 2.15 38.37 2.15 QT
38.62 2.15 L
38.699 2.15 38.761 2.197 QT
40.699 3.728 41.988 5.916 QT
43.277 8.103 43.878 10.587 QT
44.48 13.072 44.48 15.65 QT
44.48 17.556 44.16 19.408 QT
43.839 21.259 43.128 23.064 QT
42.417 24.869 41.339 26.392 QT
40.261 27.916 38.761 29.103 QT
38.699 29.15 38.62 29.15 QT
38.37 29.15 L
cp
f
GR
GS
[0.6 0 0 0.6 0 0] CT
0.149 GC
2 setlinecap
1 LJ
0.833 LW
N
91 463 M
91 39 L
S
GR
GS
[0.6 0 0 0.6 0 0] CT
0.149 GC
2 setlinecap
1 LJ
0.833 LW
N
634 463 M
634 39 L
S
GR
GS
[0.6 0 0 0.6 0 0] CT
0.149 GC
2 setlinecap
1 LJ
0.833 LW
N
91 463 M
96.43 463 L
S
GR
GS
[0.6 0 0 0.6 0 0] CT
0.149 GC
2 setlinecap
1 LJ
0.833 LW
N
91 401.924 M
96.43 401.924 L
S
GR
GS
[0.6 0 0 0.6 0 0] CT
0.149 GC
2 setlinecap
1 LJ
0.833 LW
N
91 340.849 M
96.43 340.849 L
S
GR
GS
[0.6 0 0 0.6 0 0] CT
0.149 GC
2 setlinecap
1 LJ
0.833 LW
N
91 279.773 M
96.43 279.773 L
S
GR
GS
[0.6 0 0 0.6 0 0] CT
0.149 GC
2 setlinecap
1 LJ
0.833 LW
N
91 218.698 M
96.43 218.698 L
S
GR
GS
[0.6 0 0 0.6 0 0] CT
0.149 GC
2 setlinecap
1 LJ
0.833 LW
N
91 157.622 M
96.43 157.622 L
S
GR
GS
[0.6 0 0 0.6 0 0] CT
0.149 GC
2 setlinecap
1 LJ
0.833 LW
N
91 96.546 M
96.43 96.546 L
S
GR
GS
[0.6 0 0 0.6 0 0] CT
0.149 GC
2 setlinecap
1 LJ
0.833 LW
N
634 463 M
628.57 463 L
S
GR
GS
[0.6 0 0 0.6 0 0] CT
0.149 GC
2 setlinecap
1 LJ
0.833 LW
N
634 401.924 M
628.57 401.924 L
S
GR
GS
[0.6 0 0 0.6 0 0] CT
0.149 GC
2 setlinecap
1 LJ
0.833 LW
N
634 340.849 M
628.57 340.849 L
S
GR
GS
[0.6 0 0 0.6 0 0] CT
0.149 GC
2 setlinecap
1 LJ
0.833 LW
N
634 279.773 M
628.57 279.773 L
S
GR
GS
[0.6 0 0 0.6 0 0] CT
0.149 GC
2 setlinecap
1 LJ
0.833 LW
N
634 218.698 M
628.57 218.698 L
S
GR
GS
[0.6 0 0 0.6 0 0] CT
0.149 GC
2 setlinecap
1 LJ
0.833 LW
N
634 157.622 M
628.57 157.622 L
S
GR
GS
[0.6 0 0 0.6 0 0] CT
0.149 GC
2 setlinecap
1 LJ
0.833 LW
N
634 96.546 M
628.57 96.546 L
S
GR
GS
[0.6 0 0 0.6 50.6 277.8] CT
0.149 GC
/Helvetica 16.667 F
GS
[1 0 0 1 0 0] CT
-30 7 moveto 
1 -1 scale
(-0.2) t 
GR
GR
GS
[0.6 0 0 0.6 50.6 241.15464] CT
0.149 GC
/Helvetica 16.667 F
GS
[1 0 0 1 0 0] CT
-39 7 moveto 
1 -1 scale
(-0.15) t 
GR
GR
GS
[0.6 0 0 0.6 50.6 204.50929] CT
0.149 GC
/Helvetica 16.667 F
GS
[1 0 0 1 0 0] CT
-30 7 moveto 
1 -1 scale
(-0.1) t 
GR
GR
GS
[0.6 0 0 0.6 50.6 167.86393] CT
0.149 GC
/Helvetica 16.667 F
GS
[1 0 0 1 0 0] CT
-39 7 moveto 
1 -1 scale
(-0.05) t 
GR
GR
GS
[0.6 0 0 0.6 50.6 131.21858] CT
0.149 GC
/Helvetica 16.667 F
GS
[1 0 0 1 0 0] CT
-10 7 moveto 
1 -1 scale
(0) t 
GR
GR
GS
[0.6 0 0 0.6 50.6 94.57323] CT
0.149 GC
/Helvetica 16.667 F
GS
[1 0 0 1 0 0] CT
-34 7 moveto 
1 -1 scale
(0.05) t 
GR
GR
GS
[0.6 0 0 0.6 50.6 57.92787] CT
0.149 GC
/Helvetica 16.667 F
GS
[1 0 0 1 0 0] CT
-24 7 moveto 
1 -1 scale
(0.1) t 
GR
GR
GS
[0 -0.6 0.6 0 24.2 150.59988] CT
0.149 GC
N
0.784 -33.215 M
0.784 -33.809 1.237 -34.254 QT
1.69 -34.7 2.269 -34.7 QT
2.644 -34.7 3.003 -34.504 QT
3.362 -34.309 3.558 -33.95 QT
3.753 -33.59 3.753 -33.215 QT
3.753 -32.622 3.315 -32.176 QT
2.878 -31.731 2.269 -31.731 QT
1.69 -31.731 1.237 -32.176 QT
0.784 -32.622 0.784 -33.215 QT
cp
f
GR
GS
[0 -0.6 0.6 0 24.2 150.59988] CT
0.149 GC
N
-2.286 -9.303 M
-3.505 -9.303 -4.247 -10.194 QT
-4.989 -11.084 -5.27 -12.35 QT
-5.552 -13.616 -5.552 -14.866 QT
-5.552 -14.881 L
-5.552 -16.225 -5.294 -17.678 QT
-5.036 -19.131 -4.544 -20.577 QT
-4.052 -22.022 -3.489 -23.147 QT
-3.098 -23.944 -2.473 -24.92 QT
-1.848 -25.897 -1.075 -26.749 QT
-0.302 -27.6 0.589 -28.116 QT
1.48 -28.631 2.386 -28.631 QT
2.417 -28.631 L
3.386 -28.631 4.042 -28.092 QT
4.698 -27.553 5.058 -26.709 QT
5.417 -25.866 5.566 -24.905 QT
5.714 -23.944 5.714 -23.069 QT
5.714 -21.038 5.159 -18.905 QT
4.605 -16.772 3.62 -14.788 QT
3.261 -14.038 2.605 -13.022 QT
1.948 -12.006 1.222 -11.202 QT
0.495 -10.397 -0.419 -9.85 QT
-1.333 -9.303 -2.255 -9.303 QT
-2.286 -9.303 L
cp
-2.223 -10.006 M
-1.333 -10.006 -0.505 -10.967 QT
0.323 -11.928 0.941 -13.288 QT
1.558 -14.647 2.027 -16.077 QT
2.495 -17.506 2.714 -18.506 QT
-2.786 -18.506 L
-3.208 -16.819 -3.45 -15.584 QT
-3.692 -14.35 -3.692 -13.163 QT
-3.692 -10.006 -2.223 -10.006 QT
cp
-2.583 -19.459 M
2.948 -19.459 L
3.245 -20.647 3.417 -21.444 QT
3.589 -22.241 3.706 -23.124 QT
3.823 -24.006 3.823 -24.772 QT
3.823 -27.944 2.386 -27.944 QT
0.667 -27.944 -0.575 -25.178 QT
-1.817 -22.413 -2.583 -19.459 QT
cp
f
GR
GS
[0.6 0 0 0.6 0 0] CT
0 0.447 0.741 RC
1 LJ
3.333 LW
N
91 137.574 M
91.129 137.611 L
91.259 137.647 L
91.388 137.684 L
91.518 137.647 L
91.647 137.72 L
91.777 137.647 L
91.906 137.574 L
92.036 137.501 L
92.165 137.392 L
92.295 142.261 L
92.424 142.334 L
92.554 142.334 L
92.683 142.297 L
92.812 142.151 L
92.942 141.641 L
93.071 141.422 L
93.201 141.277 L
93.33 141.021 L
93.46 140.73 L
93.589 144.993 L
93.719 144.665 L
93.848 144.264 L
93.978 143.936 L
94.107 143.645 L
94.237 143.28 L
94.366 143.025 L
94.495 142.661 L
94.625 142.515 L
94.754 142.223 L
94.884 146.325 L
95.013 146.216 L
95.143 146.143 L
95.272 145.888 L
95.402 145.596 L
95.531 145.341 L
95.661 144.94 L
95.79 144.466 L
95.92 144.138 L
96.049 143.774 L
96.178 147.761 L
96.308 147.542 L
96.437 147.287 L
96.567 147.105 L
96.696 146.886 L
96.826 146.74 L
96.955 146.558 L
97.085 146.448 L
97.214 146.266 L
97.344 145.975 L
97.473 150.095 L
97.603 150.022 L
97.732 149.804 L
97.861 149.549 L
97.991 149.403 L
98.12 149.439 L
98.25 149.33 L
98.379 149.221 L
98.509 149.221 L
98.638 149.221 L
98.768 153.203 L
98.897 153.203 L
99.027 153.203 L
99.156 153.13 L
99.286 153.167 L
99.415 153.13 L
99.544 153.276 L
99.674 153.276 L
99.803 153.349 L
99.933 153.385 L
100.062 157.367 L
100.192 157.367 L
100.321 157.367 L
100.451 157.44 L
100.58 157.549 L
100.71 157.768 L
100.839 157.913 L
100.969 157.877 L
101.098 158.023 L
101.227 158.096 L
101.357 161.794 L
101.486 161.867 L
101.616 161.867 L
101.745 161.904 L
101.875 162.049 L
102.004 162.049 L
102.134 162.195 L
102.263 162.378 L
102.393 162.523 L
102.522 162.596 L
102.652 166.106 L
102.781 166.361 L
102.91 166.361 L
103.04 166.398 L
103.169 166.689 L
103.299 166.762 L
103.428 166.835 L
103.558 166.908 L
103.687 167.017 L
103.817 167.127 L
103.946 170.309 L
104.076 170.309 L
104.205 170.454 L
104.335 170.564 L
104.464 170.491 L
104.593 170.491 L
104.723 170.673 L
104.852 170.637 L
104.982 170.819 L
105.111 170.892 L
105.241 173.862 L
105.37 174.117 L
105.5 174.117 L
105.629 174.263 L
105.759 174.445 L
105.888 174.554 L
106.018 174.664 L
106.147 174.809 L
106.276 174.919 L
106.406 175.101 L
106.535 177.752 L
106.665 177.897 L
106.794 178.08 L
106.924 178.153 L
107.053 178.262 L
107.183 178.444 L
107.312 178.517 L
107.442 178.626 L
107.571 178.699 L
107.701 178.663 L
107.83 181.084 L
107.959 181.156 L
108.089 181.12 L
108.218 181.084 L
108.348 181.047 L
108.477 181.156 L
108.607 181.12 L
108.736 181.047 L
108.866 180.974 L
108.995 181.047 L
109.125 183.234 L
109.254 183.198 L
109.384 183.161 L
109.513 183.234 L
109.642 183.088 L
109.772 183.125 L
109.901 183.161 L
110.031 183.125 L
110.16 183.234 L
110.29 183.052 L
110.419 185.258 L
110.549 185.331 L
110.678 185.221 L
110.808 185.221 L
110.937 185.221 L
111.067 185.331 L
111.196 185.258 L
111.325 185.185 L
111.455 185.258 L
111.584 185.258 L
111.714 187.162 L
111.843 187.089 L
111.973 187.198 L
112.102 187.198 L
112.232 187.089 L
112.361 187.016 L
112.491 187.016 L
112.62 187.052 L
112.75 187.052 L
112.879 186.98 L
113.008 188.88 L
113.138 188.88 L
113.267 188.88 L
113.397 188.88 L
113.526 188.917 L
113.656 188.917 L
113.785 188.88 L
113.915 188.953 L
114.044 188.99 L
114.174 188.99 L
114.303 190.68 L
114.433 190.716 L
114.562 190.789 L
114.691 190.752 L
114.821 190.752 L
114.95 190.68 L
115.08 190.789 L
115.209 190.825 L
115.339 190.789 L
115.468 190.643 L
115.598 192.372 L
115.727 192.445 L
115.857 192.409 L
115.986 192.372 L
116.116 192.372 L
116.245 192.372 L
116.374 192.299 L
116.504 192.227 L
116.633 192.227 L
116.763 192.19 L
116.892 193.783 L
117.022 193.783 L
117.151 193.783 L
117.281 193.783 L
117.41 193.783 L
117.54 193.746 L
117.669 193.783 L
117.799 193.783 L
117.928 193.783 L
118.057 193.856 L
118.187 195.292 L
118.316 195.256 L
118.446 195.329 L
118.575 195.256 L
118.705 195.219 L
118.834 195.256 L
118.964 195.292 L
119.093 195.256 L
119.223 195.329 L
119.352 195.329 L
119.482 196.676 L
119.611 196.676 L
119.74 196.603 L
119.87 196.603 L
119.999 196.53 L
120.129 196.384 L
120.258 196.421 L
120.388 196.275 L
120.517 196.166 L
120.647 196.129 L
120.776 197.358 L
120.906 197.358 L
121.035 197.249 L
121.165 197.103 L
121.294 196.957 L
121.423 196.848 L
121.553 196.702 L
121.682 196.629 L
121.812 196.447 L
121.941 196.41 L
122.071 197.563 L
122.2 197.526 L
122.33 197.453 L
122.459 197.526 L
122.589 197.526 L
122.718 197.453 L
122.848 197.49 L
122.977 197.526 L
123.106 197.563 L
123.236 197.526 L
123.365 198.776 L
123.495 198.885 L
123.624 198.848 L
123.754 198.812 L
123.883 198.921 L
124.013 198.885 L
124.142 198.812 L
124.272 198.812 L
124.401 198.921 L
124.531 198.921 L
124.66 200.063 L
124.789 200.026 L
124.919 200.099 L
125.048 200.136 L
125.178 200.136 L
125.307 200.172 L
125.437 200.318 L
125.566 200.354 L
125.696 200.281 L
125.825 200.245 L
125.955 201.456 L
126.084 201.419 L
126.214 201.419 L
126.343 201.565 L
126.473 201.638 L
126.602 201.675 L
126.731 201.82 L
126.861 201.93 L
126.99 202.112 L
127.12 202.221 L
127.249 203.386 L
127.379 203.386 L
127.508 203.423 L
127.638 203.605 L
127.767 203.532 L
127.897 203.496 L
128.026 203.569 L
128.156 203.569 L
128.285 203.532 L
128.414 203.605 L
128.544 204.51 L
128.673 204.547 L
128.803 204.583 L
128.932 204.583 L
129.062 204.693 L
129.191 204.656 L
129.321 204.656 L
129.45 204.765 L
129.58 204.765 L
129.709 204.765 L
129.839 205.568 L
129.968 205.641 L
130.097 205.568 L
130.227 205.641 L
130.356 205.604 L
130.486 205.568 L
130.615 205.604 L
130.745 205.641 L
130.874 205.568 L
131.004 205.641 L
131.133 206.417 L
131.263 206.417 L
131.392 206.344 L
131.522 206.344 L
131.651 206.453 L
131.78 206.453 L
131.91 206.417 L
132.039 206.49 L
132.169 206.49 L
132.298 206.49 L
132.428 207.289 L
132.557 207.289 L
132.687 207.252 L
132.816 207.289 L
132.946 207.252 L
133.075 207.325 L
133.205 207.325 L
133.334 207.362 L
133.463 207.362 L
133.593 207.362 L
133.722 208.109 L
133.852 207.963 L
133.981 208.072 L
134.111 208.036 L
134.24 208.036 L
134.37 208.036 L
134.499 207.817 L
134.629 207.781 L
134.758 207.744 L
134.888 207.781 L
135.017 208.334 L
135.146 208.225 L
135.276 208.261 L
135.405 208.261 L
135.535 208.115 L
135.664 208.006 L
135.794 208.079 L
135.923 208.079 L
136.053 207.969 L
136.182 208.006 L
136.312 208.582 L
136.441 208.509 L
136.571 208.473 L
136.7 208.546 L
136.829 208.582 L
136.959 208.546 L
137.088 208.619 L
137.218 208.546 L
137.347 208.655 L
137.477 208.582 L
137.606 209.18 L
137.736 209.071 L
137.865 209.144 L
137.995 209.144 L
138.124 209.107 L
138.254 209.107 L
138.383 208.998 L
138.512 209.034 L
138.642 208.925 L
138.771 208.67 L
138.901 209.196 L
139.03 209.05 L
139.16 208.759 L
139.289 208.467 L
139.419 208.394 L
139.548 208.248 L
139.678 208.03 L
139.807 207.884 L
139.937 207.774 L
140.066 207.738 L
140.195 208.045 L
140.325 208.081 L
140.454 208.008 L
140.584 207.972 L
140.713 207.935 L
140.843 207.789 L
140.972 207.753 L
141.102 207.753 L
141.231 207.644 L
141.361 207.534 L
141.49 208.201 L
141.62 208.128 L
141.749 207.945 L
141.878 207.872 L
142.008 207.8 L
142.137 207.727 L
142.267 207.617 L
142.396 207.544 L
142.526 207.399 L
142.655 207.399 L
142.785 207.8 L
142.914 207.764 L
143.044 207.764 L
143.173 207.728 L
143.303 207.582 L
143.432 207.545 L
143.561 207.509 L
143.691 207.618 L
143.82 207.472 L
143.95 207.545 L
144.079 208.153 L
144.209 208.19 L
144.338 208.117 L
144.468 208.153 L
144.597 208.19 L
144.727 208.117 L
144.856 208.153 L
144.986 208.19 L
145.115 208.262 L
145.244 208.226 L
145.374 208.922 L
145.503 208.959 L
145.633 208.995 L
145.762 209.068 L
145.892 209.068 L
146.021 209.068 L
146.151 209.068 L
146.28 209.068 L
146.41 209.032 L
146.539 208.959 L
146.669 209.609 L
146.798 209.646 L
146.927 209.646 L
147.057 209.609 L
147.186 209.719 L
147.316 209.755 L
147.445 209.828 L
147.575 209.865 L
147.704 209.974 L
147.834 210.156 L
147.963 210.693 L
148.093 210.766 L
148.222 210.985 L
148.352 210.985 L
148.481 211.022 L
148.61 211.131 L
148.74 211.022 L
148.869 211.204 L
148.999 211.167 L
149.128 211.24 L
149.258 211.786 L
149.387 211.896 L
149.517 211.786 L
149.646 211.75 L
149.776 211.859 L
149.905 211.932 L
150.035 211.896 L
150.164 211.932 L
150.293 211.969 L
150.423 212.005 L
150.552 212.377 L
150.682 212.414 L
150.811 212.414 L
150.941 212.414 L
151.07 212.377 L
151.2 212.414 L
151.329 212.45 L
151.459 212.523 L
151.588 212.45 L
151.718 212.414 L
151.847 212.824 L
151.976 212.86 L
152.106 212.824 L
152.235 212.751 L
152.365 212.787 L
152.494 212.824 L
152.624 212.86 L
152.753 212.897 L
152.883 212.86 L
153.012 212.897 L
153.142 213.171 L
153.271 213.062 L
153.401 213.171 L
153.53 213.171 L
153.659 213.098 L
153.789 213.098 L
153.918 213.025 L
154.048 213.062 L
154.177 212.952 L
154.307 212.879 L
154.436 213.17 L
154.566 213.133 L
154.695 212.987 L
154.825 212.987 L
154.954 212.987 L
155.084 213.06 L
155.213 212.914 L
155.342 212.769 L
155.472 212.842 L
155.601 212.842 L
155.731 213.168 L
155.86 213.168 L
155.99 213.168 L
156.119 213.095 L
156.249 213.132 L
156.378 213.059 L
156.508 213.059 L
156.637 213.023 L
156.767 213.095 L
156.896 213.023 L
157.025 213.349 L
157.155 213.459 L
157.284 213.386 L
157.414 213.313 L
157.543 213.349 L
157.673 213.459 L
157.802 213.349 L
157.932 213.313 L
158.061 213.422 L
158.191 213.422 L
158.32 213.775 L
158.45 213.739 L
158.579 213.775 L
158.708 213.775 L
158.838 213.702 L
158.967 213.593 L
159.097 213.629 L
159.226 213.556 L
159.356 213.52 L
159.485 213.52 L
159.615 213.884 L
159.744 213.774 L
159.874 213.519 L
160.003 213.337 L
160.133 213.446 L
160.262 213.337 L
160.391 213.301 L
160.521 213.301 L
160.65 213.301 L
160.78 213.228 L
160.909 213.403 L
161.039 213.33 L
161.168 213.294 L
161.298 213.403 L
161.427 213.33 L
161.557 213.257 L
161.686 213.148 L
161.816 213.294 L
161.945 213.184 L
162.074 213.148 L
162.204 213.497 L
162.333 213.607 L
162.463 213.607 L
162.592 213.57 L
162.722 213.534 L
162.851 213.534 L
162.981 213.497 L
163.11 213.351 L
163.24 213.424 L
163.369 213.497 L
163.499 213.659 L
163.628 213.477 L
163.757 213.44 L
163.887 213.404 L
164.016 213.294 L
164.146 213.185 L
164.275 213.076 L
164.405 213.039 L
164.534 213.003 L
164.664 213.003 L
164.793 213.337 L
164.923 213.337 L
165.052 213.264 L
165.182 213.264 L
165.311 213.337 L
165.44 213.374 L
165.57 213.41 L
165.699 213.483 L
165.829 213.556 L
165.958 213.592 L
166.088 213.836 L
166.217 213.873 L
166.347 214.018 L
166.476 214.128 L
166.606 214.055 L
166.735 214.164 L
166.865 214.347 L
166.994 214.456 L
167.123 214.456 L
167.253 214.529 L
167.382 214.926 L
167.512 214.998 L
167.641 214.962 L
167.771 214.889 L
167.9 214.853 L
168.03 214.889 L
168.159 214.962 L
168.289 214.998 L
168.418 214.998 L
168.548 215.035 L
168.677 215.185 L
168.806 215.221 L
168.936 215.258 L
169.065 215.294 L
169.195 215.331 L
169.324 215.367 L
169.454 215.404 L
169.583 215.477 L
169.713 215.622 L
169.842 215.586 L
169.972 215.976 L
170.101 216.049 L
170.231 216.195 L
170.36 216.377 L
170.489 216.413 L
170.619 216.559 L
170.748 216.523 L
170.878 216.523 L
171.007 216.632 L
171.137 216.705 L
171.266 216.902 L
171.396 216.902 L
171.525 216.975 L
171.655 217.048 L
171.784 216.975 L
171.914 216.939 L
172.043 217.084 L
172.172 217.157 L
172.302 217.157 L
172.431 217.194 L
172.561 217.263 L
172.69 217.263 L
172.82 217.336 L
172.949 217.409 L
173.079 217.446 L
173.208 217.519 L
173.338 217.482 L
173.467 217.555 L
173.597 217.701 L
173.726 217.737 L
173.855 217.859 L
173.985 218.004 L
174.114 218.004 L
174.244 218.114 L
174.373 218.405 L
174.503 218.551 L
174.632 218.697 L
174.762 219.025 L
174.891 218.989 L
175.021 219.098 L
175.15 219.184 L
175.28 219.293 L
175.409 219.366 L
175.538 219.403 L
175.668 219.476 L
175.797 219.476 L
175.927 219.366 L
176.056 219.439 L
176.186 219.439 L
176.315 219.439 L
176.445 219.374 L
176.574 219.301 L
176.704 219.265 L
176.833 219.192 L
176.963 219.228 L
177.092 219.192 L
177.221 219.192 L
177.351 219.192 L
177.48 219.155 L
177.61 219.155 L
177.739 219.115 L
177.869 219.152 L
177.998 219.079 L
178.128 219.079 L
178.257 219.115 L
178.387 219.225 L
178.516 219.115 L
178.646 219.115 L
178.775 219.079 L
178.904 219.006 L
179.034 219.018 L
179.163 218.908 L
179.293 218.762 L
179.422 218.726 L
179.552 218.617 L
179.681 218.544 L
179.811 218.471 L
179.94 218.471 L
180.07 218.507 L
180.199 218.434 L
180.329 218.525 L
180.458 218.561 L
180.587 218.525 L
180.717 218.488 L
180.846 218.525 L
180.976 218.452 L
181.105 218.379 L
181.235 218.452 L
181.364 218.452 L
181.494 218.343 L
181.623 218.207 L
181.753 218.098 L
181.882 217.842 L
182.012 217.66 L
182.141 217.551 L
182.27 217.478 L
182.4 217.478 L
182.529 217.478 L
182.659 217.369 L
182.788 217.259 L
182.918 217.252 L
183.047 217.215 L
183.177 217.07 L
183.306 216.997 L
183.436 216.96 L
183.565 216.924 L
183.695 216.669 L
183.824 216.559 L
183.953 216.231 L
184.083 216.122 L
184.212 216.062 L
184.342 215.843 L
184.471 215.77 L
184.601 215.442 L
184.73 215.26 L
184.86 215.114 L
184.989 214.895 L
185.119 214.749 L
185.248 214.494 L
185.378 214.203 L
185.507 214.213 L
185.636 214.067 L
185.766 213.958 L
185.895 213.812 L
186.025 213.775 L
186.154 213.739 L
186.284 213.629 L
186.413 213.629 L
186.543 213.593 L
186.672 213.484 L
186.802 213.676 L
186.931 213.639 L
187.061 213.53 L
187.19 213.53 L
187.32 213.421 L
187.449 213.238 L
187.578 213.311 L
187.708 213.093 L
187.837 213.093 L
187.967 212.91 L
188.096 212.989 L
188.226 213.062 L
188.355 212.916 L
188.485 212.77 L
188.614 212.661 L
188.744 212.551 L
188.873 212.442 L
189.003 212.405 L
189.132 212.296 L
189.261 212.296 L
189.391 212.524 L
189.52 212.415 L
189.65 212.488 L
189.779 212.524 L
189.909 212.378 L
190.038 212.342 L
190.168 212.342 L
190.297 212.415 L
190.427 212.378 L
190.556 212.342 L
190.686 212.889 L
190.815 212.853 L
190.944 212.926 L
191.074 212.999 L
191.203 213.035 L
191.333 213.144 L
191.462 213.144 L
191.592 213.181 L
191.721 213.144 L
191.851 213.144 L
191.98 213.488 L
192.11 213.524 L
192.239 213.488 L
192.368 213.597 L
192.498 213.597 L
192.627 213.561 L
192.757 213.633 L
192.886 213.524 L
193.016 213.561 L
193.145 213.561 L
193.275 213.869 L
193.404 213.832 L
193.534 213.869 L
193.663 213.869 L
193.793 213.796 L
193.922 213.796 L
194.052 213.905 L
194.181 213.796 L
194.31 213.905 L
194.44 213.905 L
194.569 214.3 L
194.699 214.3 L
194.828 214.373 L
194.958 214.482 L
195.087 214.555 L
195.217 214.482 L
195.346 214.628 L
195.476 214.664 L
195.605 214.774 L
195.735 214.664 L
195.864 215.034 L
195.993 214.997 L
196.123 215.07 L
196.252 214.997 L
196.382 215.07 L
196.511 215.034 L
196.641 215.07 L
196.77 215.034 L
196.9 215.107 L
197.029 215.143 L
197.159 215.36 L
197.288 215.287 L
197.418 215.433 L
197.547 215.433 L
197.676 215.433 L
197.806 215.433 L
197.935 215.469 L
198.065 215.505 L
198.194 215.505 L
198.324 215.578 L
198.453 215.703 L
198.583 215.776 L
198.712 215.776 L
198.842 215.776 L
198.971 215.776 L
199.101 215.776 L
199.23 215.922 L
199.359 215.812 L
199.489 215.958 L
199.618 215.958 L
199.748 216.208 L
199.877 216.208 L
200.007 216.354 L
200.136 216.39 L
200.266 216.317 L
200.395 216.317 L
200.525 216.463 L
200.654 216.572 L
200.784 216.499 L
200.913 216.572 L
201.042 216.792 L
201.172 216.865 L
201.301 216.865 L
201.431 216.938 L
201.56 217.011 L
201.69 216.975 L
201.819 216.975 L
201.949 217.121 L
202.078 217.157 L
202.208 217.157 L
202.337 217.27 L
202.467 217.306 L
202.596 217.233 L
202.725 217.379 L
202.855 217.379 L
202.984 217.379 L
203.114 217.379 L
203.243 217.415 L
203.373 217.525 L
203.502 217.561 L
203.632 217.646 L
203.761 217.609 L
203.891 217.791 L
204.02 217.682 L
204.15 217.719 L
204.279 217.791 L
204.408 217.901 L
204.538 217.828 L
204.667 218.01 L
204.797 218.047 L
204.926 218.109 L
205.056 218.182 L
205.185 218.255 L
205.315 218.4 L
205.444 218.364 L
205.574 218.437 L
205.703 218.4 L
205.833 218.51 L
205.962 218.546 L
206.091 218.437 L
206.221 218.581 L
206.35 218.581 L
206.48 218.435 L
206.609 218.508 L
206.739 218.581 L
206.868 218.508 L
206.998 218.472 L
207.127 218.399 L
207.257 218.508 L
207.386 218.581 L
207.516 218.479 L
207.645 218.369 L
207.774 218.369 L
207.904 218.442 L
208.033 218.406 L
208.163 218.333 L
208.292 218.406 L
208.422 218.406 L
208.551 218.442 L
208.681 218.296 L
208.81 218.309 L
208.94 218.236 L
209.069 218.236 L
209.199 218.163 L
209.328 218.091 L
209.457 218.054 L
209.587 217.872 L
209.716 217.799 L
209.846 217.762 L
209.975 217.69 L
210.105 217.713 L
210.234 217.64 L
210.364 217.713 L
210.493 217.749 L
210.623 217.676 L
210.752 217.713 L
210.882 217.64 L
211.011 217.785 L
211.14 217.785 L
211.27 217.749 L
211.399 217.771 L
211.529 217.807 L
211.658 217.88 L
211.788 217.807 L
211.917 217.807 L
212.047 217.734 L
212.176 217.333 L
212.306 217.224 L
212.435 217.115 L
212.565 217.188 L
212.694 217.206 L
212.823 217.06 L
212.953 216.987 L
213.082 216.769 L
213.212 216.586 L
213.341 216.477 L
213.471 216.295 L
213.6 216.222 L
213.73 216.076 L
213.859 216.003 L
213.989 216.018 L
214.118 215.873 L
214.248 215.836 L
214.377 215.836 L
214.506 215.836 L
214.636 215.727 L
214.765 215.617 L
214.895 215.617 L
215.024 215.617 L
215.154 215.617 L
215.283 215.776 L
215.413 215.739 L
215.542 215.739 L
215.672 215.812 L
215.801 215.739 L
215.931 215.922 L
216.06 215.995 L
216.189 216.031 L
216.319 216.14 L
216.448 216.177 L
216.578 216.422 L
216.707 216.386 L
216.837 216.386 L
216.966 216.495 L
217.096 216.678 L
217.225 216.823 L
217.355 216.896 L
217.484 217.078 L
217.614 217.297 L
217.743 217.37 L
217.872 217.541 L
218.002 217.505 L
218.131 217.614 L
218.261 217.723 L
218.39 217.687 L
218.52 217.723 L
218.649 217.796 L
218.779 218.015 L
218.908 217.978 L
219.038 218.051 L
219.167 218.266 L
219.297 218.338 L
219.426 218.594 L
219.555 218.594 L
219.685 218.666 L
219.814 218.849 L
219.944 218.885 L
220.073 219.067 L
220.203 219.14 L
220.332 219.213 L
220.462 219.312 L
220.591 219.457 L
220.721 219.64 L
220.85 219.64 L
220.98 219.64 L
221.109 219.749 L
221.238 219.858 L
221.368 219.931 L
221.497 219.968 L
221.627 220.004 L
221.756 220.041 L
221.886 220.077 L
222.015 220.15 L
222.145 220.187 L
222.274 220.296 L
222.404 220.405 L
222.533 220.442 L
222.663 220.442 L
222.792 220.588 L
222.921 220.879 L
223.051 220.909 L
223.18 221.018 L
223.31 221.164 L
223.439 221.274 L
223.569 221.237 L
223.698 221.31 L
223.828 221.456 L
223.957 221.419 L
224.087 221.565 L
224.216 221.638 L
224.346 221.617 L
224.475 221.763 L
224.604 221.908 L
224.734 222.054 L
224.863 222.2 L
224.993 222.236 L
225.122 222.382 L
225.252 222.492 L
225.381 222.71 L
225.511 222.892 L
225.64 222.756 L
225.77 222.939 L
225.899 223.048 L
226.029 223.121 L
226.158 223.121 L
226.287 223.157 L
226.417 223.23 L
226.546 223.267 L
226.676 223.376 L
226.805 223.412 L
226.935 223.245 L
227.064 223.282 L
227.194 223.318 L
227.323 223.391 L
227.453 223.428 L
227.582 223.464 L
227.712 223.501 L
227.841 223.537 L
227.97 223.573 L
228.1 223.501 L
228.229 223.305 L
228.359 223.305 L
228.488 223.305 L
228.618 223.305 L
228.747 223.45 L
228.877 223.378 L
229.006 223.341 L
229.136 223.414 L
229.265 223.378 L
229.395 223.341 L
229.524 223.032 L
229.653 222.996 L
229.783 223.032 L
229.912 222.996 L
230.042 222.996 L
230.171 222.996 L
230.301 222.959 L
230.43 222.959 L
230.56 222.959 L
230.689 222.886 L
230.819 222.667 L
230.948 222.63 L
231.078 222.557 L
231.207 222.557 L
231.336 222.594 L
231.466 222.484 L
231.595 222.484 L
231.725 222.448 L
231.854 222.448 L
231.984 222.375 L
232.113 222.177 L
232.243 222.068 L
232.372 221.995 L
232.502 221.995 L
232.631 222.068 L
232.761 222.031 L
232.89 222.031 L
233.019 222.031 L
233.149 222.068 L
233.278 222.14 L
233.408 221.935 L
233.537 221.935 L
233.667 221.935 L
233.796 222.081 L
233.926 221.935 L
234.055 222.008 L
234.185 222.081 L
234.314 221.971 L
234.444 222.153 L
234.573 222.044 L
234.702 221.889 L
234.832 221.962 L
234.961 222.035 L
235.091 221.962 L
235.22 222.035 L
235.35 222.035 L
235.479 222.108 L
235.609 222.144 L
235.738 222.144 L
235.868 222.254 L
235.997 221.992 L
236.127 222.029 L
236.256 222.101 L
236.385 222.101 L
236.515 222.211 L
236.644 222.211 L
236.774 222.211 L
236.903 222.357 L
237.033 222.393 L
237.162 222.32 L
237.292 222.235 L
237.421 222.271 L
237.551 222.235 L
237.68 222.271 L
237.81 222.381 L
237.939 222.381 L
238.068 222.453 L
238.198 222.381 L
238.327 222.417 L
238.457 222.381 L
238.586 222.317 L
238.716 222.317 L
238.845 222.317 L
238.975 222.499 L
239.104 222.572 L
239.234 222.572 L
239.363 222.572 L
239.493 222.645 L
239.622 222.718 L
239.751 222.755 L
239.881 222.577 L
240.01 222.577 L
240.14 222.686 L
240.269 222.686 L
240.399 222.832 L
240.528 222.905 L
240.658 222.905 L
240.787 222.905 L
240.917 222.942 L
241.046 222.942 L
241.176 222.712 L
241.305 222.712 L
241.434 222.785 L
241.564 222.822 L
241.693 222.822 L
241.823 222.785 L
241.952 222.858 L
242.082 222.858 L
242.211 222.822 L
242.341 222.858 L
242.47 222.73 L
242.6 222.767 L
242.729 222.694 L
242.859 222.73 L
242.988 222.876 L
243.117 223.022 L
243.247 223.022 L
243.376 222.985 L
243.506 223.022 L
243.635 223.058 L
243.765 222.966 L
243.894 223.148 L
244.024 223.148 L
244.153 223.148 L
244.283 223.294 L
244.412 223.294 L
244.542 223.257 L
244.671 223.476 L
244.8 223.476 L
244.93 223.512 L
245.059 223.333 L
245.189 223.369 L
245.318 223.588 L
245.448 223.552 L
245.577 223.624 L
245.707 223.697 L
245.836 223.697 L
245.966 223.77 L
246.095 223.734 L
246.225 223.697 L
246.354 223.423 L
246.483 223.423 L
246.613 223.569 L
246.742 223.569 L
246.872 223.569 L
247.001 223.606 L
247.131 223.642 L
247.26 223.679 L
247.39 223.606 L
247.519 223.642 L
247.649 223.436 L
247.778 223.399 L
247.908 223.436 L
248.037 223.363 L
248.167 223.436 L
248.296 223.399 L
248.425 223.363 L
248.555 223.399 L
248.684 223.399 L
248.814 223.436 L
248.943 223.119 L
249.073 223.01 L
249.202 223.01 L
249.332 222.973 L
249.461 223.01 L
249.591 222.937 L
249.72 222.864 L
249.85 222.864 L
249.979 222.718 L
250.108 222.755 L
250.238 222.42 L
250.367 222.384 L
250.497 222.42 L
250.626 222.493 L
250.756 222.53 L
250.885 222.53 L
251.015 222.347 L
251.144 222.42 L
251.274 222.42 L
251.403 222.42 L
251.532 222.164 L
251.662 222.127 L
251.791 222.237 L
251.921 222.237 L
252.05 222.2 L
252.18 222.164 L
252.309 222.237 L
252.439 222.164 L
252.568 222.237 L
252.698 222.2 L
252.827 221.995 L
252.957 221.886 L
253.086 221.922 L
253.215 221.922 L
253.345 221.813 L
253.474 221.813 L
253.604 221.777 L
253.733 221.849 L
253.863 221.704 L
253.992 221.74 L
254.122 221.545 L
254.251 221.545 L
254.381 221.436 L
254.51 221.399 L
254.64 221.399 L
254.769 221.254 L
254.898 221.144 L
255.028 221.071 L
255.157 220.962 L
255.287 220.853 L
255.416 220.721 L
255.546 220.611 L
255.675 220.502 L
255.805 220.575 L
255.934 220.575 L
256.064 220.575 L
256.193 220.32 L
256.323 220.21 L
256.452 220.21 L
256.582 220.065 L
256.711 219.945 L
256.84 219.872 L
256.97 219.653 L
257.099 219.726 L
257.229 219.581 L
257.358 219.398 L
257.488 219.216 L
257.617 219.143 L
257.747 218.997 L
257.876 218.961 L
258.006 218.814 L
258.135 218.778 L
258.264 218.705 L
258.394 218.705 L
258.523 218.668 L
258.653 218.523 L
258.782 218.413 L
258.912 218.377 L
259.041 218.158 L
259.171 217.976 L
259.3 217.933 L
259.43 217.823 L
259.559 217.714 L
259.689 217.641 L
259.818 217.459 L
259.948 217.276 L
260.077 217.204 L
260.206 217.167 L
260.336 217.058 L
260.465 216.948 L
260.595 217.03 L
260.724 216.994 L
260.854 216.921 L
260.983 216.775 L
261.113 216.702 L
261.242 216.775 L
261.372 216.702 L
261.501 216.702 L
261.631 216.738 L
261.76 216.666 L
261.889 216.801 L
262.019 216.764 L
262.148 216.801 L
262.278 216.801 L
262.407 216.801 L
262.537 216.764 L
262.666 216.764 L
262.796 216.801 L
262.925 216.801 L
263.055 216.764 L
263.184 216.913 L
263.314 216.876 L
263.443 216.876 L
263.572 216.986 L
263.702 216.986 L
263.831 216.949 L
263.961 216.986 L
264.09 216.986 L
264.22 216.986 L
264.349 217.059 L
264.479 217.273 L
264.608 217.128 L
264.738 217.164 L
264.867 217.237 L
264.997 217.128 L
265.126 217.055 L
265.255 217.055 L
265.385 217.055 L
265.514 216.982 L
265.644 216.654 L
265.773 216.738 L
265.903 216.629 L
266.032 216.519 L
266.162 216.446 L
266.291 216.301 L
266.421 216.337 L
266.55 216.009 L
266.68 215.863 L
266.809 215.644 L
266.938 215.499 L
267.068 215.432 L
267.197 215.359 L
267.327 214.995 L
267.456 214.886 L
267.586 214.521 L
267.715 214.302 L
267.845 214.047 L
267.974 213.719 L
268.104 213.428 L
268.233 213.172 L
268.363 213.183 L
268.492 212.782 L
268.621 212.418 L
268.751 212.017 L
268.88 211.725 L
269.01 211.506 L
269.139 211.178 L
269.269 210.996 L
269.398 210.595 L
269.528 210.376 L
269.657 210.374 L
269.787 210.083 L
269.916 209.791 L
270.046 209.573 L
270.175 209.135 L
270.304 208.625 L
270.434 208.37 L
270.563 207.932 L
270.693 207.313 L
270.822 206.985 L
270.952 207.003 L
271.081 206.456 L
271.211 205.909 L
271.34 205.435 L
271.47 204.962 L
271.599 204.451 L
271.729 204.05 L
271.858 203.686 L
271.987 203.212 L
272.117 202.556 L
272.246 202.773 L
272.376 202.19 L
272.505 201.716 L
272.635 201.133 L
272.764 200.805 L
272.894 200.586 L
273.023 200.113 L
273.153 200.04 L
273.282 199.821 L
273.412 199.639 L
273.541 200.434 L
273.67 200.325 L
273.8 200.143 L
273.929 199.96 L
274.059 199.924 L
274.188 199.924 L
274.318 199.742 L
274.447 199.559 L
274.577 200.361 L
274.706 200.617 L
274.836 201.769 L
274.965 201.769 L
275.095 201.806 L
275.224 200.931 L
275.353 200.712 L
275.483 200.53 L
275.612 200.785 L
275.742 200.894 L
275.871 200.894 L
276.001 200.712 L
276.13 201.385 L
276.26 201.239 L
276.389 201.093 L
276.519 201.239 L
276.648 201.166 L
276.778 201.239 L
276.907 200.947 L
277.036 200.911 L
277.166 200.874 L
277.295 200.802 L
277.425 201.789 L
277.554 201.716 L
277.684 201.752 L
277.813 201.789 L
277.943 201.716 L
278.072 201.716 L
278.202 201.789 L
278.331 201.934 L
278.461 202.044 L
278.59 202.044 L
278.719 203.226 L
278.849 203.444 L
278.978 203.189 L
279.108 203.517 L
279.237 203.481 L
279.367 203.918 L
279.496 204.137 L
279.626 204.246 L
279.755 204.866 L
279.885 204.939 L
280.014 206.145 L
280.144 206.546 L
280.273 206.911 L
280.402 207.093 L
280.532 207.056 L
280.661 207.457 L
280.791 208.04 L
280.92 208.988 L
281.05 208.988 L
281.179 210.155 L
281.309 211.115 L
281.438 211.808 L
281.568 212.5 L
281.697 213.229 L
281.827 213.74 L
281.956 214.432 L
282.085 215.198 L
282.215 216.291 L
282.344 217.64 L
282.474 218.588 L
282.603 220.494 L
282.733 221.697 L
282.862 223.519 L
282.992 224.759 L
283.121 226.071 L
283.251 228.148 L
283.38 229.533 L
283.51 231.174 L
283.639 232.923 L
283.768 234.308 L
283.898 235.587 L
284.027 237.738 L
284.157 239.524 L
284.286 241.274 L
284.416 243.06 L
284.545 245.137 L
284.675 246.923 L
284.804 249.037 L
284.934 251.006 L
285.063 253.229 L
285.193 254.09 L
285.322 256.204 L
285.451 258.281 L
285.581 260.068 L
285.71 261.671 L
285.84 263.603 L
285.969 265.9 L
286.099 267.758 L
286.228 269.8 L
286.358 271.804 L
286.487 271.936 L
286.617 273.685 L
286.746 276.273 L
286.876 278.46 L
287.005 280.975 L
287.134 282.652 L
287.264 284.62 L
287.393 286.734 L
287.523 288.848 L
287.652 290.89 L
287.782 290.112 L
287.911 292.335 L
288.041 294.631 L
288.17 296.709 L
288.3 299.005 L
288.429 301.52 L
288.559 303.562 L
288.688 305.275 L
288.817 307.207 L
288.947 309.94 L
289.076 307.359 L
289.206 309.619 L
289.335 311.441 L
289.465 313.191 L
289.594 315.341 L
289.724 317.784 L
289.853 319.497 L
289.983 321.101 L
290.112 323.251 L
290.242 325.693 L
290.371 322.274 L
290.5 324.024 L
290.63 326.466 L
290.759 328.106 L
290.889 329.163 L
291.018 331.132 L
291.148 333.355 L
291.277 335.214 L
291.407 336.818 L
291.536 338.859 L
291.666 334.486 L
291.795 336.308 L
291.925 338.568 L
292.054 340.172 L
292.183 342.14 L
292.313 344.4 L
292.442 346.004 L
292.572 347.717 L
292.701 349.685 L
292.831 351.034 L
292.96 346.23 L
293.09 348.782 L
293.219 350.422 L
293.349 351.916 L
293.478 353.885 L
293.608 355.78 L
293.737 358.149 L
293.866 360.373 L
293.996 362.377 L
294.125 364.273 L
294.255 358.592 L
294.384 360.269 L
294.514 362.31 L
294.643 363.951 L
294.773 365.554 L
294.902 367.377 L
295.032 369.382 L
295.161 371.313 L
295.291 373.245 L
295.42 374.922 L
295.549 367.855 L
295.679 369.641 L
295.808 371.354 L
295.938 373.067 L
296.067 374.926 L
296.197 376.931 L
296.326 378.316 L
296.456 380.393 L
296.585 382.289 L
296.715 384.002 L
296.844 376.46 L
296.974 378.72 L
297.103 380.36 L
297.232 382.146 L
297.362 383.823 L
297.491 385.39 L
297.621 386.447 L
297.75 388.161 L
297.88 389.947 L
298.009 391.915 L
298.139 383.682 L
298.268 384.885 L
298.398 386.343 L
298.527 388.42 L
298.657 389.951 L
298.786 391.482 L
298.915 392.065 L
299.045 393.742 L
299.174 394.945 L
299.304 395.893 L
299.433 387.816 L
299.563 389.383 L
299.692 390.367 L
299.822 391.607 L
299.951 392.992 L
300.081 394.34 L
300.21 395.944 L
300.34 396.418 L
300.469 397.767 L
300.598 399.043 L
300.728 390.029 L
300.857 391.378 L
300.987 392.252 L
301.116 393.091 L
301.246 394.804 L
301.375 395.752 L
301.505 396.408 L
301.634 397.355 L
301.764 398.267 L
301.893 398.886 L
302.023 389.96 L
302.152 391.236 L
302.281 391.929 L
302.411 393.022 L
302.54 393.861 L
302.67 394.735 L
302.799 395.464 L
302.929 396.303 L
303.058 397.141 L
303.188 398.052 L
303.317 388.474 L
303.447 388.985 L
303.576 389.677 L
303.706 390.479 L
303.835 391.354 L
303.964 391.974 L
304.094 392.994 L
304.223 393.687 L
304.353 394.234 L
304.482 395.254 L
304.612 385.764 L
304.741 386.202 L
304.871 386.967 L
305 387.295 L
305.13 387.951 L
305.259 388.316 L
305.389 388.826 L
305.518 389.227 L
305.647 389.664 L
305.777 390.612 L
305.906 381.027 L
306.036 381.647 L
306.165 382.011 L
306.295 382.157 L
306.424 382.522 L
306.554 382.777 L
306.683 382.886 L
306.813 383.032 L
306.942 383.287 L
307.072 383.396 L
307.201 374.019 L
307.33 374.237 L
307.46 374.347 L
307.589 374.456 L
307.719 374.492 L
307.848 374.565 L
307.978 374.383 L
308.107 374.237 L
308.237 374.201 L
308.366 374.274 L
308.496 365.055 L
308.625 364.836 L
308.755 364.873 L
308.884 364.8 L
309.013 364.727 L
309.143 364.8 L
309.272 364.727 L
309.402 364.691 L
309.531 364.654 L
309.661 364.435 L
309.79 355.71 L
309.92 355.783 L
310.049 355.601 L
310.179 355.419 L
310.308 355.419 L
310.438 355.382 L
310.567 355.2 L
310.696 354.945 L
310.826 354.617 L
310.955 354.289 L
311.085 345.642 L
311.214 345.205 L
311.344 344.585 L
311.473 344.184 L
311.603 343.273 L
311.732 342.617 L
311.862 341.997 L
311.991 341.414 L
312.121 340.977 L
312.25 339.919 L
312.379 331.649 L
312.509 330.811 L
312.638 330.046 L
312.768 329.535 L
312.897 328.405 L
313.027 327.64 L
313.156 326.437 L
313.286 325.489 L
313.415 324.833 L
313.545 324.432 L
313.674 316.953 L
313.804 315.714 L
313.933 315.021 L
314.063 314.183 L
314.192 313.381 L
314.321 312.433 L
314.451 311.303 L
314.58 310.355 L
314.71 309.226 L
314.839 308.387 L
314.969 301.74 L
315.098 300.975 L
315.228 299.48 L
315.357 298.569 L
315.487 297.366 L
315.616 296.018 L
315.746 294.961 L
315.875 294.049 L
316.004 292.664 L
316.134 291.388 L
316.263 284.766 L
316.393 283.527 L
316.522 282.215 L
316.652 280.647 L
316.781 278.825 L
316.911 277.549 L
317.04 276.164 L
317.17 275.034 L
317.299 273.649 L
317.428 271.899 L
317.558 266.827 L
317.687 265.405 L
317.817 263.546 L
317.946 262.234 L
318.076 260.703 L
318.205 259.829 L
318.335 258.334 L
318.464 256.074 L
318.594 254.835 L
318.723 253.158 L
318.853 249.256 L
318.982 247.543 L
319.112 245.647 L
319.241 244.189 L
319.37 242.877 L
319.5 241.2 L
319.629 239.779 L
319.759 238.066 L
319.888 235.623 L
320.018 234.275 L
320.147 230.719 L
320.277 228.969 L
320.406 227.183 L
320.536 225.288 L
320.665 224.121 L
320.794 222.408 L
320.924 220.914 L
321.053 219.164 L
321.183 217.67 L
321.312 215.555 L
321.442 212.913 L
321.571 211.419 L
321.701 209.487 L
321.83 208.138 L
321.96 206.243 L
322.089 204.712 L
322.219 203.399 L
322.348 201.686 L
322.477 199.754 L
322.607 197.64 L
322.736 196.051 L
322.866 194.447 L
322.995 192.478 L
323.125 190.729 L
323.254 188.615 L
323.384 187.084 L
323.513 185.772 L
323.643 183.657 L
323.772 181.908 L
323.902 180.158 L
324.031 179.747 L
324.161 178.326 L
324.29 176.649 L
324.419 174.863 L
324.549 172.749 L
324.678 170.999 L
324.808 169.286 L
324.937 167.865 L
325.067 165.751 L
325.196 164.001 L
325.326 164.919 L
325.455 163.388 L
325.585 161.602 L
325.714 159.888 L
325.844 157.884 L
325.973 156.28 L
326.102 155.296 L
326.232 153.619 L
326.361 151.614 L
326.491 150.156 L
326.62 151.805 L
326.75 150.164 L
326.879 148.488 L
327.009 146.993 L
327.138 145.171 L
327.268 143.968 L
327.397 142.802 L
327.527 140.943 L
327.656 139.485 L
327.785 138.245 L
327.915 140.924 L
328.044 139.138 L
328.174 137.899 L
328.303 136.368 L
328.433 134.728 L
328.562 133.342 L
328.692 132.176 L
328.821 130.609 L
328.951 129.369 L
329.08 128.094 L
329.21 130.796 L
329.339 129.265 L
329.468 127.552 L
329.598 126.13 L
329.727 124.709 L
329.857 123.251 L
329.986 121.975 L
330.116 120.59 L
330.245 119.132 L
330.375 118.002 L
330.504 121.813 L
330.634 120.392 L
330.763 118.934 L
330.893 117.84 L
331.022 116.966 L
331.151 115.544 L
331.281 114.523 L
331.41 113.248 L
331.54 112.336 L
331.669 111.097 L
331.799 115.695 L
331.928 114.455 L
332.058 113.289 L
332.187 112.378 L
332.317 111.357 L
332.446 110.409 L
332.576 109.462 L
332.705 108.186 L
332.834 107.02 L
332.964 106.072 L
333.093 111.25 L
333.223 110.229 L
333.352 109.573 L
333.482 108.735 L
333.611 107.896 L
333.741 106.985 L
333.87 106.183 L
334 105.381 L
334.129 104.507 L
334.259 103.741 L
334.388 109.619 L
334.517 108.854 L
334.647 108.234 L
334.776 107.542 L
334.906 106.74 L
335.035 106.084 L
335.165 105.646 L
335.294 105.027 L
335.424 104.516 L
335.553 103.714 L
335.683 109.981 L
335.812 109.58 L
335.942 108.996 L
336.071 108.668 L
336.2 108.413 L
336.33 108.085 L
336.459 107.794 L
336.589 107.611 L
336.718 107.393 L
336.848 106.919 L
336.977 113.127 L
337.107 112.945 L
337.236 112.726 L
337.366 112.544 L
337.495 112.289 L
337.625 112.143 L
337.754 111.888 L
337.883 111.742 L
338.013 111.596 L
338.142 111.378 L
338.272 117.546 L
338.401 117.327 L
338.531 117.254 L
338.66 117.145 L
338.79 116.999 L
338.919 116.963 L
339.049 116.89 L
339.178 117.035 L
339.308 117.035 L
339.437 117.363 L
339.566 123.38 L
339.696 123.489 L
339.825 123.526 L
339.955 123.526 L
340.084 123.598 L
340.214 124.036 L
340.343 124.109 L
340.473 124.255 L
340.602 124.437 L
340.732 124.51 L
340.861 130.363 L
340.991 130.655 L
341.12 130.874 L
341.249 131.092 L
341.379 131.311 L
341.508 131.53 L
341.638 131.639 L
341.767 132.076 L
341.897 132.55 L
342.026 132.878 L
342.156 138.574 L
342.285 139.158 L
342.415 139.668 L
342.544 140.287 L
342.674 140.725 L
342.803 141.454 L
342.932 142.001 L
343.062 142.803 L
343.191 143.276 L
343.321 143.714 L
343.45 149.398 L
343.58 149.872 L
343.709 150.601 L
343.839 151.366 L
343.968 152.132 L
344.098 153.08 L
344.227 154.027 L
344.357 154.939 L
344.486 155.923 L
344.615 156.725 L
344.745 161.806 L
344.874 162.936 L
345.004 163.665 L
345.133 165.378 L
345.263 166.471 L
345.392 167.382 L
345.522 168.768 L
345.651 169.934 L
345.781 170.955 L
345.91 172.121 L
346.04 177.088 L
346.169 178.765 L
346.298 179.822 L
346.428 180.514 L
346.557 181.972 L
346.687 183.467 L
346.816 184.779 L
346.946 186.055 L
347.075 187.367 L
347.205 188.351 L
347.334 192.342 L
347.464 193.982 L
347.593 195.695 L
347.723 196.716 L
347.852 198.466 L
347.981 199.595 L
348.111 201.6 L
348.24 203.313 L
348.37 204.954 L
348.499 206.703 L
348.629 209.792 L
348.758 211.068 L
348.888 212.672 L
349.017 214.932 L
349.147 216.025 L
349.276 217.556 L
349.406 219.561 L
349.535 221.201 L
349.664 222.878 L
349.794 224.482 L
349.923 226.503 L
350.053 228.507 L
350.182 230.111 L
350.312 231.678 L
350.441 233.756 L
350.571 235.506 L
350.7 237.255 L
350.83 238.677 L
350.959 240.682 L
351.089 242.905 L
351.218 243.574 L
351.347 244.813 L
351.477 246.708 L
351.606 248.531 L
351.736 250.645 L
351.865 252.03 L
351.995 254.144 L
352.124 255.639 L
352.254 257.279 L
352.383 259.685 L
352.513 259.818 L
352.642 261.713 L
352.772 263.681 L
352.901 265.468 L
353.03 267.326 L
353.16 269.331 L
353.289 270.388 L
353.419 272.393 L
353.548 274.799 L
353.678 276.658 L
353.807 275.758 L
353.937 277.835 L
354.066 279.512 L
354.196 281.663 L
354.325 283.886 L
354.455 286.037 L
354.584 288.369 L
354.713 290.192 L
354.843 291.723 L
354.972 293.618 L
355.102 292.068 L
355.231 293.854 L
355.361 295.931 L
355.49 298.009 L
355.62 299.831 L
355.749 301.909 L
355.879 303.549 L
356.008 305.153 L
356.138 307.085 L
356.267 308.725 L
356.396 306.429 L
356.526 308.944 L
356.655 310.402 L
356.785 312.261 L
356.914 314.521 L
357.044 316.307 L
357.173 317.911 L
357.303 320.061 L
357.432 321.92 L
357.562 323.779 L
357.691 320.051 L
357.821 321.983 L
357.95 323.842 L
358.079 325.883 L
358.209 327.96 L
358.338 329.236 L
358.468 330.731 L
358.597 333.136 L
358.727 334.959 L
358.856 336.781 L
358.986 332.539 L
359.115 333.961 L
359.245 335.492 L
359.374 337.788 L
359.504 339.574 L
359.633 340.996 L
359.762 342.818 L
359.892 345.115 L
360.021 346.5 L
360.151 348.395 L
360.28 342.977 L
360.41 344.472 L
360.539 346.804 L
360.669 348.007 L
360.798 349.429 L
360.928 350.522 L
361.057 351.762 L
361.187 353.621 L
361.316 355.115 L
361.445 356.719 L
361.575 350.392 L
361.704 352.033 L
361.834 353.272 L
361.963 354.475 L
362.093 356.079 L
362.222 358.193 L
362.352 359.432 L
362.481 360.89 L
362.611 362.312 L
362.74 363.587 L
362.87 357.187 L
362.999 358.864 L
363.128 359.775 L
363.258 360.759 L
363.387 362.217 L
363.517 363.456 L
363.646 364.55 L
363.776 365.643 L
363.905 366.445 L
364.035 367.466 L
364.164 360.7 L
364.294 361.539 L
364.423 363.142 L
364.553 364.455 L
364.682 364.965 L
364.811 365.84 L
364.941 366.933 L
365.07 367.735 L
365.2 368.792 L
365.329 369.813 L
365.459 362.329 L
365.588 363.532 L
365.718 364.443 L
365.847 365.318 L
365.977 366.084 L
366.106 366.995 L
366.236 367.943 L
366.365 368.635 L
366.494 369.182 L
366.624 369.911 L
366.753 362.367 L
366.883 363.388 L
367.012 364.299 L
367.142 365.247 L
367.271 365.502 L
367.401 366.012 L
367.53 366.413 L
367.66 366.924 L
367.789 367.361 L
367.919 368.418 L
368.048 360.326 L
368.177 360.763 L
368.307 361.383 L
368.436 362.185 L
368.566 362.549 L
368.695 362.768 L
368.825 363.278 L
368.954 363.934 L
369.084 364.189 L
369.213 364.408 L
369.343 356.108 L
369.472 356.327 L
369.602 356.728 L
369.731 356.91 L
369.861 357.129 L
369.99 357.165 L
370.119 357.384 L
370.249 357.493 L
370.378 357.566 L
370.508 357.457 L
370.637 349.407 L
370.767 349.698 L
370.896 349.625 L
371.026 349.625 L
371.155 349.625 L
371.285 349.589 L
371.414 349.443 L
371.543 349.37 L
371.673 349.224 L
371.802 349.188 L
371.932 341.424 L
372.061 341.424 L
372.191 341.388 L
372.32 341.351 L
372.45 341.388 L
372.579 341.388 L
372.709 341.169 L
372.838 340.768 L
372.968 340.841 L
373.097 340.732 L
373.226 333.221 L
373.356 333.003 L
373.485 332.674 L
373.615 332.346 L
373.744 331.909 L
373.874 331.216 L
374.003 330.305 L
374.133 329.904 L
374.262 329.54 L
374.392 328.993 L
374.521 321.53 L
374.651 320.473 L
374.78 319.708 L
374.909 319.27 L
375.039 318.796 L
375.168 318.031 L
375.298 317.266 L
375.427 315.917 L
375.557 315.188 L
375.686 314.678 L
375.816 308.161 L
375.945 307.468 L
376.075 306.12 L
376.204 305.063 L
376.334 304.516 L
376.463 303.495 L
376.592 302.365 L
376.722 301.563 L
376.851 300.361 L
376.981 299.34 L
377.11 292.666 L
377.24 291.317 L
377.369 290.297 L
377.499 289.604 L
377.628 288 L
377.758 287.271 L
377.887 285.558 L
378.017 284.428 L
378.146 283.189 L
378.276 282.241 L
378.405 276.374 L
378.534 275.025 L
378.664 274.187 L
378.793 273.057 L
378.923 271.927 L
379.052 270.724 L
379.182 268.865 L
379.311 267.553 L
379.441 266.132 L
379.57 264.819 L
379.7 259.624 L
379.829 258.093 L
379.958 256.38 L
380.088 254.885 L
380.217 253.755 L
380.347 252.516 L
380.476 250.912 L
380.606 249.418 L
380.735 248.142 L
380.865 246.538 L
380.994 242.588 L
381.124 241.421 L
381.253 239.708 L
381.383 238.068 L
381.512 236.61 L
381.642 235.115 L
381.771 233.803 L
381.9 232.236 L
382.03 230.231 L
382.159 228.372 L
382.289 225.21 L
382.418 223.825 L
382.548 221.492 L
382.677 219.852 L
382.807 218.431 L
382.936 216.863 L
383.066 215.259 L
383.195 213.328 L
383.324 211.651 L
383.454 209.61 L
383.583 207.475 L
383.713 206.454 L
383.842 204.96 L
383.972 202.263 L
384.101 200.622 L
384.231 198.873 L
384.36 197.451 L
384.49 195.118 L
384.619 193.588 L
384.749 191.729 L
384.878 190.46 L
385.007 188.492 L
385.137 185.904 L
385.266 184.555 L
385.396 182.514 L
385.525 180.509 L
385.655 178.177 L
385.784 176.463 L
385.914 174.75 L
386.043 173.074 L
386.173 173.03 L
386.302 171.134 L
386.432 169.02 L
386.561 166.724 L
386.69 165.12 L
386.82 163.115 L
386.949 161.183 L
387.079 159.543 L
387.208 157.794 L
387.338 156.08 L
387.467 156.848 L
387.597 154.443 L
387.726 152.292 L
387.856 150.36 L
387.985 148.355 L
388.115 146.314 L
388.244 144.237 L
388.374 142.888 L
388.503 140.92 L
388.632 138.55 L
388.762 140.384 L
388.891 138.671 L
389.021 137.14 L
389.15 135.245 L
389.28 133.167 L
389.409 130.907 L
389.539 129.413 L
389.668 127.59 L
389.798 125.841 L
389.927 124.127 L
390.057 126.825 L
390.186 125.294 L
390.315 123.581 L
390.445 121.795 L
390.574 119.973 L
390.704 117.603 L
390.833 116.619 L
390.963 115.344 L
391.092 113.448 L
391.222 111.589 L
391.351 115.417 L
391.481 113.631 L
391.61 112.063 L
391.74 110.314 L
391.869 108.746 L
391.998 107.325 L
392.128 105.94 L
392.257 104.263 L
392.387 102.841 L
392.516 101.493 L
392.646 106.286 L
392.775 104.5 L
392.905 103.151 L
393.034 101.657 L
393.164 100.163 L
393.293 98.85 L
393.423 97.575 L
393.552 96.153 L
393.681 94.768 L
393.811 93.383 L
393.94 98.68 L
394.07 96.93 L
394.199 95.363 L
394.329 93.795 L
394.458 92.301 L
394.588 91.135 L
394.717 89.968 L
394.847 88.619 L
394.976 87.198 L
395.105 85.886 L
395.235 91.742 L
395.364 90.685 L
395.494 89.409 L
395.623 87.805 L
395.753 87.039 L
395.882 85.8 L
396.012 84.852 L
396.141 83.65 L
396.271 82.593 L
396.4 81.645 L
396.53 87.911 L
396.659 86.854 L
396.789 85.687 L
396.918 84.849 L
397.047 83.828 L
397.177 82.699 L
397.306 82.188 L
397.436 81.277 L
397.565 80.402 L
397.695 79.345 L
397.824 86.056 L
397.954 85.145 L
398.083 84.197 L
398.213 83.505 L
398.342 82.812 L
398.472 82.265 L
398.601 81.682 L
398.73 81.026 L
398.86 80.261 L
398.989 79.568 L
399.119 86.826 L
399.248 86.243 L
399.378 85.66 L
399.507 85.077 L
399.637 84.603 L
399.766 84.129 L
399.896 83.947 L
400.025 83.509 L
400.155 83.036 L
400.284 82.635 L
400.413 90.285 L
400.543 90.102 L
400.672 89.774 L
400.802 89.483 L
400.931 89.155 L
401.061 89.155 L
401.19 88.936 L
401.32 88.79 L
401.449 88.572 L
401.579 88.353 L
401.708 95.908 L
401.838 95.871 L
401.967 95.835 L
402.096 95.762 L
402.226 95.871 L
402.355 95.762 L
402.485 95.835 L
402.614 95.908 L
402.744 95.908 L
402.873 96.017 L
403.003 103.203 L
403.132 103.203 L
403.262 103.24 L
403.391 103.276 L
403.521 103.313 L
403.65 103.349 L
403.779 103.896 L
403.909 104.115 L
404.038 104.187 L
404.168 104.151 L
404.297 110.906 L
404.427 111.015 L
404.556 111.125 L
404.686 111.197 L
404.815 111.27 L
404.945 111.489 L
405.074 111.635 L
405.204 111.854 L
405.333 112.218 L
405.462 112.619 L
405.592 119.465 L
405.721 119.72 L
405.851 120.34 L
405.98 120.996 L
406.11 121.543 L
406.239 122.126 L
406.369 122.782 L
406.498 123.548 L
406.628 124.313 L
406.757 125.006 L
406.887 131.346 L
407.016 131.929 L
407.145 132.694 L
407.275 133.46 L
407.404 134.043 L
407.534 134.699 L
407.663 135.939 L
407.793 136.704 L
407.922 137.907 L
408.052 138.672 L
408.181 144.638 L
408.311 145.367 L
408.44 146.461 L
408.57 147.408 L
408.699 148.648 L
408.828 150.033 L
408.958 151.673 L
409.087 152.621 L
409.217 153.496 L
409.346 154.735 L
409.476 160.279 L
409.605 161.701 L
409.735 162.795 L
409.864 164.289 L
409.994 165.492 L
410.123 166.986 L
410.253 168.59 L
410.382 169.902 L
410.511 171.251 L
410.641 172.673 L
410.77 177.511 L
410.9 179.042 L
411.029 180.828 L
411.159 182.651 L
411.288 184.364 L
411.418 185.858 L
411.547 187.243 L
411.677 188.337 L
411.806 190.305 L
411.936 191.909 L
412.065 195.474 L
412.194 197.697 L
412.324 199.119 L
412.453 200.577 L
412.583 201.925 L
412.712 203.857 L
412.842 205.789 L
412.971 207.393 L
413.101 208.887 L
413.23 210.345 L
413.36 213.869 L
413.489 216.019 L
413.619 217.55 L
413.748 218.972 L
413.877 221.05 L
414.007 223.164 L
414.136 224.33 L
414.266 226.007 L
414.395 228.048 L
414.525 229.579 L
414.654 231.76 L
414.784 233.619 L
414.913 235.806 L
415.043 237.154 L
415.172 238.649 L
415.302 241.492 L
415.431 243.241 L
415.56 244.991 L
415.69 246.85 L
415.819 248.636 L
415.949 249.686 L
416.078 251.363 L
416.208 252.93 L
416.337 255.19 L
416.467 257.232 L
416.596 258.799 L
416.726 260.476 L
416.855 262.517 L
416.985 264.303 L
417.114 266.599 L
417.243 266.954 L
417.373 269.214 L
417.502 271.328 L
417.632 272.859 L
417.761 274.864 L
417.891 276.796 L
418.02 278.582 L
418.15 280.259 L
418.279 282.263 L
418.409 284.961 L
418.538 283.93 L
418.668 285.826 L
418.797 287.466 L
418.926 289.507 L
419.056 291.075 L
419.185 293.298 L
419.315 295.74 L
419.444 297.453 L
419.574 299.64 L
419.703 301.9 L
419.833 299.502 L
419.962 301.579 L
420.092 303.912 L
420.221 305.443 L
420.351 307.448 L
420.48 309.416 L
420.609 311.02 L
420.739 313.207 L
420.868 315.285 L
420.998 316.961 L
421.127 313.752 L
421.257 315.975 L
421.386 318.017 L
421.516 319.912 L
421.645 321.589 L
421.775 323.302 L
421.904 324.76 L
422.034 327.202 L
422.163 328.988 L
422.292 330.592 L
422.422 327.451 L
422.551 329.237 L
422.681 331.315 L
422.81 332.7 L
422.94 334.522 L
423.069 336.6 L
423.199 338.495 L
423.328 339.917 L
423.458 341.047 L
423.587 342.396 L
423.717 338.008 L
423.846 339.502 L
423.975 341.179 L
424.105 343.111 L
424.234 344.605 L
424.364 345.589 L
424.493 347.375 L
424.623 349.526 L
424.752 351.13 L
424.882 352.952 L
425.011 346.737 L
425.141 348.596 L
425.27 350.528 L
425.4 351.549 L
425.529 352.788 L
425.658 354.209 L
425.788 355.558 L
425.917 356.761 L
426.047 357.964 L
426.176 359.057 L
426.306 353.092 L
426.435 354.003 L
426.565 355.716 L
426.694 357.32 L
426.824 358.085 L
426.953 359.47 L
427.083 360.418 L
427.212 361.694 L
427.341 363.115 L
427.471 364.646 L
427.6 357.649 L
427.73 358.961 L
427.859 360.091 L
427.989 361.403 L
428.118 362.169 L
428.248 363.153 L
428.377 364.356 L
428.507 365.777 L
428.636 366.798 L
428.766 367.527 L
428.895 359.969 L
429.024 360.88 L
429.154 362.119 L
429.283 362.885 L
429.413 363.614 L
429.542 364.926 L
429.672 365.983 L
429.801 366.603 L
429.931 367.332 L
430.06 367.878 L
430.19 360.365 L
430.319 361.131 L
430.449 362.115 L
430.578 362.698 L
430.707 363.318 L
430.837 363.791 L
430.966 364.448 L
431.096 365.213 L
431.225 365.978 L
431.355 366.707 L
431.484 358.624 L
431.614 359.389 L
431.743 359.827 L
431.873 360.738 L
432.002 361.103 L
432.132 361.321 L
432.261 361.832 L
432.391 362.05 L
432.52 362.342 L
432.649 362.597 L
432.779 354.434 L
432.908 354.835 L
433.038 355.346 L
433.167 355.491 L
433.297 355.637 L
433.426 355.71 L
433.556 355.601 L
433.685 356.002 L
433.815 356.075 L
433.944 356.111 L
434.073 348.087 L
434.203 348.05 L
434.332 347.941 L
434.462 348.05 L
434.591 348.05 L
434.721 347.358 L
434.85 347.175 L
434.98 347.248 L
435.109 347.285 L
435.239 347.212 L
435.368 339.636 L
435.498 339.599 L
435.627 339.636 L
435.756 339.636 L
435.886 339.49 L
436.015 339.38 L
436.145 338.98 L
436.274 338.907 L
436.404 338.907 L
436.533 338.688 L
436.663 330.955 L
436.792 330.664 L
436.922 330.299 L
437.051 329.607 L
437.181 329.133 L
437.31 328.404 L
437.439 327.711 L
437.569 327.091 L
437.698 326.362 L
437.828 326.034 L
437.957 318.742 L
438.087 318.195 L
438.216 317.612 L
438.346 317.138 L
438.475 316.518 L
438.605 315.717 L
438.734 315.06 L
438.864 314.186 L
438.993 313.42 L
439.122 312.655 L
439.252 305.538 L
439.381 304.918 L
439.511 303.897 L
439.64 302.877 L
439.77 301.565 L
439.899 300.836 L
440.029 298.977 L
440.158 297.664 L
440.288 296.862 L
440.417 295.259 L
440.547 289.25 L
440.676 287.974 L
440.805 287.209 L
440.935 285.569 L
441.064 284.111 L
441.194 282.944 L
441.323 281.304 L
441.453 279.409 L
441.582 277.841 L
441.712 276.638 L
441.841 271.374 L
441.971 269.661 L
442.1 268.968 L
442.23 266.891 L
442.359 265.578 L
442.488 264.048 L
442.618 262.59 L
442.747 261.095 L
442.877 259.892 L
443.006 258.653 L
443.136 253.935 L
443.265 252.295 L
443.395 250.472 L
443.524 249.051 L
443.654 246.937 L
443.783 245.406 L
443.913 243.583 L
444.042 241.724 L
444.172 240.266 L
444.301 238.772 L
444.43 235.231 L
444.56 233.299 L
444.689 231.804 L
444.819 230.31 L
444.948 228.743 L
445.078 227.285 L
445.207 225.061 L
445.337 223.676 L
445.466 221.89 L
445.596 220.723 L
445.725 217.851 L
445.854 215.919 L
445.984 213.513 L
446.113 211.873 L
446.243 209.722 L
446.372 208.119 L
446.502 206.296 L
446.631 204.765 L
446.761 202.687 L
446.89 201.011 L
447.02 199.093 L
447.149 196.869 L
447.279 195.083 L
447.408 193.552 L
447.538 192.131 L
447.667 189.579 L
447.796 187.611 L
447.926 186.153 L
448.055 183.674 L
448.185 181.742 L
448.314 181.297 L
448.444 179.402 L
448.573 177.361 L
448.703 174.955 L
448.832 172.695 L
448.962 170.946 L
449.091 168.795 L
449.22 166.499 L
449.35 164.603 L
449.479 162.927 L
449.609 163.206 L
449.738 161.274 L
449.868 159.597 L
449.997 157.41 L
450.127 155.26 L
450.256 153.255 L
450.386 150.922 L
450.515 149.027 L
450.645 147.277 L
450.774 145.564 L
450.904 147.095 L
451.033 144.507 L
451.162 142.028 L
451.292 139.951 L
451.421 138.165 L
451.551 135.941 L
451.68 133.681 L
451.81 131.822 L
451.939 130.146 L
452.069 127.776 L
452.198 129.932 L
452.328 127.963 L
452.457 126.214 L
452.587 124.501 L
452.716 122.386 L
452.845 120.199 L
452.975 118.377 L
453.104 116.591 L
453.234 114.331 L
453.363 112.618 L
453.493 116.298 L
453.622 114.439 L
453.752 112.507 L
453.881 110.831 L
454.011 108.461 L
454.14 107.295 L
454.27 106.019 L
454.399 103.869 L
454.528 101.9 L
454.658 100.406 L
454.787 104.673 L
454.917 102.997 L
455.046 101.247 L
455.176 99.315 L
455.305 97.821 L
455.435 96.217 L
455.564 94.65 L
455.694 93.119 L
455.823 91.734 L
455.953 89.729 L
456.082 95.012 L
456.211 93.481 L
456.341 91.95 L
456.47 90.383 L
456.6 89.143 L
456.729 87.576 L
456.859 86.446 L
456.988 84.988 L
457.118 83.238 L
457.247 81.635 L
457.377 87.27 L
457.506 85.666 L
457.635 84.281 L
457.765 82.969 L
457.894 81.875 L
458.024 80.344 L
458.153 78.886 L
458.283 77.574 L
458.412 76.371 L
458.542 75.168 L
458.671 81.444 L
458.801 80.35 L
458.93 79.257 L
459.06 77.871 L
459.189 76.559 L
459.319 75.684 L
459.448 74.773 L
459.577 73.352 L
459.707 71.93 L
459.836 70.91 L
459.966 77.821 L
460.095 76.691 L
460.225 75.816 L
460.354 75.051 L
460.484 73.556 L
460.613 72.39 L
460.743 71.77 L
460.872 70.494 L
461.001 69.911 L
461.131 68.89 L
461.26 76.563 L
461.39 75.907 L
461.519 75.105 L
461.649 74.339 L
461.778 73.537 L
461.908 72.991 L
462.037 72.371 L
462.167 71.824 L
462.296 71.095 L
462.426 70.658 L
462.555 78.55 L
462.685 78.003 L
462.814 77.493 L
462.943 77.165 L
463.073 76.691 L
463.202 76.108 L
463.332 75.598 L
463.461 75.342 L
463.591 74.796 L
463.72 74.358 L
463.85 82.352 L
463.979 81.987 L
464.109 81.732 L
464.238 81.368 L
464.368 81.076 L
464.497 81.04 L
464.626 80.748 L
464.756 80.748 L
464.885 80.602 L
465.015 80.529 L
465.144 88.517 L
465.274 88.444 L
465.403 88.335 L
465.533 88.189 L
465.662 88.48 L
465.792 88.48 L
465.921 88.553 L
466.051 88.699 L
466.18 88.699 L
466.309 88.772 L
466.439 96.395 L
466.568 96.468 L
466.698 96.614 L
466.827 96.541 L
466.957 96.687 L
467.086 96.832 L
467.216 97.015 L
467.345 97.088 L
467.475 97.197 L
467.604 97.416 L
467.734 104.755 L
467.863 104.974 L
467.992 105.156 L
468.122 105.338 L
468.251 105.557 L
468.381 106.031 L
468.51 106.359 L
468.64 106.687 L
468.769 107.343 L
468.899 107.744 L
469.028 114.845 L
469.158 115.61 L
469.287 116.157 L
469.417 116.376 L
469.546 117.032 L
469.675 117.761 L
469.805 118.453 L
469.934 119.219 L
470.064 119.838 L
470.193 120.786 L
470.323 127.8 L
470.452 128.42 L
470.582 129.331 L
470.711 130.133 L
470.841 131.081 L
470.97 131.81 L
471.1 133.122 L
471.229 134.07 L
471.358 135.236 L
471.488 136.038 L
471.617 142.615 L
471.747 143.744 L
471.876 144.802 L
472.006 145.895 L
472.135 147.244 L
472.265 149.285 L
472.394 150.233 L
472.524 150.962 L
472.653 152.274 L
472.783 153.695 L
472.912 159.469 L
473.041 160.599 L
473.171 162.239 L
473.3 163.296 L
473.43 165.046 L
473.559 166.54 L
473.689 168.326 L
473.818 169.602 L
473.948 171.06 L
474.077 172.336 L
474.207 178.061 L
474.336 179.628 L
474.466 181.523 L
474.595 183.2 L
474.724 184.695 L
474.854 185.97 L
474.983 188.012 L
475.113 189.725 L
475.242 191.037 L
475.372 193.151 L
475.501 197.121 L
475.631 198.506 L
475.76 200.511 L
475.89 202.042 L
476.019 204.01 L
476.149 205.832 L
476.278 207.363 L
476.407 208.967 L
476.537 211.008 L
476.666 213.268 L
476.796 216.002 L
476.925 218.043 L
477.055 220.339 L
477.184 221.542 L
477.314 222.854 L
477.443 225.114 L
477.573 226.973 L
477.702 228.905 L
477.832 230.691 L
477.961 232.769 L
478.09 234.495 L
478.22 236.136 L
478.349 239.052 L
478.479 240.874 L
478.608 242.843 L
478.738 244.738 L
478.867 246.342 L
478.997 248.602 L
479.126 250.096 L
479.256 252.064 L
479.385 253.828 L
479.515 255.359 L
479.644 257.108 L
479.773 259.368 L
479.903 261.337 L
480.032 263.742 L
480.162 266.002 L
480.291 267.861 L
480.421 270.194 L
480.55 272.016 L
480.68 271.908 L
480.809 273.986 L
480.939 275.881 L
481.068 277.813 L
481.198 279.635 L
481.327 282.077 L
481.456 284.155 L
481.586 286.051 L
481.715 287.873 L
481.845 289.732 L
481.974 288.372 L
482.104 290.596 L
482.233 293.257 L
482.363 295.079 L
482.492 296.902 L
482.622 299.271 L
482.751 301.166 L
482.881 303.609 L
483.01 305.395 L
483.139 307.582 L
483.269 305.686 L
483.398 306.998 L
483.528 309.003 L
483.657 311.482 L
483.787 313.377 L
483.916 314.871 L
484.046 317.423 L
484.175 319.501 L
484.305 321.36 L
484.434 323.146 L
484.564 319.716 L
484.693 321.648 L
484.822 324.09 L
484.952 325.84 L
485.081 327.48 L
485.211 330.433 L
485.34 332 L
485.47 333.932 L
485.599 335.791 L
485.729 337.066 L
485.858 333.682 L
485.988 335.177 L
486.117 336.708 L
486.247 338.093 L
486.376 340.316 L
486.505 341.993 L
486.635 343.451 L
486.764 345.675 L
486.894 347.06 L
487.023 348.518 L
487.153 343.433 L
487.282 345.73 L
487.412 347.734 L
487.541 349.192 L
487.671 350.869 L
487.8 352.801 L
487.93 353.785 L
488.059 355.425 L
488.188 357.138 L
488.318 358.596 L
488.447 353.081 L
488.577 353.701 L
488.706 354.94 L
488.836 356.617 L
488.965 358.33 L
489.095 359.97 L
489.224 360.736 L
489.354 362.194 L
489.483 363.36 L
489.613 364.782 L
489.742 358.405 L
489.871 360.009 L
490.001 361.284 L
490.13 362.378 L
490.26 363.799 L
490.389 365.002 L
490.519 365.95 L
490.648 367.189 L
490.778 368.72 L
490.907 369.85 L
491.037 362.466 L
491.166 363.486 L
491.296 364.871 L
491.425 365.892 L
491.554 367.314 L
491.684 368.699 L
491.813 369.209 L
491.943 370.339 L
492.072 371.433 L
492.202 372.234 L
492.331 364.61 L
492.461 365.631 L
492.59 366.323 L
492.72 367.271 L
492.849 368.219 L
492.979 369.276 L
493.108 370.005 L
493.237 371.025 L
493.367 371.864 L
493.496 372.593 L
493.626 364.586 L
493.755 364.951 L
493.885 366.044 L
494.014 366.664 L
494.144 367.211 L
494.273 367.794 L
494.403 368.268 L
494.532 368.778 L
494.662 369.471 L
494.791 369.908 L
494.92 361.721 L
495.05 362.158 L
495.179 362.45 L
495.309 363.215 L
495.438 363.47 L
495.568 363.653 L
495.697 363.944 L
495.827 364.455 L
495.956 364.819 L
496.086 364.819 L
496.215 356.473 L
496.345 356.619 L
496.474 356.801 L
496.603 357.056 L
496.733 357.093 L
496.862 357.093 L
496.992 357.129 L
497.121 356.874 L
497.251 356.911 L
497.38 356.984 L
497.51 348.62 L
497.639 348.693 L
497.769 348.583 L
497.898 348.547 L
498.028 348.474 L
498.157 348.511 L
498.286 348.511 L
498.416 348.511 L
498.545 348.438 L
498.675 348.511 L
498.804 340.174 L
498.934 340.247 L
499.063 340.174 L
499.193 339.773 L
499.322 339.299 L
499.452 338.898 L
499.581 338.315 L
499.711 337.805 L
499.84 337.294 L
499.969 336.82 L
500.099 328.983 L
500.228 328.691 L
500.358 327.707 L
500.487 326.796 L
500.617 326.322 L
500.746 325.739 L
500.876 324.937 L
501.005 324.39 L
501.135 323.844 L
501.264 322.823 L
501.394 315.501 L
501.523 314.225 L
501.652 313.168 L
501.782 312.549 L
501.911 311.565 L
502.041 310.763 L
502.17 309.779 L
502.3 308.649 L
502.429 307.737 L
502.559 306.935 L
502.688 299.791 L
502.818 298.552 L
502.947 297.057 L
503.077 296.219 L
503.206 294.834 L
503.335 293.449 L
503.465 292.282 L
503.594 290.934 L
503.724 289.221 L
503.853 288.018 L
503.983 282.385 L
504.112 280.672 L
504.242 279.469 L
504.371 278.121 L
504.501 276.809 L
504.63 275.168 L
504.76 274.002 L
504.889 272.252 L
505.018 270.831 L
505.148 269.336 L
505.277 263.858 L
505.407 262.546 L
505.536 260.833 L
505.666 259.047 L
505.795 257.88 L
505.925 256.459 L
506.054 255.001 L
506.184 253.47 L
506.313 252.012 L
506.443 250.554 L
506.572 245.77 L
506.702 244.275 L
506.831 242.453 L
506.96 240.302 L
507.09 238.626 L
507.219 236.657 L
507.349 235.054 L
507.478 233.413 L
507.608 231.737 L
507.737 230.169 L
507.867 226.783 L
507.996 225.142 L
508.126 223.612 L
508.255 222.008 L
508.385 220.112 L
508.514 218.618 L
508.643 216.686 L
508.773 215.192 L
508.902 213.77 L
509.032 211.255 L
509.161 208.626 L
509.291 206.986 L
509.42 204.508 L
509.55 202.794 L
509.679 201.191 L
509.809 199.222 L
509.938 197.218 L
510.067 195.213 L
510.197 193.39 L
510.326 191.058 L
510.456 190.268 L
510.585 188.555 L
510.715 185.821 L
510.844 183.853 L
510.974 182.395 L
511.103 180.025 L
511.233 177.802 L
511.362 176.235 L
511.492 174.084 L
511.621 172.116 L
511.75 170.844 L
511.88 168.985 L
512.009 166.689 L
512.139 164.465 L
512.268 162.242 L
512.398 160.711 L
512.527 158.56 L
512.657 156.811 L
512.786 154.769 L
512.916 152.546 L
513.045 152.933 L
513.175 151.11 L
513.304 148.632 L
513.434 146.809 L
513.563 144.768 L
513.692 143.055 L
513.822 141.159 L
513.951 138.389 L
514.081 136.056 L
514.21 134.015 L
514.34 135.424 L
514.469 133.383 L
514.599 131.014 L
514.728 129.374 L
514.858 127.041 L
514.987 125.036 L
515.116 122.886 L
515.246 121.1 L
515.375 119.241 L
515.505 117.163 L
515.634 119.461 L
515.764 117.858 L
515.893 115.707 L
516.023 113.739 L
516.152 111.515 L
516.282 110.094 L
516.411 108.198 L
516.541 106.194 L
516.67 104.08 L
516.799 101.929 L
516.929 106.447 L
517.058 104.916 L
517.188 102.62 L
517.317 101.016 L
517.447 99.193 L
517.576 97.371 L
517.706 95.585 L
517.835 93.835 L
517.965 91.94 L
518.094 90.445 L
518.224 95.295 L
518.353 93.691 L
518.482 92.124 L
518.612 90.447 L
518.741 88.989 L
518.871 87.24 L
519 85.599 L
519.13 83.959 L
519.259 82.72 L
519.389 81.08 L
519.518 86.771 L
519.648 85.35 L
519.777 83.418 L
519.907 81.96 L
520.036 80.064 L
520.166 78.388 L
520.295 76.857 L
520.424 75.617 L
520.554 74.305 L
520.683 72.774 L
520.813 78.751 L
520.942 77.475 L
521.072 76.272 L
521.201 74.741 L
521.331 73.466 L
521.46 72.299 L
521.59 70.951 L
521.719 69.602 L
521.849 68.581 L
521.978 67.342 L
522.107 74.376 L
522.237 72.736 L
522.366 71.533 L
522.496 70.367 L
522.625 69.382 L
522.755 68.508 L
522.884 67.451 L
523.014 65.847 L
523.143 64.571 L
523.273 63.733 L
523.402 71.098 L
523.531 70.551 L
523.661 69.567 L
523.79 68.656 L
523.92 67.708 L
524.049 67.016 L
524.179 66.141 L
524.308 65.157 L
524.438 64.501 L
524.567 63.845 L
524.697 71.841 L
524.826 71.222 L
524.956 70.675 L
525.085 69.545 L
525.215 68.852 L
525.344 68.196 L
525.473 67.941 L
525.603 67.431 L
525.732 66.738 L
525.862 66.009 L
525.991 74.144 L
526.121 73.962 L
526.25 73.452 L
526.38 73.124 L
526.509 72.54 L
526.639 72.358 L
526.768 72.03 L
526.897 71.775 L
527.027 71.52 L
527.156 71.228 L
527.286 79.592 L
527.415 79.081 L
527.545 79.081 L
527.674 78.863 L
527.804 78.644 L
527.933 78.462 L
528.063 78.425 L
528.192 78.535 L
528.322 78.352 L
528.451 78.243 L
528.581 86.503 L
528.71 86.43 L
528.839 86.357 L
528.969 86.649 L
529.098 86.685 L
529.228 86.758 L
529.357 86.831 L
529.487 86.831 L
529.616 86.94 L
529.746 87.086 L
529.875 95.047 L
530.005 95.12 L
530.134 95.339 L
530.264 95.411 L
530.393 95.63 L
530.522 95.74 L
530.652 95.958 L
530.781 96.068 L
530.911 96.396 L
531.04 96.651 L
531.17 104.107 L
531.299 104.179 L
531.429 104.58 L
531.558 105.127 L
531.688 105.674 L
531.817 106.366 L
531.947 106.913 L
532.076 107.533 L
532.205 108.262 L
532.335 108.736 L
532.464 116.348 L
532.594 117.187 L
532.723 117.624 L
532.853 118.244 L
532.982 119.191 L
533.112 119.665 L
533.241 120.321 L
533.371 121.196 L
533.5 121.998 L
533.63 122.982 L
533.759 129.944 L
533.888 131.111 L
534.018 131.949 L
534.147 132.714 L
534.277 133.917 L
534.406 134.865 L
534.536 136.323 L
534.665 137.38 L
534.795 138.729 L
534.924 139.895 L
535.054 146.345 L
535.183 147.693 L
535.313 148.823 L
535.442 150.391 L
535.571 152.213 L
535.701 153.562 L
535.83 154.728 L
535.96 156.113 L
536.089 157.498 L
536.219 158.628 L
536.348 164.728 L
536.478 166.004 L
536.607 167.644 L
536.737 169.066 L
536.866 170.67 L
536.996 172.201 L
537.125 174.132 L
537.254 175.408 L
537.384 177.413 L
537.513 178.944 L
537.643 184.248 L
537.772 185.889 L
537.902 187.529 L
538.031 188.841 L
538.161 190.809 L
538.29 192.45 L
538.42 194.053 L
538.549 196.168 L
538.679 197.771 L
538.808 199.229 L
538.937 203.125 L
539.067 205.239 L
539.196 207.28 L
539.326 208.665 L
539.455 210.16 L
539.585 212.237 L
539.714 214.971 L
539.844 216.32 L
539.973 218.252 L
540.103 220.475 L
540.232 222.854 L
540.362 224.13 L
540.491 226.499 L
540.62 228.722 L
540.75 230.691 L
540.879 232.258 L
541.009 234.518 L
541.138 236.049 L
541.268 237.908 L
541.397 240.641 L
541.527 242.364 L
541.656 244.369 L
541.786 246.191 L
541.915 248.196 L
542.045 250.529 L
542.174 251.877 L
542.303 253.919 L
542.433 256.616 L
542.562 258.402 L
542.692 260.042 L
542.821 260.757 L
542.951 262.799 L
543.08 265.569 L
543.21 267.902 L
543.339 270.307 L
543.469 272.239 L
543.598 273.916 L
543.728 276.03 L
543.857 278.18 L
543.986 280.076 L
544.116 279.631 L
544.245 282.219 L
544.375 284.223 L
544.504 286.155 L
544.634 288.123 L
544.763 290.128 L
544.893 291.987 L
545.022 294.138 L
545.152 296.799 L
545.281 298.694 L
545.411 297.097 L
545.54 299.612 L
545.669 301.507 L
545.799 303.876 L
545.928 305.808 L
546.058 307.886 L
546.187 310.073 L
546.317 311.64 L
546.446 314.009 L
546.576 316.597 L
546.705 313.275 L
546.835 314.988 L
546.964 317.795 L
547.094 319.471 L
547.223 321.549 L
547.352 323.7 L
547.482 325.194 L
547.611 327.527 L
547.741 329.641 L
547.87 331.391 L
548 328.387 L
548.129 330.465 L
548.259 332.543 L
548.388 334.11 L
548.518 335.896 L
548.647 338.156 L
548.777 339.978 L
548.906 341.837 L
549.035 342.858 L
549.165 345.081 L
549.294 340.31 L
549.424 342.096 L
549.553 344.101 L
549.683 345.632 L
549.812 347.345 L
549.942 348.985 L
550.071 351.354 L
550.201 353.359 L
550.33 355.036 L
550.46 356.457 L
550.589 351.236 L
550.718 352.549 L
550.848 354.189 L
550.977 355.865 L
551.107 357.251 L
551.236 358.636 L
551.366 359.766 L
551.495 361.588 L
551.625 362.973 L
551.754 364.869 L
551.884 358.09 L
552.013 359.585 L
552.143 360.788 L
552.272 362.355 L
552.401 363.886 L
552.531 365.49 L
552.66 366.583 L
552.79 367.859 L
552.919 369.609 L
553.049 370.666 L
553.178 363.701 L
553.308 365.378 L
553.437 366.872 L
553.567 367.783 L
553.696 368.585 L
553.826 370.153 L
553.955 371.137 L
554.084 372.704 L
554.214 373.943 L
554.343 374.818 L
554.473 367.303 L
554.602 368.506 L
554.732 369.563 L
554.861 370.474 L
554.991 371.531 L
555.12 372.26 L
555.25 373.39 L
555.379 374.629 L
555.509 375.504 L
555.638 376.525 L
555.768 368.578 L
555.897 369.489 L
556.026 370.145 L
556.156 371.166 L
556.285 371.822 L
556.415 372.442 L
556.544 373.244 L
556.674 373.973 L
556.803 374.92 L
556.933 375.54 L
557.062 367.226 L
557.192 367.7 L
557.321 368.648 L
557.45 369.377 L
557.58 369.996 L
557.709 370.142 L
557.839 370.689 L
557.968 370.981 L
558.098 371.637 L
558.227 371.965 L
558.357 363.221 L
558.486 363.549 L
558.616 363.804 L
558.745 364.168 L
558.875 364.241 L
559.004 364.387 L
559.133 364.241 L
559.263 364.46 L
559.392 364.897 L
559.522 364.861 L
559.651 356.609 L
559.781 356.353 L
559.91 356.208 L
560.04 356.208 L
560.169 356.718 L
560.299 356.39 L
560.428 356.025 L
560.558 355.916 L
560.687 355.843 L
560.816 355.843 L
560.946 347.654 L
561.075 347.69 L
561.205 347.654 L
561.334 347.69 L
561.464 347.654 L
561.593 347.471 L
561.723 347.326 L
561.852 347.253 L
561.982 347.107 L
562.111 346.852 L
562.241 338.827 L
562.37 338.463 L
562.499 337.916 L
562.629 337.442 L
562.758 337.187 L
562.888 336.713 L
563.017 335.693 L
563.147 335.292 L
563.276 334.453 L
563.406 333.797 L
563.535 325.93 L
563.665 325.201 L
563.794 324.326 L
563.924 323.16 L
564.053 322.686 L
564.182 321.775 L
564.312 320.863 L
564.441 320.353 L
564.571 319.333 L
564.7 318.276 L
564.83 310.515 L
564.959 309.713 L
565.089 308.729 L
565.218 307.963 L
565.348 306.87 L
565.477 305.922 L
565.607 304.792 L
565.736 303.407 L
565.865 302.641 L
565.995 301.329 L
566.124 293.933 L
566.254 293.167 L
566.383 291.673 L
566.513 290.142 L
566.642 289.049 L
566.772 287.664 L
566.901 285.841 L
567.031 284.638 L
567.16 283.29 L
567.29 281.759 L
567.419 275.999 L
567.549 274.759 L
567.678 273.301 L
567.807 271.552 L
567.937 269.802 L
568.066 268.089 L
568.196 266.959 L
568.325 264.845 L
568.455 263.679 L
568.584 261.71 L
568.714 256.646 L
568.843 255.334 L
568.973 254.058 L
569.102 252.491 L
569.231 251.142 L
569.361 249.283 L
569.49 247.497 L
569.62 245.711 L
569.749 244.18 L
569.879 242.285 L
570.008 238.073 L
570.138 235.995 L
570.267 233.845 L
570.397 232.715 L
570.526 230.819 L
570.656 229.106 L
570.785 227.466 L
570.914 225.571 L
571.044 223.93 L
571.173 222.545 L
571.303 219.359 L
571.432 217.39 L
571.562 215.641 L
571.691 214.438 L
571.821 212.579 L
571.95 210.684 L
572.08 207.986 L
572.209 206.31 L
572.339 203.794 L
572.468 202.008 L
572.597 200.22 L
572.727 198.251 L
572.856 196.174 L
572.986 194.023 L
573.115 191.946 L
573.245 189.904 L
573.374 188.774 L
573.504 186.587 L
573.633 184.145 L
573.763 181.703 L
573.892 181.337 L
574.022 178.932 L
574.151 176.927 L
574.281 175.214 L
574.41 173.063 L
574.539 170.949 L
574.669 168.143 L
574.798 166.466 L
574.928 163.914 L
575.057 161.654 L
575.187 161.676 L
575.316 159.89 L
575.446 157.812 L
575.575 155.808 L
575.705 154.094 L
575.834 151.506 L
575.964 149.064 L
576.093 146.877 L
576.222 144.945 L
576.352 143.087 L
576.481 144.489 L
576.611 142.229 L
576.74 140.079 L
576.87 137.272 L
576.999 135.121 L
577.129 133.19 L
577.258 130.565 L
577.388 128.123 L
577.517 126.41 L
577.646 124.223 L
577.776 126.314 L
577.905 124.272 L
578.035 122.231 L
578.164 120.19 L
578.294 118.367 L
578.423 115.925 L
578.553 114.103 L
578.682 111.806 L
578.812 109.802 L
578.941 107.688 L
579.071 111.545 L
579.2 109.686 L
579.33 107.645 L
579.459 105.422 L
579.588 103.308 L
579.718 101.886 L
579.847 100.355 L
579.977 98.132 L
580.106 96.309 L
580.236 94.231 L
580.365 98.707 L
580.495 97.03 L
580.624 95.244 L
580.754 93.312 L
580.883 91.417 L
581.012 89.704 L
581.142 88.282 L
581.271 86.897 L
581.401 84.856 L
581.53 83.252 L
581.66 88.341 L
581.789 86.701 L
581.919 85.352 L
582.048 83.603 L
582.178 82.145 L
582.307 80.541 L
582.437 78.755 L
582.566 77.224 L
582.695 75.328 L
582.825 73.579 L
582.954 79.608 L
583.084 78.223 L
583.213 76.729 L
583.343 75.38 L
583.472 73.995 L
583.602 72.318 L
583.731 70.897 L
583.861 69.329 L
583.99 68.528 L
584.12 67.106 L
584.249 73.761 L
584.379 72.23 L
584.508 71.21 L
584.637 69.715 L
584.767 68.294 L
584.896 66.982 L
585.026 65.997 L
585.155 64.539 L
585.285 63.482 L
585.414 62.061 L
585.544 69.28 L
585.673 68.15 L
585.803 66.875 L
585.932 65.745 L
586.062 65.198 L
586.191 64.25 L
586.32 63.084 L
586.45 62.209 L
586.579 61.116 L
586.709 60.423 L
586.838 68.381 L
586.968 67.762 L
587.097 66.741 L
587.227 66.085 L
587.356 65.392 L
587.486 64.481 L
587.615 63.862 L
587.745 62.877 L
587.874 62.367 L
588.003 61.565 L
588.133 69.941 L
588.262 69.322 L
588.392 68.593 L
588.521 68.155 L
588.651 67.463 L
588.78 67.062 L
588.91 66.515 L
589.039 65.895 L
589.169 65.531 L
589.298 65.057 L
589.427 73.268 L
589.557 72.794 L
589.686 72.502 L
589.816 72.211 L
589.945 71.919 L
590.075 71.518 L
590.204 71.263 L
590.334 70.935 L
590.463 70.753 L
590.593 70.57 L
590.722 79.277 L
590.852 79.022 L
590.981 78.913 L
591.111 78.84 L
591.24 78.803 L
591.369 78.913 L
591.499 79.059 L
591.628 79.168 L
591.758 79.059 L
591.887 79.204 L
592.017 87.483 L
592.146 87.483 L
592.276 87.483 L
592.405 87.519 L
592.535 87.556 L
592.664 87.811 L
592.794 88.285 L
592.923 88.467 L
593.052 88.54 L
593.182 88.686 L
593.311 96.516 L
593.441 96.698 L
593.57 96.662 L
593.7 96.88 L
593.829 97.208 L
593.959 97.427 L
594.088 97.719 L
594.218 98.01 L
594.347 98.593 L
594.477 98.994 L
594.606 107.092 L
594.735 107.603 L
594.865 107.967 L
594.994 108.733 L
595.124 109.498 L
595.253 110.008 L
595.383 110.519 L
595.512 111.721 L
595.642 112.45 L
595.771 113.362 L
595.901 120.871 L
596.03 121.6 L
596.16 122.475 L
596.289 123.131 L
596.418 123.787 L
596.548 124.953 L
596.677 125.755 L
596.807 126.994 L
596.936 128.015 L
597.066 129.254 L
597.195 135.949 L
597.325 136.933 L
597.454 138.245 L
597.584 139.557 L
597.713 140.724 L
597.843 142.182 L
597.972 143.129 L
598.101 144.587 L
598.231 145.973 L
598.36 147.394 L
598.49 153.963 L
598.619 155.712 L
598.749 156.952 L
598.878 158.082 L
599.008 159.831 L
599.137 161.143 L
599.267 162.529 L
599.396 164.096 L
599.526 165.408 L
599.655 167.777 L
599.784 172.807 L
599.914 174.229 L
600.043 175.832 L
600.173 177.546 L
600.302 179.623 L
600.432 181.336 L
600.561 183.268 L
600.691 185.091 L
600.82 186.804 L
600.95 188.226 L
601.079 192.834 L
601.208 194.729 L
601.338 196.041 L
601.467 198.301 L
601.597 199.942 L
601.726 201.582 L
601.856 203.404 L
601.985 205.409 L
602.115 207.56 L
602.244 209.163 L
602.374 212.187 L
602.503 214.337 L
602.633 216.925 L
602.762 218.456 L
602.892 220.242 L
603.021 222.867 L
603.15 224.215 L
603.28 225.564 L
603.409 228.152 L
603.539 229.902 L
603.668 232.218 L
603.798 234.187 L
603.927 236.447 L
604.057 238.087 L
604.186 240.602 L
604.316 243.336 L
604.445 245.377 L
604.575 247.673 L
604.704 249.569 L
604.833 251.136 L
604.963 252.086 L
605.092 253.544 L
605.222 255.841 L
605.351 258.319 L
605.481 259.704 L
605.61 262.11 L
605.74 263.933 L
605.869 265.901 L
605.999 268.343 L
606.128 270.384 L
606.258 270.889 L
606.387 272.675 L
606.516 274.279 L
606.646 276.247 L
606.775 278.215 L
606.905 279.929 L
607.034 281.861 L
607.164 284.047 L
607.293 286.089 L
607.423 287.911 L
607.552 286.503 L
607.682 288.252 L
607.811 290.111 L
607.941 291.642 L
608.07 293.793 L
608.199 296.308 L
608.329 297.984 L
608.458 299.989 L
608.588 302.03 L
608.717 303.889 L
608.847 301.849 L
608.976 304.145 L
609.106 306.114 L
609.235 308.191 L
609.365 310.269 L
609.494 312.019 L
609.624 314.279 L
609.753 316.866 L
609.883 318.434 L
610.012 320.22 L
610.141 317.965 L
610.271 319.933 L
610.4 322.193 L
610.53 324.089 L
610.659 325.838 L
610.789 328.463 L
610.918 330.577 L
611.048 332.582 L
611.177 335.498 L
611.307 337.685 L
611.436 334.04 L
611.565 336.081 L
611.695 338.924 L
611.824 340.783 L
611.954 342.35 L
612.083 345.047 L
612.213 347.234 L
612.342 349.422 L
612.472 352.009 L
612.601 354.306 L
612.731 350.549 L
612.86 353.392 L
612.99 355.652 L
613.119 358.531 L
613.248 360.5 L
613.378 363.124 L
613.507 365.858 L
613.637 367.753 L
613.766 370.706 L
613.896 373.44 L
614.025 367.978 L
614.155 370.894 L
614.284 373.773 L
614.414 376.799 L
614.543 379.423 L
614.673 382.703 L
614.802 385.073 L
614.931 388.645 L
615.061 391.452 L
615.19 394.696 L
615.32 388.276 L
615.449 391.812 L
615.579 394.837 L
615.708 398.227 L
615.838 401.289 L
615.967 404.861 L
616.097 407.777 L
616.226 410.547 L
616.356 414.156 L
616.485 416.853 L
616.614 410.218 L
616.744 413.936 L
616.873 414.956 L
617.003 414.264 L
617.132 413.389 L
617.262 413.681 L
617.391 413.134 L
617.521 411.822 L
617.65 409.015 L
617.78 408.687 L
617.909 397.146 L
618.039 397.511 L
618.168 397 L
618.297 396.563 L
618.427 395.214 L
618.556 394.668 L
618.686 394.959 L
618.815 394.011 L
618.945 394.704 L
619.074 393.246 L
619.204 381.056 L
619.333 379.234 L
619.463 376.464 L
619.592 373.584 L
619.722 372.418 L
619.851 372.527 L
619.98 372.636 L
620.11 372.782 L
620.239 372.636 L
620.369 372.563 L
620.498 363.075 L
620.628 363.038 L
620.757 363.147 L
620.887 363.184 L
621.016 363.548 L
621.146 363.366 L
621.275 363.111 L
621.405 362.674 L
621.534 361.471 L
621.664 359.648 L
621.793 350.129 L
621.922 350.931 L
622.052 351.769 L
622.181 351.842 L
622.311 352.425 L
622.44 352.717 L
622.57 353.337 L
622.699 354.175 L
622.829 354.722 L
622.958 355.232 L
623.088 347.717 L
623.217 348.191 L
623.346 348.264 L
623.476 348.009 L
623.605 348.519 L
623.735 348.92 L
623.864 349.357 L
623.994 349.686 L
624.123 351.508 L
624.253 352.747 L
624.382 346.25 L
624.512 347.963 L
624.641 349.64 L
624.771 351.353 L
624.9 352.775 L
625.029 353.795 L
625.159 354.524 L
625.288 355.763 L
625.418 356.748 L
625.547 356.638 L
625.677 349.681 L
625.806 350.045 L
625.936 350.082 L
626.065 349.79 L
626.195 349.389 L
626.324 349.353 L
626.454 349.28 L
626.583 349.389 L
626.712 349.426 L
626.842 349.316 L
626.971 341.646 L
627.101 341.5 L
627.23 341.099 L
627.36 340.188 L
627.489 339.24 L
627.619 338.147 L
627.748 336.98 L
627.878 335.595 L
628.007 334.429 L
628.137 334.028 L
628.266 326.577 L
628.395 326.577 L
628.525 326.395 L
628.654 326.431 L
628.784 326.65 L
628.913 326.978 L
629.043 327.015 L
629.172 327.816 L
629.302 328.035 L
629.431 328.072 L
629.561 321.767 L
629.69 321.767 L
629.82 321.876 L
629.949 321.548 L
630.078 321.512 L
630.208 321.439 L
630.337 322.35 L
S
GR
%%Trailer
%%Pages: 1
%%EOF
