%!PS-Adobe-3.0 EPSF-3.0
%%Creator: (MATLAB, The Mathworks, Inc. Version 9.1.0.441655 \(R2016b\). Operating System: Windows 8)
%%Title: C:/Users/simon/Documents/Unief/M1/CACSD_MPC/Exercises/Practicum/cacsd/report/images/cutoff/thetadot_high.eps
%%CreationDate: 2017-05-17T20:48:19
%%Pages: (atend)
%%BoundingBox: 0 0 420 315
%%LanguageLevel: 3
%%EndComments
%%BeginProlog
%%BeginResource: procset (Apache XML Graphics Std ProcSet) 1.2 0
%%Version: 1.2 0
%%Copyright: (Copyright 2001-2003,2010 The Apache Software Foundation. License terms: http://www.apache.org/licenses/LICENSE-2.0)
/bd{bind def}bind def
/ld{load def}bd
/GR/grestore ld
/M/moveto ld
/LJ/setlinejoin ld
/C/curveto ld
/f/fill ld
/LW/setlinewidth ld
/GC/setgray ld
/t/show ld
/N/newpath ld
/CT/concat ld
/cp/closepath ld
/S/stroke ld
/L/lineto ld
/CC/setcmykcolor ld
/A/ashow ld
/GS/gsave ld
/RC/setrgbcolor ld
/RM/rmoveto ld
/ML/setmiterlimit ld
/re {4 2 roll M
1 index 0 rlineto
0 exch rlineto
neg 0 rlineto
cp } bd
/_ctm matrix def
/_tm matrix def
/BT { _ctm currentmatrix pop matrix _tm copy pop 0 0 moveto } bd
/ET { _ctm setmatrix } bd
/iTm { _ctm setmatrix _tm concat } bd
/Tm { _tm astore pop iTm 0 0 moveto } bd
/ux 0.0 def
/uy 0.0 def
/F {
  /Tp exch def
  /Tf exch def
  Tf findfont Tp scalefont setfont
  /cf Tf def  /cs Tp def
} bd
/ULS {currentpoint /uy exch def /ux exch def} bd
/ULE {
  /Tcx currentpoint pop def
  gsave
  newpath
  cf findfont cs scalefont dup
  /FontMatrix get 0 get /Ts exch def /FontInfo get dup
  /UnderlinePosition get Ts mul /To exch def
  /UnderlineThickness get Ts mul /Tt exch def
  ux uy To add moveto  Tcx uy To add lineto
  Tt setlinewidth stroke
  grestore
} bd
/OLE {
  /Tcx currentpoint pop def
  gsave
  newpath
  cf findfont cs scalefont dup
  /FontMatrix get 0 get /Ts exch def /FontInfo get dup
  /UnderlinePosition get Ts mul /To exch def
  /UnderlineThickness get Ts mul /Tt exch def
  ux uy To add cs add moveto Tcx uy To add cs add lineto
  Tt setlinewidth stroke
  grestore
} bd
/SOE {
  /Tcx currentpoint pop def
  gsave
  newpath
  cf findfont cs scalefont dup
  /FontMatrix get 0 get /Ts exch def /FontInfo get dup
  /UnderlinePosition get Ts mul /To exch def
  /UnderlineThickness get Ts mul /Tt exch def
  ux uy To add cs 10 mul 26 idiv add moveto Tcx uy To add cs 10 mul 26 idiv add lineto
  Tt setlinewidth stroke
  grestore
} bd
/QT {
/Y22 exch store
/X22 exch store
/Y21 exch store
/X21 exch store
currentpoint
/Y21 load 2 mul add 3 div exch
/X21 load 2 mul add 3 div exch
/X21 load 2 mul /X22 load add 3 div
/Y21 load 2 mul /Y22 load add 3 div
/X22 load /Y22 load curveto
} bd
/SSPD {
dup length /d exch dict def
{
/v exch def
/k exch def
currentpagedevice k known {
/cpdv currentpagedevice k get def
v cpdv ne {
/upd false def
/nullv v type /nulltype eq def
/nullcpdv cpdv type /nulltype eq def
nullv nullcpdv or
{
/upd true def
} {
/sametype v type cpdv type eq def
sametype {
v type /arraytype eq {
/vlen v length def
/cpdvlen cpdv length def
vlen cpdvlen eq {
0 1 vlen 1 sub {
/i exch def
/obj v i get def
/cpdobj cpdv i get def
obj cpdobj ne {
/upd true def
exit
} if
} for
} {
/upd true def
} ifelse
} {
v type /dicttype eq {
v {
/dv exch def
/dk exch def
/cpddv cpdv dk get def
dv cpddv ne {
/upd true def
exit
} if
} forall
} {
/upd true def
} ifelse
} ifelse
} if
} ifelse
upd true eq {
d k v put
} if
} if
} if
} forall
d length 0 gt {
d setpagedevice
} if
} bd
/RE { % /NewFontName [NewEncodingArray] /FontName RE -
  findfont dup length dict begin
  {
    1 index /FID ne
    {def} {pop pop} ifelse
  } forall
  /Encoding exch def
  /FontName 1 index def
  currentdict definefont pop
  end
} bind def
%%EndResource
%%BeginResource: procset (Apache XML Graphics EPS ProcSet) 1.0 0
%%Version: 1.0 0
%%Copyright: (Copyright 2002-2003 The Apache Software Foundation. License terms: http://www.apache.org/licenses/LICENSE-2.0)
/BeginEPSF { %def
/b4_Inc_state save def         % Save state for cleanup
/dict_count countdictstack def % Count objects on dict stack
/op_count count 1 sub def      % Count objects on operand stack
userdict begin                 % Push userdict on dict stack
/showpage { } def              % Redefine showpage, { } = null proc
0 setgray 0 setlinecap         % Prepare graphics state
1 setlinewidth 0 setlinejoin
10 setmiterlimit [ ] 0 setdash newpath
/languagelevel where           % If level not equal to 1 then
{pop languagelevel             % set strokeadjust and
1 ne                           % overprint to their defaults.
{false setstrokeadjust false setoverprint
} if
} if
} bd
/EndEPSF { %def
count op_count sub {pop} repeat            % Clean up stacks
countdictstack dict_count sub {end} repeat
b4_Inc_state restore
} bd
%%EndResource
%FOPBeginFontDict
%%IncludeResource: font Courier-Bold
%%IncludeResource: font Helvetica
%%IncludeResource: font Courier-BoldOblique
%%IncludeResource: font Courier-Oblique
%%IncludeResource: font Times-Roman
%%IncludeResource: font Helvetica-BoldOblique
%%IncludeResource: font Helvetica-Bold
%%IncludeResource: font Helvetica-Oblique
%%IncludeResource: font Times-BoldItalic
%%IncludeResource: font Courier
%%IncludeResource: font Times-Italic
%%IncludeResource: font Times-Bold
%%IncludeResource: font Symbol
%%IncludeResource: font ZapfDingbats
%FOPEndFontDict
%%BeginResource: encoding WinAnsiEncoding
/WinAnsiEncoding [
/.notdef /.notdef /.notdef /.notdef /.notdef
/.notdef /.notdef /.notdef /.notdef /.notdef
/.notdef /.notdef /.notdef /.notdef /.notdef
/.notdef /.notdef /.notdef /.notdef /.notdef
/.notdef /.notdef /.notdef /.notdef /.notdef
/.notdef /.notdef /.notdef /.notdef /.notdef
/.notdef /.notdef /space /exclam /quotedbl
/numbersign /dollar /percent /ampersand /quotesingle
/parenleft /parenright /asterisk /plus /comma
/hyphen /period /slash /zero /one
/two /three /four /five /six
/seven /eight /nine /colon /semicolon
/less /equal /greater /question /at
/A /B /C /D /E
/F /G /H /I /J
/K /L /M /N /O
/P /Q /R /S /T
/U /V /W /X /Y
/Z /bracketleft /backslash /bracketright /asciicircum
/underscore /quoteleft /a /b /c
/d /e /f /g /h
/i /j /k /l /m
/n /o /p /q /r
/s /t /u /v /w
/x /y /z /braceleft /bar
/braceright /asciitilde /bullet /Euro /bullet
/quotesinglbase /florin /quotedblbase /ellipsis /dagger
/daggerdbl /circumflex /perthousand /Scaron /guilsinglleft
/OE /bullet /Zcaron /bullet /bullet
/quoteleft /quoteright /quotedblleft /quotedblright /bullet
/endash /emdash /asciitilde /trademark /scaron
/guilsinglright /oe /bullet /zcaron /Ydieresis
/space /exclamdown /cent /sterling /currency
/yen /brokenbar /section /dieresis /copyright
/ordfeminine /guillemotleft /logicalnot /sfthyphen /registered
/macron /degree /plusminus /twosuperior /threesuperior
/acute /mu /paragraph /middot /cedilla
/onesuperior /ordmasculine /guillemotright /onequarter /onehalf
/threequarters /questiondown /Agrave /Aacute /Acircumflex
/Atilde /Adieresis /Aring /AE /Ccedilla
/Egrave /Eacute /Ecircumflex /Edieresis /Igrave
/Iacute /Icircumflex /Idieresis /Eth /Ntilde
/Ograve /Oacute /Ocircumflex /Otilde /Odieresis
/multiply /Oslash /Ugrave /Uacute /Ucircumflex
/Udieresis /Yacute /Thorn /germandbls /agrave
/aacute /acircumflex /atilde /adieresis /aring
/ae /ccedilla /egrave /eacute /ecircumflex
/edieresis /igrave /iacute /icircumflex /idieresis
/eth /ntilde /ograve /oacute /ocircumflex
/otilde /odieresis /divide /oslash /ugrave
/uacute /ucircumflex /udieresis /yacute /thorn
/ydieresis
] def
%%EndResource
%FOPBeginFontReencode
/Courier-Bold findfont
dup length dict begin
  {1 index /FID ne {def} {pop pop} ifelse} forall
  /Encoding WinAnsiEncoding def
  currentdict
end
/Courier-Bold exch definefont pop
/Helvetica findfont
dup length dict begin
  {1 index /FID ne {def} {pop pop} ifelse} forall
  /Encoding WinAnsiEncoding def
  currentdict
end
/Helvetica exch definefont pop
/Courier-BoldOblique findfont
dup length dict begin
  {1 index /FID ne {def} {pop pop} ifelse} forall
  /Encoding WinAnsiEncoding def
  currentdict
end
/Courier-BoldOblique exch definefont pop
/Courier-Oblique findfont
dup length dict begin
  {1 index /FID ne {def} {pop pop} ifelse} forall
  /Encoding WinAnsiEncoding def
  currentdict
end
/Courier-Oblique exch definefont pop
/Times-Roman findfont
dup length dict begin
  {1 index /FID ne {def} {pop pop} ifelse} forall
  /Encoding WinAnsiEncoding def
  currentdict
end
/Times-Roman exch definefont pop
/Helvetica-BoldOblique findfont
dup length dict begin
  {1 index /FID ne {def} {pop pop} ifelse} forall
  /Encoding WinAnsiEncoding def
  currentdict
end
/Helvetica-BoldOblique exch definefont pop
/Helvetica-Bold findfont
dup length dict begin
  {1 index /FID ne {def} {pop pop} ifelse} forall
  /Encoding WinAnsiEncoding def
  currentdict
end
/Helvetica-Bold exch definefont pop
/Helvetica-Oblique findfont
dup length dict begin
  {1 index /FID ne {def} {pop pop} ifelse} forall
  /Encoding WinAnsiEncoding def
  currentdict
end
/Helvetica-Oblique exch definefont pop
/Times-BoldItalic findfont
dup length dict begin
  {1 index /FID ne {def} {pop pop} ifelse} forall
  /Encoding WinAnsiEncoding def
  currentdict
end
/Times-BoldItalic exch definefont pop
/Courier findfont
dup length dict begin
  {1 index /FID ne {def} {pop pop} ifelse} forall
  /Encoding WinAnsiEncoding def
  currentdict
end
/Courier exch definefont pop
/Times-Italic findfont
dup length dict begin
  {1 index /FID ne {def} {pop pop} ifelse} forall
  /Encoding WinAnsiEncoding def
  currentdict
end
/Times-Italic exch definefont pop
/Times-Bold findfont
dup length dict begin
  {1 index /FID ne {def} {pop pop} ifelse} forall
  /Encoding WinAnsiEncoding def
  currentdict
end
/Times-Bold exch definefont pop
%FOPEndFontReencode
%%EndProlog
%%Page: 1 1
%%PageBoundingBox: 0 0 420 315
%%BeginPageSetup
[1 0 0 -1 0 315] CT
%%EndPageSetup
GS
[0.6 0 0 0.6 0 0] CT
1 GC
N
0 0 700 525 re
f
GR
GS
[0.6 0 0 0.6 0 0] CT
1 GC
N
0 0 700 525 re
f
GR
GS
[0.6 0 0 0.6 0 0] CT
1 GC
N
91 467 M
634 467 L
634 39 L
91 39 L
cp
f
GR
GS
[0.6 0 0 0.6 0 0] CT
0.149 GC
2 setlinecap
1 LJ
0.833 LW
N
91 467 M
634 467 L
S
GR
GS
[0.6 0 0 0.6 0 0] CT
0.149 GC
2 setlinecap
1 LJ
0.833 LW
N
91 39 M
634 39 L
S
GR
GS
[0.6 0 0 0.6 0 0] CT
0.149 GC
2 setlinecap
1 LJ
0.833 LW
N
91 467 M
91 461.57 L
S
GR
GS
[0.6 0 0 0.6 0 0] CT
0.149 GC
2 setlinecap
1 LJ
0.833 LW
N
158.875 467 M
158.875 461.57 L
S
GR
GS
[0.6 0 0 0.6 0 0] CT
0.149 GC
2 setlinecap
1 LJ
0.833 LW
N
226.75 467 M
226.75 461.57 L
S
GR
GS
[0.6 0 0 0.6 0 0] CT
0.149 GC
2 setlinecap
1 LJ
0.833 LW
N
294.625 467 M
294.625 461.57 L
S
GR
GS
[0.6 0 0 0.6 0 0] CT
0.149 GC
2 setlinecap
1 LJ
0.833 LW
N
362.5 467 M
362.5 461.57 L
S
GR
GS
[0.6 0 0 0.6 0 0] CT
0.149 GC
2 setlinecap
1 LJ
0.833 LW
N
430.375 467 M
430.375 461.57 L
S
GR
GS
[0.6 0 0 0.6 0 0] CT
0.149 GC
2 setlinecap
1 LJ
0.833 LW
N
498.25 467 M
498.25 461.57 L
S
GR
GS
[0.6 0 0 0.6 0 0] CT
0.149 GC
2 setlinecap
1 LJ
0.833 LW
N
566.125 467 M
566.125 461.57 L
S
GR
GS
[0.6 0 0 0.6 0 0] CT
0.149 GC
2 setlinecap
1 LJ
0.833 LW
N
634 467 M
634 461.57 L
S
GR
GS
[0.6 0 0 0.6 0 0] CT
0.149 GC
2 setlinecap
1 LJ
0.833 LW
N
91 39 M
91 44.43 L
S
GR
GS
[0.6 0 0 0.6 0 0] CT
0.149 GC
2 setlinecap
1 LJ
0.833 LW
N
158.875 39 M
158.875 44.43 L
S
GR
GS
[0.6 0 0 0.6 0 0] CT
0.149 GC
2 setlinecap
1 LJ
0.833 LW
N
226.75 39 M
226.75 44.43 L
S
GR
GS
[0.6 0 0 0.6 0 0] CT
0.149 GC
2 setlinecap
1 LJ
0.833 LW
N
294.625 39 M
294.625 44.43 L
S
GR
GS
[0.6 0 0 0.6 0 0] CT
0.149 GC
2 setlinecap
1 LJ
0.833 LW
N
362.5 39 M
362.5 44.43 L
S
GR
GS
[0.6 0 0 0.6 0 0] CT
0.149 GC
2 setlinecap
1 LJ
0.833 LW
N
430.375 39 M
430.375 44.43 L
S
GR
GS
[0.6 0 0 0.6 0 0] CT
0.149 GC
2 setlinecap
1 LJ
0.833 LW
N
498.25 39 M
498.25 44.43 L
S
GR
GS
[0.6 0 0 0.6 0 0] CT
0.149 GC
2 setlinecap
1 LJ
0.833 LW
N
566.125 39 M
566.125 44.43 L
S
GR
GS
[0.6 0 0 0.6 0 0] CT
0.149 GC
2 setlinecap
1 LJ
0.833 LW
N
634 39 M
634 44.43 L
S
GR
GS
[0.6 0 0 0.6 54.6 284.19999] CT
0.149 GC
/Helvetica 16.667 F
GS
[1 0 0 1 0 0] CT
-5 18 moveto 
1 -1 scale
(0) t 
GR
GR
GS
[0.6 0 0 0.6 95.325 284.19999] CT
0.149 GC
/Helvetica 16.667 F
GS
[1 0 0 1 0 0] CT
-5 18 moveto 
1 -1 scale
(2) t 
GR
GR
GS
[0.6 0 0 0.6 136.05 284.19999] CT
0.149 GC
/Helvetica 16.667 F
GS
[1 0 0 1 0 0] CT
-5 18 moveto 
1 -1 scale
(4) t 
GR
GR
GS
[0.6 0 0 0.6 176.775 284.19999] CT
0.149 GC
/Helvetica 16.667 F
GS
[1 0 0 1 0 0] CT
-5 18 moveto 
1 -1 scale
(6) t 
GR
GR
GS
[0.6 0 0 0.6 217.5 284.19999] CT
0.149 GC
/Helvetica 16.667 F
GS
[1 0 0 1 0 0] CT
-5 18 moveto 
1 -1 scale
(8) t 
GR
GR
GS
[0.6 0 0 0.6 258.225 284.19999] CT
0.149 GC
/Helvetica 16.667 F
GS
[1 0 0 1 0 0] CT
-9.5 18 moveto 
1 -1 scale
(10) t 
GR
GR
GS
[0.6 0 0 0.6 298.95 284.19999] CT
0.149 GC
/Helvetica 16.667 F
GS
[1 0 0 1 0 0] CT
-9.5 18 moveto 
1 -1 scale
(12) t 
GR
GR
GS
[0.6 0 0 0.6 339.675 284.19999] CT
0.149 GC
/Helvetica 16.667 F
GS
[1 0 0 1 0 0] CT
-9.5 18 moveto 
1 -1 scale
(14) t 
GR
GR
GS
[0.6 0 0 0.6 380.4 284.19999] CT
0.149 GC
/Helvetica 16.667 F
GS
[1 0 0 1 0 0] CT
-9.5 18 moveto 
1 -1 scale
(16) t 
GR
GR
GS
[0.6 0 0 0.6 217.50015 298.40001] CT
0.149 GC
N
-30.462 13.244 M
-30.462 8.275 L
-31.962 8.275 L
-31.962 7.806 L
-30.791 7.806 -30.236 6.705 QT
-29.681 5.603 -29.681 4.322 QT
-29.166 4.322 L
-29.166 7.634 L
-26.619 7.634 L
-26.619 8.275 L
-29.166 8.275 L
-29.166 13.197 L
-29.166 13.947 -28.916 14.509 QT
-28.666 15.072 -28.009 15.072 QT
-27.4 15.072 -27.126 14.478 QT
-26.853 13.884 -26.853 13.197 QT
-26.853 12.134 L
-26.322 12.134 L
-26.322 13.244 L
-26.322 13.806 -26.533 14.353 QT
-26.744 14.9 -27.15 15.251 QT
-27.556 15.603 -28.134 15.603 QT
-29.212 15.603 -29.837 14.955 QT
-30.462 14.306 -30.462 13.244 QT
cp
f
GR
GS
[0.6 0 0 0.6 217.50015 298.40001] CT
0.149 GC
N
-24.63 15.4 M
-24.63 14.759 L
-24.005 14.759 -23.614 14.666 QT
-23.223 14.572 -23.223 14.197 QT
-23.223 9.275 L
-23.223 8.587 -23.489 8.431 QT
-23.755 8.275 -24.536 8.275 QT
-24.536 7.634 L
-21.958 7.447 L
-21.958 14.197 L
-21.958 14.572 -21.614 14.666 QT
-21.27 14.759 -20.692 14.759 QT
-20.692 15.4 L
-24.63 15.4 L
cp
-23.864 4.353 M
-23.864 3.962 -23.559 3.658 QT
-23.255 3.353 -22.88 3.353 QT
-22.614 3.353 -22.38 3.486 QT
-22.145 3.619 -22.012 3.861 QT
-21.88 4.103 -21.88 4.353 QT
-21.88 4.744 -22.177 5.041 QT
-22.473 5.337 -22.88 5.337 QT
-23.255 5.337 -23.559 5.041 QT
-23.864 4.744 -23.864 4.353 QT
cp
f
GR
GS
[0.6 0 0 0.6 217.50015 298.40001] CT
0.149 GC
N
-19.553 15.4 M
-19.553 14.759 L
-18.928 14.759 -18.537 14.666 QT
-18.146 14.572 -18.146 14.197 QT
-18.146 9.275 L
-18.146 8.806 -18.287 8.587 QT
-18.428 8.369 -18.701 8.322 QT
-18.975 8.275 -19.553 8.275 QT
-19.553 7.634 L
-16.943 7.447 L
-16.943 9.197 L
-16.584 8.431 -15.873 7.939 QT
-15.162 7.447 -14.334 7.447 QT
-12.256 7.447 -11.896 9.134 QT
-11.537 8.384 -10.842 7.916 QT
-10.146 7.447 -9.318 7.447 QT
-8.506 7.447 -7.943 7.712 QT
-7.381 7.978 -7.1 8.517 QT
-6.818 9.056 -6.818 9.869 QT
-6.818 14.197 L
-6.818 14.572 -6.42 14.666 QT
-6.021 14.759 -5.412 14.759 QT
-5.412 15.4 L
-9.537 15.4 L
-9.537 14.759 L
-8.928 14.759 -8.529 14.666 QT
-8.131 14.572 -8.131 14.197 QT
-8.131 9.931 L
-8.131 9.025 -8.389 8.47 QT
-8.646 7.916 -9.428 7.916 QT
-10.475 7.916 -11.146 8.751 QT
-11.818 9.587 -11.818 10.65 QT
-11.818 14.197 L
-11.818 14.572 -11.428 14.666 QT
-11.037 14.759 -10.412 14.759 QT
-10.412 15.4 L
-14.537 15.4 L
-14.537 14.759 L
-13.928 14.759 -13.529 14.666 QT
-13.131 14.572 -13.131 14.197 QT
-13.131 9.931 L
-13.131 9.041 -13.389 8.478 QT
-13.646 7.916 -14.428 7.916 QT
-15.475 7.916 -16.146 8.751 QT
-16.818 9.587 -16.818 10.65 QT
-16.818 14.197 L
-16.818 14.572 -16.428 14.666 QT
-16.037 14.759 -15.428 14.759 QT
-15.428 15.4 L
-19.553 15.4 L
cp
f
GR
GS
[0.6 0 0 0.6 217.50015 298.40001] CT
0.149 GC
N
-0.322 15.603 M
-1.415 15.603 -2.337 15.025 QT
-3.259 14.447 -3.783 13.486 QT
-4.306 12.525 -4.306 11.447 QT
-4.306 10.4 -3.83 9.447 QT
-3.353 8.494 -2.494 7.916 QT
-1.634 7.337 -0.572 7.337 QT
0.241 7.337 0.858 7.611 QT
1.475 7.884 1.866 8.376 QT
2.256 8.869 2.46 9.541 QT
2.663 10.212 2.663 11.009 QT
2.663 11.244 2.475 11.244 QT
-2.728 11.244 L
-2.728 11.431 L
-2.728 12.931 -2.126 14.001 QT
-1.525 15.072 -0.165 15.072 QT
0.381 15.072 0.858 14.83 QT
1.335 14.587 1.678 14.142 QT
2.022 13.697 2.147 13.197 QT
2.163 13.134 2.21 13.087 QT
2.256 13.041 2.319 13.041 QT
2.475 13.041 L
2.663 13.041 2.663 13.275 QT
2.413 14.291 1.569 14.947 QT
0.725 15.603 -0.322 15.603 QT
cp
-2.712 10.791 M
1.397 10.791 L
1.397 10.119 1.202 9.423 QT
1.006 8.728 0.569 8.267 QT
0.131 7.806 -0.572 7.806 QT
-1.603 7.806 -2.158 8.759 QT
-2.712 9.712 -2.712 10.791 QT
cp
f
GR
GS
[0.6 0 0 0.6 217.50015 298.40001] CT
0.149 GC
N
15.031 19.869 M
14.031 19.072 13.305 18.048 QT
12.578 17.025 12.117 15.869 QT
11.656 14.712 11.43 13.447 QT
11.203 12.181 11.203 10.9 QT
11.203 9.603 11.43 8.337 QT
11.656 7.072 12.125 5.908 QT
12.594 4.744 13.328 3.72 QT
14.063 2.697 15.031 1.931 QT
15.031 1.9 15.125 1.9 QT
15.297 1.9 L
15.344 1.9 15.391 1.947 QT
15.438 1.994 15.438 2.056 QT
15.438 2.134 15.391 2.166 QT
14.516 3.041 13.93 4.025 QT
13.344 5.009 12.992 6.119 QT
12.641 7.228 12.477 8.416 QT
12.313 9.603 12.313 10.9 QT
12.313 16.619 15.375 19.587 QT
15.438 19.65 15.438 19.744 QT
15.438 19.791 15.383 19.845 QT
15.328 19.9 15.297 19.9 QT
15.125 19.9 L
15.031 19.9 15.031 19.869 QT
cp
f
GR
GS
[0.6 0 0 0.6 217.50015 298.40001] CT
0.149 GC
N
18.145 14.306 M
18.63 15.134 20.083 15.134 QT
20.723 15.134 21.294 14.916 QT
21.864 14.697 22.239 14.267 QT
22.614 13.837 22.614 13.212 QT
22.614 12.759 22.278 12.455 QT
21.942 12.15 21.458 12.056 QT
20.489 11.853 L
19.817 11.697 19.387 11.236 QT
18.958 10.775 18.958 10.119 QT
18.958 9.322 19.395 8.712 QT
19.833 8.103 20.544 7.775 QT
21.255 7.447 22.02 7.447 QT
22.833 7.447 23.481 7.837 QT
24.13 8.228 24.13 8.994 QT
24.13 9.4 23.895 9.72 QT
23.661 10.041 23.239 10.041 QT
23.005 10.041 22.833 9.884 QT
22.661 9.728 22.661 9.494 QT
22.661 9.275 22.778 9.08 QT
22.895 8.884 23.098 8.767 QT
23.302 8.65 23.505 8.65 QT
23.348 8.259 22.911 8.087 QT
22.473 7.916 21.973 7.916 QT
21.52 7.916 21.067 8.095 QT
20.614 8.275 20.333 8.634 QT
20.052 8.994 20.052 9.478 QT
20.052 9.806 20.278 10.048 QT
20.505 10.291 20.848 10.4 QT
21.895 10.603 L
22.395 10.712 22.809 10.978 QT
23.223 11.244 23.466 11.658 QT
23.708 12.072 23.708 12.603 QT
23.708 13.259 23.333 13.916 QT
22.958 14.572 22.427 14.947 QT
21.458 15.603 20.067 15.603 QT
19.114 15.603 18.317 15.166 QT
17.52 14.728 17.52 13.853 QT
17.52 13.353 17.802 12.994 QT
18.083 12.634 18.583 12.634 QT
18.864 12.634 19.067 12.806 QT
19.27 12.978 19.27 13.275 QT
19.27 13.681 18.958 13.994 QT
18.645 14.306 18.239 14.306 QT
18.145 14.306 L
cp
f
GR
GS
[0.6 0 0 0.6 217.50015 298.40001] CT
0.149 GC
N
26.348 19.9 M
26.192 19.9 26.192 19.744 QT
26.192 19.666 26.223 19.634 QT
29.302 16.619 29.302 10.9 QT
29.302 5.181 26.255 2.212 QT
26.192 2.166 26.192 2.056 QT
26.192 1.994 26.239 1.947 QT
26.286 1.9 26.348 1.9 QT
26.52 1.9 L
26.567 1.9 26.598 1.931 QT
27.895 2.947 28.755 4.408 QT
29.614 5.869 30.012 7.525 QT
30.411 9.181 30.411 10.9 QT
30.411 12.181 30.2 13.416 QT
29.989 14.65 29.52 15.845 QT
29.052 17.041 28.325 18.056 QT
27.598 19.072 26.598 19.869 QT
26.567 19.9 26.52 19.9 QT
26.348 19.9 L
cp
f
GR
GS
[0.6 0 0 0.6 0 0] CT
0.149 GC
2 setlinecap
1 LJ
0.833 LW
N
91 467 M
91 39 L
S
GR
GS
[0.6 0 0 0.6 0 0] CT
0.149 GC
2 setlinecap
1 LJ
0.833 LW
N
634 467 M
634 39 L
S
GR
GS
[0.6 0 0 0.6 0 0] CT
0.149 GC
2 setlinecap
1 LJ
0.833 LW
N
91 467 M
96.43 467 L
S
GR
GS
[0.6 0 0 0.6 0 0] CT
0.149 GC
2 setlinecap
1 LJ
0.833 LW
N
91 413.5 M
96.43 413.5 L
S
GR
GS
[0.6 0 0 0.6 0 0] CT
0.149 GC
2 setlinecap
1 LJ
0.833 LW
N
91 360 M
96.43 360 L
S
GR
GS
[0.6 0 0 0.6 0 0] CT
0.149 GC
2 setlinecap
1 LJ
0.833 LW
N
91 306.5 M
96.43 306.5 L
S
GR
GS
[0.6 0 0 0.6 0 0] CT
0.149 GC
2 setlinecap
1 LJ
0.833 LW
N
91 253 M
96.43 253 L
S
GR
GS
[0.6 0 0 0.6 0 0] CT
0.149 GC
2 setlinecap
1 LJ
0.833 LW
N
91 199.5 M
96.43 199.5 L
S
GR
GS
[0.6 0 0 0.6 0 0] CT
0.149 GC
2 setlinecap
1 LJ
0.833 LW
N
91 146 M
96.43 146 L
S
GR
GS
[0.6 0 0 0.6 0 0] CT
0.149 GC
2 setlinecap
1 LJ
0.833 LW
N
91 92.5 M
96.43 92.5 L
S
GR
GS
[0.6 0 0 0.6 0 0] CT
0.149 GC
2 setlinecap
1 LJ
0.833 LW
N
91 39 M
96.43 39 L
S
GR
GS
[0.6 0 0 0.6 0 0] CT
0.149 GC
2 setlinecap
1 LJ
0.833 LW
N
634 467 M
628.57 467 L
S
GR
GS
[0.6 0 0 0.6 0 0] CT
0.149 GC
2 setlinecap
1 LJ
0.833 LW
N
634 413.5 M
628.57 413.5 L
S
GR
GS
[0.6 0 0 0.6 0 0] CT
0.149 GC
2 setlinecap
1 LJ
0.833 LW
N
634 360 M
628.57 360 L
S
GR
GS
[0.6 0 0 0.6 0 0] CT
0.149 GC
2 setlinecap
1 LJ
0.833 LW
N
634 306.5 M
628.57 306.5 L
S
GR
GS
[0.6 0 0 0.6 0 0] CT
0.149 GC
2 setlinecap
1 LJ
0.833 LW
N
634 253 M
628.57 253 L
S
GR
GS
[0.6 0 0 0.6 0 0] CT
0.149 GC
2 setlinecap
1 LJ
0.833 LW
N
634 199.5 M
628.57 199.5 L
S
GR
GS
[0.6 0 0 0.6 0 0] CT
0.149 GC
2 setlinecap
1 LJ
0.833 LW
N
634 146 M
628.57 146 L
S
GR
GS
[0.6 0 0 0.6 0 0] CT
0.149 GC
2 setlinecap
1 LJ
0.833 LW
N
634 92.5 M
628.57 92.5 L
S
GR
GS
[0.6 0 0 0.6 0 0] CT
0.149 GC
2 setlinecap
1 LJ
0.833 LW
N
634 39 M
628.57 39 L
S
GR
GS
[0.6 0 0 0.6 50.6 280.2] CT
0.149 GC
/Helvetica 16.667 F
GS
[1 0 0 1 0 0] CT
-39 7 moveto 
1 -1 scale
(-0.02) t 
GR
GR
GS
[0.6 0 0 0.6 50.6 248.1] CT
0.149 GC
/Helvetica 16.667 F
GS
[1 0 0 1 0 0] CT
-49 7 moveto 
1 -1 scale
(-0.015) t 
GR
GR
GS
[0.6 0 0 0.6 50.6 216] CT
0.149 GC
/Helvetica 16.667 F
GS
[1 0 0 1 0 0] CT
-39 7 moveto 
1 -1 scale
(-0.01) t 
GR
GR
GS
[0.6 0 0 0.6 50.6 183.9] CT
0.149 GC
/Helvetica 16.667 F
GS
[1 0 0 1 0 0] CT
-49 7 moveto 
1 -1 scale
(-0.005) t 
GR
GR
GS
[0.6 0 0 0.6 50.6 151.8] CT
0.149 GC
/Helvetica 16.667 F
GS
[1 0 0 1 0 0] CT
-10 7 moveto 
1 -1 scale
(0) t 
GR
GR
GS
[0.6 0 0 0.6 50.6 119.7] CT
0.149 GC
/Helvetica 16.667 F
GS
[1 0 0 1 0 0] CT
-43 7 moveto 
1 -1 scale
(0.005) t 
GR
GR
GS
[0.6 0 0 0.6 50.6 87.6] CT
0.149 GC
/Helvetica 16.667 F
GS
[1 0 0 1 0 0] CT
-34 7 moveto 
1 -1 scale
(0.01) t 
GR
GR
GS
[0.6 0 0 0.6 50.6 55.5] CT
0.149 GC
/Helvetica 16.667 F
GS
[1 0 0 1 0 0] CT
-43 7 moveto 
1 -1 scale
(0.015) t 
GR
GR
GS
[0.6 0 0 0.6 50.6 23.4] CT
0.149 GC
/Helvetica 16.667 F
GS
[1 0 0 1 0 0] CT
-34 7 moveto 
1 -1 scale
(0.02) t 
GR
GR
GS
[0 -0.6 0.6 0 18.2 151.79988] CT
0.149 GC
N
0.497 -22.485 M
0.497 -22.876 0.794 -23.18 QT
1.091 -23.485 1.482 -23.485 QT
1.732 -23.485 1.966 -23.352 QT
2.2 -23.219 2.333 -22.977 QT
2.466 -22.735 2.466 -22.485 QT
2.466 -22.094 2.177 -21.797 QT
1.888 -21.501 1.482 -21.501 QT
1.091 -21.501 0.794 -21.797 QT
0.497 -22.094 0.497 -22.485 QT
cp
f
GR
GS
[0 -0.6 0.6 0 18.2 151.79988] CT
0.149 GC
N
-1.652 -6.397 M
-2.48 -6.397 -2.972 -6.999 QT
-3.464 -7.6 -3.652 -8.444 QT
-3.839 -9.288 -3.839 -10.1 QT
-3.839 -10.131 L
-3.839 -11.022 -3.667 -11.991 QT
-3.495 -12.959 -3.167 -13.92 QT
-2.839 -14.881 -2.464 -15.631 QT
-2.199 -16.163 -1.784 -16.811 QT
-1.37 -17.459 -0.855 -18.03 QT
-0.339 -18.6 0.255 -18.944 QT
0.848 -19.288 1.458 -19.288 QT
1.473 -19.288 L
2.13 -19.288 2.559 -18.928 QT
2.989 -18.569 3.231 -18.006 QT
3.473 -17.444 3.575 -16.803 QT
3.676 -16.163 3.676 -15.584 QT
3.676 -14.225 3.301 -12.803 QT
2.926 -11.381 2.286 -10.053 QT
2.036 -9.553 1.598 -8.874 QT
1.161 -8.194 0.676 -7.663 QT
0.192 -7.131 -0.417 -6.764 QT
-1.027 -6.397 -1.636 -6.397 QT
-1.652 -6.397 L
cp
-1.62 -6.866 M
-1.027 -6.866 -0.48 -7.506 QT
0.067 -8.147 0.481 -9.053 QT
0.895 -9.959 1.208 -10.92 QT
1.52 -11.881 1.676 -12.538 QT
-1.995 -12.538 L
-2.277 -11.413 -2.441 -10.592 QT
-2.605 -9.772 -2.605 -8.975 QT
-2.605 -6.866 -1.62 -6.866 QT
cp
-1.855 -13.178 M
1.833 -13.178 L
2.02 -13.959 2.137 -14.491 QT
2.255 -15.022 2.333 -15.616 QT
2.411 -16.209 2.411 -16.709 QT
2.411 -18.819 1.458 -18.819 QT
0.317 -18.819 -0.519 -16.983 QT
-1.355 -15.147 -1.855 -13.178 QT
cp
f
GR
GS
[0.6 0 0 0.6 0 0] CT
0 0.447 0.741 RC
1 LJ
3.333 LW
N
91 253 M
91.17 247.608 L
91.339 253 L
91.509 247.608 L
91.679 258.392 L
91.848 258.392 L
92.018 253.009 L
92.188 247.616 L
92.357 258.401 L
92.527 263.793 L
92.697 247.616 L
92.867 247.616 L
93.036 253.009 L
93.206 253.009 L
93.376 253.009 L
93.545 253.009 L
93.715 253 L
93.885 258.392 L
94.054 242.215 L
94.224 253 L
94.394 258.392 L
94.563 247.608 L
94.733 247.608 L
94.903 258.392 L
95.073 242.215 L
95.242 253 L
95.412 253 L
95.582 253 L
95.751 253 L
95.921 263.785 L
96.091 253 L
96.26 253 L
96.43 253 L
96.6 258.392 L
96.769 258.392 L
96.939 247.608 L
97.109 263.785 L
97.278 253 L
97.448 258.392 L
97.618 253 L
97.787 258.392 L
97.957 258.392 L
98.127 263.785 L
98.297 247.608 L
98.466 258.392 L
98.636 263.785 L
98.806 247.625 L
98.975 253.017 L
99.145 242.232 L
99.315 242.232 L
99.484 242.232 L
99.654 242.232 L
99.824 242.232 L
99.993 242.232 L
100.163 258.409 L
100.333 242.232 L
100.503 242.207 L
100.672 258.384 L
100.842 252.991 L
101.012 242.207 L
101.181 247.599 L
101.351 247.599 L
101.521 247.599 L
101.69 247.599 L
101.86 247.599 L
102.03 247.599 L
102.199 263.768 L
102.369 258.375 L
102.539 252.983 L
102.708 252.983 L
102.878 258.375 L
103.048 258.375 L
103.217 258.375 L
103.387 263.768 L
103.557 258.375 L
103.727 252.983 L
103.896 236.84 L
104.066 258.409 L
104.236 247.625 L
104.405 253.017 L
104.575 247.625 L
104.745 258.409 L
104.914 253.017 L
105.084 247.625 L
105.254 253.017 L
105.423 258.409 L
105.593 269.151 L
105.763 258.367 L
105.933 263.759 L
106.102 263.759 L
106.272 269.151 L
106.442 252.974 L
106.611 258.367 L
106.781 269.151 L
106.951 263.759 L
107.12 263.759 L
107.29 247.633 L
107.46 253.026 L
107.629 258.418 L
107.799 253.026 L
107.969 236.849 L
108.138 258.418 L
108.308 247.633 L
108.478 253.026 L
108.647 247.633 L
108.817 258.418 L
108.987 252.991 L
109.157 258.384 L
109.326 236.814 L
109.496 252.991 L
109.666 258.384 L
109.835 258.384 L
110.005 252.991 L
110.175 263.776 L
110.344 252.991 L
110.514 252.991 L
110.684 253 L
110.853 263.785 L
111.023 253 L
111.193 253 L
111.363 274.569 L
111.532 258.392 L
111.702 253 L
111.872 253 L
112.041 253 L
112.211 258.392 L
112.381 263.785 L
112.55 242.215 L
112.72 242.215 L
112.89 247.608 L
113.059 253 L
113.229 247.608 L
113.399 258.392 L
113.568 263.785 L
113.738 242.215 L
113.908 253 L
114.077 247.625 L
114.247 242.232 L
114.417 242.232 L
114.587 247.625 L
114.756 242.232 L
114.926 242.232 L
115.096 247.625 L
115.265 247.625 L
115.435 247.625 L
115.605 242.232 L
115.774 247.599 L
115.944 247.599 L
116.114 247.599 L
116.283 252.991 L
116.453 242.207 L
116.623 247.599 L
116.793 247.599 L
116.962 242.207 L
117.132 242.207 L
117.302 247.599 L
117.471 252.991 L
117.641 263.776 L
117.811 252.991 L
117.98 252.991 L
118.15 242.207 L
118.32 263.776 L
118.489 252.991 L
118.659 252.991 L
118.829 258.384 L
118.998 258.384 L
119.168 253 L
119.338 258.392 L
119.507 253 L
119.677 253 L
119.847 253 L
120.017 247.608 L
120.186 253 L
120.356 258.392 L
120.526 253 L
120.695 253 L
120.865 247.608 L
121.035 258.392 L
121.204 258.392 L
121.374 247.608 L
121.544 253 L
121.713 242.215 L
121.883 253 L
122.053 242.215 L
122.223 253 L
122.392 263.785 L
122.562 258.384 L
122.732 258.384 L
122.901 258.384 L
123.071 258.384 L
123.241 258.384 L
123.41 258.384 L
123.58 247.599 L
123.75 258.384 L
123.919 263.776 L
124.089 258.384 L
124.259 247.616 L
124.428 263.793 L
124.598 258.401 L
124.768 253.009 L
124.938 253.009 L
125.107 263.793 L
125.277 258.401 L
125.447 242.224 L
125.616 253.009 L
125.786 258.401 L
125.956 258.384 L
126.125 252.991 L
126.295 258.384 L
126.465 258.384 L
126.634 252.991 L
126.804 247.599 L
126.974 247.599 L
127.143 263.776 L
127.313 263.776 L
127.483 247.599 L
127.653 247.616 L
127.822 253.009 L
127.992 258.401 L
128.162 247.616 L
128.331 242.224 L
128.501 253.009 L
128.671 253.009 L
128.84 258.401 L
129.01 253.009 L
129.18 253.009 L
129.349 258.384 L
129.519 258.384 L
129.689 252.991 L
129.858 258.384 L
130.028 263.776 L
130.198 252.991 L
130.367 269.169 L
130.537 263.776 L
130.707 263.776 L
130.877 263.776 L
131.046 263.793 L
131.216 258.401 L
131.386 263.793 L
131.555 247.616 L
131.725 263.793 L
131.895 253.009 L
132.064 253.009 L
132.234 236.831 L
132.404 258.401 L
132.573 242.224 L
132.743 242.232 L
132.913 242.232 L
133.083 231.448 L
133.252 253.017 L
133.422 247.625 L
133.592 236.84 L
133.761 242.232 L
133.931 242.232 L
134.101 236.84 L
134.27 242.232 L
134.44 252.983 L
134.61 252.983 L
134.779 242.198 L
134.949 247.591 L
135.119 252.983 L
135.288 252.983 L
135.458 258.375 L
135.628 252.983 L
135.798 258.375 L
135.967 258.375 L
136.137 258.392 L
136.307 253 L
136.476 258.392 L
136.646 253 L
136.816 242.215 L
136.985 253 L
137.155 258.392 L
137.325 253 L
137.494 258.392 L
137.664 247.608 L
137.834 253.009 L
138.003 247.616 L
138.173 253.009 L
138.343 242.224 L
138.512 236.831 L
138.682 253.009 L
138.852 269.186 L
139.022 236.831 L
139.191 247.616 L
139.361 253.009 L
139.531 242.215 L
139.7 231.431 L
139.87 236.823 L
140.04 242.215 L
140.209 258.392 L
140.379 247.608 L
140.549 253 L
140.718 263.785 L
140.888 247.608 L
141.058 247.608 L
141.227 247.59 L
141.397 263.768 L
141.567 263.768 L
141.737 258.375 L
141.906 263.768 L
142.076 263.768 L
142.246 258.375 L
142.415 258.375 L
142.585 258.375 L
142.755 258.375 L
142.924 263.776 L
143.094 263.776 L
143.264 263.776 L
143.433 252.991 L
143.603 258.384 L
143.773 252.991 L
143.943 258.384 L
144.112 269.168 L
144.282 263.776 L
144.452 258.384 L
144.621 242.232 L
144.791 258.409 L
144.961 258.409 L
145.13 253.017 L
145.3 253.017 L
145.47 269.194 L
145.639 247.625 L
145.809 253.017 L
145.979 253.017 L
146.148 253.017 L
146.318 263.768 L
146.488 263.768 L
146.658 263.768 L
146.827 263.768 L
146.997 258.375 L
147.167 258.375 L
147.336 252.983 L
147.506 279.945 L
147.676 263.768 L
147.845 242.198 L
148.015 226.055 L
148.185 236.84 L
148.354 253.017 L
148.524 258.409 L
148.694 242.232 L
148.863 226.055 L
149.033 204.486 L
149.203 231.448 L
149.372 231.448 L
149.542 253.017 L
149.712 269.134 L
149.882 236.78 L
150.051 258.35 L
150.221 279.919 L
150.391 258.35 L
150.56 269.134 L
150.73 263.742 L
150.9 269.134 L
151.069 279.919 L
151.239 269.134 L
151.409 258.418 L
151.578 263.81 L
151.748 263.81 L
151.918 263.81 L
152.087 253.026 L
152.257 263.81 L
152.427 263.81 L
152.597 263.81 L
152.766 263.81 L
152.936 258.418 L
153.106 258.401 L
153.275 236.832 L
153.445 258.401 L
153.615 236.832 L
153.784 242.224 L
153.954 236.832 L
154.124 258.401 L
154.293 263.793 L
154.463 258.401 L
154.633 247.616 L
154.803 236.832 L
154.972 247.616 L
155.142 242.224 L
155.312 253.009 L
155.481 253.009 L
155.651 258.401 L
155.821 253.009 L
155.99 242.224 L
156.16 236.832 L
156.33 253.009 L
156.499 269.151 L
156.669 269.151 L
156.839 269.151 L
157.008 269.151 L
157.178 269.151 L
157.348 258.367 L
157.518 269.151 L
157.687 263.759 L
157.857 258.367 L
158.027 263.759 L
158.196 242.241 L
158.366 253.026 L
158.536 253.026 L
158.705 242.241 L
158.875 242.241 L
159.045 236.849 L
159.214 247.633 L
159.384 242.241 L
159.554 242.241 L
159.723 242.241 L
159.893 263.768 L
160.063 252.983 L
160.232 252.983 L
160.402 258.375 L
160.572 252.983 L
160.742 252.983 L
160.911 263.768 L
161.081 263.768 L
161.251 258.375 L
161.42 252.983 L
161.59 253.017 L
161.76 253.017 L
161.929 242.232 L
162.099 242.232 L
162.269 253.017 L
162.438 236.84 L
162.608 253.017 L
162.778 231.448 L
162.947 253.017 L
163.117 253.017 L
163.287 242.215 L
163.457 226.038 L
163.626 242.215 L
163.796 242.215 L
163.966 263.785 L
164.135 236.823 L
164.305 247.608 L
164.475 242.215 L
164.644 253 L
164.814 242.215 L
164.984 258.375 L
165.153 252.983 L
165.323 263.768 L
165.493 252.983 L
165.663 252.983 L
165.832 252.983 L
166.002 258.375 L
166.172 258.375 L
166.341 252.983 L
166.511 263.768 L
166.681 258.401 L
166.85 236.831 L
167.02 258.401 L
167.19 247.616 L
167.359 258.401 L
167.529 258.401 L
167.699 247.616 L
167.868 247.616 L
168.038 253.009 L
168.208 242.224 L
168.378 242.224 L
168.547 253.009 L
168.717 253.009 L
168.887 236.832 L
169.056 231.439 L
169.226 253.009 L
169.396 242.224 L
169.565 231.439 L
169.735 231.439 L
169.905 247.616 L
170.074 263.768 L
170.244 242.198 L
170.414 252.983 L
170.583 252.983 L
170.753 242.198 L
170.923 252.983 L
171.092 242.198 L
171.262 263.768 L
171.432 263.768 L
171.602 252.983 L
171.771 236.84 L
171.941 247.625 L
172.111 247.625 L
172.28 236.84 L
172.45 263.802 L
172.62 242.232 L
172.789 253.017 L
172.959 242.232 L
173.129 226.055 L
173.298 242.232 L
173.468 258.367 L
173.638 258.367 L
173.807 242.19 L
173.977 263.759 L
174.147 269.151 L
174.317 258.367 L
174.486 252.974 L
174.656 252.974 L
174.826 258.367 L
174.995 247.582 L
175.165 247.616 L
175.335 253.009 L
175.504 247.616 L
175.674 247.616 L
175.844 253.009 L
176.013 247.616 L
176.183 263.793 L
176.353 242.224 L
176.523 253.009 L
176.692 247.616 L
176.862 258.384 L
177.032 263.776 L
177.201 252.991 L
177.371 269.169 L
177.541 258.384 L
177.71 247.599 L
177.88 247.599 L
178.05 263.776 L
178.219 252.991 L
178.389 258.384 L
178.559 242.224 L
178.728 253.009 L
178.898 253.009 L
179.068 242.224 L
179.238 253.009 L
179.407 253.009 L
179.577 247.616 L
179.747 253.009 L
179.916 247.616 L
180.086 247.616 L
180.256 263.768 L
180.425 252.983 L
180.595 258.375 L
180.765 263.768 L
180.934 274.552 L
181.104 258.375 L
181.274 252.983 L
181.443 263.768 L
181.613 263.768 L
181.783 252.983 L
181.952 247.625 L
182.122 253.017 L
182.292 253.017 L
182.462 253.017 L
182.631 253.017 L
182.801 263.802 L
182.971 253.017 L
183.14 263.802 L
183.31 253.017 L
183.48 253.017 L
183.649 258.384 L
183.819 247.599 L
183.989 242.207 L
184.158 269.169 L
184.328 263.776 L
184.498 252.991 L
184.667 252.991 L
184.837 258.384 L
185.007 252.991 L
185.177 252.991 L
185.346 236.831 L
185.516 263.793 L
185.686 247.616 L
185.855 253.009 L
186.025 253.009 L
186.195 269.186 L
186.364 253.009 L
186.534 253.009 L
186.704 258.401 L
186.873 263.793 L
187.043 269.151 L
187.213 269.151 L
187.382 263.759 L
187.552 269.151 L
187.722 263.759 L
187.892 274.544 L
188.061 269.151 L
188.231 258.367 L
188.401 279.936 L
188.57 269.151 L
188.74 247.633 L
188.91 253.026 L
189.079 263.81 L
189.249 253.026 L
189.419 247.633 L
189.588 263.81 L
189.758 253.026 L
189.928 253.026 L
190.098 247.633 L
190.267 258.418 L
190.437 258.384 L
190.607 258.384 L
190.776 258.384 L
190.946 258.384 L
191.116 263.776 L
191.285 258.384 L
191.455 263.776 L
191.625 258.384 L
191.794 258.384 L
191.964 258.384 L
192.134 247.616 L
192.303 263.793 L
192.473 258.401 L
192.643 253.009 L
192.813 253.009 L
192.982 263.793 L
193.152 253.009 L
193.322 263.793 L
193.491 253.009 L
193.661 247.616 L
193.831 258.384 L
194 269.169 L
194.17 258.384 L
194.34 247.599 L
194.509 258.384 L
194.679 258.384 L
194.849 252.991 L
195.018 258.384 L
195.188 258.384 L
195.358 258.384 L
195.527 247.616 L
195.697 253.009 L
195.867 258.401 L
196.037 236.831 L
196.206 247.616 L
196.376 242.224 L
196.546 253.009 L
196.715 263.793 L
196.885 247.616 L
197.055 253.009 L
197.224 269.169 L
197.394 258.384 L
197.564 236.814 L
197.733 252.991 L
197.903 269.169 L
198.073 258.384 L
198.243 252.991 L
198.412 269.169 L
198.582 258.384 L
198.752 252.991 L
198.921 231.456 L
199.091 247.633 L
199.261 242.241 L
199.43 242.241 L
199.6 242.241 L
199.77 236.849 L
199.939 231.456 L
200.109 236.849 L
200.279 253.026 L
200.448 253.026 L
200.618 269.143 L
200.788 247.573 L
200.958 263.75 L
201.127 269.143 L
201.297 263.75 L
201.467 263.75 L
201.636 263.75 L
201.806 263.75 L
201.976 263.75 L
202.145 252.966 L
202.315 242.241 L
202.485 247.633 L
202.654 247.633 L
202.824 247.633 L
202.994 247.633 L
203.163 253.026 L
203.333 258.418 L
203.503 247.633 L
203.673 247.633 L
203.842 247.633 L
204.012 258.375 L
204.182 247.591 L
204.351 258.375 L
204.521 258.375 L
204.691 258.375 L
204.86 252.983 L
205.03 252.983 L
205.2 252.983 L
205.369 252.983 L
205.539 258.375 L
205.709 242.224 L
205.878 258.401 L
206.048 253.009 L
206.218 247.616 L
206.387 242.224 L
206.557 247.616 L
206.727 253.009 L
206.897 253.009 L
207.066 263.793 L
207.236 253.009 L
207.406 263.768 L
207.575 258.375 L
207.745 263.768 L
207.915 263.768 L
208.084 263.768 L
208.254 258.375 L
208.424 263.768 L
208.593 269.16 L
208.763 274.552 L
208.933 263.768 L
209.102 247.625 L
209.272 242.232 L
209.442 263.802 L
209.612 242.232 L
209.781 263.802 L
209.951 253.017 L
210.121 253.017 L
210.29 263.802 L
210.46 253.017 L
210.63 258.409 L
210.799 258.384 L
210.969 252.991 L
211.139 269.169 L
211.308 258.384 L
211.478 269.169 L
211.648 252.991 L
211.818 247.599 L
211.987 258.384 L
212.157 269.169 L
212.327 263.776 L
212.496 242.224 L
212.666 258.401 L
212.836 253.009 L
213.005 253.009 L
213.175 263.793 L
213.345 253.009 L
213.514 263.793 L
213.684 253.009 L
213.854 253.009 L
214.023 253.009 L
214.193 258.375 L
214.363 252.983 L
214.533 258.375 L
214.702 263.768 L
214.872 274.552 L
215.042 263.768 L
215.211 269.16 L
215.381 274.552 L
215.551 263.768 L
215.72 263.768 L
215.89 258.401 L
216.06 269.186 L
216.229 263.793 L
216.399 258.401 L
216.569 247.616 L
216.738 263.793 L
216.908 247.616 L
217.078 258.401 L
217.247 258.401 L
217.417 274.578 L
217.587 253.009 L
217.757 253.009 L
217.926 247.616 L
218.096 263.793 L
218.266 263.793 L
218.435 253.009 L
218.605 263.793 L
218.775 253.009 L
218.944 242.224 L
219.114 263.793 L
219.284 242.215 L
219.453 269.177 L
219.623 263.785 L
219.793 253 L
219.962 258.392 L
220.132 263.785 L
220.302 258.392 L
220.472 253 L
220.641 253 L
220.811 263.785 L
220.981 274.552 L
221.15 263.768 L
221.32 274.552 L
221.49 269.16 L
221.659 274.552 L
221.829 247.59 L
221.999 263.768 L
222.168 269.16 L
222.338 263.768 L
222.508 263.768 L
222.678 242.25 L
222.847 242.25 L
223.017 253.034 L
223.187 236.857 L
223.356 242.25 L
223.526 253.034 L
223.696 242.25 L
223.865 242.25 L
224.035 242.25 L
224.205 253.034 L
224.374 263.768 L
224.544 242.198 L
224.714 258.375 L
224.883 263.768 L
225.053 242.198 L
225.223 263.768 L
225.393 263.768 L
225.562 263.768 L
225.732 263.768 L
225.902 252.983 L
226.071 247.625 L
226.241 253.017 L
226.411 253.017 L
226.58 226.055 L
226.75 253.017 L
226.92 253.017 L
227.089 236.84 L
227.259 242.232 L
227.429 242.232 L
227.598 253.017 L
227.768 258.384 L
227.938 236.814 L
228.107 247.599 L
228.277 247.599 L
228.447 252.991 L
228.617 247.599 L
228.786 247.599 L
228.956 242.207 L
229.126 242.207 L
229.295 258.384 L
229.465 253.009 L
229.635 242.224 L
229.804 242.224 L
229.974 220.654 L
230.144 247.616 L
230.313 242.224 L
230.483 258.401 L
230.653 242.224 L
230.822 242.224 L
230.992 236.831 L
231.162 242.215 L
231.332 253 L
231.501 242.215 L
231.671 242.215 L
231.841 236.823 L
232.01 231.431 L
232.18 231.431 L
232.35 247.608 L
232.519 242.215 L
232.689 236.823 L
232.859 263.768 L
233.028 252.983 L
233.198 263.768 L
233.368 263.768 L
233.537 247.59 L
233.707 247.59 L
233.877 263.768 L
234.047 252.983 L
234.216 252.983 L
234.386 263.768 L
234.556 247.625 L
234.725 236.84 L
234.895 253.017 L
235.065 247.625 L
235.234 253.017 L
235.404 242.232 L
235.574 242.232 L
235.743 253.017 L
235.913 242.232 L
236.083 242.232 L
236.253 247.599 L
236.422 258.384 L
236.592 247.599 L
236.762 258.384 L
236.931 263.776 L
237.101 258.384 L
237.271 242.207 L
237.44 247.599 L
237.61 247.599 L
237.78 252.991 L
237.949 263.776 L
238.119 252.991 L
238.289 242.207 L
238.458 252.991 L
238.628 242.207 L
238.798 252.991 L
238.967 252.991 L
239.137 252.991 L
239.307 252.991 L
239.477 252.991 L
239.646 231.448 L
239.816 253.017 L
239.986 242.232 L
240.155 247.625 L
240.325 253.017 L
240.495 242.232 L
240.664 242.232 L
240.834 236.84 L
241.004 231.448 L
241.173 253.017 L
241.343 263.75 L
241.513 269.143 L
241.682 258.358 L
241.852 263.75 L
242.022 258.358 L
242.192 258.358 L
242.361 263.75 L
242.531 258.358 L
242.701 263.75 L
242.87 263.75 L
243.04 253.017 L
243.21 242.232 L
243.379 253.017 L
243.549 263.802 L
243.719 253.017 L
243.888 253.017 L
244.058 263.802 L
244.228 253.017 L
244.398 253.017 L
244.567 247.625 L
244.737 258.392 L
244.907 258.392 L
245.076 258.392 L
245.246 242.215 L
245.416 263.785 L
245.585 258.392 L
245.755 258.392 L
245.925 253 L
246.094 253 L
246.264 253 L
246.434 242.224 L
246.603 247.616 L
246.773 253.009 L
246.943 258.401 L
247.113 236.831 L
247.282 247.616 L
247.452 247.616 L
247.622 242.224 L
247.791 247.616 L
247.961 253.009 L
248.131 269.16 L
248.3 252.983 L
248.47 252.983 L
248.64 258.375 L
248.809 258.375 L
248.979 269.16 L
249.149 269.16 L
249.318 258.375 L
249.488 258.375 L
249.658 263.768 L
249.827 253.026 L
249.997 247.633 L
250.167 242.241 L
250.337 242.241 L
250.506 247.633 L
250.676 258.418 L
250.846 253.026 L
251.015 242.241 L
251.185 242.241 L
251.355 236.849 L
251.524 247.608 L
251.694 242.215 L
251.864 242.215 L
252.033 242.215 L
252.203 236.823 L
252.373 231.431 L
252.543 253 L
252.712 247.608 L
252.882 242.215 L
253.052 231.431 L
253.221 263.776 L
253.391 258.384 L
253.561 252.991 L
253.73 258.384 L
253.9 247.599 L
254.07 263.776 L
254.239 252.991 L
254.409 247.599 L
254.579 258.384 L
254.748 252.991 L
254.918 236.84 L
255.088 236.84 L
255.258 247.625 L
255.427 236.84 L
255.597 247.625 L
255.767 236.84 L
255.936 226.055 L
256.106 247.625 L
256.276 242.232 L
256.445 242.232 L
256.615 252.974 L
256.785 252.974 L
256.954 247.582 L
257.124 242.19 L
257.294 263.759 L
257.463 258.367 L
257.633 263.759 L
257.803 242.19 L
257.973 252.974 L
258.142 263.759 L
258.312 247.608 L
258.482 263.785 L
258.651 242.215 L
258.821 263.785 L
258.991 253 L
259.16 263.785 L
259.33 263.785 L
259.5 253 L
259.669 263.785 L
259.839 253 L
260.009 252.991 L
260.178 258.384 L
260.348 269.169 L
260.518 258.384 L
260.688 258.384 L
260.857 269.169 L
261.027 258.384 L
261.197 258.384 L
261.366 258.384 L
261.536 258.384 L
261.706 258.392 L
261.875 258.392 L
262.045 263.785 L
262.215 258.392 L
262.384 258.392 L
262.554 269.177 L
262.724 258.392 L
262.893 258.392 L
263.063 258.392 L
263.233 258.392 L
263.402 247.616 L
263.572 263.793 L
263.742 247.616 L
263.912 253.009 L
264.081 253.009 L
264.251 247.616 L
264.421 253.009 L
264.59 263.793 L
264.76 253.009 L
264.93 253.009 L
265.099 269.169 L
265.269 247.599 L
265.439 269.169 L
265.608 263.776 L
265.778 252.991 L
265.948 258.384 L
266.117 258.384 L
266.287 247.599 L
266.457 269.169 L
266.627 263.776 L
266.796 247.633 L
266.966 253.026 L
267.136 236.849 L
267.305 236.849 L
267.475 242.241 L
267.645 242.241 L
267.814 242.241 L
267.984 242.241 L
268.154 236.849 L
268.323 242.241 L
268.493 252.991 L
268.663 236.814 L
268.832 242.207 L
269.002 247.599 L
269.172 258.384 L
269.342 258.384 L
269.511 247.599 L
269.681 247.599 L
269.851 247.599 L
270.02 247.599 L
270.19 258.392 L
270.36 247.608 L
270.529 247.608 L
270.699 247.608 L
270.869 231.431 L
271.038 258.392 L
271.208 236.823 L
271.378 258.392 L
271.548 242.215 L
271.717 247.608 L
271.887 247.616 L
272.057 236.831 L
272.226 247.616 L
272.396 242.224 L
272.566 253.009 L
272.735 236.831 L
272.905 253.009 L
273.075 242.224 L
273.244 242.224 L
273.414 242.224 L
273.584 247.599 L
273.753 247.599 L
273.923 258.384 L
274.093 247.599 L
274.263 247.599 L
274.432 247.599 L
274.602 252.991 L
274.772 236.814 L
274.941 236.814 L
275.111 258.384 L
275.281 263.776 L
275.45 252.991 L
275.62 247.599 L
275.79 252.991 L
275.959 252.991 L
276.129 252.991 L
276.299 236.814 L
276.468 269.168 L
276.638 252.991 L
276.808 252.991 L
276.978 242.232 L
277.147 242.232 L
277.317 236.84 L
277.487 242.232 L
277.656 242.232 L
277.826 242.232 L
277.996 253.017 L
278.165 242.232 L
278.335 236.84 L
278.505 236.84 L
278.674 252.983 L
278.844 263.768 L
279.014 252.983 L
279.183 258.375 L
279.353 258.375 L
279.523 252.983 L
279.693 252.983 L
279.862 252.983 L
280.032 247.591 L
280.202 263.768 L
280.371 263.785 L
280.541 253 L
280.711 263.785 L
280.88 247.608 L
281.05 253 L
281.22 263.785 L
281.389 253 L
281.559 253 L
281.729 242.215 L
281.898 263.785 L
282.068 247.625 L
282.238 236.84 L
282.408 242.232 L
282.577 242.232 L
282.747 242.232 L
282.917 236.84 L
283.086 231.448 L
283.256 247.625 L
283.426 242.232 L
283.595 247.625 L
283.765 247.599 L
283.935 247.599 L
284.104 258.384 L
284.274 247.599 L
284.444 247.599 L
284.613 252.991 L
284.783 263.776 L
284.953 247.599 L
285.122 247.599 L
285.292 258.384 L
285.462 258.384 L
285.632 252.991 L
285.801 263.776 L
285.971 252.991 L
286.141 252.991 L
286.31 252.991 L
286.48 258.384 L
286.65 252.991 L
286.819 242.207 L
286.989 242.207 L
287.159 242.224 L
287.328 263.793 L
287.498 247.616 L
287.668 247.616 L
287.837 236.831 L
288.007 247.616 L
288.177 247.616 L
288.347 247.616 L
288.516 247.616 L
288.686 242.224 L
288.856 269.16 L
289.025 258.375 L
289.195 252.983 L
289.365 269.16 L
289.534 258.375 L
289.704 269.16 L
289.874 247.591 L
290.043 258.375 L
290.213 269.16 L
290.383 258.375 L
290.552 242.241 L
290.722 253.026 L
290.892 253.026 L
291.062 231.456 L
291.231 242.241 L
291.401 253.026 L
291.571 253.026 L
291.74 253.026 L
291.91 253.026 L
292.08 242.241 L
292.249 263.768 L
292.419 263.768 L
292.589 242.198 L
292.758 263.768 L
292.928 252.983 L
293.098 252.983 L
293.267 231.413 L
293.437 263.768 L
293.607 252.983 L
293.777 252.983 L
293.946 236.84 L
294.116 242.232 L
294.286 242.232 L
294.455 253.017 L
294.625 231.448 L
294.795 253.017 L
294.964 253.017 L
295.134 242.232 L
295.304 242.232 L
295.473 242.232 L
295.643 258.367 L
295.813 258.367 L
295.983 269.151 L
296.152 252.974 L
296.322 252.974 L
296.492 242.19 L
296.661 247.582 L
296.831 269.151 L
297.001 258.367 L
297.17 258.367 L
297.34 253.009 L
297.51 253.009 L
297.679 253.009 L
297.849 253.009 L
298.019 253.009 L
298.188 253.009 L
298.358 263.793 L
298.528 253.009 L
298.698 263.793 L
298.867 242.224 L
299.037 253 L
299.207 253 L
299.376 258.392 L
299.546 258.392 L
299.716 253 L
299.885 247.608 L
300.055 253 L
300.225 263.785 L
300.394 258.392 L
300.564 253 L
300.734 253 L
300.903 263.785 L
301.073 263.785 L
301.243 247.608 L
301.413 253 L
301.582 253 L
301.752 253 L
301.922 253 L
302.091 253 L
302.261 258.392 L
302.431 258.392 L
302.6 247.608 L
302.77 253 L
302.94 253 L
303.109 258.392 L
303.279 253 L
303.449 253 L
303.618 263.785 L
303.788 263.785 L
303.958 253 L
304.128 247.616 L
304.297 247.616 L
304.467 258.401 L
304.637 247.616 L
304.806 242.224 L
304.976 242.224 L
305.146 263.793 L
305.315 247.616 L
305.485 247.616 L
305.655 258.401 L
305.824 252.991 L
305.994 247.599 L
306.164 252.991 L
306.333 263.776 L
306.503 252.991 L
306.673 252.991 L
306.842 258.384 L
307.012 252.991 L
307.182 263.776 L
307.352 242.207 L
307.521 253 L
307.691 258.392 L
307.861 247.608 L
308.03 253 L
308.2 253 L
308.37 263.785 L
308.539 253 L
308.709 253 L
308.879 242.215 L
309.048 258.392 L
309.218 253 L
309.388 253 L
309.557 242.215 L
309.727 247.608 L
309.897 263.785 L
310.067 253 L
310.236 253 L
310.406 263.785 L
310.576 263.785 L
310.745 253 L
310.915 253 L
311.085 269.177 L
311.254 263.785 L
311.424 253 L
311.594 253 L
311.763 253 L
311.933 263.785 L
312.103 247.608 L
312.272 253 L
312.442 253 L
312.612 263.785 L
312.782 253 L
312.951 253 L
313.121 253 L
313.291 253 L
313.46 253 L
313.63 247.608 L
313.8 258.392 L
313.969 263.785 L
314.139 236.823 L
314.309 236.84 L
314.478 247.625 L
314.648 253.017 L
314.818 242.232 L
314.987 242.232 L
315.157 253.017 L
315.327 242.232 L
315.497 242.232 L
315.666 242.232 L
315.836 242.232 L
316.006 258.367 L
316.175 258.367 L
316.345 258.367 L
316.515 258.367 L
316.684 258.367 L
316.854 258.367 L
317.024 252.974 L
317.193 258.367 L
317.363 247.582 L
317.533 247.582 L
317.702 263.793 L
317.872 263.793 L
318.042 258.401 L
318.212 253.009 L
318.381 253.009 L
318.551 258.401 L
318.721 258.401 L
318.89 253.009 L
319.06 253.009 L
319.23 263.793 L
319.399 247.625 L
319.569 231.448 L
319.739 253.017 L
319.908 242.232 L
320.078 242.232 L
320.248 231.448 L
320.418 242.232 L
320.587 242.232 L
320.757 236.84 L
320.927 253.017 L
321.096 247.599 L
321.266 252.991 L
321.436 236.814 L
321.605 247.599 L
321.775 252.991 L
321.945 247.599 L
322.114 258.384 L
322.284 247.599 L
322.454 258.384 L
322.623 236.814 L
322.793 263.776 L
322.963 252.991 L
323.133 252.991 L
323.302 252.991 L
323.472 252.991 L
323.642 252.991 L
323.811 242.207 L
323.981 269.168 L
324.151 242.207 L
324.32 252.991 L
324.49 242.232 L
324.66 253.017 L
324.829 231.448 L
324.999 253.017 L
325.169 242.232 L
325.338 247.625 L
325.508 242.232 L
325.678 242.232 L
325.848 247.625 L
326.017 253.017 L
326.187 252.983 L
326.357 252.983 L
326.526 252.983 L
326.696 252.983 L
326.866 252.983 L
327.035 252.983 L
327.205 263.768 L
327.375 247.591 L
327.544 242.198 L
327.714 242.198 L
327.884 253 L
328.053 258.392 L
328.223 263.785 L
328.393 247.608 L
328.563 263.785 L
328.732 247.608 L
328.902 263.785 L
329.072 236.823 L
329.241 263.785 L
329.411 253 L
329.581 247.608 L
329.75 263.785 L
329.92 253 L
330.09 263.785 L
330.259 247.608 L
330.429 247.608 L
330.599 247.608 L
330.768 253 L
330.938 253 L
331.108 253 L
331.277 252.991 L
331.447 258.384 L
331.617 258.384 L
331.787 252.991 L
331.956 252.991 L
332.126 258.384 L
332.296 269.169 L
332.465 247.599 L
332.635 258.384 L
332.805 252.991 L
332.974 258.392 L
333.144 253 L
333.314 258.392 L
333.483 258.392 L
333.653 269.177 L
333.823 247.608 L
333.992 263.785 L
334.162 258.392 L
334.332 253 L
334.502 258.392 L
334.671 253.009 L
334.841 263.793 L
335.011 253.009 L
335.18 253.009 L
335.35 253.009 L
335.52 258.401 L
335.689 258.401 L
335.859 242.224 L
336.029 253.009 L
336.198 258.401 L
336.368 247.608 L
336.538 253 L
336.707 242.215 L
336.877 253 L
337.047 263.785 L
337.217 236.823 L
337.386 253 L
337.556 247.608 L
337.726 263.785 L
337.895 247.608 L
338.065 258.384 L
338.235 269.169 L
338.404 263.776 L
338.574 258.384 L
338.744 258.384 L
338.913 269.169 L
339.083 258.384 L
339.253 252.991 L
339.423 258.384 L
339.592 258.384 L
339.762 258.401 L
339.932 242.224 L
340.101 253.009 L
340.271 263.793 L
340.441 258.401 L
340.61 247.616 L
340.78 247.616 L
340.95 258.401 L
341.119 258.401 L
341.289 253.009 L
341.459 242.224 L
341.628 253.009 L
341.798 242.224 L
341.968 247.616 L
342.138 247.616 L
342.307 236.832 L
342.477 247.616 L
342.647 247.616 L
342.816 258.401 L
342.986 253.009 L
343.156 258.375 L
343.325 263.768 L
343.495 252.983 L
343.665 263.768 L
343.834 258.375 L
344.004 258.375 L
344.174 247.591 L
344.343 258.375 L
344.513 258.375 L
344.683 247.591 L
344.853 253.009 L
345.022 253.009 L
345.192 253.009 L
345.362 253.009 L
345.531 253.009 L
345.701 253.009 L
345.871 263.793 L
346.04 247.616 L
346.21 253.009 L
346.38 247.616 L
346.549 263.785 L
346.719 253 L
346.889 242.215 L
347.058 258.392 L
347.228 253 L
347.398 247.608 L
347.568 247.608 L
347.737 263.785 L
347.907 263.785 L
348.077 236.823 L
348.246 242.232 L
348.416 242.232 L
348.586 242.232 L
348.755 242.232 L
348.925 236.84 L
349.095 242.232 L
349.264 253.017 L
349.434 242.232 L
349.604 242.232 L
349.773 253.017 L
349.943 236.806 L
350.113 242.198 L
350.283 269.16 L
350.452 252.983 L
350.622 252.983 L
350.792 252.983 L
350.961 252.983 L
351.131 258.375 L
351.301 263.768 L
351.47 247.591 L
351.64 279.936 L
351.81 269.151 L
351.979 279.936 L
352.149 269.151 L
352.319 269.151 L
352.488 269.151 L
352.658 279.936 L
352.828 258.367 L
352.997 263.759 L
353.167 279.936 L
353.337 242.258 L
353.507 253.043 L
353.676 242.258 L
353.846 247.65 L
354.016 242.258 L
354.185 242.258 L
354.355 253.043 L
354.525 253.043 L
354.694 242.258 L
354.864 242.258 L
355.034 263.768 L
355.203 263.768 L
355.373 252.983 L
355.543 252.983 L
355.712 252.983 L
355.882 252.983 L
356.052 263.768 L
356.222 252.983 L
356.391 252.983 L
356.561 263.768 L
356.731 242.232 L
356.9 253.017 L
357.07 242.232 L
357.24 253.017 L
357.409 247.625 L
357.579 242.232 L
357.749 242.232 L
357.918 242.232 L
358.088 253.017 L
358.258 231.448 L
358.427 263.768 L
358.597 263.768 L
358.767 252.983 L
358.937 258.375 L
359.106 252.983 L
359.276 252.983 L
359.446 269.16 L
359.615 252.983 L
359.785 258.375 L
359.955 258.375 L
360.124 253.017 L
360.294 242.232 L
360.464 247.625 L
360.633 253.017 L
360.803 253.017 L
360.973 236.84 L
361.142 242.232 L
361.312 242.232 L
361.482 253.017 L
361.652 231.448 L
361.821 236.823 L
361.991 253 L
362.161 253 L
362.33 258.392 L
362.5 242.215 L
362.67 258.392 L
362.839 253 L
363.009 236.823 L
363.179 242.215 L
363.348 242.215 L
363.518 263.759 L
363.688 247.582 L
363.858 252.974 L
364.027 274.544 L
364.197 258.367 L
364.367 258.367 L
364.536 247.582 L
364.706 269.151 L
364.876 252.974 L
365.045 263.759 L
365.215 236.84 L
365.385 258.409 L
365.554 242.232 L
365.724 258.409 L
365.894 236.84 L
366.063 263.802 L
366.233 253.017 L
366.403 236.84 L
366.573 247.625 L
366.742 242.232 L
366.912 269.151 L
367.082 263.759 L
367.251 252.974 L
367.421 269.151 L
367.591 274.544 L
367.76 263.759 L
367.93 263.759 L
368.1 274.544 L
368.269 274.544 L
368.439 263.759 L
368.609 247.633 L
368.778 247.633 L
368.948 258.418 L
369.118 258.418 L
369.288 242.241 L
369.457 258.418 L
369.627 247.633 L
369.797 247.633 L
369.966 258.418 L
370.136 236.849 L
370.306 252.991 L
370.475 252.991 L
370.645 247.599 L
370.815 258.384 L
370.984 263.776 L
371.154 242.207 L
371.324 263.776 L
371.493 263.776 L
371.663 236.814 L
371.833 263.776 L
372.003 253 L
372.172 263.785 L
372.342 258.392 L
372.512 263.785 L
372.681 253 L
372.851 263.785 L
373.021 247.608 L
373.19 263.785 L
373.36 253 L
373.53 253 L
373.699 253 L
373.869 258.392 L
374.039 253 L
374.208 263.785 L
374.378 253 L
374.548 242.215 L
374.717 253 L
374.887 253 L
375.057 263.785 L
375.227 253 L
375.396 253 L
375.566 253 L
375.736 253 L
375.905 253 L
376.075 253 L
376.245 263.785 L
376.414 253 L
376.584 247.608 L
376.754 247.608 L
376.923 253 L
377.093 269.177 L
377.263 263.785 L
377.432 242.215 L
377.602 263.785 L
377.772 253 L
377.942 253 L
378.111 258.392 L
378.281 253 L
378.451 263.785 L
378.62 253 L
378.79 242.241 L
378.96 236.849 L
379.129 236.849 L
379.299 242.241 L
379.469 236.849 L
379.638 236.849 L
379.808 247.633 L
379.978 231.456 L
380.148 236.849 L
380.317 247.633 L
380.487 258.375 L
380.657 242.198 L
380.826 242.198 L
380.996 252.983 L
381.166 252.983 L
381.335 236.806 L
381.505 247.591 L
381.675 242.198 L
381.844 252.983 L
382.014 236.806 L
382.184 247.616 L
382.353 242.224 L
382.523 253.009 L
382.693 236.831 L
382.863 247.616 L
383.032 236.831 L
383.202 242.224 L
383.372 247.616 L
383.541 247.616 L
383.711 231.439 L
383.881 258.384 L
384.05 247.599 L
384.22 247.599 L
384.39 247.599 L
384.559 242.207 L
384.729 258.384 L
384.899 247.599 L
385.068 258.384 L
385.238 236.814 L
385.408 247.599 L
385.578 231.439 L
385.747 253.009 L
385.917 242.224 L
386.087 242.224 L
386.256 242.224 L
386.426 253.009 L
386.596 253.009 L
386.765 236.831 L
386.935 242.224 L
387.105 242.224 L
387.274 269.143 L
387.444 258.358 L
387.614 252.966 L
387.783 263.75 L
387.953 258.358 L
388.123 252.966 L
388.293 263.75 L
388.462 263.75 L
388.632 274.535 L
388.802 252.966 L
388.971 253.026 L
389.141 258.418 L
389.311 258.418 L
389.48 247.633 L
389.65 258.418 L
389.82 247.633 L
389.989 253.026 L
390.159 247.633 L
390.329 247.633 L
390.498 253.026 L
390.668 258.392 L
390.838 247.608 L
391.008 247.608 L
391.177 253 L
391.347 258.392 L
391.517 236.823 L
391.686 247.608 L
391.856 247.608 L
392.026 247.608 L
392.195 247.608 L
392.365 247.616 L
392.535 247.616 L
392.704 253.009 L
392.874 247.616 L
393.044 242.224 L
393.213 253.009 L
393.383 231.439 L
393.553 242.224 L
393.723 242.224 L
393.892 247.616 L
394.062 263.776 L
394.232 252.991 L
394.401 236.814 L
394.571 258.384 L
394.741 247.599 L
394.91 247.599 L
395.08 236.814 L
395.25 258.384 L
395.419 242.207 L
395.589 247.599 L
395.759 231.448 L
395.928 247.625 L
396.098 247.625 L
396.268 231.448 L
396.438 247.625 L
396.607 236.84 L
396.777 236.84 L
396.947 236.84 L
397.116 231.448 L
397.286 236.84 L
397.456 258.358 L
397.625 258.358 L
397.795 258.358 L
397.965 258.358 L
398.134 252.966 L
398.304 258.358 L
398.474 258.358 L
398.643 258.358 L
398.813 263.75 L
398.983 258.358 L
399.152 253.009 L
399.322 258.401 L
399.492 253.009 L
399.662 253.009 L
399.831 253.009 L
400.001 253.009 L
400.171 247.616 L
400.34 253.009 L
400.51 253.009 L
400.68 242.224 L
400.849 253 L
401.019 253 L
401.189 253 L
401.358 253 L
401.528 263.785 L
401.698 253 L
401.867 253 L
402.037 253 L
402.207 242.215 L
402.377 253 L
402.546 253 L
402.716 253 L
402.886 253 L
403.055 253 L
403.225 258.392 L
403.395 258.392 L
403.564 253 L
403.734 253 L
403.904 263.785 L
404.073 247.608 L
404.243 263.785 L
404.413 263.785 L
404.582 253 L
404.752 253 L
404.922 253 L
405.092 253 L
405.261 263.785 L
405.431 253 L
405.601 263.785 L
405.77 263.785 L
405.94 231.448 L
406.11 247.625 L
406.279 242.232 L
406.449 236.84 L
406.619 242.232 L
406.788 242.232 L
406.958 258.409 L
407.128 242.232 L
407.297 242.232 L
407.467 242.232 L
407.637 274.535 L
407.807 258.358 L
407.976 263.75 L
408.146 263.75 L
408.316 274.535 L
408.485 263.75 L
408.655 263.75 L
408.825 269.143 L
408.994 274.535 L
409.164 269.143 L
409.334 253.034 L
409.503 253.034 L
409.673 253.034 L
409.843 236.857 L
410.012 253.034 L
410.182 247.642 L
410.352 253.034 L
410.522 226.072 L
410.691 242.25 L
410.861 258.427 L
411.031 263.785 L
411.2 242.215 L
411.37 242.215 L
411.54 253 L
411.709 236.823 L
411.879 253 L
412.049 231.431 L
412.218 236.823 L
412.388 242.215 L
412.558 236.823 L
412.727 242.232 L
412.897 242.232 L
413.067 231.448 L
413.237 242.232 L
413.406 242.232 L
413.576 236.84 L
413.746 242.232 L
413.915 231.448 L
414.085 231.448 L
414.255 231.448 L
414.424 252.983 L
414.594 236.806 L
414.764 242.198 L
414.933 242.198 L
415.103 247.591 L
415.273 242.198 L
415.443 242.198 L
415.612 258.375 L
415.782 242.198 L
415.952 252.983 L
416.121 236.823 L
416.291 258.392 L
416.461 253 L
416.63 242.215 L
416.8 242.215 L
416.97 242.215 L
417.139 253 L
417.309 247.608 L
417.479 242.215 L
417.648 242.215 L
417.818 258.367 L
417.988 252.974 L
418.158 269.151 L
418.327 263.759 L
418.497 242.19 L
418.667 247.582 L
418.836 258.367 L
419.006 269.151 L
419.176 258.367 L
419.345 258.367 L
419.515 247.616 L
419.685 258.401 L
419.854 263.793 L
420.024 258.401 L
420.194 263.793 L
420.363 263.793 L
420.533 258.401 L
420.703 263.793 L
420.872 263.793 L
421.042 247.616 L
421.212 258.384 L
421.382 258.384 L
421.551 258.384 L
421.721 269.169 L
421.891 258.384 L
422.06 247.599 L
422.23 252.991 L
422.4 269.169 L
422.569 269.169 L
422.739 258.384 L
422.909 253.009 L
423.078 263.793 L
423.248 253.009 L
423.418 253.009 L
423.587 253.009 L
423.757 258.401 L
423.927 258.401 L
424.097 263.793 L
424.266 242.224 L
424.436 253.009 L
424.606 253 L
424.775 253 L
424.945 236.823 L
425.115 258.392 L
425.284 263.785 L
425.454 247.608 L
425.624 247.608 L
425.793 263.785 L
425.963 253 L
426.133 263.785 L
426.302 253 L
426.472 253 L
426.642 263.785 L
426.812 253 L
426.981 253 L
427.151 263.785 L
427.321 253 L
427.49 253 L
427.66 263.785 L
427.83 263.785 L
427.999 263.785 L
428.169 253 L
428.339 263.785 L
428.508 263.785 L
428.678 258.392 L
428.848 247.608 L
429.017 247.608 L
429.187 253 L
429.357 263.785 L
429.527 263.785 L
429.696 242.232 L
429.866 253.017 L
430.036 231.448 L
430.205 253.017 L
430.375 247.625 L
430.545 253.017 L
430.714 242.232 L
430.884 242.232 L
431.054 253.017 L
431.223 242.232 L
431.393 263.768 L
431.563 252.983 L
431.733 252.983 L
431.902 263.768 L
432.072 263.768 L
432.242 258.375 L
432.411 247.591 L
432.581 263.768 L
432.751 252.983 L
432.92 258.375 L
433.09 231.448 L
433.26 253.017 L
433.429 253.017 L
433.599 242.232 L
433.769 242.232 L
433.938 247.625 L
434.108 253.017 L
434.278 236.84 L
434.448 258.409 L
434.617 242.232 L
434.787 274.535 L
434.957 252.966 L
435.126 263.75 L
435.296 263.75 L
435.466 263.75 L
435.635 274.535 L
435.805 263.75 L
435.975 263.75 L
436.144 263.75 L
436.314 263.75 L
436.484 236.857 L
436.653 247.642 L
436.823 258.427 L
436.993 247.642 L
437.163 242.25 L
437.332 253.034 L
437.502 253.034 L
437.672 242.25 L
437.841 253.034 L
438.011 242.25 L
438.181 269.151 L
438.35 258.367 L
438.52 258.367 L
438.69 269.151 L
438.859 247.582 L
439.029 269.151 L
439.199 269.151 L
439.368 269.151 L
439.538 269.151 L
439.708 258.367 L
439.878 231.456 L
440.047 242.241 L
440.217 253.026 L
440.387 231.456 L
440.556 247.633 L
440.726 253.026 L
440.896 242.241 L
441.065 247.633 L
441.235 242.241 L
441.405 258.418 L
441.574 258.358 L
441.744 263.75 L
441.914 258.358 L
442.083 263.75 L
442.253 274.535 L
442.423 263.75 L
442.592 263.75 L
442.762 279.928 L
442.932 258.358 L
443.102 263.75 L
443.271 263.793 L
443.441 274.578 L
443.611 263.793 L
443.78 258.401 L
443.95 269.186 L
444.12 258.401 L
444.289 258.401 L
444.459 258.401 L
444.629 258.401 L
444.798 258.401 L
444.968 247.625 L
445.138 247.625 L
445.307 258.41 L
445.477 258.41 L
445.647 253.017 L
445.817 247.625 L
445.986 258.41 L
446.156 247.625 L
446.326 258.41 L
446.495 253.017 L
446.665 263.776 L
446.835 258.384 L
447.004 247.599 L
447.174 252.991 L
447.344 252.991 L
447.513 258.384 L
447.683 258.384 L
447.853 252.991 L
448.023 252.991 L
448.192 263.776 L
448.362 236.84 L
448.532 231.448 L
448.701 242.232 L
448.871 253.017 L
449.041 247.625 L
449.21 247.625 L
449.38 253.017 L
449.55 242.232 L
449.719 253.017 L
449.889 231.448 L
450.059 258.367 L
450.228 269.151 L
450.398 269.151 L
450.568 258.367 L
450.738 269.151 L
450.907 263.759 L
451.077 274.544 L
451.247 269.151 L
451.416 247.582 L
451.586 263.759 L
451.756 253.009 L
451.925 253.009 L
452.095 263.793 L
452.265 253.009 L
452.434 263.793 L
452.604 253.009 L
452.774 258.401 L
452.943 269.186 L
453.113 263.793 L
453.283 236.831 L
453.453 258.392 L
453.622 258.392 L
453.792 253 L
453.962 242.215 L
454.131 263.785 L
454.301 263.785 L
454.471 253 L
454.64 263.785 L
454.81 269.177 L
454.98 263.785 L
455.149 253.009 L
455.319 247.616 L
455.489 258.401 L
455.658 247.616 L
455.828 253.009 L
455.998 247.616 L
456.168 258.401 L
456.337 263.793 L
456.507 247.616 L
456.677 242.224 L
456.846 258.392 L
457.016 253 L
457.186 258.392 L
457.355 253 L
457.525 236.823 L
457.695 258.392 L
457.864 258.392 L
458.034 247.608 L
458.204 247.608 L
458.373 242.215 L
458.543 253.009 L
458.713 242.224 L
458.883 253.009 L
459.052 247.616 L
459.222 242.224 L
459.392 247.616 L
459.561 242.224 L
459.731 253.009 L
459.901 253.009 L
460.07 242.224 L
460.24 253 L
460.41 253 L
460.579 253 L
460.749 242.215 L
460.919 236.823 L
461.088 253 L
461.258 253 L
461.428 242.215 L
461.598 236.823 L
461.767 242.215 L
461.937 253 L
462.107 242.215 L
462.276 242.215 L
462.446 253 L
462.616 253 L
462.785 242.215 L
462.955 242.215 L
463.125 242.215 L
463.294 253 L
463.464 253 L
463.634 242.215 L
463.803 247.608 L
463.973 247.608 L
464.143 242.215 L
464.313 236.823 L
464.482 253 L
464.652 247.608 L
464.822 253 L
464.991 242.215 L
465.161 253 L
465.331 252.983 L
465.5 252.983 L
465.67 258.375 L
465.84 252.983 L
466.009 258.375 L
466.179 247.59 L
466.349 258.375 L
466.518 263.768 L
466.688 263.768 L
466.858 252.983 L
467.027 263.785 L
467.197 263.785 L
467.367 269.177 L
467.537 247.608 L
467.706 263.785 L
467.876 263.785 L
468.046 263.785 L
468.215 253 L
468.385 258.392 L
468.555 253 L
468.724 258.409 L
468.894 253.017 L
469.064 231.448 L
469.233 258.409 L
469.403 242.232 L
469.573 253.017 L
469.742 253.017 L
469.912 242.232 L
470.082 247.625 L
470.252 242.232 L
470.421 231.439 L
470.591 236.832 L
470.761 247.616 L
470.93 242.224 L
471.1 236.832 L
471.27 253.009 L
471.439 236.832 L
471.609 247.616 L
471.779 236.832 L
471.948 236.832 L
472.118 269.143 L
472.288 258.358 L
472.457 263.75 L
472.627 279.928 L
472.797 252.966 L
472.967 258.358 L
473.136 252.966 L
473.306 263.75 L
473.476 258.358 L
473.645 258.358 L
473.815 242.241 L
473.985 253.026 L
474.154 253.026 L
474.324 236.849 L
474.494 247.633 L
474.663 258.418 L
474.833 258.418 L
475.003 242.241 L
475.172 253.026 L
475.342 242.241 L
475.512 252.983 L
475.682 263.768 L
475.851 252.983 L
476.021 252.983 L
476.191 252.983 L
476.36 252.983 L
476.53 263.768 L
476.7 242.198 L
476.869 269.16 L
477.039 252.983 L
477.209 258.392 L
477.378 269.177 L
477.548 258.392 L
477.718 253 L
477.887 263.785 L
478.057 258.392 L
478.227 258.392 L
478.397 253 L
478.566 247.608 L
478.736 263.785 L
478.906 247.616 L
479.075 247.616 L
479.245 247.616 L
479.415 258.401 L
479.584 247.616 L
479.754 258.401 L
479.924 247.616 L
480.093 258.401 L
480.263 253.009 L
480.433 258.401 L
480.602 252.991 L
480.772 258.384 L
480.942 263.776 L
481.112 252.991 L
481.281 252.991 L
481.451 252.991 L
481.621 269.169 L
481.79 252.991 L
481.96 242.207 L
482.13 252.991 L
482.299 258.392 L
482.469 253 L
482.639 258.392 L
482.808 263.785 L
482.978 263.785 L
483.148 253 L
483.318 253 L
483.487 253 L
483.657 253 L
483.827 253 L
483.996 247.616 L
484.166 258.401 L
484.336 247.616 L
484.505 253.009 L
484.675 242.224 L
484.845 258.401 L
485.014 247.616 L
485.184 242.224 L
485.354 247.616 L
485.523 247.616 L
485.693 252.991 L
485.863 242.207 L
486.033 247.599 L
486.202 263.776 L
486.372 258.384 L
486.542 263.776 L
486.711 231.422 L
486.881 252.991 L
487.051 252.991 L
487.22 252.991 L
487.39 253 L
487.56 253 L
487.729 258.392 L
487.899 253 L
488.069 263.785 L
488.238 253 L
488.408 247.608 L
488.578 253 L
488.747 242.215 L
488.917 263.785 L
489.087 253 L
489.257 247.608 L
489.426 253 L
489.596 258.392 L
489.766 263.785 L
489.935 242.215 L
490.105 258.392 L
490.275 263.785 L
490.444 263.785 L
490.614 253 L
490.784 247.608 L
490.953 263.785 L
491.123 253 L
491.293 253 L
491.462 258.392 L
491.632 269.177 L
491.802 253 L
491.972 258.392 L
492.141 253 L
492.311 258.392 L
492.481 269.169 L
492.65 258.384 L
492.82 258.384 L
492.99 269.169 L
493.159 258.384 L
493.329 269.169 L
493.499 258.384 L
493.668 269.169 L
493.838 258.384 L
494.008 258.384 L
494.177 242.241 L
494.347 253.026 L
494.517 242.241 L
494.687 253.026 L
494.856 253.026 L
495.026 247.633 L
495.196 253.026 L
495.365 242.241 L
495.535 242.241 L
495.705 242.241 L
495.874 263.768 L
496.044 242.198 L
496.214 252.983 L
496.383 252.983 L
496.553 252.983 L
496.723 252.983 L
496.892 263.768 L
497.062 252.983 L
497.232 263.768 L
497.402 247.591 L
497.571 242.232 L
497.741 247.625 L
497.911 242.232 L
498.08 247.625 L
498.25 231.448 L
498.42 253.017 L
498.589 253.017 L
498.759 253.017 L
498.929 242.232 L
499.098 253.017 L
499.268 263.768 L
499.438 247.591 L
499.608 263.768 L
499.777 247.591 L
499.947 263.768 L
500.117 258.375 L
500.286 247.591 L
500.456 263.768 L
500.626 252.983 L
500.795 252.983 L
500.965 242.232 L
501.135 253.017 L
501.304 242.232 L
501.474 242.232 L
501.644 253.017 L
501.813 253.017 L
501.983 258.409 L
502.153 253.017 L
502.323 247.625 L
502.492 247.625 L
502.662 252.983 L
502.832 247.591 L
503.001 269.16 L
503.171 252.983 L
503.341 263.768 L
503.51 242.198 L
503.68 247.591 L
503.85 263.768 L
504.019 252.983 L
504.189 247.591 L
504.359 253 L
504.528 253 L
504.698 253 L
504.868 253 L
505.038 263.785 L
505.207 253 L
505.377 258.392 L
505.547 263.785 L
505.716 253 L
505.886 253 L
506.056 263.785 L
506.225 253 L
506.395 247.608 L
506.565 253 L
506.734 258.392 L
506.904 258.392 L
507.074 253 L
507.243 253 L
507.413 269.177 L
507.583 247.608 L
507.753 242.232 L
507.922 247.625 L
508.092 242.232 L
508.262 247.625 L
508.431 247.625 L
508.601 242.232 L
508.771 258.409 L
508.94 242.232 L
509.11 242.232 L
509.28 253.017 L
509.449 252.983 L
509.619 252.983 L
509.789 242.198 L
509.958 258.375 L
510.128 258.375 L
510.298 263.768 L
510.467 258.375 L
510.637 252.983 L
510.807 252.983 L
510.977 258.375 L
511.146 253 L
511.316 263.785 L
511.486 263.785 L
511.655 253 L
511.825 253 L
511.995 269.177 L
512.164 258.392 L
512.334 253 L
512.504 263.785 L
512.673 242.215 L
512.843 263.785 L
513.013 253 L
513.182 253 L
513.352 253 L
513.522 263.785 L
513.692 242.215 L
513.861 253 L
514.031 247.608 L
514.201 269.177 L
514.37 263.785 L
514.54 236.84 L
514.71 242.232 L
514.879 253.017 L
515.049 242.232 L
515.219 231.448 L
515.388 253.017 L
515.558 253.017 L
515.728 242.232 L
515.898 253.017 L
516.067 242.232 L
516.237 274.544 L
516.407 247.582 L
516.576 263.759 L
516.746 258.367 L
516.916 258.367 L
517.085 258.367 L
517.255 252.974 L
517.425 263.759 L
517.594 269.151 L
517.764 258.367 L
517.934 236.857 L
518.103 247.642 L
518.273 236.857 L
518.443 247.642 L
518.612 236.857 L
518.782 247.642 L
518.952 247.642 L
519.122 242.25 L
519.291 247.642 L
519.461 242.25 L
519.631 263.759 L
519.8 252.974 L
519.97 247.582 L
520.14 252.974 L
520.309 263.759 L
520.479 247.582 L
520.649 252.974 L
520.818 258.367 L
520.988 263.759 L
521.158 252.974 L
521.328 242.232 L
521.497 242.232 L
521.667 258.409 L
521.837 242.232 L
522.006 253.017 L
522.176 253.017 L
522.346 253.017 L
522.515 242.232 L
522.685 242.232 L
522.855 242.232 L
523.024 263.768 L
523.194 252.983 L
523.364 252.983 L
523.533 263.768 L
523.703 258.375 L
523.873 258.375 L
524.042 258.375 L
524.212 252.983 L
524.382 252.983 L
524.552 242.198 L
524.721 253.017 L
524.891 253.017 L
525.061 247.625 L
525.23 242.232 L
525.4 236.84 L
525.57 253.017 L
525.739 242.232 L
525.909 242.232 L
526.079 242.232 L
526.248 242.232 L
526.418 247.608 L
526.588 242.215 L
526.758 242.215 L
526.927 253 L
527.097 242.215 L
527.267 242.215 L
527.436 247.608 L
527.606 253 L
527.776 242.215 L
527.945 247.608 L
528.115 258.384 L
528.285 247.599 L
528.454 252.991 L
528.624 247.599 L
528.794 258.384 L
528.963 247.599 L
529.133 258.384 L
529.303 242.207 L
529.472 258.384 L
529.642 252.991 L
529.812 253.009 L
529.982 253.009 L
530.151 242.224 L
530.321 253.009 L
530.491 242.224 L
530.66 236.831 L
530.83 258.401 L
531 242.224 L
531.169 258.401 L
531.339 242.224 L
531.509 242.215 L
531.678 253 L
531.848 242.215 L
532.018 242.215 L
532.188 253 L
532.357 242.215 L
532.527 253 L
532.697 242.215 L
532.866 242.215 L
533.036 247.608 L
533.206 263.768 L
533.375 252.983 L
533.545 247.59 L
533.715 263.768 L
533.884 252.983 L
534.054 247.59 L
534.224 258.375 L
534.393 258.375 L
534.563 274.552 L
534.733 242.198 L
534.903 242.232 L
535.072 253.017 L
535.242 253.017 L
535.412 242.232 L
535.581 231.448 L
535.751 253.017 L
535.921 242.232 L
536.09 242.232 L
536.26 242.232 L
536.43 242.232 L
536.599 252.983 L
536.769 263.768 L
536.939 247.591 L
537.108 258.375 L
537.278 258.375 L
537.448 252.983 L
537.617 252.983 L
537.787 269.16 L
537.957 252.983 L
538.127 263.768 L
538.296 253 L
538.466 253 L
538.636 263.785 L
538.805 253 L
538.975 263.785 L
539.145 263.785 L
539.314 258.392 L
539.484 253 L
539.654 253 L
539.823 258.392 L
539.993 253 L
540.163 253 L
540.333 253 L
540.502 253 L
540.672 253 L
540.842 263.785 L
541.011 253 L
541.181 263.785 L
541.351 253 L
541.52 253 L
541.69 247.608 L
541.86 253 L
542.029 253 L
542.199 253 L
542.369 253 L
542.538 263.785 L
542.708 269.177 L
542.878 263.785 L
543.047 253 L
543.217 263.785 L
543.387 274.561 L
543.557 258.384 L
543.726 263.776 L
543.896 263.776 L
544.066 263.776 L
544.235 269.169 L
544.405 263.776 L
544.575 269.169 L
544.744 269.169 L
544.914 258.384 L
545.084 226.072 L
545.253 247.642 L
545.423 242.25 L
545.593 247.642 L
545.763 236.857 L
545.932 247.642 L
546.102 247.642 L
546.272 236.857 L
546.441 236.857 L
546.611 247.642 L
546.781 274.527 L
546.95 263.742 L
547.12 263.742 L
547.29 269.134 L
547.459 274.527 L
547.629 258.35 L
547.799 269.134 L
547.968 263.742 L
548.138 269.134 L
548.308 258.35 L
548.477 253.034 L
548.647 253.034 L
548.817 253.034 L
548.987 231.465 L
549.156 253.034 L
549.326 253.034 L
549.496 253.034 L
549.665 242.249 L
549.835 242.249 L
550.005 242.249 L
550.174 258.392 L
550.344 242.215 L
550.514 231.431 L
550.683 247.608 L
550.853 253 L
551.023 236.823 L
551.193 242.215 L
551.362 253 L
551.532 247.608 L
551.702 242.215 L
551.871 247.616 L
552.041 242.224 L
552.211 247.616 L
552.38 242.224 L
552.55 231.439 L
552.72 253.009 L
552.889 253.009 L
553.059 236.831 L
553.229 247.616 L
553.398 247.616 L
553.568 252.991 L
553.738 231.422 L
553.908 247.599 L
554.077 252.991 L
554.247 252.991 L
554.417 242.207 L
554.586 247.599 L
554.756 252.991 L
554.926 252.991 L
555.095 242.207 L
555.265 253 L
555.435 247.608 L
555.604 253 L
555.774 236.823 L
555.944 247.608 L
556.113 247.608 L
556.283 242.215 L
556.453 253 L
556.622 253 L
556.792 253 L
556.962 242.215 L
557.132 258.392 L
557.301 226.038 L
557.471 263.785 L
557.641 253 L
557.81 242.215 L
557.98 253 L
558.15 242.215 L
558.319 253 L
558.489 247.608 L
558.659 263.768 L
558.828 258.375 L
558.998 263.768 L
559.168 258.375 L
559.338 252.983 L
559.507 263.768 L
559.677 269.16 L
559.847 252.983 L
560.016 252.983 L
560.186 252.983 L
560.356 236.84 L
560.525 242.232 L
560.695 253.017 L
560.865 253.017 L
561.034 242.232 L
561.204 247.625 L
561.374 242.232 L
561.543 242.232 L
561.713 247.625 L
561.883 258.409 L
562.052 258.367 L
562.222 252.974 L
562.392 279.936 L
562.562 252.974 L
562.731 252.974 L
562.901 258.367 L
563.071 269.151 L
563.24 252.974 L
563.41 258.367 L
563.58 258.367 L
563.749 253.009 L
563.919 263.793 L
564.089 253.009 L
564.258 263.793 L
564.428 253.009 L
564.598 242.224 L
564.768 263.793 L
564.937 253.009 L
565.107 263.793 L
565.277 253.009 L
565.446 242.215 L
565.616 263.785 L
565.786 269.177 L
565.955 253 L
566.125 253 L
566.295 263.785 L
566.464 253 L
566.634 263.785 L
566.804 253 L
566.973 269.177 L
567.143 274.552 L
567.313 258.375 L
567.482 263.768 L
567.652 258.375 L
567.822 269.16 L
567.992 269.16 L
568.161 263.768 L
568.331 252.983 L
568.501 274.552 L
568.67 258.375 L
568.84 242.25 L
569.01 253.034 L
569.179 258.427 L
569.349 253.034 L
569.519 242.25 L
569.688 253.034 L
569.858 247.642 L
570.028 253.034 L
570.198 242.25 L
570.367 253.034 L
570.537 263.768 L
570.707 247.591 L
570.876 252.983 L
571.046 263.768 L
571.216 252.983 L
571.385 252.983 L
571.555 252.983 L
571.725 252.983 L
571.894 252.983 L
572.064 258.375 L
572.234 236.84 L
572.403 253.017 L
572.573 242.232 L
572.743 231.448 L
572.912 253.017 L
573.082 242.232 L
573.252 242.232 L
573.422 253.017 L
573.591 242.232 L
573.761 242.232 L
573.931 274.544 L
574.1 252.974 L
574.27 258.367 L
574.44 258.367 L
574.609 258.367 L
574.779 263.759 L
574.949 252.974 L
575.118 258.367 L
575.288 258.367 L
575.458 252.974 L
575.628 231.465 L
575.797 242.25 L
575.967 236.857 L
576.137 236.857 L
576.306 247.642 L
576.476 247.642 L
576.646 236.857 L
576.815 247.642 L
576.985 236.857 L
577.155 236.857 L
577.324 269.143 L
577.494 258.358 L
577.664 269.143 L
577.833 258.358 L
578.003 263.75 L
578.173 269.143 L
578.342 247.573 L
578.512 263.75 L
578.682 258.358 L
578.852 258.358 L
579.021 242.241 L
579.191 258.418 L
579.361 253.026 L
579.53 247.633 L
579.7 231.456 L
579.87 253.026 L
580.039 253.026 L
580.209 242.241 L
580.379 247.633 L
580.548 242.241 L
580.718 263.768 L
580.888 252.983 L
581.057 252.983 L
581.227 263.768 L
581.397 263.768 L
581.567 263.768 L
581.736 252.983 L
581.906 263.768 L
582.076 258.375 L
582.245 252.983 L
582.415 242.232 L
582.585 253.017 L
582.754 253.017 L
582.924 242.232 L
583.094 247.625 L
583.263 242.232 L
583.433 247.625 L
583.603 242.232 L
583.773 242.232 L
583.942 253.017 L
584.112 252.983 L
584.282 252.983 L
584.451 252.983 L
584.621 258.375 L
584.791 252.983 L
584.96 242.198 L
585.13 252.983 L
585.3 263.768 L
585.469 258.375 L
585.639 242.198 L
585.809 253 L
585.978 258.392 L
586.148 253 L
586.318 263.785 L
586.487 247.608 L
586.657 269.177 L
586.827 263.785 L
586.997 258.392 L
587.166 263.785 L
587.336 253 L
587.506 258.392 L
587.675 242.215 L
587.845 263.785 L
588.015 253 L
588.184 258.392 L
588.354 258.392 L
588.524 253 L
588.693 263.785 L
588.863 247.608 L
589.033 263.785 L
589.203 247.616 L
589.372 247.616 L
589.542 242.224 L
589.712 247.616 L
589.881 247.616 L
590.051 263.793 L
590.221 258.401 L
590.39 258.401 L
590.56 242.224 L
590.73 258.401 L
590.899 263.776 L
591.069 247.599 L
591.239 263.776 L
591.408 263.776 L
591.578 252.991 L
591.748 252.991 L
591.917 258.384 L
592.087 252.991 L
592.257 252.991 L
592.427 252.991 L
592.596 253.017 L
592.766 253.017 L
592.936 236.84 L
593.105 253.017 L
593.275 253.017 L
593.445 253.017 L
593.614 242.232 L
593.784 242.232 L
593.954 253.017 L
594.123 247.625 L
594.293 247.608 L
594.463 253 L
594.633 236.823 L
594.802 253 L
594.972 253 L
595.142 242.215 L
595.311 253 L
595.481 253 L
595.651 253 L
595.82 242.215 L
595.99 247.599 L
596.16 247.599 L
596.329 258.384 L
596.499 247.599 L
596.669 247.599 L
596.838 258.384 L
597.008 247.599 L
597.178 247.599 L
597.347 247.599 L
597.517 258.384 L
597.687 274.561 L
597.857 252.991 L
598.026 258.384 L
598.196 263.776 L
598.366 258.384 L
598.535 263.776 L
598.705 252.991 L
598.875 252.991 L
599.044 252.991 L
599.214 242.207 L
599.384 231.465 L
599.553 247.642 L
599.723 231.465 L
599.893 242.25 L
600.063 231.465 L
600.232 247.642 L
600.402 242.25 L
600.572 242.25 L
600.741 236.857 L
600.911 242.25 L
601.081 269.143 L
601.25 242.181 L
601.42 252.966 L
601.59 263.75 L
601.759 247.573 L
601.929 247.573 L
602.099 263.75 L
602.268 252.966 L
602.438 263.75 L
602.608 252.966 L
602.778 236.849 L
602.947 242.241 L
603.117 247.633 L
603.287 236.849 L
603.456 247.633 L
603.626 247.633 L
603.796 236.849 L
603.965 247.633 L
604.135 247.633 L
604.305 242.241 L
604.474 252.974 L
604.644 247.582 L
604.814 252.974 L
604.983 263.759 L
605.153 258.367 L
605.323 252.974 L
605.492 252.974 L
605.662 252.974 L
605.832 252.974 L
606.002 236.797 L
606.171 253 L
606.341 253 L
606.511 253 L
606.68 263.785 L
606.85 253 L
607.02 263.785 L
607.189 263.785 L
607.359 242.215 L
607.529 247.608 L
607.698 253 L
607.868 253 L
608.038 253 L
608.208 253 L
608.377 263.785 L
608.547 263.785 L
608.717 253 L
608.886 253 L
609.056 263.785 L
609.226 247.608 L
609.395 263.785 L
609.565 253 L
609.735 269.177 L
609.904 263.785 L
610.074 253 L
610.244 258.392 L
610.413 263.785 L
610.583 253 L
610.753 247.608 L
610.922 253 L
611.092 247.608 L
611.262 269.177 L
611.432 253 L
611.601 253 L
611.771 263.785 L
611.941 253 L
612.11 247.608 L
612.28 263.785 L
612.45 258.392 L
612.619 253 L
612.789 253 L
612.959 236.849 L
613.128 236.849 L
613.298 236.849 L
613.468 236.849 L
613.638 231.456 L
613.807 247.633 L
613.977 247.633 L
614.147 247.633 L
614.316 236.849 L
614.486 247.633 L
614.656 263.759 L
614.825 252.974 L
614.995 252.974 L
615.165 258.367 L
615.334 252.974 L
615.504 242.19 L
615.674 247.582 L
615.843 247.582 L
616.013 252.974 L
616.183 263.759 L
616.352 231.448 L
616.522 242.232 L
616.692 236.84 L
616.862 236.84 L
617.031 242.232 L
617.201 247.625 L
617.371 242.232 L
617.54 242.232 L
617.71 226.055 L
617.88 242.232 L
618.049 274.535 L
618.219 263.75 L
618.389 258.358 L
618.558 269.143 L
618.728 258.358 L
618.898 263.75 L
619.068 252.966 L
619.237 263.75 L
619.407 269.143 L
619.577 263.75 L
619.746 236.857 L
619.916 253.034 L
620.086 242.25 L
620.255 236.857 L
620.425 242.25 L
620.595 247.642 L
620.764 242.25 L
620.934 242.25 L
621.104 242.25 L
621.273 253.034 L
621.443 269.151 L
621.613 263.759 L
621.783 258.367 L
621.952 258.367 L
622.122 269.151 L
622.292 269.151 L
622.461 258.367 L
622.631 258.367 L
622.801 263.759 L
622.97 258.367 L
623.14 242.241 L
623.31 242.241 L
623.479 242.241 L
623.649 242.241 L
623.819 242.241 L
623.988 253.026 L
624.158 258.418 L
624.328 247.633 L
624.497 247.633 L
624.667 253.026 L
624.837 263.768 L
625.007 258.375 L
625.176 252.983 L
625.346 252.983 L
625.516 258.375 L
625.685 252.983 L
625.855 263.768 L
626.025 263.768 L
626.194 263.768 L
626.364 252.983 L
626.534 242.232 L
626.703 242.232 L
626.873 247.625 L
627.043 242.232 L
627.213 242.232 L
627.382 236.84 L
627.552 242.232 L
627.722 253.017 L
627.891 242.232 L
628.061 253.017 L
628.231 252.983 L
628.4 252.983 L
628.57 242.198 L
628.74 263.768 L
628.909 247.591 L
629.079 263.768 L
629.249 252.983 L
629.418 263.768 L
629.588 252.983 L
629.758 247.591 L
629.927 253 L
630.097 258.392 L
630.267 253 L
630.437 236.823 L
630.606 258.392 L
630.776 263.785 L
630.946 253 L
631.115 253 L
631.285 242.215 L
631.455 258.392 L
631.624 263.785 L
631.794 242.215 L
631.964 253 L
632.133 258.392 L
632.303 253 L
632.473 242.215 L
632.643 253 L
632.812 263.785 L
632.982 253 L
633.152 253 L
633.321 242.232 L
633.491 242.232 L
633.661 236.84 L
633.83 247.625 L
634 231.448 L
634.065 239.676 L
S
GR
%%Trailer
%%Pages: 1
%%EOF
