%!PS-Adobe-3.0 EPSF-3.0
%%Creator: (MATLAB, The Mathworks, Inc. Version 9.1.0.441655 \(R2016b\). Operating System: Windows 8)
%%Title: C:/Users/simon/Documents/Unief/M1/CACSD_MPC/Exercises/Practicum/cacsd/report/images/cutoff/xdot_high.eps
%%CreationDate: 2017-05-17T20:47:11
%%Pages: (atend)
%%BoundingBox: 0 0 420 315
%%LanguageLevel: 3
%%EndComments
%%BeginProlog
%%BeginResource: procset (Apache XML Graphics Std ProcSet) 1.2 0
%%Version: 1.2 0
%%Copyright: (Copyright 2001-2003,2010 The Apache Software Foundation. License terms: http://www.apache.org/licenses/LICENSE-2.0)
/bd{bind def}bind def
/ld{load def}bd
/GR/grestore ld
/M/moveto ld
/LJ/setlinejoin ld
/C/curveto ld
/f/fill ld
/LW/setlinewidth ld
/GC/setgray ld
/t/show ld
/N/newpath ld
/CT/concat ld
/cp/closepath ld
/S/stroke ld
/L/lineto ld
/CC/setcmykcolor ld
/A/ashow ld
/GS/gsave ld
/RC/setrgbcolor ld
/RM/rmoveto ld
/ML/setmiterlimit ld
/re {4 2 roll M
1 index 0 rlineto
0 exch rlineto
neg 0 rlineto
cp } bd
/_ctm matrix def
/_tm matrix def
/BT { _ctm currentmatrix pop matrix _tm copy pop 0 0 moveto } bd
/ET { _ctm setmatrix } bd
/iTm { _ctm setmatrix _tm concat } bd
/Tm { _tm astore pop iTm 0 0 moveto } bd
/ux 0.0 def
/uy 0.0 def
/F {
  /Tp exch def
  /Tf exch def
  Tf findfont Tp scalefont setfont
  /cf Tf def  /cs Tp def
} bd
/ULS {currentpoint /uy exch def /ux exch def} bd
/ULE {
  /Tcx currentpoint pop def
  gsave
  newpath
  cf findfont cs scalefont dup
  /FontMatrix get 0 get /Ts exch def /FontInfo get dup
  /UnderlinePosition get Ts mul /To exch def
  /UnderlineThickness get Ts mul /Tt exch def
  ux uy To add moveto  Tcx uy To add lineto
  Tt setlinewidth stroke
  grestore
} bd
/OLE {
  /Tcx currentpoint pop def
  gsave
  newpath
  cf findfont cs scalefont dup
  /FontMatrix get 0 get /Ts exch def /FontInfo get dup
  /UnderlinePosition get Ts mul /To exch def
  /UnderlineThickness get Ts mul /Tt exch def
  ux uy To add cs add moveto Tcx uy To add cs add lineto
  Tt setlinewidth stroke
  grestore
} bd
/SOE {
  /Tcx currentpoint pop def
  gsave
  newpath
  cf findfont cs scalefont dup
  /FontMatrix get 0 get /Ts exch def /FontInfo get dup
  /UnderlinePosition get Ts mul /To exch def
  /UnderlineThickness get Ts mul /Tt exch def
  ux uy To add cs 10 mul 26 idiv add moveto Tcx uy To add cs 10 mul 26 idiv add lineto
  Tt setlinewidth stroke
  grestore
} bd
/QT {
/Y22 exch store
/X22 exch store
/Y21 exch store
/X21 exch store
currentpoint
/Y21 load 2 mul add 3 div exch
/X21 load 2 mul add 3 div exch
/X21 load 2 mul /X22 load add 3 div
/Y21 load 2 mul /Y22 load add 3 div
/X22 load /Y22 load curveto
} bd
/SSPD {
dup length /d exch dict def
{
/v exch def
/k exch def
currentpagedevice k known {
/cpdv currentpagedevice k get def
v cpdv ne {
/upd false def
/nullv v type /nulltype eq def
/nullcpdv cpdv type /nulltype eq def
nullv nullcpdv or
{
/upd true def
} {
/sametype v type cpdv type eq def
sametype {
v type /arraytype eq {
/vlen v length def
/cpdvlen cpdv length def
vlen cpdvlen eq {
0 1 vlen 1 sub {
/i exch def
/obj v i get def
/cpdobj cpdv i get def
obj cpdobj ne {
/upd true def
exit
} if
} for
} {
/upd true def
} ifelse
} {
v type /dicttype eq {
v {
/dv exch def
/dk exch def
/cpddv cpdv dk get def
dv cpddv ne {
/upd true def
exit
} if
} forall
} {
/upd true def
} ifelse
} ifelse
} if
} ifelse
upd true eq {
d k v put
} if
} if
} if
} forall
d length 0 gt {
d setpagedevice
} if
} bd
/RE { % /NewFontName [NewEncodingArray] /FontName RE -
  findfont dup length dict begin
  {
    1 index /FID ne
    {def} {pop pop} ifelse
  } forall
  /Encoding exch def
  /FontName 1 index def
  currentdict definefont pop
  end
} bind def
%%EndResource
%%BeginResource: procset (Apache XML Graphics EPS ProcSet) 1.0 0
%%Version: 1.0 0
%%Copyright: (Copyright 2002-2003 The Apache Software Foundation. License terms: http://www.apache.org/licenses/LICENSE-2.0)
/BeginEPSF { %def
/b4_Inc_state save def         % Save state for cleanup
/dict_count countdictstack def % Count objects on dict stack
/op_count count 1 sub def      % Count objects on operand stack
userdict begin                 % Push userdict on dict stack
/showpage { } def              % Redefine showpage, { } = null proc
0 setgray 0 setlinecap         % Prepare graphics state
1 setlinewidth 0 setlinejoin
10 setmiterlimit [ ] 0 setdash newpath
/languagelevel where           % If level not equal to 1 then
{pop languagelevel             % set strokeadjust and
1 ne                           % overprint to their defaults.
{false setstrokeadjust false setoverprint
} if
} if
} bd
/EndEPSF { %def
count op_count sub {pop} repeat            % Clean up stacks
countdictstack dict_count sub {end} repeat
b4_Inc_state restore
} bd
%%EndResource
%FOPBeginFontDict
%%IncludeResource: font Courier-Bold
%%IncludeResource: font Helvetica
%%IncludeResource: font Courier-BoldOblique
%%IncludeResource: font Courier-Oblique
%%IncludeResource: font Times-Roman
%%IncludeResource: font Helvetica-BoldOblique
%%IncludeResource: font Helvetica-Bold
%%IncludeResource: font Helvetica-Oblique
%%IncludeResource: font Times-BoldItalic
%%IncludeResource: font Courier
%%IncludeResource: font Times-Italic
%%IncludeResource: font Times-Bold
%%IncludeResource: font Symbol
%%IncludeResource: font ZapfDingbats
%FOPEndFontDict
%%BeginResource: encoding WinAnsiEncoding
/WinAnsiEncoding [
/.notdef /.notdef /.notdef /.notdef /.notdef
/.notdef /.notdef /.notdef /.notdef /.notdef
/.notdef /.notdef /.notdef /.notdef /.notdef
/.notdef /.notdef /.notdef /.notdef /.notdef
/.notdef /.notdef /.notdef /.notdef /.notdef
/.notdef /.notdef /.notdef /.notdef /.notdef
/.notdef /.notdef /space /exclam /quotedbl
/numbersign /dollar /percent /ampersand /quotesingle
/parenleft /parenright /asterisk /plus /comma
/hyphen /period /slash /zero /one
/two /three /four /five /six
/seven /eight /nine /colon /semicolon
/less /equal /greater /question /at
/A /B /C /D /E
/F /G /H /I /J
/K /L /M /N /O
/P /Q /R /S /T
/U /V /W /X /Y
/Z /bracketleft /backslash /bracketright /asciicircum
/underscore /quoteleft /a /b /c
/d /e /f /g /h
/i /j /k /l /m
/n /o /p /q /r
/s /t /u /v /w
/x /y /z /braceleft /bar
/braceright /asciitilde /bullet /Euro /bullet
/quotesinglbase /florin /quotedblbase /ellipsis /dagger
/daggerdbl /circumflex /perthousand /Scaron /guilsinglleft
/OE /bullet /Zcaron /bullet /bullet
/quoteleft /quoteright /quotedblleft /quotedblright /bullet
/endash /emdash /asciitilde /trademark /scaron
/guilsinglright /oe /bullet /zcaron /Ydieresis
/space /exclamdown /cent /sterling /currency
/yen /brokenbar /section /dieresis /copyright
/ordfeminine /guillemotleft /logicalnot /sfthyphen /registered
/macron /degree /plusminus /twosuperior /threesuperior
/acute /mu /paragraph /middot /cedilla
/onesuperior /ordmasculine /guillemotright /onequarter /onehalf
/threequarters /questiondown /Agrave /Aacute /Acircumflex
/Atilde /Adieresis /Aring /AE /Ccedilla
/Egrave /Eacute /Ecircumflex /Edieresis /Igrave
/Iacute /Icircumflex /Idieresis /Eth /Ntilde
/Ograve /Oacute /Ocircumflex /Otilde /Odieresis
/multiply /Oslash /Ugrave /Uacute /Ucircumflex
/Udieresis /Yacute /Thorn /germandbls /agrave
/aacute /acircumflex /atilde /adieresis /aring
/ae /ccedilla /egrave /eacute /ecircumflex
/edieresis /igrave /iacute /icircumflex /idieresis
/eth /ntilde /ograve /oacute /ocircumflex
/otilde /odieresis /divide /oslash /ugrave
/uacute /ucircumflex /udieresis /yacute /thorn
/ydieresis
] def
%%EndResource
%FOPBeginFontReencode
/Courier-Bold findfont
dup length dict begin
  {1 index /FID ne {def} {pop pop} ifelse} forall
  /Encoding WinAnsiEncoding def
  currentdict
end
/Courier-Bold exch definefont pop
/Helvetica findfont
dup length dict begin
  {1 index /FID ne {def} {pop pop} ifelse} forall
  /Encoding WinAnsiEncoding def
  currentdict
end
/Helvetica exch definefont pop
/Courier-BoldOblique findfont
dup length dict begin
  {1 index /FID ne {def} {pop pop} ifelse} forall
  /Encoding WinAnsiEncoding def
  currentdict
end
/Courier-BoldOblique exch definefont pop
/Courier-Oblique findfont
dup length dict begin
  {1 index /FID ne {def} {pop pop} ifelse} forall
  /Encoding WinAnsiEncoding def
  currentdict
end
/Courier-Oblique exch definefont pop
/Times-Roman findfont
dup length dict begin
  {1 index /FID ne {def} {pop pop} ifelse} forall
  /Encoding WinAnsiEncoding def
  currentdict
end
/Times-Roman exch definefont pop
/Helvetica-BoldOblique findfont
dup length dict begin
  {1 index /FID ne {def} {pop pop} ifelse} forall
  /Encoding WinAnsiEncoding def
  currentdict
end
/Helvetica-BoldOblique exch definefont pop
/Helvetica-Bold findfont
dup length dict begin
  {1 index /FID ne {def} {pop pop} ifelse} forall
  /Encoding WinAnsiEncoding def
  currentdict
end
/Helvetica-Bold exch definefont pop
/Helvetica-Oblique findfont
dup length dict begin
  {1 index /FID ne {def} {pop pop} ifelse} forall
  /Encoding WinAnsiEncoding def
  currentdict
end
/Helvetica-Oblique exch definefont pop
/Times-BoldItalic findfont
dup length dict begin
  {1 index /FID ne {def} {pop pop} ifelse} forall
  /Encoding WinAnsiEncoding def
  currentdict
end
/Times-BoldItalic exch definefont pop
/Courier findfont
dup length dict begin
  {1 index /FID ne {def} {pop pop} ifelse} forall
  /Encoding WinAnsiEncoding def
  currentdict
end
/Courier exch definefont pop
/Times-Italic findfont
dup length dict begin
  {1 index /FID ne {def} {pop pop} ifelse} forall
  /Encoding WinAnsiEncoding def
  currentdict
end
/Times-Italic exch definefont pop
/Times-Bold findfont
dup length dict begin
  {1 index /FID ne {def} {pop pop} ifelse} forall
  /Encoding WinAnsiEncoding def
  currentdict
end
/Times-Bold exch definefont pop
%FOPEndFontReencode
%%EndProlog
%%Page: 1 1
%%PageBoundingBox: 0 0 420 315
%%BeginPageSetup
[1 0 0 -1 0 315] CT
%%EndPageSetup
GS
[0.6 0 0 0.6 0 0] CT
1 GC
N
0 0 700 525 re
f
GR
GS
[0.6 0 0 0.6 0 0] CT
1 GC
N
0 0 700 525 re
f
GR
GS
[0.6 0 0 0.6 0 0] CT
1 GC
N
91 467 M
634 467 L
634 39 L
91 39 L
cp
f
GR
GS
[0.6 0 0 0.6 0 0] CT
0.149 GC
2 setlinecap
1 LJ
0.833 LW
N
91 467 M
634 467 L
S
GR
GS
[0.6 0 0 0.6 0 0] CT
0.149 GC
2 setlinecap
1 LJ
0.833 LW
N
91 39 M
634 39 L
S
GR
GS
[0.6 0 0 0.6 0 0] CT
0.149 GC
2 setlinecap
1 LJ
0.833 LW
N
91 467 M
91 461.57 L
S
GR
GS
[0.6 0 0 0.6 0 0] CT
0.149 GC
2 setlinecap
1 LJ
0.833 LW
N
158.875 467 M
158.875 461.57 L
S
GR
GS
[0.6 0 0 0.6 0 0] CT
0.149 GC
2 setlinecap
1 LJ
0.833 LW
N
226.75 467 M
226.75 461.57 L
S
GR
GS
[0.6 0 0 0.6 0 0] CT
0.149 GC
2 setlinecap
1 LJ
0.833 LW
N
294.625 467 M
294.625 461.57 L
S
GR
GS
[0.6 0 0 0.6 0 0] CT
0.149 GC
2 setlinecap
1 LJ
0.833 LW
N
362.5 467 M
362.5 461.57 L
S
GR
GS
[0.6 0 0 0.6 0 0] CT
0.149 GC
2 setlinecap
1 LJ
0.833 LW
N
430.375 467 M
430.375 461.57 L
S
GR
GS
[0.6 0 0 0.6 0 0] CT
0.149 GC
2 setlinecap
1 LJ
0.833 LW
N
498.25 467 M
498.25 461.57 L
S
GR
GS
[0.6 0 0 0.6 0 0] CT
0.149 GC
2 setlinecap
1 LJ
0.833 LW
N
566.125 467 M
566.125 461.57 L
S
GR
GS
[0.6 0 0 0.6 0 0] CT
0.149 GC
2 setlinecap
1 LJ
0.833 LW
N
634 467 M
634 461.57 L
S
GR
GS
[0.6 0 0 0.6 0 0] CT
0.149 GC
2 setlinecap
1 LJ
0.833 LW
N
91 39 M
91 44.43 L
S
GR
GS
[0.6 0 0 0.6 0 0] CT
0.149 GC
2 setlinecap
1 LJ
0.833 LW
N
158.875 39 M
158.875 44.43 L
S
GR
GS
[0.6 0 0 0.6 0 0] CT
0.149 GC
2 setlinecap
1 LJ
0.833 LW
N
226.75 39 M
226.75 44.43 L
S
GR
GS
[0.6 0 0 0.6 0 0] CT
0.149 GC
2 setlinecap
1 LJ
0.833 LW
N
294.625 39 M
294.625 44.43 L
S
GR
GS
[0.6 0 0 0.6 0 0] CT
0.149 GC
2 setlinecap
1 LJ
0.833 LW
N
362.5 39 M
362.5 44.43 L
S
GR
GS
[0.6 0 0 0.6 0 0] CT
0.149 GC
2 setlinecap
1 LJ
0.833 LW
N
430.375 39 M
430.375 44.43 L
S
GR
GS
[0.6 0 0 0.6 0 0] CT
0.149 GC
2 setlinecap
1 LJ
0.833 LW
N
498.25 39 M
498.25 44.43 L
S
GR
GS
[0.6 0 0 0.6 0 0] CT
0.149 GC
2 setlinecap
1 LJ
0.833 LW
N
566.125 39 M
566.125 44.43 L
S
GR
GS
[0.6 0 0 0.6 0 0] CT
0.149 GC
2 setlinecap
1 LJ
0.833 LW
N
634 39 M
634 44.43 L
S
GR
GS
[0.6 0 0 0.6 54.6 284.19999] CT
0.149 GC
/Helvetica 16.667 F
GS
[1 0 0 1 0 0] CT
-5 18 moveto 
1 -1 scale
(0) t 
GR
GR
GS
[0.6 0 0 0.6 95.325 284.19999] CT
0.149 GC
/Helvetica 16.667 F
GS
[1 0 0 1 0 0] CT
-5 18 moveto 
1 -1 scale
(2) t 
GR
GR
GS
[0.6 0 0 0.6 136.05 284.19999] CT
0.149 GC
/Helvetica 16.667 F
GS
[1 0 0 1 0 0] CT
-5 18 moveto 
1 -1 scale
(4) t 
GR
GR
GS
[0.6 0 0 0.6 176.775 284.19999] CT
0.149 GC
/Helvetica 16.667 F
GS
[1 0 0 1 0 0] CT
-5 18 moveto 
1 -1 scale
(6) t 
GR
GR
GS
[0.6 0 0 0.6 217.5 284.19999] CT
0.149 GC
/Helvetica 16.667 F
GS
[1 0 0 1 0 0] CT
-5 18 moveto 
1 -1 scale
(8) t 
GR
GR
GS
[0.6 0 0 0.6 258.225 284.19999] CT
0.149 GC
/Helvetica 16.667 F
GS
[1 0 0 1 0 0] CT
-9.5 18 moveto 
1 -1 scale
(10) t 
GR
GR
GS
[0.6 0 0 0.6 298.95 284.19999] CT
0.149 GC
/Helvetica 16.667 F
GS
[1 0 0 1 0 0] CT
-9.5 18 moveto 
1 -1 scale
(12) t 
GR
GR
GS
[0.6 0 0 0.6 339.675 284.19999] CT
0.149 GC
/Helvetica 16.667 F
GS
[1 0 0 1 0 0] CT
-9.5 18 moveto 
1 -1 scale
(14) t 
GR
GR
GS
[0.6 0 0 0.6 380.4 284.19999] CT
0.149 GC
/Helvetica 16.667 F
GS
[1 0 0 1 0 0] CT
-9.5 18 moveto 
1 -1 scale
(16) t 
GR
GR
GS
[0.6 0 0 0.6 217.50015 298.40001] CT
0.149 GC
N
-30.462 13.244 M
-30.462 8.275 L
-31.962 8.275 L
-31.962 7.806 L
-30.791 7.806 -30.236 6.705 QT
-29.681 5.603 -29.681 4.322 QT
-29.166 4.322 L
-29.166 7.634 L
-26.619 7.634 L
-26.619 8.275 L
-29.166 8.275 L
-29.166 13.197 L
-29.166 13.947 -28.916 14.509 QT
-28.666 15.072 -28.009 15.072 QT
-27.4 15.072 -27.126 14.478 QT
-26.853 13.884 -26.853 13.197 QT
-26.853 12.134 L
-26.322 12.134 L
-26.322 13.244 L
-26.322 13.806 -26.533 14.353 QT
-26.744 14.9 -27.15 15.251 QT
-27.556 15.603 -28.134 15.603 QT
-29.212 15.603 -29.837 14.955 QT
-30.462 14.306 -30.462 13.244 QT
cp
f
GR
GS
[0.6 0 0 0.6 217.50015 298.40001] CT
0.149 GC
N
-24.63 15.4 M
-24.63 14.759 L
-24.005 14.759 -23.614 14.666 QT
-23.223 14.572 -23.223 14.197 QT
-23.223 9.275 L
-23.223 8.587 -23.489 8.431 QT
-23.755 8.275 -24.536 8.275 QT
-24.536 7.634 L
-21.958 7.447 L
-21.958 14.197 L
-21.958 14.572 -21.614 14.666 QT
-21.27 14.759 -20.692 14.759 QT
-20.692 15.4 L
-24.63 15.4 L
cp
-23.864 4.353 M
-23.864 3.962 -23.559 3.658 QT
-23.255 3.353 -22.88 3.353 QT
-22.614 3.353 -22.38 3.486 QT
-22.145 3.619 -22.012 3.861 QT
-21.88 4.103 -21.88 4.353 QT
-21.88 4.744 -22.177 5.041 QT
-22.473 5.337 -22.88 5.337 QT
-23.255 5.337 -23.559 5.041 QT
-23.864 4.744 -23.864 4.353 QT
cp
f
GR
GS
[0.6 0 0 0.6 217.50015 298.40001] CT
0.149 GC
N
-19.553 15.4 M
-19.553 14.759 L
-18.928 14.759 -18.537 14.666 QT
-18.146 14.572 -18.146 14.197 QT
-18.146 9.275 L
-18.146 8.806 -18.287 8.587 QT
-18.428 8.369 -18.701 8.322 QT
-18.975 8.275 -19.553 8.275 QT
-19.553 7.634 L
-16.943 7.447 L
-16.943 9.197 L
-16.584 8.431 -15.873 7.939 QT
-15.162 7.447 -14.334 7.447 QT
-12.256 7.447 -11.896 9.134 QT
-11.537 8.384 -10.842 7.916 QT
-10.146 7.447 -9.318 7.447 QT
-8.506 7.447 -7.943 7.712 QT
-7.381 7.978 -7.1 8.517 QT
-6.818 9.056 -6.818 9.869 QT
-6.818 14.197 L
-6.818 14.572 -6.42 14.666 QT
-6.021 14.759 -5.412 14.759 QT
-5.412 15.4 L
-9.537 15.4 L
-9.537 14.759 L
-8.928 14.759 -8.529 14.666 QT
-8.131 14.572 -8.131 14.197 QT
-8.131 9.931 L
-8.131 9.025 -8.389 8.47 QT
-8.646 7.916 -9.428 7.916 QT
-10.475 7.916 -11.146 8.751 QT
-11.818 9.587 -11.818 10.65 QT
-11.818 14.197 L
-11.818 14.572 -11.428 14.666 QT
-11.037 14.759 -10.412 14.759 QT
-10.412 15.4 L
-14.537 15.4 L
-14.537 14.759 L
-13.928 14.759 -13.529 14.666 QT
-13.131 14.572 -13.131 14.197 QT
-13.131 9.931 L
-13.131 9.041 -13.389 8.478 QT
-13.646 7.916 -14.428 7.916 QT
-15.475 7.916 -16.146 8.751 QT
-16.818 9.587 -16.818 10.65 QT
-16.818 14.197 L
-16.818 14.572 -16.428 14.666 QT
-16.037 14.759 -15.428 14.759 QT
-15.428 15.4 L
-19.553 15.4 L
cp
f
GR
GS
[0.6 0 0 0.6 217.50015 298.40001] CT
0.149 GC
N
-0.322 15.603 M
-1.415 15.603 -2.337 15.025 QT
-3.259 14.447 -3.783 13.486 QT
-4.306 12.525 -4.306 11.447 QT
-4.306 10.4 -3.83 9.447 QT
-3.353 8.494 -2.494 7.916 QT
-1.634 7.337 -0.572 7.337 QT
0.241 7.337 0.858 7.611 QT
1.475 7.884 1.866 8.376 QT
2.256 8.869 2.46 9.541 QT
2.663 10.212 2.663 11.009 QT
2.663 11.244 2.475 11.244 QT
-2.728 11.244 L
-2.728 11.431 L
-2.728 12.931 -2.126 14.001 QT
-1.525 15.072 -0.165 15.072 QT
0.381 15.072 0.858 14.83 QT
1.335 14.587 1.678 14.142 QT
2.022 13.697 2.147 13.197 QT
2.163 13.134 2.21 13.087 QT
2.256 13.041 2.319 13.041 QT
2.475 13.041 L
2.663 13.041 2.663 13.275 QT
2.413 14.291 1.569 14.947 QT
0.725 15.603 -0.322 15.603 QT
cp
-2.712 10.791 M
1.397 10.791 L
1.397 10.119 1.202 9.423 QT
1.006 8.728 0.569 8.267 QT
0.131 7.806 -0.572 7.806 QT
-1.603 7.806 -2.158 8.759 QT
-2.712 9.712 -2.712 10.791 QT
cp
f
GR
GS
[0.6 0 0 0.6 217.50015 298.40001] CT
0.149 GC
N
15.031 19.869 M
14.031 19.072 13.305 18.048 QT
12.578 17.025 12.117 15.869 QT
11.656 14.712 11.43 13.447 QT
11.203 12.181 11.203 10.9 QT
11.203 9.603 11.43 8.337 QT
11.656 7.072 12.125 5.908 QT
12.594 4.744 13.328 3.72 QT
14.063 2.697 15.031 1.931 QT
15.031 1.9 15.125 1.9 QT
15.297 1.9 L
15.344 1.9 15.391 1.947 QT
15.438 1.994 15.438 2.056 QT
15.438 2.134 15.391 2.166 QT
14.516 3.041 13.93 4.025 QT
13.344 5.009 12.992 6.119 QT
12.641 7.228 12.477 8.416 QT
12.313 9.603 12.313 10.9 QT
12.313 16.619 15.375 19.587 QT
15.438 19.65 15.438 19.744 QT
15.438 19.791 15.383 19.845 QT
15.328 19.9 15.297 19.9 QT
15.125 19.9 L
15.031 19.9 15.031 19.869 QT
cp
f
GR
GS
[0.6 0 0 0.6 217.50015 298.40001] CT
0.149 GC
N
18.145 14.306 M
18.63 15.134 20.083 15.134 QT
20.723 15.134 21.294 14.916 QT
21.864 14.697 22.239 14.267 QT
22.614 13.837 22.614 13.212 QT
22.614 12.759 22.278 12.455 QT
21.942 12.15 21.458 12.056 QT
20.489 11.853 L
19.817 11.697 19.387 11.236 QT
18.958 10.775 18.958 10.119 QT
18.958 9.322 19.395 8.712 QT
19.833 8.103 20.544 7.775 QT
21.255 7.447 22.02 7.447 QT
22.833 7.447 23.481 7.837 QT
24.13 8.228 24.13 8.994 QT
24.13 9.4 23.895 9.72 QT
23.661 10.041 23.239 10.041 QT
23.005 10.041 22.833 9.884 QT
22.661 9.728 22.661 9.494 QT
22.661 9.275 22.778 9.08 QT
22.895 8.884 23.098 8.767 QT
23.302 8.65 23.505 8.65 QT
23.348 8.259 22.911 8.087 QT
22.473 7.916 21.973 7.916 QT
21.52 7.916 21.067 8.095 QT
20.614 8.275 20.333 8.634 QT
20.052 8.994 20.052 9.478 QT
20.052 9.806 20.278 10.048 QT
20.505 10.291 20.848 10.4 QT
21.895 10.603 L
22.395 10.712 22.809 10.978 QT
23.223 11.244 23.466 11.658 QT
23.708 12.072 23.708 12.603 QT
23.708 13.259 23.333 13.916 QT
22.958 14.572 22.427 14.947 QT
21.458 15.603 20.067 15.603 QT
19.114 15.603 18.317 15.166 QT
17.52 14.728 17.52 13.853 QT
17.52 13.353 17.802 12.994 QT
18.083 12.634 18.583 12.634 QT
18.864 12.634 19.067 12.806 QT
19.27 12.978 19.27 13.275 QT
19.27 13.681 18.958 13.994 QT
18.645 14.306 18.239 14.306 QT
18.145 14.306 L
cp
f
GR
GS
[0.6 0 0 0.6 217.50015 298.40001] CT
0.149 GC
N
26.348 19.9 M
26.192 19.9 26.192 19.744 QT
26.192 19.666 26.223 19.634 QT
29.302 16.619 29.302 10.9 QT
29.302 5.181 26.255 2.212 QT
26.192 2.166 26.192 2.056 QT
26.192 1.994 26.239 1.947 QT
26.286 1.9 26.348 1.9 QT
26.52 1.9 L
26.567 1.9 26.598 1.931 QT
27.895 2.947 28.755 4.408 QT
29.614 5.869 30.012 7.525 QT
30.411 9.181 30.411 10.9 QT
30.411 12.181 30.2 13.416 QT
29.989 14.65 29.52 15.845 QT
29.052 17.041 28.325 18.056 QT
27.598 19.072 26.598 19.869 QT
26.567 19.9 26.52 19.9 QT
26.348 19.9 L
cp
f
GR
GS
[0.6 0 0 0.6 0 0] CT
0.149 GC
2 setlinecap
1 LJ
0.833 LW
N
91 467 M
91 39 L
S
GR
GS
[0.6 0 0 0.6 0 0] CT
0.149 GC
2 setlinecap
1 LJ
0.833 LW
N
634 467 M
634 39 L
S
GR
GS
[0.6 0 0 0.6 0 0] CT
0.149 GC
2 setlinecap
1 LJ
0.833 LW
N
91 467 M
96.43 467 L
S
GR
GS
[0.6 0 0 0.6 0 0] CT
0.149 GC
2 setlinecap
1 LJ
0.833 LW
N
91 413.5 M
96.43 413.5 L
S
GR
GS
[0.6 0 0 0.6 0 0] CT
0.149 GC
2 setlinecap
1 LJ
0.833 LW
N
91 360 M
96.43 360 L
S
GR
GS
[0.6 0 0 0.6 0 0] CT
0.149 GC
2 setlinecap
1 LJ
0.833 LW
N
91 306.5 M
96.43 306.5 L
S
GR
GS
[0.6 0 0 0.6 0 0] CT
0.149 GC
2 setlinecap
1 LJ
0.833 LW
N
91 253 M
96.43 253 L
S
GR
GS
[0.6 0 0 0.6 0 0] CT
0.149 GC
2 setlinecap
1 LJ
0.833 LW
N
91 199.5 M
96.43 199.5 L
S
GR
GS
[0.6 0 0 0.6 0 0] CT
0.149 GC
2 setlinecap
1 LJ
0.833 LW
N
91 146 M
96.43 146 L
S
GR
GS
[0.6 0 0 0.6 0 0] CT
0.149 GC
2 setlinecap
1 LJ
0.833 LW
N
91 92.5 M
96.43 92.5 L
S
GR
GS
[0.6 0 0 0.6 0 0] CT
0.149 GC
2 setlinecap
1 LJ
0.833 LW
N
91 39 M
96.43 39 L
S
GR
GS
[0.6 0 0 0.6 0 0] CT
0.149 GC
2 setlinecap
1 LJ
0.833 LW
N
634 467 M
628.57 467 L
S
GR
GS
[0.6 0 0 0.6 0 0] CT
0.149 GC
2 setlinecap
1 LJ
0.833 LW
N
634 413.5 M
628.57 413.5 L
S
GR
GS
[0.6 0 0 0.6 0 0] CT
0.149 GC
2 setlinecap
1 LJ
0.833 LW
N
634 360 M
628.57 360 L
S
GR
GS
[0.6 0 0 0.6 0 0] CT
0.149 GC
2 setlinecap
1 LJ
0.833 LW
N
634 306.5 M
628.57 306.5 L
S
GR
GS
[0.6 0 0 0.6 0 0] CT
0.149 GC
2 setlinecap
1 LJ
0.833 LW
N
634 253 M
628.57 253 L
S
GR
GS
[0.6 0 0 0.6 0 0] CT
0.149 GC
2 setlinecap
1 LJ
0.833 LW
N
634 199.5 M
628.57 199.5 L
S
GR
GS
[0.6 0 0 0.6 0 0] CT
0.149 GC
2 setlinecap
1 LJ
0.833 LW
N
634 146 M
628.57 146 L
S
GR
GS
[0.6 0 0 0.6 0 0] CT
0.149 GC
2 setlinecap
1 LJ
0.833 LW
N
634 92.5 M
628.57 92.5 L
S
GR
GS
[0.6 0 0 0.6 0 0] CT
0.149 GC
2 setlinecap
1 LJ
0.833 LW
N
634 39 M
628.57 39 L
S
GR
GS
[0.6 0 0 0.6 50.6 280.2] CT
0.149 GC
/Helvetica 16.667 F
GS
[1 0 0 1 0 0] CT
-39 7 moveto 
1 -1 scale
(-0.02) t 
GR
GR
GS
[0.6 0 0 0.6 50.6 248.1] CT
0.149 GC
/Helvetica 16.667 F
GS
[1 0 0 1 0 0] CT
-49 7 moveto 
1 -1 scale
(-0.015) t 
GR
GR
GS
[0.6 0 0 0.6 50.6 216] CT
0.149 GC
/Helvetica 16.667 F
GS
[1 0 0 1 0 0] CT
-39 7 moveto 
1 -1 scale
(-0.01) t 
GR
GR
GS
[0.6 0 0 0.6 50.6 183.9] CT
0.149 GC
/Helvetica 16.667 F
GS
[1 0 0 1 0 0] CT
-49 7 moveto 
1 -1 scale
(-0.005) t 
GR
GR
GS
[0.6 0 0 0.6 50.6 151.8] CT
0.149 GC
/Helvetica 16.667 F
GS
[1 0 0 1 0 0] CT
-10 7 moveto 
1 -1 scale
(0) t 
GR
GR
GS
[0.6 0 0 0.6 50.6 119.7] CT
0.149 GC
/Helvetica 16.667 F
GS
[1 0 0 1 0 0] CT
-43 7 moveto 
1 -1 scale
(0.005) t 
GR
GR
GS
[0.6 0 0 0.6 50.6 87.6] CT
0.149 GC
/Helvetica 16.667 F
GS
[1 0 0 1 0 0] CT
-34 7 moveto 
1 -1 scale
(0.01) t 
GR
GR
GS
[0.6 0 0 0.6 50.6 55.5] CT
0.149 GC
/Helvetica 16.667 F
GS
[1 0 0 1 0 0] CT
-43 7 moveto 
1 -1 scale
(0.015) t 
GR
GR
GS
[0.6 0 0 0.6 50.6 23.4] CT
0.149 GC
/Helvetica 16.667 F
GS
[1 0 0 1 0 0] CT
-34 7 moveto 
1 -1 scale
(0.02) t 
GR
GR
GS
[0 -0.6 0.6 0 18.2 151.79988] CT
0.149 GC
N
-0.521 -17.647 M
-0.521 -18.038 -0.225 -18.342 QT
0.072 -18.647 0.463 -18.647 QT
0.713 -18.647 0.947 -18.514 QT
1.182 -18.381 1.315 -18.139 QT
1.447 -17.897 1.447 -17.647 QT
1.447 -17.256 1.158 -16.959 QT
0.869 -16.663 0.463 -16.663 QT
0.072 -16.663 -0.225 -16.959 QT
-0.521 -17.256 -0.521 -17.647 QT
cp
f
GR
GS
[0 -0.6 0.6 0 18.2 151.79988] CT
0.149 GC
N
-3.833 -7.116 M
-3.52 -6.866 -2.942 -6.866 QT
-2.38 -6.866 -1.942 -7.413 QT
-1.505 -7.959 -1.348 -8.6 QT
-0.536 -11.788 L
-0.348 -12.663 -0.348 -12.975 QT
-0.348 -13.428 -0.598 -13.756 QT
-0.848 -14.084 -1.286 -14.084 QT
-1.864 -14.084 -2.364 -13.733 QT
-2.864 -13.381 -3.208 -12.827 QT
-3.551 -12.272 -3.692 -11.709 QT
-3.723 -11.6 -3.833 -11.6 QT
-4.051 -11.6 L
-4.192 -11.6 -4.192 -11.772 QT
-4.192 -11.819 L
-4.02 -12.491 -3.598 -13.124 QT
-3.176 -13.756 -2.567 -14.155 QT
-1.958 -14.553 -1.255 -14.553 QT
-0.598 -14.553 -0.067 -14.202 QT
0.464 -13.85 0.683 -13.241 QT
0.995 -13.803 1.472 -14.178 QT
1.949 -14.553 2.527 -14.553 QT
2.902 -14.553 3.308 -14.42 QT
3.714 -14.288 3.972 -14.006 QT
4.23 -13.725 4.23 -13.303 QT
4.23 -12.834 3.933 -12.506 QT
3.636 -12.178 3.183 -12.178 QT
2.886 -12.178 2.699 -12.366 QT
2.511 -12.553 2.511 -12.834 QT
2.511 -13.209 2.769 -13.499 QT
3.027 -13.788 3.386 -13.834 QT
3.058 -14.084 2.48 -14.084 QT
1.902 -14.084 1.48 -13.553 QT
1.058 -13.022 0.886 -12.35 QT
0.089 -9.178 L
-0.098 -8.459 -0.098 -7.991 QT
-0.098 -7.538 0.159 -7.202 QT
0.417 -6.866 0.839 -6.866 QT
1.683 -6.866 2.347 -7.616 QT
3.011 -8.366 3.23 -9.241 QT
3.261 -9.35 3.37 -9.35 QT
3.589 -9.35 L
3.652 -9.35 3.699 -9.303 QT
3.745 -9.256 3.745 -9.194 QT
3.745 -9.178 3.73 -9.147 QT
3.464 -8.069 2.652 -7.233 QT
1.839 -6.397 0.808 -6.397 QT
0.152 -6.397 -0.38 -6.756 QT
-0.911 -7.116 -1.13 -7.709 QT
-1.411 -7.194 -1.911 -6.795 QT
-2.411 -6.397 -2.973 -6.397 QT
-3.364 -6.397 -3.77 -6.538 QT
-4.176 -6.678 -4.434 -6.959 QT
-4.692 -7.241 -4.692 -7.663 QT
-4.692 -8.084 -4.395 -8.436 QT
-4.098 -8.788 -3.661 -8.788 QT
-3.364 -8.788 -3.161 -8.6 QT
-2.958 -8.413 -2.958 -8.131 QT
-2.958 -7.756 -3.208 -7.475 QT
-3.458 -7.194 -3.833 -7.116 QT
cp
f
GR
GS
[0.6 0 0 0.6 0 0] CT
0 0.447 0.741 RC
1 LJ
3.333 LW
N
91 286.592 M
91.17 246.179 L
91.339 259.65 L
91.509 279.857 L
91.679 279.857 L
91.848 259.65 L
92.018 253.032 L
92.188 286.71 L
92.357 266.503 L
92.527 232.825 L
92.697 266.503 L
92.867 259.768 L
93.036 246.296 L
93.206 253.032 L
93.376 253.032 L
93.545 259.768 L
93.715 279.942 L
93.885 253 L
94.054 246.264 L
94.224 253 L
94.394 266.471 L
94.563 259.736 L
94.733 219.322 L
94.903 259.736 L
95.073 266.471 L
95.242 246.264 L
95.412 172.216 L
95.582 246.307 L
95.751 226.101 L
95.921 219.365 L
96.091 232.836 L
96.26 239.572 L
96.43 232.836 L
96.6 226.101 L
96.769 199.158 L
96.939 246.307 L
97.109 313.492 L
97.278 306.756 L
97.448 306.756 L
97.618 293.285 L
97.787 320.227 L
97.957 313.492 L
98.127 313.492 L
98.297 313.492 L
98.466 306.756 L
98.636 286.549 L
98.806 239.625 L
98.975 246.361 L
99.145 273.303 L
99.315 226.154 L
99.484 246.361 L
99.654 259.832 L
99.824 253.096 L
99.993 219.418 L
100.163 226.154 L
100.333 246.361 L
100.503 266.45 L
100.672 259.714 L
100.842 239.508 L
101.012 279.921 L
101.181 266.45 L
101.351 273.185 L
101.521 246.243 L
101.69 266.45 L
101.86 279.921 L
102.03 259.714 L
102.199 226.079 L
102.369 273.228 L
102.539 232.815 L
102.708 232.815 L
102.878 232.815 L
103.048 266.492 L
103.217 293.435 L
103.387 219.344 L
103.557 226.079 L
103.727 246.286 L
103.896 306.842 L
104.066 273.164 L
104.236 293.371 L
104.405 279.899 L
104.575 286.635 L
104.745 259.693 L
104.914 266.428 L
105.084 300.106 L
105.254 293.371 L
105.423 259.693 L
105.593 212.672 L
105.763 239.614 L
105.933 246.35 L
106.102 205.937 L
106.272 226.143 L
106.442 219.408 L
106.611 246.35 L
106.781 205.937 L
106.951 219.408 L
107.12 226.143 L
107.29 246.2 L
107.46 246.2 L
107.629 266.407 L
107.799 273.143 L
107.969 259.671 L
108.138 246.2 L
108.308 266.407 L
108.478 259.671 L
108.647 300.085 L
108.817 239.465 L
108.987 246.254 L
109.157 286.667 L
109.326 266.46 L
109.496 219.311 L
109.666 252.989 L
109.835 293.403 L
110.005 246.254 L
110.175 266.46 L
110.344 239.518 L
110.514 279.931 L
110.684 286.667 L
110.853 252.989 L
111.023 286.667 L
111.193 252.989 L
111.363 286.667 L
111.532 266.46 L
111.702 252.989 L
111.872 273.196 L
112.041 286.667 L
112.211 279.932 L
112.381 259.789 L
112.55 239.582 L
112.72 253.053 L
112.89 226.111 L
113.059 226.111 L
113.229 246.318 L
113.399 253.053 L
113.568 219.376 L
113.738 239.582 L
113.908 246.318 L
114.077 212.597 L
114.247 232.804 L
114.417 232.804 L
114.587 226.069 L
114.756 232.804 L
114.926 232.804 L
115.096 232.804 L
115.265 232.804 L
115.435 259.746 L
115.605 246.275 L
115.774 259.671 L
115.944 273.142 L
116.114 306.82 L
116.283 259.671 L
116.453 273.142 L
116.623 273.142 L
116.793 279.878 L
116.962 279.878 L
117.132 259.671 L
117.302 286.614 L
117.471 279.953 L
117.641 266.482 L
117.811 253.011 L
117.98 273.217 L
118.15 266.482 L
118.32 279.953 L
118.489 259.746 L
118.659 273.217 L
118.829 293.424 L
118.998 226.068 L
119.168 246.307 L
119.338 253.043 L
119.507 253.043 L
119.677 232.836 L
119.847 232.836 L
120.017 253.043 L
120.186 239.572 L
120.356 232.836 L
120.526 232.836 L
120.695 246.307 L
120.865 232.783 L
121.035 239.518 L
121.204 239.518 L
121.374 259.725 L
121.544 252.989 L
121.713 252.989 L
121.883 212.576 L
122.053 259.725 L
122.223 273.196 L
122.392 246.254 L
122.562 259.703 L
122.732 266.439 L
122.901 273.175 L
123.071 239.497 L
123.241 273.175 L
123.41 266.439 L
123.58 279.91 L
123.75 279.91 L
123.919 259.703 L
124.089 266.439 L
124.259 273.217 L
124.428 239.54 L
124.598 239.54 L
124.768 266.482 L
124.938 266.482 L
125.107 259.746 L
125.277 259.746 L
125.447 279.953 L
125.616 286.688 L
125.786 266.482 L
125.956 199.148 L
126.125 259.768 L
126.295 246.297 L
126.465 239.561 L
126.634 239.561 L
126.804 232.825 L
126.974 259.768 L
127.143 239.561 L
127.313 219.354 L
127.483 239.561 L
127.653 279.857 L
127.822 300.063 L
127.992 252.914 L
128.162 286.592 L
128.331 259.65 L
128.501 286.592 L
128.671 266.386 L
128.84 300.063 L
129.01 273.121 L
129.18 293.328 L
129.349 253.043 L
129.519 273.249 L
129.689 279.985 L
129.858 266.514 L
130.028 259.778 L
130.198 266.514 L
130.367 300.192 L
130.537 259.778 L
130.707 253.043 L
130.877 273.249 L
131.046 266.471 L
131.216 279.942 L
131.386 253 L
131.555 273.207 L
131.725 273.207 L
131.895 246.265 L
132.064 259.736 L
132.234 273.207 L
132.404 266.471 L
132.573 273.207 L
132.743 246.286 L
132.913 266.493 L
133.083 273.228 L
133.252 253.021 L
133.422 266.493 L
133.592 266.493 L
133.761 286.699 L
133.931 232.815 L
134.101 246.286 L
134.27 253.021 L
134.44 273.196 L
134.61 246.254 L
134.779 239.518 L
134.949 266.46 L
135.119 266.46 L
135.288 252.989 L
135.458 259.725 L
135.628 273.196 L
135.798 246.254 L
135.967 239.518 L
136.137 253.032 L
136.307 246.297 L
136.476 273.239 L
136.646 226.09 L
136.816 199.148 L
136.985 246.297 L
137.155 279.974 L
137.325 226.09 L
137.494 219.354 L
137.664 259.768 L
137.834 266.471 L
138.003 239.529 L
138.173 232.793 L
138.343 253 L
138.512 259.736 L
138.682 232.793 L
138.852 232.793 L
139.022 253 L
139.191 226.058 L
139.361 232.793 L
139.531 205.873 L
139.7 239.55 L
139.87 232.815 L
140.04 212.608 L
140.209 226.079 L
140.379 232.815 L
140.549 273.228 L
140.718 212.608 L
140.888 239.55 L
141.058 239.55 L
141.227 279.867 L
141.397 259.661 L
141.567 273.132 L
141.737 279.867 L
141.906 266.396 L
142.076 246.19 L
142.246 266.396 L
142.415 273.132 L
142.585 306.81 L
142.755 279.867 L
142.924 253.043 L
143.094 259.778 L
143.264 253.043 L
143.433 253.043 L
143.603 226.1 L
143.773 253.043 L
143.943 279.985 L
144.112 226.1 L
144.282 253.043 L
144.452 259.778 L
144.621 253 L
144.791 239.529 L
144.961 226.058 L
145.13 253 L
145.3 246.265 L
145.47 246.265 L
145.639 226.058 L
145.809 259.736 L
145.979 279.942 L
146.148 246.265 L
146.318 219.322 L
146.488 253 L
146.658 246.264 L
146.827 253 L
146.997 205.851 L
147.167 232.793 L
147.336 205.851 L
147.506 246.264 L
147.676 253 L
147.845 259.736 L
148.015 286.624 L
148.185 252.946 L
148.354 293.36 L
148.524 273.153 L
148.694 279.889 L
148.863 273.153 L
149.033 259.682 L
149.203 273.153 L
149.372 327.038 L
149.542 286.624 L
149.712 205.905 L
149.882 259.789 L
150.051 239.582 L
150.221 246.318 L
150.391 232.847 L
150.56 253.053 L
150.73 253.053 L
150.9 259.789 L
151.069 253.053 L
151.239 273.26 L
151.409 300.074 L
151.578 286.603 L
151.748 306.81 L
151.918 333.752 L
152.087 266.396 L
152.257 293.339 L
152.427 306.81 L
152.597 293.339 L
152.766 306.81 L
152.936 300.074 L
153.106 232.868 L
153.275 239.604 L
153.445 280.017 L
153.615 232.868 L
153.784 253.075 L
153.954 266.546 L
154.124 259.81 L
154.293 246.339 L
154.463 253.075 L
154.633 266.546 L
154.803 246.232 L
154.972 259.704 L
155.142 279.91 L
155.312 279.91 L
155.481 266.439 L
155.651 252.968 L
155.821 266.439 L
155.99 266.439 L
156.16 279.91 L
156.33 252.968 L
156.499 279.931 L
156.669 286.667 L
156.839 279.931 L
157.008 266.46 L
157.178 300.138 L
157.348 300.138 L
157.518 286.667 L
157.687 266.46 L
157.857 246.254 L
158.027 286.667 L
158.196 253.043 L
158.366 226.101 L
158.536 219.365 L
158.705 259.778 L
158.875 253.043 L
159.045 246.307 L
159.214 239.572 L
159.384 253.043 L
159.554 253.043 L
159.723 253.043 L
159.893 246.265 L
160.063 253 L
160.232 259.736 L
160.402 253 L
160.572 253 L
160.742 246.265 L
160.911 253 L
161.081 239.529 L
161.251 253 L
161.42 266.471 L
161.59 266.46 L
161.76 266.46 L
161.929 226.047 L
162.099 259.725 L
162.269 279.932 L
162.438 266.46 L
162.608 259.725 L
162.778 266.46 L
162.947 252.989 L
163.117 252.989 L
163.287 212.608 L
163.457 246.286 L
163.626 259.757 L
163.796 239.55 L
163.966 239.55 L
164.135 259.757 L
164.305 259.757 L
164.475 239.55 L
164.644 253.021 L
164.814 253.021 L
164.984 320.291 L
165.153 279.878 L
165.323 279.878 L
165.493 286.614 L
165.663 273.142 L
165.832 293.349 L
166.002 246.2 L
166.172 286.614 L
166.341 273.142 L
166.511 286.614 L
166.681 199.222 L
166.85 205.958 L
167.02 232.9 L
167.19 205.958 L
167.359 212.694 L
167.529 226.165 L
167.699 212.694 L
167.868 205.958 L
168.038 212.694 L
168.208 226.165 L
168.378 279.857 L
168.547 273.121 L
168.717 266.386 L
168.887 252.915 L
169.056 273.121 L
169.226 273.121 L
169.396 239.443 L
169.565 273.121 L
169.735 252.915 L
169.905 273.121 L
170.074 246.307 L
170.244 239.572 L
170.414 239.572 L
170.583 246.307 L
170.753 226.1 L
170.923 239.572 L
171.092 239.572 L
171.262 246.307 L
171.432 246.307 L
171.602 259.778 L
171.771 252.989 L
171.941 246.254 L
172.111 266.46 L
172.28 239.518 L
172.45 259.725 L
172.62 252.989 L
172.789 232.783 L
172.959 252.989 L
173.129 246.254 L
173.298 226.047 L
173.468 246.264 L
173.638 253 L
173.807 286.678 L
173.977 226.058 L
174.147 259.736 L
174.317 253 L
174.486 259.736 L
174.656 246.264 L
174.826 246.264 L
174.995 253 L
175.165 273.196 L
175.335 246.254 L
175.504 252.989 L
175.674 259.725 L
175.844 266.46 L
176.013 252.989 L
176.183 239.518 L
176.353 252.989 L
176.523 246.254 L
176.692 259.725 L
176.862 219.354 L
177.032 239.561 L
177.201 273.239 L
177.371 219.354 L
177.541 192.412 L
177.71 266.503 L
177.88 246.297 L
178.05 246.297 L
178.219 239.561 L
178.389 239.561 L
178.559 286.624 L
178.728 259.682 L
178.898 293.36 L
179.068 266.418 L
179.238 246.211 L
179.407 232.74 L
179.577 273.153 L
179.747 266.418 L
179.916 300.095 L
180.086 266.418 L
180.256 219.376 L
180.425 239.582 L
180.595 246.318 L
180.765 232.847 L
180.934 246.318 L
181.104 239.582 L
181.274 219.376 L
181.443 239.582 L
181.613 219.376 L
181.783 232.847 L
181.952 273.153 L
182.122 266.418 L
182.292 246.211 L
182.462 300.095 L
182.631 279.889 L
182.801 259.682 L
182.971 266.418 L
183.14 273.153 L
183.31 259.682 L
183.48 246.211 L
183.649 253.032 L
183.819 259.768 L
183.989 273.239 L
184.158 239.561 L
184.328 232.825 L
184.498 259.768 L
184.667 246.296 L
184.837 246.296 L
185.007 246.296 L
185.177 246.296 L
185.346 232.793 L
185.516 232.793 L
185.686 246.264 L
185.855 253 L
186.025 273.207 L
186.195 246.264 L
186.364 259.736 L
186.534 232.793 L
186.704 253 L
186.873 246.264 L
187.043 239.497 L
187.213 279.91 L
187.382 279.91 L
187.552 252.968 L
187.722 266.439 L
187.892 266.439 L
188.061 286.646 L
188.231 266.439 L
188.401 286.646 L
188.57 266.439 L
188.74 266.45 L
188.91 279.921 L
189.079 252.979 L
189.249 279.921 L
189.419 273.185 L
189.588 252.979 L
189.758 293.392 L
189.928 293.392 L
190.098 266.45 L
190.267 266.45 L
190.437 226.079 L
190.607 273.228 L
190.776 239.55 L
190.946 266.492 L
191.116 266.492 L
191.285 273.228 L
191.455 279.964 L
191.625 300.17 L
191.794 259.757 L
191.964 273.228 L
192.134 306.842 L
192.303 300.106 L
192.473 266.428 L
192.643 293.371 L
192.813 300.106 L
192.982 300.106 L
193.152 266.428 L
193.322 313.577 L
193.491 306.842 L
193.661 279.899 L
193.831 199.201 L
194 239.614 L
194.17 246.35 L
194.34 239.614 L
194.509 253.086 L
194.679 273.292 L
194.849 232.879 L
195.018 226.143 L
195.188 253.086 L
195.358 253.086 L
195.527 327.006 L
195.697 286.592 L
195.867 286.592 L
196.037 286.592 L
196.206 279.857 L
196.376 279.857 L
196.546 293.328 L
196.715 306.799 L
196.885 347.212 L
197.055 279.857 L
197.224 212.704 L
197.394 219.44 L
197.564 199.233 L
197.733 219.44 L
197.903 219.44 L
198.073 219.44 L
198.243 226.175 L
198.412 205.969 L
198.582 219.44 L
198.752 226.175 L
198.921 273.143 L
199.091 259.672 L
199.261 252.936 L
199.43 273.143 L
199.6 266.407 L
199.77 239.465 L
199.939 239.465 L
200.109 273.143 L
200.279 259.672 L
200.448 273.143 L
200.618 239.561 L
200.788 246.296 L
200.958 259.768 L
201.127 226.09 L
201.297 239.561 L
201.467 246.296 L
201.636 246.296 L
201.806 239.561 L
201.976 226.09 L
202.145 253.032 L
202.315 252.979 L
202.485 232.772 L
202.654 239.508 L
202.824 259.714 L
202.994 252.979 L
203.163 252.979 L
203.333 239.508 L
203.503 273.185 L
203.673 246.243 L
203.842 252.979 L
204.012 246.264 L
204.182 266.471 L
204.351 273.207 L
204.521 246.264 L
204.691 232.793 L
204.86 253 L
205.03 239.529 L
205.2 259.736 L
205.369 232.793 L
205.539 259.736 L
205.709 232.783 L
205.878 266.46 L
206.048 239.518 L
206.218 273.196 L
206.387 279.932 L
206.557 259.725 L
206.727 226.047 L
206.897 273.196 L
207.066 273.196 L
207.236 266.46 L
207.406 252.968 L
207.575 300.117 L
207.745 279.91 L
207.915 279.91 L
208.084 266.439 L
208.254 266.439 L
208.424 286.646 L
208.593 279.91 L
208.763 273.175 L
208.933 306.852 L
209.102 293.413 L
209.272 279.942 L
209.442 266.471 L
209.612 300.149 L
209.781 286.678 L
209.951 300.149 L
210.121 273.207 L
210.29 286.678 L
210.46 320.356 L
210.63 286.678 L
210.799 253.064 L
210.969 232.858 L
211.139 280.006 L
211.308 246.329 L
211.478 219.386 L
211.648 266.535 L
211.818 253.064 L
211.987 253.064 L
212.157 232.858 L
212.327 239.593 L
212.496 246.265 L
212.666 246.265 L
212.836 226.058 L
213.005 239.529 L
213.175 306.885 L
213.345 253 L
213.514 232.793 L
213.684 253 L
213.854 293.413 L
214.023 259.736 L
214.193 239.518 L
214.363 259.725 L
214.533 232.783 L
214.702 239.518 L
214.872 246.254 L
215.042 259.725 L
215.211 300.138 L
215.381 246.254 L
215.551 252.989 L
215.72 246.254 L
215.89 226.036 L
216.06 259.714 L
216.229 279.921 L
216.399 273.185 L
216.569 252.979 L
216.738 252.979 L
216.908 259.714 L
217.078 266.45 L
217.247 279.921 L
217.417 259.714 L
217.587 273.164 L
217.757 293.37 L
217.926 286.635 L
218.096 273.164 L
218.266 279.899 L
218.435 286.635 L
218.605 286.635 L
218.775 286.635 L
218.944 286.635 L
219.114 293.37 L
219.284 266.503 L
219.453 279.974 L
219.623 253.032 L
219.793 293.445 L
219.962 273.239 L
220.132 279.974 L
220.302 266.503 L
220.472 266.503 L
220.641 266.503 L
220.811 253.032 L
220.981 253.021 L
221.15 266.493 L
221.32 259.757 L
221.49 266.493 L
221.659 259.757 L
221.829 266.493 L
221.999 286.699 L
222.168 259.757 L
222.338 232.815 L
222.508 253.021 L
222.678 253 L
222.847 259.736 L
223.017 239.529 L
223.187 239.529 L
223.356 273.207 L
223.526 212.587 L
223.696 259.736 L
223.865 253 L
224.035 266.471 L
224.205 246.264 L
224.374 226.058 L
224.544 266.471 L
224.714 253 L
224.883 259.736 L
225.053 259.736 L
225.223 259.736 L
225.393 246.264 L
225.562 246.264 L
225.732 253 L
225.902 266.471 L
226.071 279.899 L
226.241 273.164 L
226.411 273.164 L
226.58 279.899 L
226.75 306.842 L
226.92 252.957 L
227.089 279.899 L
227.259 273.164 L
227.429 293.371 L
227.598 279.899 L
227.768 259.778 L
227.938 266.514 L
228.107 300.192 L
228.277 239.572 L
228.447 266.514 L
228.617 232.836 L
228.786 266.514 L
228.956 259.778 L
229.126 253.043 L
229.295 259.778 L
229.465 253.011 L
229.635 253.011 L
229.804 226.069 L
229.974 246.275 L
230.144 266.482 L
230.313 259.746 L
230.483 246.275 L
230.653 239.54 L
230.822 259.746 L
230.992 219.333 L
231.162 246.264 L
231.332 246.264 L
231.501 239.529 L
231.671 259.736 L
231.841 219.322 L
232.01 239.529 L
232.18 232.793 L
232.35 239.529 L
232.519 219.322 L
232.689 253 L
232.859 273.196 L
233.028 246.254 L
233.198 246.254 L
233.368 266.46 L
233.537 246.254 L
233.707 252.989 L
233.877 246.254 L
234.047 259.725 L
234.216 286.667 L
234.386 252.989 L
234.556 219.354 L
234.725 266.503 L
234.895 239.561 L
235.065 226.09 L
235.234 226.09 L
235.404 239.561 L
235.574 246.297 L
235.743 239.561 L
235.913 232.825 L
236.083 239.561 L
236.253 293.36 L
236.422 252.947 L
236.592 273.153 L
236.762 286.624 L
236.931 273.153 L
237.101 259.682 L
237.271 252.947 L
237.44 273.153 L
237.61 286.624 L
237.78 266.418 L
237.949 232.857 L
238.119 232.857 L
238.289 226.122 L
238.458 219.386 L
238.628 219.386 L
238.798 232.857 L
238.967 232.857 L
239.137 226.122 L
239.307 232.857 L
239.477 253.064 L
239.646 252.968 L
239.816 239.497 L
239.986 246.232 L
240.155 252.968 L
240.325 252.968 L
240.495 239.497 L
240.664 246.232 L
240.834 246.232 L
241.004 239.497 L
241.173 232.761 L
241.343 239.529 L
241.513 253 L
241.682 239.529 L
241.852 246.264 L
242.022 232.793 L
242.192 279.942 L
242.361 253 L
242.531 239.529 L
242.701 259.736 L
242.87 246.264 L
243.04 259.714 L
243.21 266.45 L
243.379 239.507 L
243.549 259.714 L
243.719 266.45 L
243.888 259.714 L
244.058 266.45 L
244.228 273.185 L
244.398 246.243 L
244.567 266.45 L
244.737 239.54 L
244.907 259.746 L
245.076 266.482 L
245.246 253.011 L
245.416 246.275 L
245.585 273.217 L
245.755 246.275 L
245.925 266.482 L
246.094 232.804 L
246.264 259.746 L
246.434 259.714 L
246.603 252.979 L
246.773 286.656 L
246.943 279.921 L
247.113 279.921 L
247.282 246.243 L
247.452 259.714 L
247.622 273.185 L
247.791 300.128 L
247.961 273.185 L
248.131 273.217 L
248.3 266.482 L
248.47 279.953 L
248.64 253.011 L
248.809 246.275 L
248.979 259.746 L
249.149 286.688 L
249.318 266.482 L
249.488 253.011 L
249.658 293.424 L
249.827 253.032 L
249.997 239.561 L
250.167 239.561 L
250.337 246.297 L
250.506 273.239 L
250.676 226.09 L
250.846 239.561 L
251.015 253.032 L
251.185 246.297 L
251.355 232.825 L
251.524 246.264 L
251.694 232.793 L
251.864 259.736 L
252.033 239.529 L
252.203 239.529 L
252.373 246.264 L
252.543 246.264 L
252.712 246.264 L
252.882 239.529 L
253.052 246.264 L
253.221 266.46 L
253.391 239.518 L
253.561 239.518 L
253.73 279.932 L
253.9 273.196 L
254.07 246.254 L
254.239 246.254 L
254.409 266.46 L
254.579 259.725 L
254.748 232.783 L
254.918 239.55 L
255.088 253.021 L
255.258 246.286 L
255.427 219.344 L
255.597 212.608 L
255.767 232.815 L
255.936 232.815 L
256.106 226.079 L
256.276 219.344 L
256.445 232.815 L
256.615 259.714 L
256.785 232.772 L
256.954 252.979 L
257.124 252.979 L
257.294 259.714 L
257.463 252.979 L
257.633 246.243 L
257.803 252.979 L
257.973 259.714 L
258.142 246.243 L
258.312 212.597 L
258.482 253.011 L
258.651 273.217 L
258.821 239.54 L
258.991 226.068 L
259.16 259.746 L
259.33 253.011 L
259.5 253.011 L
259.669 253.011 L
259.839 253.011 L
260.009 279.878 L
260.178 279.878 L
260.348 266.407 L
260.518 286.614 L
260.688 279.878 L
260.857 306.82 L
261.027 286.614 L
261.197 293.349 L
261.366 293.349 L
261.536 279.878 L
261.706 239.572 L
261.875 266.514 L
262.045 259.778 L
262.215 253.043 L
262.384 246.307 L
262.554 253.043 L
262.724 259.778 L
262.893 253.043 L
263.063 259.778 L
263.233 253.043 L
263.402 273.185 L
263.572 252.979 L
263.742 273.185 L
263.912 273.185 L
264.081 259.714 L
264.251 259.714 L
264.421 252.979 L
264.59 273.185 L
264.76 300.128 L
264.93 259.714 L
265.099 246.297 L
265.269 259.768 L
265.439 286.71 L
265.608 246.297 L
265.778 246.297 L
265.948 253.032 L
266.117 253.032 L
266.287 205.883 L
266.457 246.297 L
266.627 246.297 L
266.796 266.46 L
266.966 226.047 L
267.136 259.725 L
267.305 252.989 L
267.475 273.196 L
267.645 252.989 L
267.814 232.783 L
267.984 259.725 L
268.154 252.989 L
268.323 252.989 L
268.493 232.815 L
268.663 259.757 L
268.832 259.757 L
269.002 239.55 L
269.172 246.286 L
269.342 266.492 L
269.511 259.757 L
269.681 226.079 L
269.851 239.55 L
270.02 239.55 L
270.19 246.232 L
270.36 266.439 L
270.529 219.29 L
270.699 266.439 L
270.869 293.381 L
271.038 239.497 L
271.208 266.439 L
271.378 286.646 L
271.548 239.497 L
271.717 266.439 L
271.887 266.46 L
272.057 273.196 L
272.226 273.196 L
272.396 246.254 L
272.566 259.725 L
272.735 273.196 L
272.905 279.931 L
273.075 252.989 L
273.244 266.46 L
273.414 273.196 L
273.584 266.492 L
273.753 232.815 L
273.923 259.757 L
274.093 232.815 L
274.263 286.699 L
274.432 239.55 L
274.602 232.815 L
274.772 273.228 L
274.941 253.021 L
275.111 253.021 L
275.281 226.079 L
275.45 253.021 L
275.62 259.757 L
275.79 205.873 L
275.959 253.021 L
276.129 239.55 L
276.299 266.493 L
276.468 239.55 L
276.638 226.079 L
276.808 253.021 L
276.978 252.957 L
277.147 259.693 L
277.317 259.693 L
277.487 252.957 L
277.656 306.842 L
277.826 259.693 L
277.996 252.957 L
278.165 259.693 L
278.335 266.428 L
278.505 273.164 L
278.674 253 L
278.844 273.207 L
279.014 232.793 L
279.183 253 L
279.353 226.058 L
279.523 273.207 L
279.693 273.207 L
279.862 273.207 L
280.032 253 L
280.202 266.471 L
280.371 327.091 L
280.541 279.942 L
280.711 259.736 L
280.88 286.678 L
281.05 279.942 L
281.22 279.942 L
281.389 273.207 L
281.559 273.207 L
281.729 279.942 L
281.898 266.471 L
282.068 179.027 L
282.238 192.498 L
282.408 219.44 L
282.577 199.233 L
282.747 185.762 L
282.917 192.498 L
283.086 205.969 L
283.256 185.762 L
283.426 185.762 L
283.595 185.762 L
283.765 279.825 L
283.935 273.089 L
284.104 266.354 L
284.274 279.825 L
284.444 266.354 L
284.613 279.825 L
284.783 266.354 L
284.953 286.56 L
285.122 273.089 L
285.292 266.354 L
285.462 232.836 L
285.632 253.043 L
285.801 259.778 L
285.971 232.836 L
286.141 239.572 L
286.31 246.307 L
286.48 266.514 L
286.65 226.1 L
286.819 232.836 L
286.989 246.307 L
287.159 286.646 L
287.328 259.704 L
287.498 246.232 L
287.668 259.704 L
287.837 266.439 L
288.007 252.968 L
288.177 259.704 L
288.347 259.704 L
288.516 259.704 L
288.686 266.439 L
288.856 219.376 L
289.025 219.376 L
289.195 232.847 L
289.365 232.847 L
289.534 239.582 L
289.704 226.111 L
289.874 259.789 L
290.043 226.111 L
290.213 219.376 L
290.383 239.582 L
290.552 266.418 L
290.722 266.418 L
290.892 259.682 L
291.062 259.682 L
291.231 273.153 L
291.401 259.682 L
291.571 252.947 L
291.74 273.153 L
291.91 266.418 L
292.08 259.682 L
292.249 239.55 L
292.419 259.757 L
292.589 253.021 L
292.758 253.021 L
292.928 246.286 L
293.098 266.492 L
293.267 253.021 L
293.437 253.021 L
293.607 246.286 L
293.777 253.021 L
293.946 279.921 L
294.116 246.243 L
294.286 239.508 L
294.455 259.714 L
294.625 266.45 L
294.795 246.243 L
294.964 252.979 L
295.134 300.128 L
295.304 252.979 L
295.473 239.508 L
295.643 219.365 L
295.813 246.307 L
295.983 246.307 L
296.152 239.572 L
296.322 239.572 L
296.492 246.307 L
296.661 246.307 L
296.831 219.365 L
297.001 205.894 L
297.17 232.836 L
297.34 313.567 L
297.51 259.682 L
297.679 259.682 L
297.849 259.682 L
298.019 273.153 L
298.188 273.153 L
298.358 259.682 L
298.528 279.889 L
298.698 273.153 L
298.867 246.211 L
299.037 192.476 L
299.207 226.154 L
299.376 219.418 L
299.546 212.683 L
299.716 199.212 L
299.885 205.947 L
300.055 212.683 L
300.225 192.476 L
300.394 205.947 L
300.564 205.947 L
300.734 286.582 L
300.903 266.375 L
301.073 252.904 L
301.243 279.846 L
301.413 279.846 L
301.582 266.375 L
301.752 266.375 L
301.922 300.053 L
302.091 279.846 L
302.261 273.111 L
302.431 219.376 L
302.6 259.789 L
302.77 239.582 L
302.94 185.698 L
303.109 226.111 L
303.279 232.847 L
303.449 246.318 L
303.618 239.582 L
303.788 226.111 L
303.958 232.847 L
304.128 273.153 L
304.297 252.947 L
304.467 279.889 L
304.637 293.36 L
304.806 266.418 L
304.976 266.418 L
305.146 252.947 L
305.315 279.889 L
305.485 293.36 L
305.655 273.153 L
305.824 246.296 L
305.994 246.296 L
306.164 259.768 L
306.333 239.561 L
306.503 239.561 L
306.673 273.239 L
306.842 259.768 L
307.012 246.296 L
307.182 253.032 L
307.352 259.768 L
307.521 266.46 L
307.691 246.254 L
307.861 232.783 L
308.03 259.725 L
308.2 259.725 L
308.37 246.254 L
308.539 239.518 L
308.709 259.725 L
308.879 259.725 L
309.048 246.254 L
309.218 226.079 L
309.388 253.021 L
309.557 246.286 L
309.727 239.55 L
309.897 232.815 L
310.067 259.757 L
310.236 253.021 L
310.406 232.815 L
310.576 239.55 L
310.745 259.757 L
310.915 273.164 L
311.085 246.222 L
311.254 273.164 L
311.424 273.164 L
311.594 286.635 L
311.763 252.957 L
311.933 259.693 L
312.103 266.428 L
312.272 286.635 L
312.442 259.693 L
312.612 239.561 L
312.782 259.768 L
312.951 259.768 L
313.121 253.032 L
313.291 212.619 L
313.46 273.239 L
313.63 266.503 L
313.8 246.296 L
313.969 259.768 L
314.139 246.296 L
314.309 273.185 L
314.478 279.921 L
314.648 259.714 L
314.818 259.714 L
314.987 273.185 L
315.157 259.714 L
315.327 273.185 L
315.497 259.714 L
315.666 266.45 L
315.836 246.243 L
316.006 232.825 L
316.175 239.561 L
316.345 253.032 L
316.515 232.825 L
316.684 239.561 L
316.854 226.09 L
317.024 253.032 L
317.193 226.09 L
317.363 253.032 L
317.533 253.032 L
317.702 259.703 L
317.872 259.703 L
318.042 252.968 L
318.212 266.439 L
318.381 266.439 L
318.551 266.439 L
318.721 259.703 L
318.89 300.117 L
319.06 273.175 L
319.23 239.497 L
319.399 253.011 L
319.569 273.217 L
319.739 266.482 L
319.908 253.011 L
320.078 232.804 L
320.248 259.746 L
320.418 273.217 L
320.587 232.804 L
320.757 253.011 L
320.927 266.482 L
321.096 259.736 L
321.266 246.264 L
321.436 232.793 L
321.605 259.736 L
321.775 266.471 L
321.945 232.793 L
322.114 253 L
322.284 266.471 L
322.454 259.736 L
322.623 259.736 L
322.793 219.333 L
322.963 279.953 L
323.133 253.011 L
323.302 219.333 L
323.472 259.746 L
323.642 259.746 L
323.811 253.011 L
323.981 232.804 L
324.151 239.54 L
324.32 259.746 L
324.49 300.095 L
324.66 266.418 L
324.829 286.624 L
324.999 293.36 L
325.169 286.624 L
325.338 273.153 L
325.508 286.624 L
325.678 286.624 L
325.848 286.624 L
326.017 266.418 L
326.187 226.133 L
326.357 259.81 L
326.526 246.339 L
326.696 212.661 L
326.866 239.604 L
327.035 273.281 L
327.205 239.604 L
327.375 232.868 L
327.544 219.397 L
327.714 259.81 L
327.884 266.428 L
328.053 259.693 L
328.223 246.222 L
328.393 266.428 L
328.563 273.164 L
328.732 252.957 L
328.902 232.751 L
329.072 286.635 L
329.241 266.428 L
329.411 273.164 L
329.581 259.757 L
329.75 246.286 L
329.92 259.757 L
330.09 239.55 L
330.259 246.286 L
330.429 246.286 L
330.599 266.492 L
330.768 226.079 L
330.938 246.286 L
331.108 259.757 L
331.277 246.275 L
331.447 239.54 L
331.617 239.54 L
331.787 239.54 L
331.956 253.011 L
332.126 226.069 L
332.296 226.069 L
332.465 246.275 L
332.635 259.746 L
332.805 246.275 L
332.974 239.518 L
333.144 259.725 L
333.314 273.196 L
333.483 226.047 L
333.653 246.254 L
333.823 259.725 L
333.992 252.989 L
334.162 259.725 L
334.332 246.254 L
334.502 246.254 L
334.671 259.714 L
334.841 252.979 L
335.011 273.185 L
335.18 259.714 L
335.35 266.45 L
335.52 252.979 L
335.689 266.45 L
335.859 266.45 L
336.029 266.45 L
336.198 259.714 L
336.368 253.011 L
336.538 259.746 L
336.707 266.482 L
336.877 246.275 L
337.047 259.746 L
337.217 246.275 L
337.386 253.011 L
337.556 246.275 L
337.726 246.275 L
337.895 273.217 L
338.065 259.736 L
338.235 259.736 L
338.404 253 L
338.574 273.207 L
338.744 259.736 L
338.913 232.793 L
339.083 253 L
339.253 253 L
339.423 273.207 L
339.592 259.736 L
339.762 253.011 L
339.932 273.217 L
340.101 259.746 L
340.271 239.54 L
340.441 226.068 L
340.61 226.068 L
340.78 266.482 L
340.95 246.275 L
341.119 232.804 L
341.289 259.746 L
341.459 253 L
341.628 239.529 L
341.798 253 L
341.968 246.264 L
342.138 259.736 L
342.307 253 L
342.477 246.264 L
342.647 253 L
342.816 259.736 L
342.986 246.264 L
343.156 226.058 L
343.325 246.264 L
343.495 273.207 L
343.665 246.264 L
343.834 246.264 L
344.004 273.207 L
344.174 253 L
344.343 232.793 L
344.513 239.529 L
344.683 246.264 L
344.853 279.899 L
345.022 279.899 L
345.192 273.164 L
345.362 286.635 L
345.531 286.635 L
345.701 259.693 L
345.871 252.957 L
346.04 293.371 L
346.21 286.635 L
346.38 266.428 L
346.549 239.572 L
346.719 246.307 L
346.889 259.778 L
347.058 253.043 L
347.228 232.836 L
347.398 239.572 L
347.568 266.514 L
347.737 253.043 L
347.907 253.043 L
348.077 259.778 L
348.246 259.714 L
348.416 252.979 L
348.586 239.508 L
348.755 266.45 L
348.925 286.656 L
349.095 266.45 L
349.264 226.036 L
349.434 306.863 L
349.604 279.921 L
349.773 232.772 L
349.943 246.275 L
350.113 253.011 L
350.283 266.482 L
350.452 253.011 L
350.622 239.54 L
350.792 273.217 L
350.961 266.482 L
351.131 259.746 L
351.301 232.804 L
351.47 266.482 L
351.64 266.46 L
351.81 246.254 L
351.979 273.196 L
352.149 266.46 L
352.319 273.196 L
352.488 232.783 L
352.658 259.725 L
352.828 286.667 L
352.997 273.196 L
353.167 266.46 L
353.337 232.815 L
353.507 246.286 L
353.676 266.492 L
353.846 219.344 L
354.016 212.608 L
354.185 246.286 L
354.355 259.757 L
354.525 246.286 L
354.694 239.55 L
354.864 239.55 L
355.034 266.439 L
355.203 252.968 L
355.373 279.91 L
355.543 259.703 L
355.712 279.91 L
355.882 273.175 L
356.052 246.232 L
356.222 279.91 L
356.391 279.91 L
356.561 266.439 L
356.731 239.55 L
356.9 273.228 L
357.07 259.757 L
357.24 253.021 L
357.409 253.021 L
357.579 232.815 L
357.749 253.021 L
357.918 239.55 L
358.088 239.55 L
358.258 259.757 L
358.427 266.45 L
358.597 266.45 L
358.767 259.714 L
358.937 273.185 L
359.106 273.185 L
359.276 246.243 L
359.446 252.979 L
359.615 266.45 L
359.785 279.921 L
359.955 273.185 L
360.124 212.608 L
360.294 259.757 L
360.464 273.228 L
360.633 259.757 L
360.803 232.815 L
360.973 259.757 L
361.142 253.021 L
361.312 259.757 L
361.482 239.55 L
361.652 259.757 L
361.821 300.085 L
361.991 286.614 L
362.161 293.349 L
362.33 293.349 L
362.5 300.085 L
362.67 286.614 L
362.839 279.878 L
363.009 279.878 L
363.179 300.085 L
363.348 279.878 L
363.518 232.868 L
363.688 253.075 L
363.858 253.075 L
364.027 232.868 L
364.197 219.397 L
364.367 253.075 L
364.536 253.075 L
364.706 205.926 L
364.876 246.339 L
365.045 259.81 L
365.215 273.175 L
365.385 266.439 L
365.554 252.968 L
365.724 279.91 L
365.894 279.91 L
366.063 259.704 L
366.233 239.497 L
366.403 273.175 L
366.573 266.439 L
366.742 266.439 L
366.912 232.825 L
367.082 259.768 L
367.251 266.503 L
367.421 246.296 L
367.591 232.825 L
367.76 259.768 L
367.93 273.239 L
368.1 259.768 L
368.269 232.825 L
368.439 253.032 L
368.609 266.439 L
368.778 259.703 L
368.948 259.703 L
369.118 279.91 L
369.288 293.381 L
369.457 252.968 L
369.627 252.968 L
369.797 273.175 L
369.966 273.175 L
370.136 252.968 L
370.306 253.021 L
370.475 246.286 L
370.645 253.021 L
370.815 226.079 L
370.984 205.872 L
371.154 259.757 L
371.324 259.757 L
371.493 246.286 L
371.663 219.344 L
371.833 253.021 L
372.003 253 L
372.172 246.264 L
372.342 253 L
372.512 253 L
372.681 266.471 L
372.851 246.264 L
373.021 239.529 L
373.19 266.471 L
373.36 259.736 L
373.53 246.264 L
373.699 232.793 L
373.869 253 L
374.039 259.736 L
374.208 239.529 L
374.378 246.264 L
374.548 266.471 L
374.717 266.471 L
374.887 253 L
375.057 226.058 L
375.227 266.471 L
375.396 273.175 L
375.566 273.175 L
375.736 259.703 L
375.905 279.91 L
376.075 273.175 L
376.245 279.91 L
376.414 273.175 L
376.584 279.91 L
376.754 286.646 L
376.923 266.439 L
377.093 259.768 L
377.263 293.445 L
377.432 266.503 L
377.602 226.09 L
377.772 259.768 L
377.942 253.032 L
378.111 253.032 L
378.281 253.032 L
378.451 253.032 L
378.62 246.296 L
378.79 239.54 L
378.96 266.482 L
379.129 212.597 L
379.299 246.275 L
379.469 253.011 L
379.638 253.011 L
379.808 246.275 L
379.978 226.069 L
380.148 253.011 L
380.317 226.069 L
380.487 259.714 L
380.657 273.185 L
380.826 286.656 L
380.996 239.507 L
381.166 252.979 L
381.335 252.979 L
381.505 273.185 L
381.675 259.714 L
381.844 252.979 L
382.014 259.714 L
382.184 273.217 L
382.353 253.011 L
382.523 253.011 L
382.693 279.953 L
382.863 253.011 L
383.032 253.011 L
383.202 239.54 L
383.372 259.746 L
383.541 259.746 L
383.711 226.068 L
383.881 205.883 L
384.05 232.825 L
384.22 246.297 L
384.39 232.825 L
384.559 219.354 L
384.729 232.825 L
384.899 246.297 L
385.068 232.825 L
385.238 219.354 L
385.408 239.561 L
385.578 300.074 L
385.747 266.396 L
385.917 239.454 L
386.087 286.603 L
386.256 286.603 L
386.426 259.661 L
386.596 279.867 L
386.765 279.867 L
386.935 266.396 L
387.105 239.454 L
387.274 212.661 L
387.444 239.604 L
387.614 246.339 L
387.783 205.926 L
387.953 219.397 L
388.123 246.339 L
388.293 226.133 L
388.462 226.133 L
388.632 192.455 L
388.802 253.075 L
388.971 279.878 L
389.141 279.878 L
389.311 246.2 L
389.48 279.878 L
389.65 266.407 L
389.82 259.671 L
389.989 259.671 L
390.159 273.143 L
390.329 279.878 L
390.498 246.2 L
390.668 226.1 L
390.838 253.043 L
391.008 246.307 L
391.177 232.836 L
391.347 232.836 L
391.517 253.043 L
391.686 246.307 L
391.856 239.572 L
392.026 239.572 L
392.195 259.778 L
392.365 279.899 L
392.535 266.428 L
392.704 266.428 L
392.874 286.635 L
393.044 273.164 L
393.213 259.693 L
393.383 246.222 L
393.553 273.164 L
393.723 279.899 L
393.892 279.899 L
394.062 239.572 L
394.232 266.514 L
394.401 246.307 L
394.571 212.629 L
394.741 239.572 L
394.91 246.307 L
395.08 266.514 L
395.25 239.572 L
395.419 219.365 L
395.589 253.043 L
395.759 259.714 L
395.928 239.508 L
396.098 259.714 L
396.268 266.45 L
396.438 246.243 L
396.607 239.508 L
396.777 246.243 L
396.947 259.714 L
397.116 266.45 L
397.286 259.714 L
397.456 253.011 L
397.625 232.804 L
397.795 246.275 L
397.965 266.482 L
398.134 239.54 L
398.304 253.011 L
398.474 266.482 L
398.643 226.068 L
398.813 239.54 L
398.983 253.011 L
399.152 253 L
399.322 226.058 L
399.492 239.529 L
399.662 253 L
399.831 259.736 L
400.001 232.793 L
400.171 226.058 L
400.34 253 L
400.51 253 L
400.68 253 L
400.849 259.736 L
401.019 239.529 L
401.189 259.736 L
401.358 212.587 L
401.528 246.264 L
401.698 266.471 L
401.867 259.736 L
402.037 226.058 L
402.207 226.058 L
402.377 259.736 L
402.546 246.275 L
402.716 246.275 L
402.886 226.068 L
403.055 226.068 L
403.225 246.275 L
403.395 232.804 L
403.564 219.333 L
403.734 253.011 L
403.904 246.275 L
404.073 253.011 L
404.243 252.989 L
404.413 246.254 L
404.582 266.46 L
404.752 246.254 L
404.922 212.576 L
405.092 246.254 L
405.261 266.46 L
405.431 266.46 L
405.601 252.989 L
405.77 259.725 L
405.94 273.207 L
406.11 226.058 L
406.279 259.736 L
406.449 253 L
406.619 246.264 L
406.788 253 L
406.958 246.264 L
407.128 253 L
407.297 246.264 L
407.467 253 L
407.637 219.354 L
407.807 232.825 L
407.976 239.561 L
408.146 226.09 L
408.316 212.619 L
408.485 239.561 L
408.655 246.297 L
408.825 212.619 L
408.994 219.354 L
409.164 239.561 L
409.334 279.889 L
409.503 226.004 L
409.673 266.418 L
409.843 259.682 L
410.012 266.418 L
410.182 246.211 L
410.352 212.533 L
410.522 266.418 L
410.691 266.418 L
410.861 252.947 L
411.031 266.514 L
411.2 232.836 L
411.37 246.307 L
411.54 205.894 L
411.709 212.629 L
411.879 239.572 L
412.049 239.572 L
412.218 219.365 L
412.388 199.158 L
412.558 239.572 L
412.727 199.137 L
412.897 232.815 L
413.067 226.079 L
413.237 226.079 L
413.406 226.079 L
413.576 219.344 L
413.746 219.344 L
413.915 232.815 L
414.085 239.55 L
414.255 226.079 L
414.424 252.914 L
414.594 293.328 L
414.764 273.121 L
414.933 252.914 L
415.103 252.914 L
415.273 279.857 L
415.443 266.386 L
415.612 266.386 L
415.782 239.443 L
415.952 293.328 L
416.121 286.678 L
416.291 259.735 L
416.461 259.735 L
416.63 279.942 L
416.8 286.678 L
416.97 259.735 L
417.139 279.942 L
417.309 279.942 L
417.479 279.942 L
417.648 253 L
417.818 205.905 L
417.988 239.582 L
418.158 253.054 L
418.327 246.318 L
418.497 246.318 L
418.667 239.582 L
418.836 259.789 L
419.006 232.847 L
419.176 239.582 L
419.345 239.582 L
419.515 293.339 L
419.685 266.396 L
419.854 293.339 L
420.024 300.074 L
420.194 306.81 L
420.363 259.661 L
420.533 273.132 L
420.703 293.339 L
420.872 286.603 L
421.042 219.247 L
421.212 226.122 L
421.382 253.064 L
421.551 253.064 L
421.721 259.8 L
421.891 232.857 L
422.06 259.8 L
422.23 253.064 L
422.4 226.122 L
422.569 246.329 L
422.739 273.271 L
422.909 279.9 L
423.078 279.9 L
423.248 259.693 L
423.418 266.428 L
423.587 286.635 L
423.757 273.164 L
423.927 279.9 L
424.097 286.635 L
424.266 279.9 L
424.436 226.015 L
424.606 226.101 L
424.775 253.043 L
424.945 253.043 L
425.115 253.043 L
425.284 239.572 L
425.454 259.778 L
425.624 239.572 L
425.793 219.365 L
425.963 232.836 L
426.133 259.778 L
426.302 286.635 L
426.472 279.899 L
426.642 239.486 L
426.812 286.635 L
426.981 279.899 L
427.151 279.899 L
427.321 279.899 L
427.49 286.635 L
427.66 266.428 L
427.83 279.899 L
427.999 246.318 L
428.169 239.582 L
428.339 232.847 L
428.508 212.64 L
428.678 246.318 L
428.848 226.111 L
429.017 259.789 L
429.187 246.318 L
429.357 226.111 L
429.527 246.318 L
429.696 246.254 L
429.866 246.254 L
430.036 259.725 L
430.205 252.989 L
430.375 259.725 L
430.545 239.518 L
430.714 246.254 L
430.884 273.196 L
431.054 266.461 L
431.223 252.989 L
431.393 219.311 L
431.563 266.46 L
431.733 259.725 L
431.902 259.725 L
432.072 239.518 L
432.242 266.46 L
432.411 259.725 L
432.581 239.518 L
432.751 252.989 L
432.92 232.783 L
433.09 306.831 L
433.26 293.36 L
433.429 279.889 L
433.599 279.889 L
433.769 293.36 L
433.938 273.153 L
434.108 266.418 L
434.278 279.889 L
434.448 306.831 L
434.617 300.095 L
434.787 205.937 L
434.957 246.35 L
435.126 226.143 L
435.296 239.614 L
435.466 232.879 L
435.635 246.35 L
435.805 259.821 L
435.975 239.614 L
436.144 205.937 L
436.314 246.35 L
436.484 286.603 L
436.653 266.396 L
436.823 279.867 L
436.993 266.396 L
437.163 293.339 L
437.332 266.396 L
437.502 279.867 L
437.672 273.132 L
437.841 273.132 L
438.011 259.661 L
438.181 232.847 L
438.35 253.053 L
438.52 259.789 L
438.69 219.376 L
438.859 259.789 L
439.029 253.053 L
439.199 239.582 L
439.368 253.053 L
439.538 232.847 L
439.708 266.525 L
439.878 259.704 L
440.047 266.439 L
440.217 239.497 L
440.387 252.968 L
440.556 273.175 L
440.726 259.704 L
440.896 232.761 L
441.065 286.646 L
441.235 273.175 L
441.405 259.704 L
441.574 226.068 L
441.744 279.953 L
441.914 273.217 L
442.083 253.011 L
442.253 253.011 L
442.423 273.217 L
442.592 273.217 L
442.762 266.482 L
442.932 246.275 L
443.102 273.217 L
443.271 300.106 L
443.441 252.957 L
443.611 266.428 L
443.78 306.842 L
443.95 300.106 L
444.12 266.428 L
444.289 273.164 L
444.459 293.371 L
444.629 293.371 L
444.798 266.428 L
444.968 232.868 L
445.138 246.339 L
445.307 253.075 L
445.477 205.926 L
445.647 212.662 L
445.817 232.868 L
445.986 253.075 L
446.156 212.662 L
446.326 239.604 L
446.495 232.868 L
446.665 266.439 L
446.835 252.968 L
447.004 232.761 L
447.174 259.704 L
447.344 259.704 L
447.513 252.968 L
447.683 266.439 L
447.853 273.175 L
448.023 259.704 L
448.192 239.497 L
448.362 239.55 L
448.532 226.079 L
448.701 259.757 L
448.871 239.55 L
449.041 259.757 L
449.21 253.021 L
449.38 253.021 L
449.55 239.55 L
449.719 226.079 L
449.889 239.55 L
450.059 259.714 L
450.228 239.508 L
450.398 239.508 L
450.568 273.185 L
450.738 273.185 L
450.907 252.979 L
451.077 266.45 L
451.247 266.45 L
451.416 273.185 L
451.586 226.036 L
451.756 232.804 L
451.925 266.482 L
452.095 273.217 L
452.265 246.275 L
452.434 246.275 L
452.604 232.804 L
452.774 259.746 L
452.943 246.275 L
453.113 239.54 L
453.283 259.746 L
453.453 259.703 L
453.622 259.703 L
453.792 252.968 L
453.962 279.91 L
454.131 286.646 L
454.301 266.439 L
454.471 273.175 L
454.64 279.91 L
454.81 286.646 L
454.98 259.703 L
455.149 279.953 L
455.319 253.011 L
455.489 273.217 L
455.658 259.746 L
455.828 246.275 L
455.998 279.953 L
456.168 286.688 L
456.337 232.804 L
456.507 259.746 L
456.677 273.217 L
456.846 259.778 L
457.016 219.365 L
457.186 205.894 L
457.355 253.043 L
457.525 239.572 L
457.695 232.836 L
457.864 232.836 L
458.034 253.043 L
458.204 226.101 L
458.373 219.365 L
458.543 199.126 L
458.713 232.804 L
458.883 239.54 L
459.052 226.069 L
459.222 205.862 L
459.392 232.804 L
459.561 246.275 L
459.731 246.275 L
459.901 226.069 L
460.07 239.54 L
460.24 306.799 L
460.41 266.385 L
460.579 293.328 L
460.749 300.063 L
460.919 300.063 L
461.088 286.592 L
461.258 266.385 L
461.428 293.328 L
461.598 286.592 L
461.767 286.592 L
461.937 219.408 L
462.107 239.614 L
462.276 246.35 L
462.446 212.672 L
462.616 199.201 L
462.785 239.614 L
462.955 253.085 L
463.125 212.672 L
463.294 239.614 L
463.464 226.143 L
463.634 279.889 L
463.803 246.211 L
463.973 252.947 L
464.143 266.418 L
464.313 273.153 L
464.482 219.269 L
464.652 252.947 L
464.822 266.418 L
464.991 279.889 L
465.161 259.682 L
465.331 212.629 L
465.5 253.043 L
465.67 253.043 L
465.84 232.836 L
466.009 226.1 L
466.179 253.043 L
466.349 253.043 L
466.518 259.778 L
466.688 226.1 L
466.858 253.043 L
467.027 286.614 L
467.197 259.671 L
467.367 293.349 L
467.537 293.349 L
467.706 293.349 L
467.876 279.878 L
468.046 252.936 L
468.215 293.349 L
468.385 279.878 L
468.555 300.085 L
468.724 232.847 L
468.894 253.053 L
469.064 246.318 L
469.233 226.111 L
469.403 232.847 L
469.573 259.789 L
469.742 253.053 L
469.912 253.053 L
470.082 226.111 L
470.252 239.582 L
470.421 273.175 L
470.591 226.026 L
470.761 259.704 L
470.93 273.175 L
471.1 273.175 L
471.27 232.761 L
471.439 266.439 L
471.609 266.439 L
471.779 286.646 L
471.948 279.91 L
472.118 232.825 L
472.288 259.768 L
472.457 259.768 L
472.627 232.825 L
472.797 205.883 L
472.967 253.032 L
473.136 253.032 L
473.306 226.09 L
473.476 239.561 L
473.645 246.296 L
473.815 286.646 L
473.985 252.968 L
474.154 259.703 L
474.324 286.646 L
474.494 286.646 L
474.663 252.968 L
474.833 259.703 L
475.003 266.439 L
475.172 273.175 L
475.342 239.497 L
475.512 185.698 L
475.682 239.582 L
475.851 253.053 L
476.021 219.376 L
476.191 226.111 L
476.36 266.525 L
476.53 239.582 L
476.7 232.847 L
476.869 219.376 L
477.039 232.847 L
477.209 320.249 L
477.378 300.042 L
477.548 279.835 L
477.718 313.513 L
477.887 320.249 L
478.057 273.1 L
478.227 279.835 L
478.397 286.571 L
478.566 306.777 L
478.736 279.835 L
478.906 246.371 L
479.075 239.636 L
479.245 246.371 L
479.415 226.165 L
479.584 226.165 L
479.754 246.371 L
479.924 239.636 L
480.093 246.371 L
480.263 226.165 L
480.433 239.636 L
480.602 259.725 L
480.772 239.518 L
480.942 226.047 L
481.112 232.783 L
481.281 259.725 L
481.451 266.461 L
481.621 246.254 L
481.79 246.254 L
481.96 259.725 L
482.13 239.518 L
482.299 226.068 L
482.469 246.275 L
482.639 239.54 L
482.808 246.275 L
482.978 232.804 L
483.148 239.54 L
483.318 232.804 L
483.487 205.862 L
483.657 205.862 L
483.827 253.011 L
483.996 273.164 L
484.166 259.693 L
484.336 226.015 L
484.505 273.164 L
484.675 273.164 L
484.845 239.486 L
485.014 239.486 L
485.184 246.222 L
485.354 273.164 L
485.523 273.164 L
485.693 239.561 L
485.863 253.032 L
486.033 246.296 L
486.202 239.561 L
486.372 253.032 L
486.542 239.561 L
486.711 239.561 L
486.881 246.296 L
487.051 246.296 L
487.22 253.032 L
487.39 266.45 L
487.56 259.714 L
487.729 219.301 L
487.899 266.45 L
488.069 259.714 L
488.238 239.508 L
488.408 246.243 L
488.578 266.45 L
488.747 259.714 L
488.917 239.508 L
489.087 205.872 L
489.257 232.815 L
489.426 253.021 L
489.596 232.815 L
489.766 239.55 L
489.935 246.286 L
490.105 253.021 L
490.275 212.608 L
490.444 232.815 L
490.614 253.021 L
490.784 306.81 L
490.953 273.132 L
491.123 279.867 L
491.293 300.074 L
491.462 300.074 L
491.632 273.132 L
491.802 266.396 L
491.972 300.074 L
492.141 293.338 L
492.311 266.396 L
492.481 192.465 L
492.65 246.35 L
492.82 253.086 L
492.99 239.614 L
493.159 226.143 L
493.329 239.614 L
493.499 239.614 L
493.668 212.672 L
493.838 212.672 L
494.008 232.879 L
494.177 306.788 L
494.347 279.846 L
494.517 273.11 L
494.687 300.053 L
494.856 286.582 L
495.026 273.11 L
495.196 273.11 L
495.365 279.846 L
495.535 300.053 L
495.705 266.375 L
495.874 232.879 L
496.044 266.557 L
496.214 239.614 L
496.383 232.879 L
496.553 219.408 L
496.723 246.35 L
496.892 232.879 L
497.062 232.879 L
497.232 239.614 L
497.402 246.35 L
497.571 252.968 L
497.741 239.497 L
497.911 239.497 L
498.08 266.439 L
498.25 266.439 L
498.42 239.497 L
498.589 252.968 L
498.759 266.439 L
498.929 273.175 L
499.098 239.497 L
499.268 226.058 L
499.438 279.942 L
499.608 259.736 L
499.777 253 L
499.947 246.264 L
500.117 259.736 L
500.286 266.471 L
500.456 232.793 L
500.626 232.793 L
500.795 266.471 L
500.965 300.106 L
501.135 266.428 L
501.304 286.635 L
501.474 273.164 L
501.644 293.371 L
501.813 273.164 L
501.983 266.428 L
502.153 279.899 L
502.323 286.635 L
502.492 273.164 L
502.662 212.662 L
502.832 266.546 L
503.001 226.133 L
503.171 226.133 L
503.341 239.604 L
503.51 232.868 L
503.68 253.075 L
503.85 226.133 L
504.019 205.926 L
504.189 253.075 L
504.359 286.614 L
504.528 266.407 L
504.698 266.407 L
504.868 286.614 L
505.038 273.143 L
505.207 259.671 L
505.377 246.2 L
505.547 293.349 L
505.716 300.085 L
505.886 273.143 L
506.056 253.053 L
506.225 259.789 L
506.395 259.789 L
506.565 212.64 L
506.734 232.847 L
506.904 266.525 L
507.074 253.053 L
507.243 246.318 L
507.413 226.111 L
507.583 253.053 L
507.753 246.265 L
507.922 226.058 L
508.092 219.322 L
508.262 259.736 L
508.431 259.736 L
508.601 253 L
508.771 226.058 L
508.94 246.265 L
509.11 253 L
509.28 226.058 L
509.449 219.312 L
509.619 266.46 L
509.789 266.46 L
509.958 232.783 L
510.128 239.518 L
510.298 232.783 L
510.467 266.46 L
510.637 246.254 L
510.807 232.783 L
510.977 259.725 L
511.146 279.889 L
511.316 293.36 L
511.486 286.624 L
511.655 293.36 L
511.825 306.831 L
511.995 266.418 L
512.164 286.624 L
512.334 300.095 L
512.504 300.095 L
512.673 266.418 L
512.843 259.778 L
513.013 273.249 L
513.182 259.778 L
513.352 246.307 L
513.522 273.249 L
513.692 253.043 L
513.861 279.985 L
514.031 266.514 L
514.201 266.514 L
514.37 259.778 L
514.54 259.746 L
514.71 246.275 L
514.879 246.275 L
515.049 246.275 L
515.219 273.217 L
515.388 232.804 L
515.558 232.804 L
515.728 273.217 L
515.898 266.482 L
516.067 246.275 L
516.237 212.597 L
516.407 253.011 L
516.576 259.746 L
516.746 239.54 L
516.916 219.333 L
517.085 246.275 L
517.255 259.746 L
517.425 239.54 L
517.594 239.54 L
517.764 259.746 L
517.934 293.349 L
518.103 279.878 L
518.273 266.407 L
518.443 306.82 L
518.612 286.614 L
518.782 273.142 L
518.952 279.878 L
519.122 300.085 L
519.291 293.349 L
519.461 273.142 L
519.631 226.122 L
519.8 246.329 L
519.97 253.064 L
520.14 253.064 L
520.309 226.122 L
520.479 239.593 L
520.649 253.064 L
520.818 253.064 L
520.988 239.593 L
521.158 246.329 L
521.328 286.635 L
521.497 273.164 L
521.667 259.693 L
521.837 286.635 L
522.006 273.164 L
522.176 286.635 L
522.346 252.957 L
522.515 266.428 L
522.685 279.9 L
522.855 239.486 L
523.024 205.905 L
523.194 239.582 L
523.364 239.582 L
523.533 226.111 L
523.703 253.053 L
523.873 253.053 L
524.042 259.789 L
524.212 239.582 L
524.382 239.582 L
524.552 253.053 L
524.721 286.603 L
524.891 252.925 L
525.061 266.396 L
525.23 273.132 L
525.4 286.603 L
525.57 293.339 L
525.739 252.925 L
525.909 293.339 L
526.079 266.396 L
526.248 293.339 L
526.418 232.847 L
526.588 239.582 L
526.758 253.053 L
526.927 232.847 L
527.097 239.582 L
527.267 259.789 L
527.436 266.525 L
527.606 246.318 L
527.776 259.789 L
527.945 259.789 L
528.115 286.646 L
528.285 252.968 L
528.454 273.175 L
528.624 286.646 L
528.794 279.91 L
528.963 273.175 L
529.133 239.497 L
529.303 286.646 L
529.472 273.175 L
529.642 279.91 L
529.812 232.847 L
529.982 246.318 L
530.151 239.582 L
530.321 226.111 L
530.491 253.053 L
530.66 253.053 L
530.83 253.053 L
531 246.318 L
531.169 232.847 L
531.339 232.847 L
531.509 273.175 L
531.678 252.968 L
531.848 246.232 L
532.018 279.91 L
532.188 266.439 L
532.357 252.968 L
532.527 239.497 L
532.697 266.439 L
532.866 279.91 L
533.036 266.439 L
533.206 219.354 L
533.375 239.561 L
533.545 239.561 L
533.715 212.619 L
533.884 212.619 L
534.054 239.561 L
534.224 239.561 L
534.393 212.619 L
534.563 226.09 L
534.733 226.09 L
534.903 279.889 L
535.072 279.889 L
535.242 266.418 L
535.412 300.095 L
535.581 279.889 L
535.751 259.682 L
535.921 252.947 L
536.09 266.418 L
536.26 279.889 L
536.43 246.211 L
536.599 253.043 L
536.769 239.572 L
536.939 239.572 L
537.108 226.1 L
537.278 253.043 L
537.448 253.043 L
537.617 253.043 L
537.787 253.043 L
537.957 246.307 L
538.127 239.572 L
538.296 246.265 L
538.466 232.793 L
538.636 239.529 L
538.805 253 L
538.975 253 L
539.145 253 L
539.314 219.322 L
539.484 253 L
539.654 253 L
539.823 239.529 L
539.993 232.783 L
540.163 259.725 L
540.333 259.725 L
540.502 219.312 L
540.672 232.783 L
540.842 259.725 L
541.011 273.196 L
541.181 259.725 L
541.351 252.989 L
541.52 219.312 L
541.69 279.91 L
541.86 252.968 L
542.029 252.968 L
542.199 266.439 L
542.369 286.646 L
542.538 252.968 L
542.708 252.968 L
542.878 279.91 L
543.047 286.646 L
543.217 273.175 L
543.387 239.572 L
543.557 246.307 L
543.726 253.043 L
543.896 239.572 L
544.066 226.101 L
544.235 253.043 L
544.405 246.307 L
544.575 239.572 L
544.744 219.365 L
544.914 266.514 L
545.084 266.45 L
545.253 246.243 L
545.423 246.243 L
545.593 266.45 L
545.763 273.185 L
545.932 239.508 L
546.102 226.036 L
546.272 252.979 L
546.441 259.714 L
546.611 252.979 L
546.781 232.815 L
546.95 253.021 L
547.12 259.757 L
547.29 239.55 L
547.459 219.344 L
547.629 266.492 L
547.799 253.021 L
547.968 246.286 L
548.138 232.815 L
548.308 266.492 L
548.477 273.175 L
548.647 266.439 L
548.817 252.968 L
548.987 266.439 L
549.156 259.703 L
549.326 246.232 L
549.496 279.91 L
549.665 286.646 L
549.835 259.703 L
550.005 239.497 L
550.174 232.825 L
550.344 259.768 L
550.514 253.032 L
550.683 239.561 L
550.853 232.825 L
551.023 239.561 L
551.193 246.296 L
551.362 232.825 L
551.532 239.561 L
551.702 259.768 L
551.871 273.175 L
552.041 266.439 L
552.211 226.026 L
552.38 259.703 L
552.55 279.91 L
552.72 273.175 L
552.889 259.703 L
553.059 273.175 L
553.229 266.439 L
553.398 252.968 L
553.568 226.09 L
553.738 246.296 L
553.908 259.768 L
554.077 253.032 L
554.247 253.032 L
554.417 253.032 L
554.586 253.032 L
554.756 232.825 L
554.926 219.354 L
555.095 266.503 L
555.265 279.899 L
555.435 252.957 L
555.604 266.428 L
555.774 279.899 L
555.944 279.899 L
556.113 273.164 L
556.283 259.693 L
556.453 286.635 L
556.622 279.899 L
556.792 252.957 L
556.962 226.101 L
557.132 246.307 L
557.301 253.043 L
557.471 219.365 L
557.641 239.572 L
557.81 259.778 L
557.98 259.778 L
558.15 219.365 L
558.319 219.365 L
558.489 259.778 L
558.659 279.899 L
558.828 252.957 L
558.998 279.899 L
559.168 273.164 L
559.338 300.106 L
559.507 286.635 L
559.677 266.428 L
559.847 273.164 L
560.016 293.371 L
560.186 259.693 L
560.356 226.101 L
560.525 239.572 L
560.695 253.043 L
560.865 266.514 L
561.034 226.101 L
561.204 259.778 L
561.374 253.043 L
561.543 212.629 L
561.713 219.365 L
561.883 273.249 L
562.052 286.635 L
562.222 266.428 L
562.392 266.428 L
562.562 279.899 L
562.731 279.899 L
562.901 259.693 L
563.071 252.957 L
563.24 293.371 L
563.41 286.635 L
563.58 259.693 L
563.749 226.111 L
563.919 253.053 L
564.089 239.582 L
564.258 253.053 L
564.428 219.376 L
564.598 253.053 L
564.768 246.318 L
564.937 226.111 L
565.107 219.376 L
565.277 259.789 L
565.446 279.9 L
565.616 259.693 L
565.786 266.428 L
565.955 293.371 L
566.125 273.164 L
566.295 273.164 L
566.464 239.486 L
566.634 279.9 L
566.804 286.635 L
566.973 259.693 L
567.143 219.365 L
567.313 266.514 L
567.482 246.307 L
567.652 219.365 L
567.822 232.836 L
567.992 253.043 L
568.161 246.307 L
568.331 232.836 L
568.501 239.572 L
568.67 253.043 L
568.84 286.624 L
569.01 266.418 L
569.179 252.947 L
569.349 279.889 L
569.519 279.889 L
569.688 273.153 L
569.858 259.682 L
570.028 266.418 L
570.198 293.36 L
570.367 239.475 L
570.537 212.64 L
570.707 239.582 L
570.876 253.053 L
571.046 219.376 L
571.216 219.376 L
571.385 253.053 L
571.555 246.318 L
571.725 253.053 L
571.894 239.582 L
572.064 239.582 L
572.234 286.614 L
572.403 246.2 L
572.573 246.2 L
572.743 286.614 L
572.912 279.878 L
573.082 293.349 L
573.252 266.407 L
573.422 286.614 L
573.591 300.085 L
573.761 266.407 L
573.931 239.582 L
574.1 253.053 L
574.27 273.26 L
574.44 246.318 L
574.609 239.582 L
574.779 246.318 L
574.949 253.053 L
575.118 239.582 L
575.288 232.847 L
575.458 273.26 L
575.628 266.45 L
575.797 246.243 L
575.967 259.714 L
576.137 266.45 L
576.306 273.185 L
576.476 259.714 L
576.646 246.243 L
576.815 266.45 L
576.985 293.392 L
577.155 232.772 L
577.324 239.55 L
577.494 246.286 L
577.664 259.757 L
577.833 239.55 L
578.003 232.815 L
578.173 253.021 L
578.342 266.492 L
578.512 246.286 L
578.682 212.608 L
578.852 266.492 L
579.021 273.185 L
579.191 266.45 L
579.361 252.979 L
579.53 273.185 L
579.7 266.45 L
579.87 252.979 L
580.039 252.979 L
580.209 273.185 L
580.379 246.243 L
580.548 266.45 L
580.718 226.09 L
580.888 246.297 L
581.057 259.768 L
581.227 219.354 L
581.397 226.09 L
581.567 246.297 L
581.736 246.297 L
581.906 253.032 L
582.076 212.619 L
582.245 239.561 L
582.415 286.635 L
582.585 266.428 L
582.754 252.957 L
582.924 239.486 L
583.094 259.693 L
583.263 252.957 L
583.433 259.693 L
583.603 273.164 L
583.773 273.164 L
583.942 232.751 L
584.112 219.376 L
584.282 239.582 L
584.451 239.582 L
584.621 226.111 L
584.791 212.64 L
584.96 212.64 L
585.13 232.847 L
585.3 226.111 L
585.469 232.847 L
585.639 232.847 L
585.809 266.418 L
585.978 232.74 L
586.148 273.153 L
586.318 286.624 L
586.487 273.153 L
586.657 259.682 L
586.827 252.947 L
586.997 279.889 L
587.166 266.418 L
587.336 259.682 L
587.506 246.286 L
587.675 259.757 L
587.845 259.757 L
588.015 246.286 L
588.184 226.079 L
588.354 259.757 L
588.524 246.286 L
588.693 239.55 L
588.863 259.757 L
589.033 253.021 L
589.203 273.196 L
589.372 252.989 L
589.542 246.254 L
589.712 259.725 L
589.881 273.196 L
590.051 239.518 L
590.221 252.989 L
590.39 259.725 L
590.56 273.196 L
590.73 239.518 L
590.899 239.561 L
591.069 259.768 L
591.239 259.768 L
591.408 253.032 L
591.578 246.297 L
591.748 246.297 L
591.917 246.297 L
592.087 232.825 L
592.257 219.354 L
592.427 246.297 L
592.596 266.45 L
592.766 252.979 L
592.936 226.036 L
593.105 252.979 L
593.275 266.45 L
593.445 232.772 L
593.614 259.714 L
593.784 239.508 L
593.954 266.45 L
594.123 232.772 L
594.293 219.344 L
594.463 246.286 L
594.633 253.021 L
594.802 239.55 L
594.972 232.815 L
595.142 239.55 L
595.311 246.286 L
595.481 239.55 L
595.651 232.815 L
595.82 246.286 L
595.99 286.624 L
596.16 273.153 L
596.329 266.418 L
596.499 279.889 L
596.669 279.889 L
596.838 239.475 L
597.008 266.418 L
597.178 266.418 L
597.347 293.36 L
597.517 252.947 L
597.687 226.111 L
597.857 259.789 L
598.026 253.053 L
598.196 239.582 L
598.366 253.053 L
598.535 259.789 L
598.705 246.318 L
598.875 226.111 L
599.044 205.905 L
599.214 246.318 L
599.384 273.164 L
599.553 259.693 L
599.723 259.693 L
599.893 273.164 L
600.063 273.164 L
600.232 239.486 L
600.402 239.486 L
600.572 273.164 L
600.741 286.635 L
600.911 259.693 L
601.081 232.825 L
601.25 246.296 L
601.42 246.296 L
601.59 212.619 L
601.759 246.296 L
601.929 259.768 L
602.099 259.768 L
602.268 246.296 L
602.438 219.354 L
602.608 226.09 L
602.778 266.439 L
602.947 273.175 L
603.117 232.761 L
603.287 259.703 L
603.456 286.646 L
603.626 266.439 L
603.796 259.703 L
603.965 279.91 L
604.135 273.175 L
604.305 246.232 L
604.474 259.757 L
604.644 239.55 L
604.814 279.964 L
604.983 239.55 L
605.153 246.286 L
605.323 266.492 L
605.492 259.757 L
605.662 253.021 L
605.832 232.815 L
606.002 266.492 L
606.171 266.482 L
606.341 232.804 L
606.511 246.275 L
606.68 259.746 L
606.85 246.275 L
607.02 259.746 L
607.189 226.069 L
607.359 273.217 L
607.529 266.482 L
607.698 226.069 L
607.868 226.079 L
608.038 246.286 L
608.208 239.55 L
608.377 226.079 L
608.547 212.608 L
608.717 246.286 L
608.886 239.55 L
609.056 239.55 L
609.226 232.815 L
609.395 246.286 L
609.565 286.635 L
609.735 252.957 L
609.904 239.486 L
610.074 273.164 L
610.244 266.428 L
610.413 246.222 L
610.583 239.486 L
610.753 266.428 L
610.922 273.164 L
611.092 239.486 L
611.262 219.376 L
611.432 232.847 L
611.601 232.847 L
611.771 219.376 L
611.941 199.169 L
612.11 226.111 L
612.28 239.582 L
612.45 212.64 L
612.619 219.376 L
612.789 226.111 L
612.959 266.418 L
613.128 239.475 L
613.298 246.211 L
613.468 266.418 L
613.638 266.418 L
613.807 259.682 L
613.977 252.947 L
614.147 259.682 L
614.316 259.682 L
614.486 226.004 L
614.656 219.344 L
614.825 253.021 L
614.995 253.021 L
615.165 232.815 L
615.334 232.815 L
615.504 259.757 L
615.674 266.492 L
615.843 273.228 L
616.013 253.021 L
616.183 266.492 L
616.352 293.36 L
616.522 293.36 L
616.692 266.418 L
616.862 300.095 L
617.031 300.095 L
617.201 279.889 L
617.371 286.624 L
617.54 286.624 L
617.71 293.36 L
617.88 293.36 L
618.049 239.593 L
618.219 246.329 L
618.389 259.8 L
618.558 246.329 L
618.728 239.593 L
618.898 246.329 L
619.068 253.064 L
619.237 232.857 L
619.407 226.122 L
619.577 253.064 L
619.746 273.185 L
619.916 266.45 L
620.086 259.714 L
620.255 273.185 L
620.425 266.45 L
620.595 232.772 L
620.764 232.772 L
620.934 259.714 L
621.104 252.979 L
621.273 239.508 L
621.443 219.354 L
621.613 239.561 L
621.783 253.032 L
621.952 232.825 L
622.122 219.354 L
622.292 239.561 L
622.461 246.297 L
622.631 226.09 L
622.801 212.619 L
622.97 253.032 L
623.14 279.889 L
623.31 259.682 L
623.479 252.947 L
623.649 286.624 L
623.819 266.418 L
623.988 259.682 L
624.158 266.418 L
624.328 266.418 L
624.497 273.153 L
624.667 252.947 L
624.837 212.629 L
625.007 246.307 L
625.176 246.307 L
625.346 239.572 L
625.516 232.836 L
625.685 253.043 L
625.855 246.307 L
626.025 239.572 L
626.194 205.894 L
626.364 253.043 L
626.534 293.349 L
626.703 279.878 L
626.873 266.407 L
627.043 293.349 L
627.213 306.82 L
627.382 273.143 L
627.552 266.407 L
627.722 266.407 L
627.891 286.614 L
628.061 279.878 L
628.231 226.122 L
628.4 226.122 L
628.57 259.8 L
628.74 219.386 L
628.909 219.386 L
629.079 253.064 L
629.249 253.064 L
629.418 246.329 L
629.588 239.593 L
629.758 259.8 L
629.927 273.164 L
630.097 266.428 L
630.267 259.693 L
630.437 259.693 L
630.606 293.371 L
630.776 252.957 L
630.946 266.428 L
631.115 279.9 L
631.285 286.635 L
631.455 266.428 L
631.624 246.296 L
631.794 253.032 L
631.964 232.825 L
632.133 253.032 L
632.303 232.825 L
632.473 266.503 L
632.643 253.032 L
632.812 232.825 L
632.982 212.619 L
633.152 266.503 L
633.321 239.518 L
633.491 212.576 L
633.661 259.725 L
633.83 266.46 L
634 266.46 L
634.065 258.752 L
S
GR
%%Trailer
%%Pages: 1
%%EOF
