%!PS-Adobe-3.0 EPSF-3.0
%%Creator: (MATLAB, The Mathworks, Inc. Version 9.1.0.441655 \(R2016b\). Operating System: Windows 8)
%%Title: C:/Users/simon/Documents/Unief/M1/CACSD_MPC/Exercises/Practicum/cacsd/report/images/cutoff/xdot.eps
%%CreationDate: 2017-05-21T22:27:17
%%Pages: (atend)
%%BoundingBox: 0 0 420 315
%%LanguageLevel: 3
%%EndComments
%%BeginProlog
%%BeginResource: procset (Apache XML Graphics Std ProcSet) 1.2 0
%%Version: 1.2 0
%%Copyright: (Copyright 2001-2003,2010 The Apache Software Foundation. License terms: http://www.apache.org/licenses/LICENSE-2.0)
/bd{bind def}bind def
/ld{load def}bd
/GR/grestore ld
/M/moveto ld
/LJ/setlinejoin ld
/C/curveto ld
/f/fill ld
/LW/setlinewidth ld
/GC/setgray ld
/t/show ld
/N/newpath ld
/CT/concat ld
/cp/closepath ld
/S/stroke ld
/L/lineto ld
/CC/setcmykcolor ld
/A/ashow ld
/GS/gsave ld
/RC/setrgbcolor ld
/RM/rmoveto ld
/ML/setmiterlimit ld
/re {4 2 roll M
1 index 0 rlineto
0 exch rlineto
neg 0 rlineto
cp } bd
/_ctm matrix def
/_tm matrix def
/BT { _ctm currentmatrix pop matrix _tm copy pop 0 0 moveto } bd
/ET { _ctm setmatrix } bd
/iTm { _ctm setmatrix _tm concat } bd
/Tm { _tm astore pop iTm 0 0 moveto } bd
/ux 0.0 def
/uy 0.0 def
/F {
  /Tp exch def
  /Tf exch def
  Tf findfont Tp scalefont setfont
  /cf Tf def  /cs Tp def
} bd
/ULS {currentpoint /uy exch def /ux exch def} bd
/ULE {
  /Tcx currentpoint pop def
  gsave
  newpath
  cf findfont cs scalefont dup
  /FontMatrix get 0 get /Ts exch def /FontInfo get dup
  /UnderlinePosition get Ts mul /To exch def
  /UnderlineThickness get Ts mul /Tt exch def
  ux uy To add moveto  Tcx uy To add lineto
  Tt setlinewidth stroke
  grestore
} bd
/OLE {
  /Tcx currentpoint pop def
  gsave
  newpath
  cf findfont cs scalefont dup
  /FontMatrix get 0 get /Ts exch def /FontInfo get dup
  /UnderlinePosition get Ts mul /To exch def
  /UnderlineThickness get Ts mul /Tt exch def
  ux uy To add cs add moveto Tcx uy To add cs add lineto
  Tt setlinewidth stroke
  grestore
} bd
/SOE {
  /Tcx currentpoint pop def
  gsave
  newpath
  cf findfont cs scalefont dup
  /FontMatrix get 0 get /Ts exch def /FontInfo get dup
  /UnderlinePosition get Ts mul /To exch def
  /UnderlineThickness get Ts mul /Tt exch def
  ux uy To add cs 10 mul 26 idiv add moveto Tcx uy To add cs 10 mul 26 idiv add lineto
  Tt setlinewidth stroke
  grestore
} bd
/QT {
/Y22 exch store
/X22 exch store
/Y21 exch store
/X21 exch store
currentpoint
/Y21 load 2 mul add 3 div exch
/X21 load 2 mul add 3 div exch
/X21 load 2 mul /X22 load add 3 div
/Y21 load 2 mul /Y22 load add 3 div
/X22 load /Y22 load curveto
} bd
/SSPD {
dup length /d exch dict def
{
/v exch def
/k exch def
currentpagedevice k known {
/cpdv currentpagedevice k get def
v cpdv ne {
/upd false def
/nullv v type /nulltype eq def
/nullcpdv cpdv type /nulltype eq def
nullv nullcpdv or
{
/upd true def
} {
/sametype v type cpdv type eq def
sametype {
v type /arraytype eq {
/vlen v length def
/cpdvlen cpdv length def
vlen cpdvlen eq {
0 1 vlen 1 sub {
/i exch def
/obj v i get def
/cpdobj cpdv i get def
obj cpdobj ne {
/upd true def
exit
} if
} for
} {
/upd true def
} ifelse
} {
v type /dicttype eq {
v {
/dv exch def
/dk exch def
/cpddv cpdv dk get def
dv cpddv ne {
/upd true def
exit
} if
} forall
} {
/upd true def
} ifelse
} ifelse
} if
} ifelse
upd true eq {
d k v put
} if
} if
} if
} forall
d length 0 gt {
d setpagedevice
} if
} bd
/RE { % /NewFontName [NewEncodingArray] /FontName RE -
  findfont dup length dict begin
  {
    1 index /FID ne
    {def} {pop pop} ifelse
  } forall
  /Encoding exch def
  /FontName 1 index def
  currentdict definefont pop
  end
} bind def
%%EndResource
%%BeginResource: procset (Apache XML Graphics EPS ProcSet) 1.0 0
%%Version: 1.0 0
%%Copyright: (Copyright 2002-2003 The Apache Software Foundation. License terms: http://www.apache.org/licenses/LICENSE-2.0)
/BeginEPSF { %def
/b4_Inc_state save def         % Save state for cleanup
/dict_count countdictstack def % Count objects on dict stack
/op_count count 1 sub def      % Count objects on operand stack
userdict begin                 % Push userdict on dict stack
/showpage { } def              % Redefine showpage, { } = null proc
0 setgray 0 setlinecap         % Prepare graphics state
1 setlinewidth 0 setlinejoin
10 setmiterlimit [ ] 0 setdash newpath
/languagelevel where           % If level not equal to 1 then
{pop languagelevel             % set strokeadjust and
1 ne                           % overprint to their defaults.
{false setstrokeadjust false setoverprint
} if
} if
} bd
/EndEPSF { %def
count op_count sub {pop} repeat            % Clean up stacks
countdictstack dict_count sub {end} repeat
b4_Inc_state restore
} bd
%%EndResource
%FOPBeginFontDict
%%IncludeResource: font Courier-Bold
%%IncludeResource: font Helvetica
%%IncludeResource: font Courier-BoldOblique
%%IncludeResource: font Courier-Oblique
%%IncludeResource: font Times-Roman
%%IncludeResource: font Helvetica-BoldOblique
%%IncludeResource: font Helvetica-Bold
%%IncludeResource: font Helvetica-Oblique
%%IncludeResource: font Times-BoldItalic
%%IncludeResource: font Courier
%%IncludeResource: font Times-Italic
%%IncludeResource: font Times-Bold
%%IncludeResource: font Symbol
%%IncludeResource: font ZapfDingbats
%FOPEndFontDict
%%BeginResource: encoding WinAnsiEncoding
/WinAnsiEncoding [
/.notdef /.notdef /.notdef /.notdef /.notdef
/.notdef /.notdef /.notdef /.notdef /.notdef
/.notdef /.notdef /.notdef /.notdef /.notdef
/.notdef /.notdef /.notdef /.notdef /.notdef
/.notdef /.notdef /.notdef /.notdef /.notdef
/.notdef /.notdef /.notdef /.notdef /.notdef
/.notdef /.notdef /space /exclam /quotedbl
/numbersign /dollar /percent /ampersand /quotesingle
/parenleft /parenright /asterisk /plus /comma
/hyphen /period /slash /zero /one
/two /three /four /five /six
/seven /eight /nine /colon /semicolon
/less /equal /greater /question /at
/A /B /C /D /E
/F /G /H /I /J
/K /L /M /N /O
/P /Q /R /S /T
/U /V /W /X /Y
/Z /bracketleft /backslash /bracketright /asciicircum
/underscore /quoteleft /a /b /c
/d /e /f /g /h
/i /j /k /l /m
/n /o /p /q /r
/s /t /u /v /w
/x /y /z /braceleft /bar
/braceright /asciitilde /bullet /Euro /bullet
/quotesinglbase /florin /quotedblbase /ellipsis /dagger
/daggerdbl /circumflex /perthousand /Scaron /guilsinglleft
/OE /bullet /Zcaron /bullet /bullet
/quoteleft /quoteright /quotedblleft /quotedblright /bullet
/endash /emdash /asciitilde /trademark /scaron
/guilsinglright /oe /bullet /zcaron /Ydieresis
/space /exclamdown /cent /sterling /currency
/yen /brokenbar /section /dieresis /copyright
/ordfeminine /guillemotleft /logicalnot /sfthyphen /registered
/macron /degree /plusminus /twosuperior /threesuperior
/acute /mu /paragraph /middot /cedilla
/onesuperior /ordmasculine /guillemotright /onequarter /onehalf
/threequarters /questiondown /Agrave /Aacute /Acircumflex
/Atilde /Adieresis /Aring /AE /Ccedilla
/Egrave /Eacute /Ecircumflex /Edieresis /Igrave
/Iacute /Icircumflex /Idieresis /Eth /Ntilde
/Ograve /Oacute /Ocircumflex /Otilde /Odieresis
/multiply /Oslash /Ugrave /Uacute /Ucircumflex
/Udieresis /Yacute /Thorn /germandbls /agrave
/aacute /acircumflex /atilde /adieresis /aring
/ae /ccedilla /egrave /eacute /ecircumflex
/edieresis /igrave /iacute /icircumflex /idieresis
/eth /ntilde /ograve /oacute /ocircumflex
/otilde /odieresis /divide /oslash /ugrave
/uacute /ucircumflex /udieresis /yacute /thorn
/ydieresis
] def
%%EndResource
%FOPBeginFontReencode
/Courier-Bold findfont
dup length dict begin
  {1 index /FID ne {def} {pop pop} ifelse} forall
  /Encoding WinAnsiEncoding def
  currentdict
end
/Courier-Bold exch definefont pop
/Helvetica findfont
dup length dict begin
  {1 index /FID ne {def} {pop pop} ifelse} forall
  /Encoding WinAnsiEncoding def
  currentdict
end
/Helvetica exch definefont pop
/Courier-BoldOblique findfont
dup length dict begin
  {1 index /FID ne {def} {pop pop} ifelse} forall
  /Encoding WinAnsiEncoding def
  currentdict
end
/Courier-BoldOblique exch definefont pop
/Courier-Oblique findfont
dup length dict begin
  {1 index /FID ne {def} {pop pop} ifelse} forall
  /Encoding WinAnsiEncoding def
  currentdict
end
/Courier-Oblique exch definefont pop
/Times-Roman findfont
dup length dict begin
  {1 index /FID ne {def} {pop pop} ifelse} forall
  /Encoding WinAnsiEncoding def
  currentdict
end
/Times-Roman exch definefont pop
/Helvetica-BoldOblique findfont
dup length dict begin
  {1 index /FID ne {def} {pop pop} ifelse} forall
  /Encoding WinAnsiEncoding def
  currentdict
end
/Helvetica-BoldOblique exch definefont pop
/Helvetica-Bold findfont
dup length dict begin
  {1 index /FID ne {def} {pop pop} ifelse} forall
  /Encoding WinAnsiEncoding def
  currentdict
end
/Helvetica-Bold exch definefont pop
/Helvetica-Oblique findfont
dup length dict begin
  {1 index /FID ne {def} {pop pop} ifelse} forall
  /Encoding WinAnsiEncoding def
  currentdict
end
/Helvetica-Oblique exch definefont pop
/Times-BoldItalic findfont
dup length dict begin
  {1 index /FID ne {def} {pop pop} ifelse} forall
  /Encoding WinAnsiEncoding def
  currentdict
end
/Times-BoldItalic exch definefont pop
/Courier findfont
dup length dict begin
  {1 index /FID ne {def} {pop pop} ifelse} forall
  /Encoding WinAnsiEncoding def
  currentdict
end
/Courier exch definefont pop
/Times-Italic findfont
dup length dict begin
  {1 index /FID ne {def} {pop pop} ifelse} forall
  /Encoding WinAnsiEncoding def
  currentdict
end
/Times-Italic exch definefont pop
/Times-Bold findfont
dup length dict begin
  {1 index /FID ne {def} {pop pop} ifelse} forall
  /Encoding WinAnsiEncoding def
  currentdict
end
/Times-Bold exch definefont pop
%FOPEndFontReencode
%%EndProlog
%%Page: 1 1
%%PageBoundingBox: 0 0 420 315
%%BeginPageSetup
[1 0 0 -1 0 315] CT
%%EndPageSetup
GS
[0.6 0 0 0.6 0 0] CT
1 GC
N
0 0 700 525 re
f
GR
GS
[0.6 0 0 0.6 0 0] CT
1 GC
N
0 0 700 525 re
f
GR
GS
[0.6 0 0 0.6 0 0] CT
1 GC
N
91 463 M
634 463 L
634 39 L
91 39 L
cp
f
GR
GS
[0.6 0 0 0.6 0 0] CT
0.149 GC
2 setlinecap
1 LJ
0.833 LW
N
91 463 M
634 463 L
S
GR
GS
[0.6 0 0 0.6 0 0] CT
0.149 GC
2 setlinecap
1 LJ
0.833 LW
N
91 39 M
634 39 L
S
GR
GS
[0.6 0 0 0.6 0 0] CT
0.149 GC
2 setlinecap
1 LJ
0.833 LW
N
91 463 M
91 457.57 L
S
GR
GS
[0.6 0 0 0.6 0 0] CT
0.149 GC
2 setlinecap
1 LJ
0.833 LW
N
142.558 463 M
142.558 457.57 L
S
GR
GS
[0.6 0 0 0.6 0 0] CT
0.149 GC
2 setlinecap
1 LJ
0.833 LW
N
194.117 463 M
194.117 457.57 L
S
GR
GS
[0.6 0 0 0.6 0 0] CT
0.149 GC
2 setlinecap
1 LJ
0.833 LW
N
245.675 463 M
245.675 457.57 L
S
GR
GS
[0.6 0 0 0.6 0 0] CT
0.149 GC
2 setlinecap
1 LJ
0.833 LW
N
297.233 463 M
297.233 457.57 L
S
GR
GS
[0.6 0 0 0.6 0 0] CT
0.149 GC
2 setlinecap
1 LJ
0.833 LW
N
348.791 463 M
348.791 457.57 L
S
GR
GS
[0.6 0 0 0.6 0 0] CT
0.149 GC
2 setlinecap
1 LJ
0.833 LW
N
400.35 463 M
400.35 457.57 L
S
GR
GS
[0.6 0 0 0.6 0 0] CT
0.149 GC
2 setlinecap
1 LJ
0.833 LW
N
451.908 463 M
451.908 457.57 L
S
GR
GS
[0.6 0 0 0.6 0 0] CT
0.149 GC
2 setlinecap
1 LJ
0.833 LW
N
503.466 463 M
503.466 457.57 L
S
GR
GS
[0.6 0 0 0.6 0 0] CT
0.149 GC
2 setlinecap
1 LJ
0.833 LW
N
555.025 463 M
555.025 457.57 L
S
GR
GS
[0.6 0 0 0.6 0 0] CT
0.149 GC
2 setlinecap
1 LJ
0.833 LW
N
606.583 463 M
606.583 457.57 L
S
GR
GS
[0.6 0 0 0.6 0 0] CT
0.149 GC
2 setlinecap
1 LJ
0.833 LW
N
91 39 M
91 44.43 L
S
GR
GS
[0.6 0 0 0.6 0 0] CT
0.149 GC
2 setlinecap
1 LJ
0.833 LW
N
142.558 39 M
142.558 44.43 L
S
GR
GS
[0.6 0 0 0.6 0 0] CT
0.149 GC
2 setlinecap
1 LJ
0.833 LW
N
194.117 39 M
194.117 44.43 L
S
GR
GS
[0.6 0 0 0.6 0 0] CT
0.149 GC
2 setlinecap
1 LJ
0.833 LW
N
245.675 39 M
245.675 44.43 L
S
GR
GS
[0.6 0 0 0.6 0 0] CT
0.149 GC
2 setlinecap
1 LJ
0.833 LW
N
297.233 39 M
297.233 44.43 L
S
GR
GS
[0.6 0 0 0.6 0 0] CT
0.149 GC
2 setlinecap
1 LJ
0.833 LW
N
348.791 39 M
348.791 44.43 L
S
GR
GS
[0.6 0 0 0.6 0 0] CT
0.149 GC
2 setlinecap
1 LJ
0.833 LW
N
400.35 39 M
400.35 44.43 L
S
GR
GS
[0.6 0 0 0.6 0 0] CT
0.149 GC
2 setlinecap
1 LJ
0.833 LW
N
451.908 39 M
451.908 44.43 L
S
GR
GS
[0.6 0 0 0.6 0 0] CT
0.149 GC
2 setlinecap
1 LJ
0.833 LW
N
503.466 39 M
503.466 44.43 L
S
GR
GS
[0.6 0 0 0.6 0 0] CT
0.149 GC
2 setlinecap
1 LJ
0.833 LW
N
555.025 39 M
555.025 44.43 L
S
GR
GS
[0.6 0 0 0.6 0 0] CT
0.149 GC
2 setlinecap
1 LJ
0.833 LW
N
606.583 39 M
606.583 44.43 L
S
GR
GS
[0.6 0 0 0.6 54.6 281.80001] CT
0.149 GC
/Helvetica 16.667 F
GS
[1 0 0 1 0 0] CT
-5 18 moveto 
1 -1 scale
(0) t 
GR
GR
GS
[0.6 0 0 0.6 85.53497 281.80001] CT
0.149 GC
/Helvetica 16.667 F
GS
[1 0 0 1 0 0] CT
-5 18 moveto 
1 -1 scale
(2) t 
GR
GR
GS
[0.6 0 0 0.6 116.46996 281.80001] CT
0.149 GC
/Helvetica 16.667 F
GS
[1 0 0 1 0 0] CT
-5 18 moveto 
1 -1 scale
(4) t 
GR
GR
GS
[0.6 0 0 0.6 147.40493 281.80001] CT
0.149 GC
/Helvetica 16.667 F
GS
[1 0 0 1 0 0] CT
-5 18 moveto 
1 -1 scale
(6) t 
GR
GR
GS
[0.6 0 0 0.6 178.33991 281.80001] CT
0.149 GC
/Helvetica 16.667 F
GS
[1 0 0 1 0 0] CT
-5 18 moveto 
1 -1 scale
(8) t 
GR
GR
GS
[0.6 0 0 0.6 209.27488 281.80001] CT
0.149 GC
/Helvetica 16.667 F
GS
[1 0 0 1 0 0] CT
-9.5 18 moveto 
1 -1 scale
(10) t 
GR
GR
GS
[0.6 0 0 0.6 240.20986 281.80001] CT
0.149 GC
/Helvetica 16.667 F
GS
[1 0 0 1 0 0] CT
-9.5 18 moveto 
1 -1 scale
(12) t 
GR
GR
GS
[0.6 0 0 0.6 271.14483 281.80001] CT
0.149 GC
/Helvetica 16.667 F
GS
[1 0 0 1 0 0] CT
-9.5 18 moveto 
1 -1 scale
(14) t 
GR
GR
GS
[0.6 0 0 0.6 302.07982 281.80001] CT
0.149 GC
/Helvetica 16.667 F
GS
[1 0 0 1 0 0] CT
-9.5 18 moveto 
1 -1 scale
(16) t 
GR
GR
GS
[0.6 0 0 0.6 333.01479 281.80001] CT
0.149 GC
/Helvetica 16.667 F
GS
[1 0 0 1 0 0] CT
-9.5 18 moveto 
1 -1 scale
(18) t 
GR
GR
GS
[0.6 0 0 0.6 363.94977 281.80001] CT
0.149 GC
/Helvetica 16.667 F
GS
[1 0 0 1 0 0] CT
-9.5 18 moveto 
1 -1 scale
(20) t 
GR
GR
GS
[0.6 0 0 0.6 217.50016 295.8] CT
0.149 GC
N
-44.241 19.15 M
-44.241 11.712 L
-46.475 11.712 L
-46.475 11.009 L
-44.71 11.009 -43.881 9.361 QT
-43.053 7.712 -43.053 5.791 QT
-42.272 5.791 L
-42.272 10.759 L
-38.46 10.759 L
-38.46 11.712 L
-42.272 11.712 L
-42.272 19.103 L
-42.272 20.228 -41.897 21.072 QT
-41.522 21.916 -40.538 21.916 QT
-39.616 21.916 -39.21 21.025 QT
-38.803 20.134 -38.803 19.103 QT
-38.803 17.509 L
-38.022 17.509 L
-38.022 19.15 L
-38.022 19.994 -38.335 20.822 QT
-38.647 21.65 -39.256 22.173 QT
-39.866 22.697 -40.725 22.697 QT
-42.35 22.697 -43.295 21.728 QT
-44.241 20.759 -44.241 19.15 QT
cp
f
GR
GS
[0.6 0 0 0.6 217.50016 295.8] CT
0.149 GC
N
-35.792 22.4 M
-35.792 21.447 L
-34.87 21.447 -34.277 21.306 QT
-33.683 21.166 -33.683 20.587 QT
-33.683 13.228 L
-33.683 12.181 -34.081 11.947 QT
-34.48 11.712 -35.667 11.712 QT
-35.667 10.759 L
-31.777 10.462 L
-31.777 20.587 L
-31.777 21.166 -31.269 21.306 QT
-30.761 21.447 -29.902 21.447 QT
-29.902 22.4 L
-35.792 22.4 L
cp
-34.636 5.822 M
-34.636 5.228 -34.191 4.783 QT
-33.745 4.337 -33.167 4.337 QT
-32.777 4.337 -32.425 4.533 QT
-32.074 4.728 -31.878 5.087 QT
-31.683 5.447 -31.683 5.822 QT
-31.683 6.416 -32.128 6.861 QT
-32.574 7.306 -33.167 7.306 QT
-33.745 7.306 -34.191 6.861 QT
-34.636 6.416 -34.636 5.822 QT
cp
f
GR
GS
[0.6 0 0 0.6 217.50016 295.8] CT
0.149 GC
N
-28.416 22.4 M
-28.416 21.447 L
-27.479 21.447 -26.893 21.306 QT
-26.307 21.166 -26.307 20.587 QT
-26.307 13.228 L
-26.307 12.494 -26.518 12.173 QT
-26.729 11.853 -27.143 11.783 QT
-27.557 11.712 -28.416 11.712 QT
-28.416 10.759 L
-24.494 10.462 L
-24.494 13.103 L
-23.947 11.947 -22.885 11.205 QT
-21.822 10.462 -20.572 10.462 QT
-17.463 10.462 -16.932 12.994 QT
-16.385 11.869 -15.346 11.166 QT
-14.307 10.462 -13.057 10.462 QT
-11.838 10.462 -11.002 10.861 QT
-10.166 11.259 -9.744 12.072 QT
-9.322 12.884 -9.322 14.103 QT
-9.322 20.587 L
-9.322 21.166 -8.721 21.306 QT
-8.119 21.447 -7.213 21.447 QT
-7.213 22.4 L
-13.385 22.4 L
-13.385 21.447 L
-12.463 21.447 -11.869 21.306 QT
-11.275 21.166 -11.275 20.587 QT
-11.275 14.181 L
-11.275 12.822 -11.658 11.994 QT
-12.041 11.166 -13.229 11.166 QT
-14.791 11.166 -15.807 12.416 QT
-16.822 13.666 -16.822 15.275 QT
-16.822 20.587 L
-16.822 21.166 -16.229 21.306 QT
-15.635 21.447 -14.713 21.447 QT
-14.713 22.4 L
-20.9 22.4 L
-20.9 21.447 L
-19.979 21.447 -19.385 21.306 QT
-18.791 21.166 -18.791 20.587 QT
-18.791 14.181 L
-18.791 12.869 -19.174 12.017 QT
-19.557 11.166 -20.729 11.166 QT
-22.307 11.166 -23.315 12.416 QT
-24.322 13.666 -24.322 15.275 QT
-24.322 20.587 L
-24.322 21.166 -23.729 21.306 QT
-23.135 21.447 -22.229 21.447 QT
-22.229 22.4 L
-28.416 22.4 L
cp
f
GR
GS
[0.6 0 0 0.6 217.50016 295.8] CT
0.149 GC
N
-0.272 22.697 M
-1.913 22.697 -3.288 21.837 QT
-4.663 20.978 -5.452 19.533 QT
-6.241 18.087 -6.241 16.478 QT
-6.241 14.9 -5.522 13.478 QT
-4.803 12.056 -3.514 11.173 QT
-2.225 10.291 -0.647 10.291 QT
0.587 10.291 1.502 10.712 QT
2.416 11.134 3.009 11.869 QT
3.603 12.603 3.908 13.603 QT
4.212 14.603 4.212 15.806 QT
4.212 16.166 3.931 16.166 QT
-3.881 16.166 L
-3.881 16.447 L
-3.881 18.697 -2.975 20.306 QT
-2.069 21.916 -0.022 21.916 QT
0.806 21.916 1.509 21.548 QT
2.212 21.181 2.736 20.517 QT
3.259 19.853 3.431 19.103 QT
3.462 19.009 3.533 18.939 QT
3.603 18.869 3.697 18.869 QT
3.931 18.869 L
4.212 18.869 4.212 19.212 QT
3.837 20.744 2.572 21.72 QT
1.306 22.697 -0.272 22.697 QT
cp
-3.85 15.494 M
2.306 15.494 L
2.306 14.478 2.025 13.439 QT
1.744 12.4 1.08 11.705 QT
0.416 11.009 -0.647 11.009 QT
-2.178 11.009 -3.014 12.439 QT
-3.85 13.869 -3.85 15.494 QT
cp
f
GR
GS
[0.6 0 0 0.6 217.50016 295.8] CT
0.149 GC
N
22.125 29.103 M
20.625 27.916 19.531 26.376 QT
18.438 24.837 17.75 23.095 QT
17.063 21.353 16.719 19.455 QT
16.375 17.556 16.375 15.65 QT
16.375 13.712 16.719 11.814 QT
17.063 9.916 17.766 8.166 QT
18.469 6.416 19.563 4.884 QT
20.656 3.353 22.125 2.197 QT
22.125 2.15 22.25 2.15 QT
22.5 2.15 L
22.578 2.15 22.648 2.22 QT
22.719 2.291 22.719 2.384 QT
22.719 2.509 22.656 2.556 QT
21.344 3.853 20.469 5.33 QT
19.594 6.806 19.055 8.47 QT
18.516 10.134 18.281 11.923 QT
18.047 13.712 18.047 15.65 QT
18.047 24.228 22.641 28.681 QT
22.719 28.775 22.719 28.916 QT
22.719 28.978 22.641 29.064 QT
22.563 29.15 22.5 29.15 QT
22.25 29.15 L
22.125 29.15 22.125 29.103 QT
cp
f
GR
GS
[0.6 0 0 0.6 217.50016 295.8] CT
0.149 GC
N
26.464 20.759 M
27.199 21.994 29.386 21.994 QT
30.324 21.994 31.183 21.666 QT
32.042 21.337 32.605 20.697 QT
33.167 20.056 33.167 19.134 QT
33.167 18.431 32.667 17.986 QT
32.167 17.541 31.433 17.384 QT
29.98 17.087 L
28.98 16.837 28.331 16.15 QT
27.683 15.462 27.683 14.494 QT
27.683 13.291 28.331 12.369 QT
28.98 11.447 30.05 10.955 QT
31.12 10.462 32.261 10.462 QT
33.495 10.462 34.464 11.048 QT
35.433 11.634 35.433 12.791 QT
35.433 13.416 35.081 13.884 QT
34.73 14.353 34.12 14.353 QT
33.761 14.353 33.503 14.126 QT
33.245 13.9 33.245 13.541 QT
33.245 13.228 33.425 12.931 QT
33.605 12.634 33.902 12.455 QT
34.199 12.275 34.511 12.275 QT
34.277 11.697 33.62 11.431 QT
32.964 11.166 32.214 11.166 QT
31.527 11.166 30.839 11.447 QT
30.152 11.728 29.738 12.259 QT
29.324 12.791 29.324 13.509 QT
29.324 14.009 29.667 14.376 QT
30.011 14.744 30.511 14.9 QT
32.089 15.212 L
32.839 15.369 33.464 15.775 QT
34.089 16.181 34.449 16.791 QT
34.808 17.4 34.808 18.197 QT
34.808 19.197 34.253 20.173 QT
33.699 21.15 32.87 21.728 QT
31.433 22.697 29.355 22.697 QT
27.917 22.697 26.714 22.041 QT
25.511 21.384 25.511 20.072 QT
25.511 19.337 25.941 18.791 QT
26.37 18.244 27.12 18.244 QT
27.542 18.244 27.839 18.509 QT
28.136 18.775 28.136 19.212 QT
28.136 19.822 27.675 20.291 QT
27.214 20.759 26.605 20.759 QT
26.464 20.759 L
cp
f
GR
GS
[0.6 0 0 0.6 217.50016 295.8] CT
0.149 GC
N
38.37 29.15 M
38.136 29.15 38.136 28.916 QT
38.136 28.791 38.183 28.744 QT
42.808 24.228 42.808 15.65 QT
42.808 7.072 38.245 2.619 QT
38.136 2.541 38.136 2.384 QT
38.136 2.291 38.206 2.22 QT
38.277 2.15 38.37 2.15 QT
38.62 2.15 L
38.699 2.15 38.761 2.197 QT
40.699 3.728 41.988 5.916 QT
43.277 8.103 43.878 10.587 QT
44.48 13.072 44.48 15.65 QT
44.48 17.556 44.16 19.408 QT
43.839 21.259 43.128 23.064 QT
42.417 24.869 41.339 26.392 QT
40.261 27.916 38.761 29.103 QT
38.699 29.15 38.62 29.15 QT
38.37 29.15 L
cp
f
GR
GS
[0.6 0 0 0.6 0 0] CT
0.149 GC
2 setlinecap
1 LJ
0.833 LW
N
91 463 M
91 39 L
S
GR
GS
[0.6 0 0 0.6 0 0] CT
0.149 GC
2 setlinecap
1 LJ
0.833 LW
N
634 463 M
634 39 L
S
GR
GS
[0.6 0 0 0.6 0 0] CT
0.149 GC
2 setlinecap
1 LJ
0.833 LW
N
91 463 M
96.43 463 L
S
GR
GS
[0.6 0 0 0.6 0 0] CT
0.149 GC
2 setlinecap
1 LJ
0.833 LW
N
91 409.937 M
96.43 409.937 L
S
GR
GS
[0.6 0 0 0.6 0 0] CT
0.149 GC
2 setlinecap
1 LJ
0.833 LW
N
91 356.875 M
96.43 356.875 L
S
GR
GS
[0.6 0 0 0.6 0 0] CT
0.149 GC
2 setlinecap
1 LJ
0.833 LW
N
91 303.812 M
96.43 303.812 L
S
GR
GS
[0.6 0 0 0.6 0 0] CT
0.149 GC
2 setlinecap
1 LJ
0.833 LW
N
91 250.75 M
96.43 250.75 L
S
GR
GS
[0.6 0 0 0.6 0 0] CT
0.149 GC
2 setlinecap
1 LJ
0.833 LW
N
91 197.687 M
96.43 197.687 L
S
GR
GS
[0.6 0 0 0.6 0 0] CT
0.149 GC
2 setlinecap
1 LJ
0.833 LW
N
91 144.625 M
96.43 144.625 L
S
GR
GS
[0.6 0 0 0.6 0 0] CT
0.149 GC
2 setlinecap
1 LJ
0.833 LW
N
91 91.562 M
96.43 91.562 L
S
GR
GS
[0.6 0 0 0.6 0 0] CT
0.149 GC
2 setlinecap
1 LJ
0.833 LW
N
634 463 M
628.57 463 L
S
GR
GS
[0.6 0 0 0.6 0 0] CT
0.149 GC
2 setlinecap
1 LJ
0.833 LW
N
634 409.937 M
628.57 409.937 L
S
GR
GS
[0.6 0 0 0.6 0 0] CT
0.149 GC
2 setlinecap
1 LJ
0.833 LW
N
634 356.875 M
628.57 356.875 L
S
GR
GS
[0.6 0 0 0.6 0 0] CT
0.149 GC
2 setlinecap
1 LJ
0.833 LW
N
634 303.812 M
628.57 303.812 L
S
GR
GS
[0.6 0 0 0.6 0 0] CT
0.149 GC
2 setlinecap
1 LJ
0.833 LW
N
634 250.75 M
628.57 250.75 L
S
GR
GS
[0.6 0 0 0.6 0 0] CT
0.149 GC
2 setlinecap
1 LJ
0.833 LW
N
634 197.687 M
628.57 197.687 L
S
GR
GS
[0.6 0 0 0.6 0 0] CT
0.149 GC
2 setlinecap
1 LJ
0.833 LW
N
634 144.625 M
628.57 144.625 L
S
GR
GS
[0.6 0 0 0.6 0 0] CT
0.149 GC
2 setlinecap
1 LJ
0.833 LW
N
634 91.562 M
628.57 91.562 L
S
GR
GS
[0.6 0 0 0.6 50.6 277.8] CT
0.149 GC
/Helvetica 16.667 F
GS
[1 0 0 1 0 0] CT
-30 7 moveto 
1 -1 scale
(-0.2) t 
GR
GR
GS
[0.6 0 0 0.6 50.6 245.96246] CT
0.149 GC
/Helvetica 16.667 F
GS
[1 0 0 1 0 0] CT
-39 7 moveto 
1 -1 scale
(-0.15) t 
GR
GR
GS
[0.6 0 0 0.6 50.6 214.12491] CT
0.149 GC
/Helvetica 16.667 F
GS
[1 0 0 1 0 0] CT
-30 7 moveto 
1 -1 scale
(-0.1) t 
GR
GR
GS
[0.6 0 0 0.6 50.6 182.28737] CT
0.149 GC
/Helvetica 16.667 F
GS
[1 0 0 1 0 0] CT
-39 7 moveto 
1 -1 scale
(-0.05) t 
GR
GR
GS
[0.6 0 0 0.6 50.6 150.44983] CT
0.149 GC
/Helvetica 16.667 F
GS
[1 0 0 1 0 0] CT
-10 7 moveto 
1 -1 scale
(0) t 
GR
GR
GS
[0.6 0 0 0.6 50.6 118.61228] CT
0.149 GC
/Helvetica 16.667 F
GS
[1 0 0 1 0 0] CT
-34 7 moveto 
1 -1 scale
(0.05) t 
GR
GR
GS
[0.6 0 0 0.6 50.6 86.77473] CT
0.149 GC
/Helvetica 16.667 F
GS
[1 0 0 1 0 0] CT
-24 7 moveto 
1 -1 scale
(0.1) t 
GR
GR
GS
[0.6 0 0 0.6 50.6 54.93718] CT
0.149 GC
/Helvetica 16.667 F
GS
[1 0 0 1 0 0] CT
-34 7 moveto 
1 -1 scale
(0.15) t 
GR
GR
GS
[0 -0.6 0.6 0 24.2 150.59988] CT
0.149 GC
N
-0.697 -26.178 M
-0.697 -26.772 -0.244 -27.217 QT
0.209 -27.663 0.787 -27.663 QT
1.162 -27.663 1.521 -27.467 QT
1.881 -27.272 2.076 -26.913 QT
2.271 -26.553 2.271 -26.178 QT
2.271 -25.584 1.834 -25.139 QT
1.396 -24.694 0.787 -24.694 QT
0.209 -24.694 -0.244 -25.139 QT
-0.697 -25.584 -0.697 -26.178 QT
cp
f
GR
GS
[0 -0.6 0.6 0 24.2 150.59988] CT
0.149 GC
N
-5.511 -10.381 M
-5.042 -10.006 -4.167 -10.006 QT
-3.323 -10.006 -2.675 -10.819 QT
-2.027 -11.631 -1.792 -12.6 QT
-0.573 -17.381 L
-0.277 -18.678 -0.277 -19.163 QT
-0.277 -19.834 -0.652 -20.334 QT
-1.027 -20.834 -1.698 -20.834 QT
-2.558 -20.834 -3.308 -20.303 QT
-4.058 -19.772 -4.573 -18.944 QT
-5.089 -18.116 -5.292 -17.272 QT
-5.355 -17.1 -5.511 -17.1 QT
-5.839 -17.1 L
-6.058 -17.1 -6.058 -17.35 QT
-6.058 -17.428 L
-5.792 -18.428 -5.159 -19.389 QT
-4.527 -20.35 -3.605 -20.944 QT
-2.683 -21.538 -1.652 -21.538 QT
-0.652 -21.538 0.145 -21.006 QT
0.942 -20.475 1.27 -19.569 QT
1.723 -20.397 2.442 -20.967 QT
3.161 -21.538 4.02 -21.538 QT
4.598 -21.538 5.208 -21.327 QT
5.817 -21.116 6.2 -20.694 QT
6.583 -20.272 6.583 -19.647 QT
6.583 -18.959 6.137 -18.467 QT
5.692 -17.975 5.005 -17.975 QT
4.567 -17.975 4.278 -18.249 QT
3.989 -18.522 3.989 -18.944 QT
3.989 -19.522 4.38 -19.944 QT
4.77 -20.366 5.317 -20.444 QT
4.833 -20.834 3.973 -20.834 QT
3.098 -20.834 2.458 -20.03 QT
1.817 -19.225 1.552 -18.241 QT
0.364 -13.459 L
0.083 -12.381 0.083 -11.678 QT
0.083 -10.991 0.473 -10.499 QT
0.864 -10.006 1.505 -10.006 QT
2.77 -10.006 3.762 -11.124 QT
4.755 -12.241 5.083 -13.569 QT
5.13 -13.725 5.286 -13.725 QT
5.614 -13.725 L
5.723 -13.725 5.786 -13.655 QT
5.848 -13.584 5.848 -13.491 QT
5.848 -13.459 5.833 -13.413 QT
5.442 -11.803 4.216 -10.553 QT
2.989 -9.303 1.458 -9.303 QT
0.458 -9.303 -0.339 -9.834 QT
-1.136 -10.366 -1.464 -11.272 QT
-1.886 -10.491 -2.628 -9.897 QT
-3.37 -9.303 -4.214 -9.303 QT
-4.792 -9.303 -5.409 -9.506 QT
-6.027 -9.709 -6.409 -10.131 QT
-6.792 -10.553 -6.792 -11.194 QT
-6.792 -11.834 -6.347 -12.35 QT
-5.902 -12.866 -5.245 -12.866 QT
-4.792 -12.866 -4.495 -12.6 QT
-4.198 -12.334 -4.198 -11.897 QT
-4.198 -11.334 -4.573 -10.913 QT
-4.948 -10.491 -5.511 -10.381 QT
cp
f
GR
GS
[0.6 0 0 0.6 0 0] CT
0 0.447 0.741 RC
1 LJ
3.333 LW
N
91 275.944 M
91.129 275.905 L
91.258 275.944 L
91.387 275.826 L
91.516 275.865 L
91.644 275.905 L
91.773 275.826 L
91.902 275.865 L
92.031 275.667 L
92.16 275.905 L
92.289 274.376 L
92.418 274.415 L
92.547 274.376 L
92.676 274.336 L
92.805 274.415 L
92.933 274.376 L
93.062 274.376 L
93.191 274.376 L
93.32 274.376 L
93.449 274.336 L
93.578 273.019 L
93.707 272.979 L
93.836 273.019 L
93.965 272.979 L
94.093 272.821 L
94.222 273.019 L
94.351 272.979 L
94.48 272.94 L
94.609 272.86 L
94.738 273.019 L
94.867 271.663 L
94.996 271.465 L
95.125 271.623 L
95.254 271.663 L
95.382 271.702 L
95.511 271.544 L
95.64 271.583 L
95.769 271.623 L
95.898 271.663 L
96.027 271.623 L
96.156 270.308 L
96.285 270.466 L
96.414 270.505 L
96.543 270.268 L
96.671 270.308 L
96.8 270.505 L
96.929 270.466 L
97.058 270.347 L
97.187 270.347 L
97.316 270.545 L
97.445 269.23 L
97.574 269.151 L
97.703 269.27 L
97.831 269.27 L
97.96 269.23 L
98.089 269.23 L
98.218 269.191 L
98.347 269.349 L
98.476 269.31 L
98.605 269.191 L
98.734 268.059 L
98.863 268.178 L
98.992 268.217 L
99.12 268.059 L
99.249 268.019 L
99.378 268.217 L
99.507 268.217 L
99.636 268.098 L
99.765 268.178 L
99.894 268.178 L
100.023 267.154 L
100.152 266.956 L
100.28 267.036 L
100.409 267.233 L
100.538 267.115 L
100.667 267.036 L
100.796 267.075 L
100.925 267.075 L
101.054 267.115 L
101.183 267.075 L
101.312 266.145 L
101.441 266.145 L
101.569 266.105 L
101.698 266.066 L
101.827 266.026 L
101.956 266.184 L
102.085 266.264 L
102.214 266.066 L
102.343 266.145 L
102.472 266.145 L
102.601 265.235 L
102.73 265.156 L
102.858 265.274 L
102.987 265.235 L
103.116 265.314 L
103.245 265.116 L
103.374 265.235 L
103.503 265.353 L
103.632 265.274 L
103.761 265.116 L
103.89 264.378 L
104.018 264.418 L
104.147 264.458 L
104.276 264.378 L
104.405 264.339 L
104.534 264.418 L
104.663 264.378 L
104.792 264.418 L
104.921 264.378 L
105.05 264.537 L
105.179 263.652 L
105.307 263.533 L
105.436 263.573 L
105.565 263.612 L
105.694 263.612 L
105.823 263.573 L
105.952 263.573 L
106.081 263.612 L
106.21 263.652 L
106.339 263.494 L
106.467 262.731 L
106.596 262.889 L
106.725 262.889 L
106.854 262.691 L
106.983 262.81 L
107.112 262.968 L
107.241 262.85 L
107.37 262.691 L
107.499 262.77 L
107.628 262.85 L
107.756 262.102 L
107.885 262.023 L
108.014 262.062 L
108.143 262.22 L
108.272 262.181 L
108.401 262.062 L
108.53 262.102 L
108.659 262.141 L
108.788 262.141 L
108.917 261.983 L
109.045 261.51 L
109.174 261.549 L
109.303 261.391 L
109.432 261.352 L
109.561 261.391 L
109.69 261.549 L
109.819 261.51 L
109.948 261.431 L
110.077 261.391 L
110.205 261.51 L
110.334 260.874 L
110.463 260.715 L
110.592 260.715 L
110.721 260.953 L
110.85 260.755 L
110.979 260.676 L
111.108 260.795 L
111.237 260.874 L
111.366 260.755 L
111.494 260.715 L
111.623 260.236 L
111.752 260.196 L
111.881 260.236 L
112.01 260.077 L
112.139 260.077 L
112.268 260.275 L
112.397 260.315 L
112.526 260.156 L
112.654 260.196 L
112.783 260.275 L
112.912 259.714 L
113.041 259.556 L
113.17 259.596 L
113.299 259.714 L
113.428 259.675 L
113.557 259.675 L
113.686 259.635 L
113.815 259.754 L
113.943 259.714 L
114.072 259.635 L
114.201 259.105 L
114.33 259.184 L
114.459 259.066 L
114.588 258.987 L
114.717 259.066 L
114.846 259.105 L
114.975 259.145 L
115.104 259.105 L
115.232 259.066 L
115.361 259.224 L
115.49 258.651 L
115.619 258.493 L
115.748 258.493 L
115.877 258.69 L
116.006 258.73 L
116.135 258.572 L
116.264 258.69 L
116.392 258.69 L
116.521 258.69 L
116.65 258.611 L
116.779 258.105 L
116.908 258.263 L
117.037 258.184 L
117.166 258.065 L
117.295 258.065 L
117.424 258.223 L
117.553 258.184 L
117.681 258.065 L
117.81 258.105 L
117.939 258.184 L
118.068 257.591 L
118.197 257.709 L
118.326 257.749 L
118.455 257.789 L
118.584 257.67 L
118.713 257.591 L
118.841 257.749 L
118.97 257.907 L
119.099 257.868 L
119.228 257.709 L
119.357 257.265 L
119.486 257.345 L
119.615 257.305 L
119.744 257.147 L
119.873 257.226 L
120.002 257.305 L
120.13 257.424 L
120.259 257.265 L
120.388 257.305 L
120.517 257.384 L
120.646 256.999 L
120.775 256.841 L
120.904 256.841 L
121.033 257.038 L
121.162 256.88 L
121.29 256.801 L
121.419 256.801 L
121.548 256.999 L
121.677 256.999 L
121.806 256.841 L
121.935 256.511 L
122.064 256.709 L
122.193 256.59 L
122.322 256.392 L
122.451 256.59 L
122.579 256.59 L
122.708 256.669 L
122.837 256.471 L
122.966 256.511 L
123.095 256.669 L
123.224 256.328 L
123.353 256.21 L
123.482 256.17 L
123.611 256.289 L
123.74 256.368 L
123.868 256.052 L
123.997 256.249 L
124.126 256.21 L
124.255 256.328 L
124.384 256.21 L
124.513 255.801 L
124.642 255.999 L
124.771 255.88 L
124.9 255.84 L
125.028 255.84 L
125.157 256.038 L
125.286 255.959 L
125.415 255.761 L
125.544 255.92 L
125.673 255.999 L
125.802 255.502 L
125.931 255.581 L
126.06 255.502 L
126.189 255.74 L
126.317 255.581 L
126.446 255.581 L
126.575 255.502 L
126.704 255.779 L
126.833 255.7 L
126.962 255.542 L
127.091 255.221 L
127.22 255.3 L
127.349 255.419 L
127.477 255.261 L
127.606 255.261 L
127.735 255.419 L
127.864 255.38 L
127.993 255.3 L
128.122 255.261 L
128.251 255.38 L
128.38 255.076 L
128.509 255.076 L
128.638 254.957 L
128.766 255.036 L
128.895 255.115 L
129.024 255.036 L
129.153 254.997 L
129.282 255.155 L
129.411 255.036 L
129.54 254.917 L
129.669 254.859 L
129.798 254.82 L
129.927 254.899 L
130.055 254.701 L
130.184 254.741 L
130.313 254.82 L
130.442 254.939 L
130.571 254.78 L
130.7 254.78 L
130.829 254.859 L
130.958 254.498 L
131.087 254.458 L
131.215 254.656 L
131.344 254.537 L
131.473 254.537 L
131.602 254.498 L
131.731 254.577 L
131.86 254.656 L
131.989 254.656 L
132.118 254.419 L
132.247 254.316 L
132.376 254.395 L
132.504 254.355 L
132.633 254.355 L
132.762 254.316 L
132.891 254.355 L
133.02 254.316 L
133.149 254.158 L
133.278 254.316 L
133.407 254.434 L
133.536 254.145 L
133.664 254.105 L
133.793 254.105 L
133.922 254.263 L
134.051 254.145 L
134.18 254.065 L
134.309 254.145 L
134.438 254.184 L
134.567 254.184 L
134.696 254.145 L
134.825 253.983 L
134.953 254.023 L
135.082 253.983 L
135.211 253.825 L
135.34 253.944 L
135.469 253.983 L
135.598 253.865 L
135.727 253.904 L
135.856 253.944 L
135.985 253.865 L
136.114 253.713 L
136.242 253.634 L
136.371 253.674 L
136.5 253.713 L
136.629 253.713 L
136.758 253.753 L
136.887 253.713 L
137.016 253.871 L
137.145 253.674 L
137.274 253.674 L
137.402 253.657 L
137.531 253.577 L
137.66 253.538 L
137.789 253.38 L
137.918 253.538 L
138.047 253.617 L
138.176 253.498 L
138.305 253.459 L
138.434 253.498 L
138.563 253.657 L
138.691 253.366 L
138.82 253.327 L
138.949 253.287 L
139.078 253.327 L
139.207 253.287 L
139.336 253.327 L
139.465 253.327 L
139.594 253.366 L
139.723 253.445 L
139.851 253.445 L
139.98 253.211 L
140.109 253.291 L
140.238 253.291 L
140.367 253.251 L
140.496 253.093 L
140.625 253.251 L
140.754 253.291 L
140.883 253.093 L
141.012 253.251 L
141.14 253.211 L
141.269 253.026 L
141.398 252.947 L
141.527 253.145 L
141.656 253.145 L
141.785 253.066 L
141.914 253.105 L
142.043 253.145 L
142.172 253.382 L
142.301 253.066 L
142.429 253.185 L
142.558 253.01 L
142.687 253.05 L
142.816 253.05 L
142.945 252.852 L
143.074 252.931 L
143.203 252.892 L
143.332 253.01 L
143.461 252.813 L
143.589 252.971 L
143.718 253.169 L
143.847 252.877 L
143.976 252.679 L
144.105 252.798 L
144.234 252.956 L
144.363 252.798 L
144.492 252.758 L
144.621 252.837 L
144.75 252.758 L
144.878 252.877 L
145.007 252.798 L
145.136 252.711 L
145.265 252.711 L
145.394 252.711 L
145.523 252.553 L
145.652 252.593 L
145.781 252.672 L
145.91 252.632 L
146.038 252.632 L
146.167 252.672 L
146.296 252.751 L
146.425 252.675 L
146.554 252.437 L
146.683 252.675 L
146.812 252.556 L
146.941 252.516 L
147.07 252.437 L
147.199 252.516 L
147.327 252.556 L
147.456 252.477 L
147.585 252.556 L
147.714 252.442 L
147.843 252.521 L
147.972 252.482 L
148.101 252.482 L
148.23 252.561 L
148.359 252.521 L
148.488 252.442 L
148.616 252.403 L
148.745 252.403 L
148.874 252.679 L
149.003 252.382 L
149.132 252.263 L
149.261 252.382 L
149.39 252.263 L
149.519 252.263 L
149.648 252.263 L
149.776 252.342 L
149.905 252.421 L
150.034 252.382 L
150.163 252.303 L
150.292 252.325 L
150.421 252.285 L
150.55 252.325 L
150.679 252.206 L
150.808 252.443 L
150.937 252.483 L
151.065 252.404 L
151.194 252.443 L
151.323 252.681 L
151.452 252.76 L
151.581 252.667 L
151.71 252.706 L
151.839 252.746 L
151.968 252.944 L
152.097 252.904 L
152.225 253.102 L
152.354 252.983 L
152.483 253.141 L
152.612 253.181 L
152.741 253.102 L
152.87 253.147 L
152.999 253.265 L
153.128 253.186 L
153.257 252.989 L
153.386 253.068 L
153.514 253.068 L
153.643 253.028 L
153.772 253.068 L
153.901 252.989 L
154.03 253.265 L
154.159 252.886 L
154.288 252.926 L
154.417 252.886 L
154.546 252.965 L
154.674 253.005 L
154.803 252.847 L
154.932 253.084 L
155.061 253.084 L
155.19 253.124 L
155.319 253.045 L
155.448 252.958 L
155.577 252.879 L
155.706 252.8 L
155.835 252.839 L
155.963 252.918 L
156.092 252.918 L
156.221 252.839 L
156.35 252.879 L
156.479 252.958 L
156.608 253.116 L
156.737 253.065 L
156.866 252.748 L
156.995 252.788 L
157.124 252.986 L
157.252 253.262 L
157.381 253.065 L
157.51 253.144 L
157.639 253.421 L
157.768 253.381 L
157.897 253.381 L
158.026 253.442 L
158.155 253.521 L
158.284 253.521 L
158.412 253.679 L
158.541 253.719 L
158.67 254.035 L
158.799 254.075 L
158.928 254.154 L
159.057 254.114 L
159.186 254.312 L
159.315 254.272 L
159.444 254.311 L
159.573 254.43 L
159.701 254.47 L
159.83 254.628 L
159.959 254.549 L
160.088 254.707 L
160.217 254.826 L
160.346 254.984 L
160.475 254.826 L
160.604 254.657 L
160.733 254.855 L
160.861 254.776 L
160.99 254.736 L
161.119 254.815 L
161.248 254.934 L
161.377 254.776 L
161.506 254.696 L
161.635 254.776 L
161.764 254.973 L
161.893 254.465 L
162.022 254.505 L
162.15 254.545 L
162.279 254.465 L
162.408 254.624 L
162.537 254.465 L
162.666 254.584 L
162.795 254.663 L
162.924 254.663 L
163.053 254.663 L
163.182 254.641 L
163.311 254.483 L
163.439 254.364 L
163.568 254.325 L
163.697 254.562 L
163.826 254.72 L
163.955 254.72 L
164.084 254.681 L
164.213 254.8 L
164.342 254.72 L
164.471 254.649 L
164.599 254.57 L
164.728 254.688 L
164.857 254.728 L
164.986 254.609 L
165.115 254.846 L
165.244 254.886 L
165.373 255.084 L
165.502 254.926 L
165.631 254.767 L
165.76 254.695 L
165.888 254.774 L
166.017 254.695 L
166.146 254.695 L
166.275 254.695 L
166.404 254.853 L
166.533 254.655 L
166.662 254.616 L
166.791 254.655 L
166.92 254.853 L
167.048 254.422 L
167.177 254.343 L
167.306 254.462 L
167.435 254.501 L
167.564 254.501 L
167.693 254.462 L
167.822 254.383 L
167.951 254.62 L
168.08 254.383 L
168.209 254.541 L
168.337 254.284 L
168.466 254.324 L
168.595 254.284 L
168.724 254.324 L
168.853 254.205 L
168.982 254.324 L
169.111 254.324 L
169.24 254.166 L
169.369 254.403 L
169.498 254.166 L
169.626 254.154 L
169.755 253.996 L
169.884 254.075 L
170.013 254.036 L
170.142 254.273 L
170.271 254.075 L
170.4 254.154 L
170.529 254.273 L
170.658 253.996 L
170.786 253.957 L
170.915 253.834 L
171.044 253.914 L
171.173 253.834 L
171.302 253.637 L
171.431 253.874 L
171.56 253.834 L
171.689 253.834 L
171.818 253.874 L
171.947 253.953 L
172.075 253.953 L
172.204 253.771 L
172.333 253.692 L
172.462 253.85 L
172.591 253.85 L
172.72 253.692 L
172.849 253.573 L
172.978 253.652 L
173.107 253.81 L
173.235 253.652 L
173.364 253.692 L
173.493 253.473 L
173.622 253.473 L
173.751 253.513 L
173.88 253.473 L
174.009 253.394 L
174.138 253.315 L
174.267 253.473 L
174.396 253.236 L
174.524 253.394 L
174.653 253.513 L
174.782 253.273 L
174.911 253.352 L
175.04 253.036 L
175.169 253.273 L
175.298 253.194 L
175.427 253.115 L
175.556 253.233 L
175.685 253.115 L
175.813 253.233 L
175.942 253.194 L
176.071 253.005 L
176.2 253.084 L
176.329 253.045 L
176.458 253.005 L
176.587 253.084 L
176.716 253.124 L
176.845 253.084 L
176.973 253.045 L
177.102 253.005 L
177.231 253.203 L
177.36 253.109 L
177.489 253.03 L
177.618 252.99 L
177.747 253.07 L
177.876 252.951 L
178.005 252.951 L
178.134 253.109 L
178.262 252.99 L
178.391 253.07 L
178.52 253.07 L
178.649 252.89 L
178.778 252.97 L
178.907 252.89 L
179.036 252.811 L
179.165 252.97 L
179.294 252.97 L
179.422 252.89 L
179.551 252.851 L
179.68 252.89 L
179.809 253.049 L
179.938 252.724 L
180.067 252.724 L
180.196 252.803 L
180.325 252.803 L
180.454 252.843 L
180.583 252.685 L
180.711 252.883 L
180.84 252.803 L
180.969 252.685 L
181.098 252.803 L
181.227 252.687 L
181.356 252.608 L
181.485 252.647 L
181.614 252.568 L
181.743 252.647 L
181.871 252.687 L
182 252.608 L
182.129 252.568 L
182.258 252.647 L
182.387 252.647 L
182.516 252.533 L
182.645 252.493 L
182.774 252.572 L
182.903 252.572 L
183.032 252.572 L
183.16 252.493 L
183.289 252.493 L
183.418 252.572 L
183.547 252.651 L
183.676 252.572 L
183.805 252.388 L
183.934 252.506 L
184.063 252.467 L
184.192 252.309 L
184.321 252.467 L
184.449 252.625 L
184.578 252.546 L
184.707 252.388 L
184.836 252.388 L
184.965 252.625 L
185.094 252.251 L
185.223 252.33 L
185.352 252.291 L
185.481 252.37 L
185.609 252.291 L
185.738 252.33 L
185.867 252.33 L
185.996 252.489 L
186.125 252.37 L
186.254 252.33 L
186.383 252.202 L
186.512 252.321 L
186.641 252.163 L
186.77 252.242 L
186.898 252.321 L
187.027 252.281 L
187.156 252.242 L
187.285 252.163 L
187.414 252.281 L
187.543 252.281 L
187.672 252.156 L
187.801 252.156 L
187.93 252.116 L
188.058 252.314 L
188.187 252.116 L
188.316 252.077 L
188.445 252.235 L
188.574 252.116 L
188.703 252.077 L
188.832 252.116 L
188.961 252.27 L
189.09 252.191 L
189.219 251.994 L
189.347 252.191 L
189.476 252.152 L
189.605 252.112 L
189.734 252.033 L
189.863 251.954 L
189.992 252.073 L
190.121 252.073 L
190.25 251.983 L
190.379 251.983 L
190.508 252.022 L
190.636 252.062 L
190.765 251.943 L
190.894 251.983 L
191.023 252.022 L
191.152 252.062 L
191.281 251.983 L
191.41 251.864 L
191.539 251.989 L
191.668 252.068 L
191.796 251.949 L
191.925 251.989 L
192.054 251.949 L
192.183 251.87 L
192.312 251.989 L
192.441 251.949 L
192.57 252.147 L
192.699 252.226 L
192.828 251.995 L
192.957 252.074 L
193.085 252.034 L
193.214 252.034 L
193.343 252.074 L
193.472 251.955 L
193.601 252.272 L
193.73 252.39 L
193.859 252.351 L
193.988 252.232 L
194.117 252.198 L
194.245 252.198 L
194.374 252.356 L
194.503 252.277 L
194.632 252.356 L
194.761 252.317 L
194.89 252.277 L
195.019 252.198 L
195.148 252.356 L
195.277 252.277 L
195.406 252.152 L
195.534 252.073 L
195.663 252.152 L
195.792 252.231 L
195.921 252.192 L
196.05 252.113 L
196.179 252.231 L
196.308 252.31 L
196.437 252.192 L
196.566 252.231 L
196.695 252.188 L
196.823 252.227 L
196.952 251.95 L
197.081 251.99 L
197.21 252.109 L
197.339 252.188 L
197.468 252.148 L
197.597 251.99 L
197.726 252.188 L
197.855 252.188 L
197.983 251.865 L
198.112 252.063 L
198.241 251.984 L
198.37 252.024 L
198.499 251.865 L
198.628 252.103 L
198.757 252.103 L
198.886 252.103 L
199.015 251.945 L
199.144 252.063 L
199.272 251.918 L
199.401 251.879 L
199.53 251.997 L
199.659 251.879 L
199.788 251.958 L
199.917 252.037 L
200.046 251.799 L
200.175 251.879 L
200.304 251.958 L
200.432 252.037 L
200.561 251.889 L
200.69 251.691 L
200.819 251.889 L
200.948 252.047 L
201.077 251.849 L
201.206 251.73 L
201.335 251.928 L
201.464 251.928 L
201.593 251.889 L
201.721 251.928 L
201.85 251.9 L
201.979 251.94 L
202.108 251.9 L
202.237 251.861 L
202.366 251.821 L
202.495 251.861 L
202.624 251.782 L
202.753 251.861 L
202.882 251.9 L
203.01 251.742 L
203.139 251.753 L
203.268 251.674 L
203.397 251.753 L
203.526 251.872 L
203.655 251.674 L
203.784 251.714 L
203.913 251.753 L
204.042 251.635 L
204.17 251.714 L
204.299 251.476 L
204.428 251.457 L
204.557 251.457 L
204.686 251.417 L
204.815 251.378 L
204.944 251.378 L
205.073 251.378 L
205.202 251.219 L
205.331 251.259 L
205.459 251.378 L
205.588 251.298 L
205.717 251.177 L
205.846 251.098 L
205.975 251.177 L
206.104 251.257 L
206.233 251.138 L
206.362 251.138 L
206.491 251.257 L
206.619 251.098 L
206.748 251.217 L
206.877 251.059 L
207.006 251.152 L
207.135 251.113 L
207.264 251.073 L
207.393 251.113 L
207.522 251.192 L
207.651 251.271 L
207.78 251.192 L
207.908 251.231 L
208.037 251.35 L
208.166 251.31 L
208.295 251.247 L
208.424 250.97 L
208.553 251.287 L
208.682 251.247 L
208.811 251.168 L
208.94 251.089 L
209.068 251.287 L
209.197 251.287 L
209.326 251.168 L
209.455 251.01 L
209.584 251.218 L
209.713 251.336 L
209.842 251.139 L
209.971 251.178 L
210.1 251.257 L
210.229 251.336 L
210.357 251.139 L
210.486 251.139 L
210.615 251.336 L
210.744 251.218 L
210.873 251.15 L
211.002 251.071 L
211.131 251.309 L
211.26 251.23 L
211.389 251.071 L
211.518 251.19 L
211.646 251.19 L
211.775 251.23 L
211.904 251.111 L
212.033 251.15 L
212.162 251.206 L
212.291 251.245 L
212.42 251.166 L
212.549 251.048 L
212.678 251.245 L
212.806 251.166 L
212.935 251.008 L
213.064 250.969 L
213.193 251.206 L
213.322 251.166 L
213.451 251.1 L
213.58 250.981 L
213.709 251.1 L
213.838 251.021 L
213.967 250.942 L
214.095 251.1 L
214.224 250.981 L
214.353 250.942 L
214.482 250.704 L
214.611 250.704 L
214.74 250.881 L
214.869 250.763 L
214.998 250.525 L
215.127 250.525 L
215.255 250.644 L
215.384 250.367 L
215.513 250.169 L
215.642 250.13 L
215.771 250.209 L
215.9 250.051 L
216.029 249.845 L
216.158 249.608 L
216.287 249.726 L
216.416 249.489 L
216.544 249.41 L
216.673 249.489 L
216.802 249.291 L
216.931 249.331 L
217.06 249.094 L
217.189 248.975 L
217.318 248.91 L
217.447 249.028 L
217.576 248.712 L
217.705 248.593 L
217.833 248.435 L
217.962 248.435 L
218.091 248 L
218.22 248.039 L
218.349 248.158 L
218.478 247.842 L
218.607 247.594 L
218.736 247.436 L
218.865 247.594 L
218.993 247.436 L
219.122 247.278 L
219.251 247.12 L
219.38 247.159 L
219.509 246.764 L
219.638 246.645 L
219.767 246.606 L
219.896 246.752 L
220.025 246.476 L
220.154 246.396 L
220.282 246.12 L
220.411 246.199 L
220.54 246.08 L
220.669 245.526 L
220.798 245.645 L
220.927 245.526 L
221.056 245.408 L
221.185 245.209 L
221.314 245.209 L
221.442 245.209 L
221.571 244.892 L
221.7 244.615 L
221.829 244.576 L
221.958 244.457 L
222.087 244.457 L
222.216 244.101 L
222.345 243.864 L
222.474 244.033 L
222.603 243.717 L
222.731 243.4 L
222.86 243.321 L
222.989 243.282 L
223.118 243.005 L
223.247 242.926 L
223.376 242.609 L
223.505 242.411 L
223.634 242.451 L
223.763 242.294 L
223.892 241.78 L
224.02 241.938 L
224.149 241.899 L
224.278 241.384 L
224.407 241.384 L
224.536 241.266 L
224.665 240.91 L
224.794 240.831 L
224.923 240.356 L
225.052 240.698 L
225.18 240.381 L
225.309 240.104 L
225.438 239.906 L
225.567 240.104 L
225.696 239.788 L
225.825 239.59 L
225.954 239.036 L
226.083 239.076 L
226.212 238.838 L
226.341 239.037 L
226.469 239.077 L
226.598 238.998 L
226.727 238.879 L
226.856 238.563 L
226.985 238.365 L
227.114 238.404 L
227.243 238.325 L
227.372 238.167 L
227.501 237.969 L
227.629 238.662 L
227.758 238.503 L
227.887 238.266 L
228.016 238.306 L
228.145 238.464 L
228.274 238.029 L
228.403 238.029 L
228.532 237.95 L
228.661 237.95 L
228.79 237.91 L
228.918 238.387 L
229.047 238.585 L
229.176 238.506 L
229.305 238.546 L
229.434 238.269 L
229.563 238.387 L
229.692 238.466 L
229.821 238.466 L
229.95 238.387 L
230.079 238.466 L
230.207 239.118 L
230.336 239.237 L
230.465 238.999 L
230.594 239.355 L
230.723 239.158 L
230.852 239.316 L
230.981 239.079 L
231.11 239.237 L
231.239 239.237 L
231.367 239.158 L
231.496 239.845 L
231.625 239.885 L
231.754 239.924 L
231.883 239.964 L
232.012 239.806 L
232.141 239.845 L
232.27 239.806 L
232.399 240.004 L
232.528 239.845 L
232.656 239.885 L
232.785 240.529 L
232.914 240.49 L
233.043 240.411 L
233.172 240.49 L
233.301 240.49 L
233.43 240.569 L
233.559 240.49 L
233.688 240.411 L
233.816 240.49 L
233.945 240.529 L
234.074 241.015 L
234.203 241.015 L
234.332 241.055 L
234.461 241.173 L
234.59 240.975 L
234.719 241.134 L
234.848 241.134 L
234.977 241.094 L
235.105 240.975 L
235.234 240.975 L
235.363 241.749 L
235.492 241.67 L
235.621 241.63 L
235.75 241.591 L
235.879 241.67 L
236.008 241.709 L
236.137 241.591 L
236.266 241.591 L
236.394 241.709 L
236.523 241.63 L
236.652 242.083 L
236.781 242.241 L
236.91 242.281 L
237.039 242.202 L
237.168 242.241 L
237.297 242.241 L
237.426 242.36 L
237.554 242.202 L
237.683 242.202 L
237.812 242.281 L
237.941 242.991 L
238.07 242.991 L
238.199 242.675 L
238.328 242.872 L
238.457 242.991 L
238.586 242.991 L
238.715 242.833 L
238.843 242.793 L
238.972 243.031 L
239.101 242.912 L
239.23 243.331 L
239.359 243.252 L
239.488 243.45 L
239.617 243.291 L
239.746 243.212 L
239.875 243.252 L
240.003 243.252 L
240.132 243.252 L
240.261 243.291 L
240.39 243.331 L
240.519 243.888 L
240.648 243.888 L
240.777 243.69 L
240.906 243.651 L
241.035 243.809 L
241.164 243.967 L
241.292 243.73 L
241.421 243.611 L
241.55 243.69 L
241.679 243.77 L
241.808 244.215 L
241.937 244.096 L
242.066 244.254 L
242.195 244.294 L
242.324 244.215 L
242.452 244.175 L
242.581 244.057 L
242.71 244.254 L
242.839 244.175 L
242.968 244.254 L
243.097 244.68 L
243.226 244.601 L
243.355 244.482 L
243.484 244.562 L
243.613 244.522 L
243.741 244.72 L
243.87 244.562 L
243.999 244.522 L
244.128 244.68 L
244.257 244.601 L
244.386 244.762 L
244.515 244.841 L
244.644 244.999 L
244.773 244.92 L
244.902 244.881 L
245.03 244.96 L
245.159 244.999 L
245.288 244.92 L
245.417 244.841 L
245.546 244.881 L
245.675 245.353 L
245.804 245.353 L
245.933 245.274 L
246.062 245.077 L
246.19 245.314 L
246.319 245.353 L
246.448 245.274 L
246.577 245.156 L
246.706 245.314 L
246.835 245.353 L
246.964 245.593 L
247.093 245.593 L
247.222 245.752 L
247.351 245.672 L
247.479 245.554 L
247.608 245.554 L
247.737 245.791 L
247.866 245.514 L
247.995 245.554 L
248.124 245.593 L
248.253 245.977 L
248.382 245.859 L
248.511 245.859 L
248.639 245.859 L
248.768 245.977 L
248.897 245.859 L
249.026 245.859 L
249.155 245.859 L
249.284 245.898 L
249.413 246.096 L
249.542 246.18 L
249.671 246.141 L
249.8 246.259 L
249.928 246.22 L
250.057 246.101 L
250.186 246.101 L
250.315 246.18 L
250.444 246.22 L
250.573 246.22 L
250.702 246.18 L
250.831 246.569 L
250.96 246.49 L
251.089 246.371 L
251.217 246.332 L
251.346 246.53 L
251.475 246.49 L
251.604 246.292 L
251.733 246.45 L
251.862 246.49 L
251.991 246.609 L
252.12 246.618 L
252.249 246.579 L
252.377 246.816 L
252.506 246.777 L
252.635 246.737 L
252.764 246.539 L
252.893 246.658 L
253.022 246.737 L
253.151 246.658 L
253.28 246.698 L
253.409 247.06 L
253.538 246.981 L
253.666 246.784 L
253.795 246.823 L
253.924 247.021 L
254.053 246.942 L
254.182 246.863 L
254.311 246.902 L
254.44 246.942 L
254.569 247.021 L
254.698 247.081 L
254.826 247.16 L
254.955 247.318 L
255.084 247.12 L
255.213 247.081 L
255.342 247.081 L
255.471 247.199 L
255.6 247.199 L
255.729 247.081 L
255.858 247.16 L
255.987 247.416 L
256.115 247.416 L
256.244 247.219 L
256.373 247.298 L
256.502 247.535 L
256.631 247.495 L
256.76 247.416 L
256.889 247.298 L
257.018 247.337 L
257.147 247.377 L
257.275 247.495 L
257.404 247.495 L
257.533 247.693 L
257.662 247.613 L
257.791 247.574 L
257.92 247.534 L
258.049 247.732 L
258.178 247.653 L
258.307 247.495 L
258.436 247.574 L
258.564 247.806 L
258.693 247.845 L
258.822 247.727 L
258.951 247.687 L
259.08 247.806 L
259.209 247.845 L
259.338 247.727 L
259.467 247.806 L
259.596 247.806 L
259.725 247.766 L
259.853 247.94 L
259.982 247.861 L
260.111 248.059 L
260.24 247.98 L
260.369 247.861 L
260.498 247.861 L
260.627 248.059 L
260.756 248.059 L
260.885 247.861 L
261.013 247.782 L
261.142 248.146 L
261.271 248.106 L
261.4 247.988 L
261.529 248.067 L
261.658 248.304 L
261.787 248.146 L
261.916 248.027 L
262.045 248.106 L
262.174 248.225 L
262.302 248.186 L
262.431 248.26 L
262.56 248.339 L
262.689 248.379 L
262.818 248.339 L
262.947 248.181 L
263.076 248.3 L
263.205 248.3 L
263.334 248.3 L
263.462 248.221 L
263.591 248.181 L
263.72 248.447 L
263.849 248.645 L
263.978 248.368 L
264.107 248.368 L
264.236 248.447 L
264.365 248.645 L
264.494 248.407 L
264.623 248.407 L
264.751 248.447 L
264.88 248.447 L
265.009 248.465 L
265.138 248.544 L
265.267 248.662 L
265.396 248.662 L
265.525 248.425 L
265.654 248.504 L
265.783 248.583 L
265.911 248.702 L
266.04 248.544 L
266.169 248.504 L
266.298 248.797 L
266.427 248.797 L
266.556 248.56 L
266.685 248.639 L
266.814 248.679 L
266.943 248.837 L
267.072 248.6 L
267.2 248.639 L
267.329 248.718 L
267.458 248.758 L
267.587 248.715 L
267.716 248.794 L
267.845 248.794 L
267.974 248.755 L
268.103 248.755 L
268.232 248.873 L
268.361 249.031 L
268.489 248.952 L
268.618 248.675 L
268.747 248.715 L
268.876 248.954 L
269.005 249.152 L
269.134 248.994 L
269.263 248.835 L
269.392 248.994 L
269.521 248.914 L
269.649 248.875 L
269.778 248.914 L
269.907 248.914 L
270.036 248.914 L
270.165 249.021 L
270.294 248.941 L
270.423 249.139 L
270.552 249.021 L
270.681 248.941 L
270.81 248.981 L
270.938 249.1 L
271.067 249.06 L
271.196 248.981 L
271.325 248.941 L
271.454 249.321 L
271.583 249.281 L
271.712 249.202 L
271.841 249.083 L
271.97 249.321 L
272.099 249.281 L
272.227 249.123 L
272.356 249.162 L
272.485 249.4 L
272.614 249.36 L
272.743 249.247 L
272.872 249.326 L
273.001 249.445 L
273.13 249.405 L
273.259 249.286 L
273.387 249.366 L
273.516 249.484 L
273.645 249.405 L
273.774 248.97 L
273.903 248.574 L
274.032 248.228 L
274.161 247.872 L
274.29 246.685 L
274.419 245.973 L
274.548 245.064 L
274.676 243.798 L
274.805 242.69 L
274.934 240.673 L
275.063 239.407 L
275.192 237.825 L
275.321 235.798 L
275.45 234.058 L
275.579 232.476 L
275.708 230.221 L
275.836 227.61 L
275.965 225.712 L
276.094 223.022 L
276.223 220.213 L
276.352 217.84 L
276.481 215.862 L
276.61 213.858 L
276.739 211.445 L
276.868 208.4 L
276.997 206.145 L
277.125 203.336 L
277.254 200.726 L
277.383 197.719 L
277.512 194.871 L
277.641 192.182 L
277.77 188.859 L
277.899 188.073 L
278.028 184.988 L
278.157 182.14 L
278.285 178.896 L
278.414 175.771 L
278.543 172.488 L
278.672 169.007 L
278.801 166.515 L
278.93 163.271 L
279.059 159.79 L
279.188 160.173 L
279.317 156.217 L
279.446 153.251 L
279.574 150.205 L
279.703 147.475 L
279.832 144.746 L
279.961 141.7 L
280.09 139.366 L
280.219 136.993 L
280.348 134.659 L
280.477 138.115 L
280.606 136.731 L
280.735 135.702 L
280.863 134.555 L
280.992 133.645 L
281.121 133.487 L
281.25 133.329 L
281.379 133.566 L
281.508 133.566 L
281.637 134.397 L
281.766 141.768 L
281.895 142.954 L
282.023 143.745 L
282.152 144.893 L
282.281 146.435 L
282.41 147.978 L
282.539 149.798 L
282.668 151.538 L
282.797 153.911 L
282.926 155.929 L
283.055 164.705 L
283.184 166.841 L
283.312 169.571 L
283.441 172.3 L
283.57 174.911 L
283.699 177.838 L
283.828 181.081 L
283.957 184.048 L
284.086 186.975 L
284.215 190.1 L
284.344 198.787 L
284.473 202.109 L
284.601 205.116 L
284.73 208.28 L
284.859 211.682 L
284.988 214.965 L
285.117 218.723 L
285.246 221.729 L
285.375 225.368 L
285.504 229.166 L
285.633 235.283 L
285.761 238.764 L
285.89 242.008 L
286.019 245.687 L
286.148 249.009 L
286.277 252.846 L
286.406 256.486 L
286.535 260.006 L
286.664 263.527 L
286.793 266.968 L
286.922 271.205 L
287.05 274.765 L
287.179 277.732 L
287.308 280.342 L
287.437 283.27 L
287.566 286.434 L
287.695 288.649 L
287.824 291.616 L
287.953 294.306 L
288.082 296.758 L
288.21 298.12 L
288.339 300.731 L
288.468 303.539 L
288.597 305.992 L
288.726 308.167 L
288.855 310.699 L
288.984 312.993 L
289.113 315.248 L
289.242 317.226 L
289.371 319.401 L
289.499 318.618 L
289.628 320.873 L
289.757 322.851 L
289.886 324.829 L
290.015 326.806 L
290.144 328.903 L
290.273 330.446 L
290.402 332.305 L
290.531 334.283 L
290.659 335.865 L
290.788 333.712 L
290.917 335.215 L
291.046 337.153 L
291.175 338.933 L
291.304 341.03 L
291.433 342.691 L
291.562 344.55 L
291.691 346.449 L
291.82 348.387 L
291.948 350.088 L
292.077 347.24 L
292.206 348.823 L
292.335 350.484 L
292.464 352.383 L
292.593 354.361 L
292.722 356.338 L
292.851 358.395 L
292.98 360.215 L
293.109 362.826 L
293.237 364.922 L
293.366 361.354 L
293.495 363.45 L
293.624 366.18 L
293.753 368.593 L
293.882 370.926 L
294.011 373.339 L
294.14 375.673 L
294.269 378.007 L
294.397 380.301 L
294.526 382.754 L
294.655 378.628 L
294.784 381.16 L
294.913 383.493 L
295.042 386.064 L
295.171 388.121 L
295.3 390.495 L
295.429 392.947 L
295.558 395.202 L
295.686 397.575 L
295.815 399.711 L
295.944 394.248 L
296.073 396.503 L
296.202 399.034 L
296.331 401.249 L
296.46 403.148 L
296.589 405.798 L
296.718 407.46 L
296.846 409.517 L
296.975 411.376 L
297.104 413.354 L
297.233 406.848 L
297.362 408.866 L
297.491 410.408 L
297.62 412.03 L
297.749 414.206 L
297.878 415.709 L
298.007 416.856 L
298.135 418.399 L
298.264 420.099 L
298.393 421.405 L
298.522 413.324 L
298.651 414.59 L
298.78 415.974 L
298.909 417.556 L
299.038 418.664 L
299.167 419.534 L
299.296 420.919 L
299.424 422.026 L
299.553 423.015 L
299.682 424.044 L
299.811 415.501 L
299.94 416.41 L
300.069 417.32 L
300.198 418.467 L
300.327 419.377 L
300.456 420.603 L
300.584 421.474 L
300.713 422.304 L
300.842 423.372 L
300.971 424.084 L
301.1 415.294 L
301.229 416.085 L
301.358 417.074 L
301.487 417.984 L
301.616 418.814 L
301.745 419.645 L
301.873 420.595 L
302.002 421.346 L
302.131 422.137 L
302.26 422.968 L
302.389 414.15 L
302.518 414.704 L
302.647 415.495 L
302.776 416.365 L
302.905 417.077 L
303.034 417.869 L
303.162 418.699 L
303.291 419.411 L
303.42 420.242 L
303.549 420.756 L
303.678 411.769 L
303.807 412.481 L
303.936 413.193 L
304.065 413.984 L
304.194 414.379 L
304.322 415.131 L
304.451 415.843 L
304.58 416.555 L
304.709 416.99 L
304.838 417.623 L
304.967 408.776 L
305.096 409.251 L
305.225 409.449 L
305.354 410.003 L
305.483 410.715 L
305.611 411.229 L
305.74 411.348 L
305.869 411.704 L
305.998 411.981 L
306.127 412.337 L
306.256 402.994 L
306.385 403.192 L
306.514 403.469 L
306.643 403.588 L
306.771 403.548 L
306.9 403.627 L
307.029 403.746 L
307.158 403.746 L
307.287 403.667 L
307.416 403.43 L
307.545 394.469 L
307.674 393.955 L
307.803 393.796 L
307.932 393.559 L
308.06 393.678 L
308.189 393.678 L
308.318 392.887 L
308.447 392.531 L
308.576 392.412 L
308.705 392.095 L
308.834 383.006 L
308.963 382.571 L
309.092 382.136 L
309.22 381.859 L
309.349 381.186 L
309.478 380.83 L
309.607 380.672 L
309.736 379.96 L
309.865 379.367 L
309.994 378.892 L
310.123 370.678 L
310.252 370.164 L
310.381 369.768 L
310.509 369.333 L
310.638 368.819 L
310.767 368.265 L
310.896 367.474 L
311.025 367.197 L
311.154 366.643 L
311.283 365.773 L
311.412 357.496 L
311.541 356.824 L
311.67 356.112 L
311.798 355.281 L
311.927 354.332 L
312.056 353.462 L
312.185 352.394 L
312.314 351.484 L
312.443 350.178 L
312.572 348.992 L
312.701 341.811 L
312.83 340.862 L
312.958 339.161 L
313.087 338.132 L
313.216 336.985 L
313.345 335.521 L
313.474 333.821 L
313.603 332.476 L
313.732 330.893 L
313.861 329.825 L
313.99 322.425 L
314.119 320.763 L
314.247 319.695 L
314.376 318.034 L
314.505 316.175 L
314.634 314.276 L
314.763 312.971 L
314.892 310.914 L
315.021 309.173 L
315.15 307.67 L
315.279 301.693 L
315.407 299.398 L
315.536 297.697 L
315.665 295.72 L
315.794 293.544 L
315.923 291.527 L
316.052 289.826 L
316.181 288.006 L
316.31 285.87 L
316.439 283.932 L
316.568 278.389 L
316.696 276.411 L
316.825 275.026 L
316.954 272.772 L
317.083 270.952 L
317.212 269.014 L
317.341 267.234 L
317.47 265.533 L
317.599 263.16 L
317.728 261.182 L
317.857 257.807 L
317.985 255.869 L
318.114 253.812 L
318.243 252.151 L
318.372 250.015 L
318.501 248.076 L
318.63 245.901 L
318.759 243.448 L
318.888 241.747 L
319.017 239.928 L
319.145 237.296 L
319.274 235.516 L
319.403 233.498 L
319.532 231.323 L
319.661 228.91 L
319.79 226.892 L
319.919 224.756 L
320.048 222.66 L
320.177 219.97 L
320.306 218.111 L
320.434 216.612 L
320.563 214.397 L
320.692 212.063 L
320.821 209.927 L
320.95 207.91 L
321.079 205.299 L
321.208 203.202 L
321.337 201.145 L
321.466 198.97 L
321.594 196.953 L
321.723 196.597 L
321.852 194.343 L
321.981 192.286 L
322.11 189.912 L
322.239 187.302 L
322.368 185.086 L
322.497 182.792 L
322.626 180.577 L
322.755 178.164 L
322.883 175.553 L
323.012 176.619 L
323.141 174.443 L
323.27 171.872 L
323.399 168.984 L
323.528 166.927 L
323.657 164.475 L
323.786 162.379 L
323.915 159.966 L
324.043 158.027 L
324.172 155.1 L
324.301 157.149 L
324.43 154.696 L
324.559 152.798 L
324.688 150.78 L
324.817 148.407 L
324.946 146.271 L
325.075 144.254 L
325.204 142.276 L
325.332 140.1 L
325.461 138.083 L
325.59 141.994 L
325.719 139.819 L
325.848 137.96 L
325.977 136.101 L
326.106 134.32 L
326.235 132.62 L
326.364 130.76 L
326.493 128.624 L
326.621 126.963 L
326.75 125.064 L
326.879 129.555 L
327.008 127.973 L
327.137 126.074 L
327.266 123.899 L
327.395 121.961 L
327.524 120.339 L
327.653 118.321 L
327.781 117.372 L
327.91 115.276 L
328.039 113.812 L
328.168 119.395 L
328.297 117.535 L
328.426 115.795 L
328.555 114.252 L
328.684 112.195 L
328.813 110.574 L
328.942 109.585 L
329.07 107.369 L
329.199 106.341 L
329.328 104.798 L
329.457 110.507 L
329.586 109.36 L
329.715 107.857 L
329.844 106.393 L
329.973 104.692 L
330.102 102.991 L
330.23 101.646 L
330.359 100.104 L
330.488 98.323 L
330.617 96.543 L
330.746 103.252 L
330.875 101.591 L
331.004 100.325 L
331.133 98.703 L
331.262 97.477 L
331.391 95.815 L
331.519 94.233 L
331.648 92.888 L
331.777 92.018 L
331.906 90.594 L
332.035 97.771 L
332.164 96.387 L
332.293 94.963 L
332.422 94.013 L
332.551 92.668 L
332.68 91.956 L
332.808 90.967 L
332.937 89.622 L
333.066 88.396 L
333.195 87.882 L
333.324 95.858 L
333.453 94.869 L
333.582 93.405 L
333.711 93.089 L
333.84 91.942 L
333.968 91.071 L
334.097 90.162 L
334.226 89.37 L
334.355 88.777 L
334.484 88.065 L
334.613 96.708 L
334.742 95.917 L
334.871 95.837 L
335 95.363 L
335.129 94.73 L
335.257 94.572 L
335.386 94.097 L
335.515 93.899 L
335.644 93.543 L
335.773 93.385 L
335.902 102.215 L
336.031 102.215 L
336.16 101.819 L
336.289 101.78 L
336.418 101.859 L
336.546 101.78 L
336.675 101.661 L
336.804 101.74 L
336.933 101.78 L
337.062 101.7 L
337.191 110.561 L
337.32 110.481 L
337.449 110.6 L
337.578 110.561 L
337.706 110.323 L
337.835 110.442 L
337.964 110.6 L
338.093 110.521 L
338.222 110.481 L
338.351 110.402 L
338.48 119.006 L
338.609 118.967 L
338.738 118.888 L
338.866 118.888 L
338.995 119.006 L
339.124 118.927 L
339.253 119.085 L
339.382 119.165 L
339.511 119.362 L
339.64 119.402 L
339.769 127.467 L
339.898 127.863 L
340.027 127.981 L
340.155 128.061 L
340.284 128.337 L
340.413 128.693 L
340.542 128.97 L
340.671 129.326 L
340.8 129.761 L
340.929 129.999 L
341.058 137.722 L
341.187 138.197 L
341.316 138.632 L
341.444 138.988 L
341.573 139.581 L
341.702 140.254 L
341.831 140.768 L
341.96 141.401 L
342.089 142.034 L
342.218 142.943 L
342.347 150.337 L
342.476 151.326 L
342.604 152.157 L
342.733 153.146 L
342.862 153.739 L
342.991 154.768 L
343.12 155.717 L
343.249 156.785 L
343.378 157.695 L
343.507 158.644 L
343.636 165.886 L
343.765 167.112 L
343.893 168.417 L
344.022 169.723 L
344.151 171.344 L
344.28 172.491 L
344.409 173.559 L
344.538 174.984 L
344.667 176.408 L
344.796 178.227 L
344.925 184.629 L
345.053 185.973 L
345.182 187.793 L
345.311 189.652 L
345.44 191.155 L
345.569 193.173 L
345.698 195.111 L
345.827 196.851 L
345.956 198.869 L
346.085 200.649 L
346.214 206.496 L
346.342 208.157 L
346.471 210.016 L
346.6 211.796 L
346.729 213.932 L
346.858 215.752 L
346.987 217.572 L
347.116 219.549 L
347.245 221.488 L
347.374 223.703 L
347.503 228.692 L
347.631 230.631 L
347.76 233.044 L
347.889 235.338 L
348.018 237.513 L
348.147 239.887 L
348.276 242.141 L
348.405 244.475 L
348.534 246.453 L
348.663 248.629 L
348.791 252.108 L
348.92 254.482 L
349.049 256.301 L
349.178 258.556 L
349.307 260.613 L
349.436 262.868 L
349.565 264.687 L
349.694 266.942 L
349.823 269.236 L
349.952 271.174 L
350.08 273.23 L
350.209 275.485 L
350.338 277.66 L
350.467 279.836 L
350.596 281.932 L
350.725 284.266 L
350.854 286.758 L
350.983 289.132 L
351.112 291.03 L
351.241 293.206 L
351.369 294.606 L
351.498 296.742 L
351.627 298.878 L
351.756 301.093 L
351.885 303.467 L
352.014 305.722 L
352.143 308.016 L
352.272 310.112 L
352.401 312.683 L
352.529 314.622 L
352.658 314.402 L
352.787 316.459 L
352.916 318.912 L
353.045 321.206 L
353.174 323.579 L
353.303 325.557 L
353.432 328.049 L
353.561 329.987 L
353.69 332.519 L
353.818 334.576 L
353.947 332.989 L
354.076 335.204 L
354.205 337.3 L
354.334 339.753 L
354.463 342.007 L
354.592 344.183 L
354.721 346.794 L
354.85 348.93 L
354.978 351.343 L
355.107 354.27 L
355.236 351.821 L
355.365 353.997 L
355.494 356.528 L
355.623 358.822 L
355.752 361.196 L
355.881 363.767 L
356.01 366.14 L
356.139 368.632 L
356.267 370.848 L
356.396 373.063 L
356.525 369.777 L
356.654 371.993 L
356.783 373.891 L
356.912 376.502 L
357.041 378.915 L
357.17 381.249 L
357.299 383.345 L
357.427 385.442 L
357.556 388.211 L
357.685 390.426 L
357.814 385.327 L
357.943 387.622 L
358.072 389.955 L
358.201 392.368 L
358.33 394.94 L
358.459 396.878 L
358.588 399.212 L
358.716 401.427 L
358.845 403.405 L
358.974 405.778 L
359.103 399.839 L
359.232 401.659 L
359.361 403.716 L
359.49 405.852 L
359.619 407.395 L
359.748 409.372 L
359.877 411.192 L
360.005 413.249 L
360.134 415.108 L
360.263 416.809 L
360.392 409.498 L
360.521 411.239 L
360.65 413.019 L
360.779 414.601 L
360.908 416.183 L
361.037 417.805 L
361.165 419.269 L
361.294 420.693 L
361.423 422.235 L
361.552 423.541 L
361.681 415.936 L
361.81 417.518 L
361.939 418.744 L
362.068 419.971 L
362.197 421.474 L
362.326 422.7 L
362.454 424.203 L
362.583 425.667 L
362.712 426.893 L
362.841 428.475 L
362.97 419.699 L
363.099 421.241 L
363.228 422.468 L
363.357 423.694 L
363.486 425.197 L
363.614 426.146 L
363.743 427.254 L
363.872 428.678 L
364.001 429.627 L
364.13 430.695 L
364.259 422.092 L
364.388 423.2 L
364.517 424.149 L
364.646 425.375 L
364.775 426.443 L
364.903 427.195 L
365.032 428.144 L
365.161 429.093 L
365.29 430.043 L
365.419 430.913 L
365.548 421.614 L
365.677 422.406 L
365.806 423.553 L
365.935 424.146 L
366.064 424.818 L
366.192 425.728 L
366.321 426.48 L
366.45 426.954 L
366.579 427.587 L
366.708 428.26 L
366.837 418.633 L
366.966 419.345 L
367.095 419.781 L
367.224 420.374 L
367.352 420.928 L
367.481 421.521 L
367.61 421.837 L
367.739 422.154 L
367.868 422.787 L
367.997 423.222 L
368.126 413.732 L
368.255 414.049 L
368.384 414.484 L
368.513 414.8 L
368.641 414.919 L
368.77 415.235 L
368.899 415.552 L
369.028 415.75 L
369.157 415.71 L
369.286 415.789 L
369.415 406.273 L
369.544 406.273 L
369.673 406.391 L
369.801 406.273 L
369.93 406.312 L
370.059 406.273 L
370.188 406.114 L
370.317 405.917 L
370.446 405.838 L
370.575 405.679 L
370.704 396.208 L
370.833 395.892 L
370.962 395.931 L
371.09 395.734 L
371.219 395.299 L
371.348 395.022 L
371.477 394.863 L
371.606 394.507 L
371.735 394.31 L
371.864 394.033 L
371.993 385.275 L
372.122 384.722 L
372.25 384.445 L
372.379 383.97 L
372.508 383.93 L
372.637 383.416 L
372.766 382.902 L
372.895 382.427 L
373.024 382.19 L
373.153 381.913 L
373.282 373.367 L
373.411 372.853 L
373.539 372.18 L
373.668 371.666 L
373.797 370.756 L
373.926 369.846 L
374.055 369.53 L
374.184 368.739 L
374.313 367.078 L
374.442 366.366 L
374.571 358.405 L
374.7 357.258 L
374.828 355.913 L
374.957 354.884 L
375.086 353.777 L
375.215 352.432 L
375.344 351.206 L
375.473 349.821 L
375.602 348.476 L
375.731 346.775 L
375.86 338.829 L
375.988 337.286 L
376.117 335.862 L
376.246 334.438 L
376.375 333.133 L
376.504 330.838 L
376.633 329.968 L
376.762 327.199 L
376.891 325.3 L
377.02 323.718 L
377.149 317.443 L
377.277 314.595 L
377.406 312.617 L
377.535 311.114 L
377.664 309.413 L
377.793 307.594 L
377.922 305.853 L
378.051 304.192 L
378.18 301.937 L
378.309 300.118 L
378.438 294.474 L
378.566 292.101 L
378.695 290.637 L
378.824 288.778 L
378.953 286.405 L
379.082 284.427 L
379.211 282.765 L
379.34 280.669 L
379.469 278.296 L
379.598 276.634 L
379.726 271.992 L
379.855 269.738 L
379.984 267.918 L
380.113 265.386 L
380.242 263.29 L
380.371 261.51 L
380.5 259.651 L
380.629 256.961 L
380.758 254.944 L
380.887 252.887 L
381.015 248.902 L
381.144 247.834 L
381.273 245.697 L
381.402 243.759 L
381.531 241.861 L
381.66 239.764 L
381.789 238.063 L
381.918 236.125 L
382.047 234.108 L
382.175 232.209 L
382.304 230.143 L
382.433 228.244 L
382.562 226.345 L
382.691 223.932 L
382.82 221.915 L
382.949 219.818 L
383.078 217.841 L
383.207 215.586 L
383.336 213.648 L
383.464 211.63 L
383.593 210.554 L
383.722 208.418 L
383.851 205.531 L
383.98 203.474 L
384.109 201.1 L
384.238 198.885 L
384.367 196.749 L
384.496 194.218 L
384.625 191.607 L
384.753 189.352 L
384.882 189.434 L
385.011 186.191 L
385.14 183.857 L
385.269 181.483 L
385.398 179.743 L
385.527 177.172 L
385.656 174.601 L
385.785 172.069 L
385.913 169.617 L
386.042 167.085 L
386.171 168.02 L
386.3 165.211 L
386.429 162.68 L
386.558 160.306 L
386.687 157.617 L
386.816 155.006 L
386.945 152.633 L
387.073 149.587 L
387.202 146.739 L
387.331 144.682 L
387.46 147.239 L
387.589 144.035 L
387.718 141.78 L
387.847 139.13 L
387.976 136.598 L
388.105 134.027 L
388.234 131.416 L
388.362 129.162 L
388.491 127.144 L
388.62 124.494 L
388.749 128.477 L
388.878 126.381 L
389.007 124.086 L
389.136 122.109 L
389.265 119.617 L
389.394 117.837 L
389.523 115.661 L
389.651 113.762 L
389.78 112.022 L
389.909 109.965 L
390.038 115.413 L
390.167 113.238 L
390.296 111.141 L
390.425 109.361 L
390.554 107.463 L
390.683 105.643 L
390.811 103.23 L
390.94 101.766 L
391.069 99.512 L
391.198 97.653 L
391.327 103.557 L
391.456 101.975 L
391.585 100.828 L
391.714 99.047 L
391.843 96.793 L
391.972 95.487 L
392.1 94.103 L
392.229 92.323 L
392.358 90.464 L
392.487 89.435 L
392.616 96.08 L
392.745 95.249 L
392.874 93.192 L
393.003 91.412 L
393.132 90.542 L
393.261 88.881 L
393.389 87.299 L
393.518 85.914 L
393.647 84.451 L
393.776 83.027 L
393.905 90.469 L
394.034 88.887 L
394.163 87.384 L
394.292 85.841 L
394.421 84.417 L
394.549 82.519 L
394.678 81.095 L
394.807 79.868 L
394.936 78.523 L
395.065 77.297 L
395.194 85.388 L
395.323 83.766 L
395.452 82.382 L
395.581 81.155 L
395.71 79.969 L
395.838 78.703 L
395.967 76.883 L
396.096 75.855 L
396.225 74.985 L
396.354 73.679 L
396.483 82.308 L
396.612 81.042 L
396.741 80.132 L
396.87 78.946 L
396.998 77.917 L
397.127 77.087 L
397.256 76.256 L
397.385 74.595 L
397.514 73.527 L
397.643 73.091 L
397.772 81.704 L
397.901 81.467 L
398.03 80.359 L
398.159 79.766 L
398.287 79.489 L
398.416 78.619 L
398.545 78.065 L
398.674 78.026 L
398.803 77.511 L
398.932 76.879 L
399.061 86.556 L
399.19 86.12 L
399.319 86.16 L
399.448 85.804 L
399.576 85.408 L
399.705 85.408 L
399.834 85.171 L
399.963 85.329 L
400.092 85.052 L
400.221 85.171 L
400.35 94.917 L
400.479 94.917 L
400.608 94.759 L
400.736 94.957 L
400.865 95.194 L
400.994 95.234 L
401.123 95.353 L
401.252 95.353 L
401.381 95.511 L
401.51 95.511 L
401.639 105 L
401.768 105.356 L
401.897 105.554 L
402.025 105.514 L
402.154 105.712 L
402.283 105.87 L
402.412 106.305 L
402.541 106.78 L
402.67 106.82 L
402.799 107.215 L
402.928 116.029 L
403.057 116.464 L
403.185 116.702 L
403.314 117.018 L
403.443 117.414 L
403.572 117.612 L
403.701 118.047 L
403.83 118.521 L
403.959 118.798 L
404.088 119.194 L
404.217 127.514 L
404.346 127.989 L
404.474 128.463 L
404.603 128.819 L
404.732 129.334 L
404.861 129.927 L
404.99 130.402 L
405.119 131.035 L
405.248 131.549 L
405.377 132.103 L
405.506 140.298 L
405.634 140.931 L
405.763 141.524 L
405.892 142.236 L
406.021 143.067 L
406.15 143.779 L
406.279 144.57 L
406.408 145.44 L
406.537 146.152 L
406.666 147.339 L
406.795 154.62 L
406.923 155.846 L
407.052 157.349 L
407.181 158.496 L
407.31 159.485 L
407.439 160.949 L
407.568 162.096 L
407.697 163.599 L
407.826 164.825 L
407.955 166.408 L
408.084 173.91 L
408.212 175.334 L
408.341 176.837 L
408.47 178.617 L
408.599 180.714 L
408.728 181.98 L
408.857 184.234 L
408.986 186.331 L
409.115 188.19 L
409.244 190.326 L
409.372 196.411 L
409.501 198.666 L
409.63 200.604 L
409.759 202.622 L
409.888 204.56 L
410.017 206.498 L
410.146 208.832 L
410.275 210.849 L
410.404 213.025 L
410.533 215.517 L
410.661 221.182 L
410.79 223.595 L
410.919 226.008 L
411.048 228.421 L
411.177 231.15 L
411.306 233.286 L
411.435 235.699 L
411.564 237.914 L
411.693 240.287 L
411.821 242.582 L
411.95 246.545 L
412.079 248.879 L
412.208 250.777 L
412.337 253.309 L
412.466 255.326 L
412.595 257.66 L
412.724 259.717 L
412.853 261.932 L
412.982 264.029 L
413.11 266.165 L
413.239 268.826 L
413.368 270.883 L
413.497 273.059 L
413.626 275.788 L
413.755 277.964 L
413.884 280.1 L
414.013 282.354 L
414.142 284.728 L
414.271 287.141 L
414.399 289.277 L
414.528 290.7 L
414.657 292.797 L
414.786 295.17 L
414.915 297.425 L
415.044 299.561 L
415.173 302.013 L
415.302 304.228 L
415.431 306.562 L
415.559 308.698 L
415.688 311.032 L
415.817 310.767 L
415.946 313.298 L
416.075 315.79 L
416.204 318.243 L
416.333 320.26 L
416.462 322.673 L
416.591 324.849 L
416.72 327.143 L
416.848 329.437 L
416.977 331.573 L
417.106 330.478 L
417.235 332.811 L
417.364 335.145 L
417.493 337.479 L
417.622 340.09 L
417.751 342.503 L
417.88 345.351 L
418.008 347.685 L
418.137 350.453 L
418.266 352.748 L
418.395 350.645 L
418.524 353.058 L
418.653 355.629 L
418.782 358.082 L
418.911 360.653 L
419.04 363.105 L
419.169 365.835 L
419.297 368.524 L
419.426 370.898 L
419.555 373.39 L
419.684 369.779 L
419.813 372.547 L
419.942 374.842 L
420.071 377.017 L
420.2 379.905 L
420.329 382.278 L
420.457 384.889 L
420.586 387.223 L
420.715 389.319 L
420.844 392.246 L
420.973 387.86 L
421.102 389.68 L
421.231 392.172 L
421.36 394.743 L
421.489 396.958 L
421.618 399.331 L
421.746 401.23 L
421.875 403.643 L
422.004 405.542 L
422.133 407.796 L
422.262 401.352 L
422.391 403.844 L
422.52 405.862 L
422.649 407.523 L
422.778 409.58 L
422.907 411.281 L
423.035 413.219 L
423.164 414.959 L
423.293 416.581 L
423.422 418.361 L
423.551 411.159 L
423.68 412.82 L
423.809 414.561 L
423.938 416.38 L
424.067 418.121 L
424.195 419.624 L
424.324 421.167 L
424.453 422.749 L
424.582 424.41 L
424.711 425.913 L
424.84 417.775 L
424.969 419.397 L
425.098 420.861 L
425.227 422.324 L
425.356 423.946 L
425.484 425.766 L
425.613 426.992 L
425.742 428.297 L
425.871 429.405 L
426 431.066 L
426.129 422.3 L
426.258 423.565 L
426.387 425.108 L
426.516 426.493 L
426.645 427.758 L
426.773 429.064 L
426.902 430.29 L
427.031 431.358 L
427.16 432.268 L
427.289 433.573 L
427.418 424.737 L
427.547 426.082 L
427.676 427.189 L
427.805 428.139 L
427.933 429.128 L
428.062 430.196 L
428.191 430.947 L
428.32 432.055 L
428.449 432.925 L
428.578 434.072 L
428.707 424.736 L
428.836 425.685 L
428.965 426.674 L
429.094 427.584 L
429.222 428.573 L
429.351 429.285 L
429.48 430.155 L
429.609 431.065 L
429.738 431.777 L
429.867 432.291 L
429.996 422.876 L
430.125 423.509 L
430.254 424.102 L
430.382 424.537 L
430.511 425.328 L
430.64 425.803 L
430.769 426.436 L
430.898 426.831 L
431.027 427.266 L
431.156 427.622 L
431.285 417.921 L
431.414 418.159 L
431.543 418.396 L
431.671 418.752 L
431.8 419.029 L
431.929 419.029 L
432.058 419.345 L
432.187 419.464 L
432.316 419.662 L
432.445 419.504 L
432.574 409.898 L
432.703 409.819 L
432.832 409.898 L
432.96 409.7 L
433.089 409.937 L
433.218 409.7 L
433.347 409.74 L
433.476 409.502 L
433.605 409.305 L
433.734 409.423 L
433.863 399.698 L
433.992 399.342 L
434.12 399.145 L
434.249 398.828 L
434.378 398.749 L
434.507 398.274 L
434.636 397.958 L
434.765 397.681 L
434.894 397.444 L
435.023 396.692 L
435.152 387.57 L
435.281 387.254 L
435.409 386.819 L
435.538 386.265 L
435.667 385.711 L
435.796 385.395 L
435.925 384.88 L
436.054 384.327 L
436.183 383.654 L
436.312 383.377 L
436.441 374.616 L
436.569 373.904 L
436.698 373.034 L
436.827 372.48 L
436.956 371.689 L
437.085 370.661 L
437.214 369.632 L
437.343 368.92 L
437.472 368.01 L
437.601 366.903 L
437.73 358.512 L
437.858 357.761 L
437.987 356.534 L
438.116 355.664 L
438.245 353.924 L
438.374 353.093 L
438.503 352.104 L
438.632 350.205 L
438.761 349.058 L
438.89 347.951 L
439.018 339.879 L
439.147 338.178 L
439.276 336.398 L
439.405 335.014 L
439.534 333.273 L
439.663 331.493 L
439.792 329.594 L
439.921 328.17 L
440.05 326.311 L
440.179 324.175 L
440.307 317.561 L
440.436 315.702 L
440.565 313.052 L
440.694 310.837 L
440.823 308.622 L
440.952 306.881 L
441.081 303.994 L
441.21 302.649 L
441.339 299.484 L
441.468 298.1 L
441.596 292.37 L
441.725 289.601 L
441.854 287.307 L
441.983 285.092 L
442.112 283.035 L
442.241 280.74 L
442.37 278.565 L
442.499 276.191 L
442.628 274.016 L
442.756 271.445 L
442.885 267.165 L
443.014 264.791 L
443.143 262.537 L
443.272 260.124 L
443.401 257.632 L
443.53 254.981 L
443.659 253.201 L
443.788 250.828 L
443.917 247.901 L
444.045 246.477 L
444.174 242.381 L
444.303 240.206 L
444.432 238.149 L
444.561 236.132 L
444.69 233.679 L
444.819 231.622 L
444.948 229.763 L
445.077 227.469 L
445.205 225.412 L
445.334 223.394 L
445.463 221.832 L
445.592 219.934 L
445.721 217.758 L
445.85 215.938 L
445.979 213.169 L
446.108 211.192 L
446.237 209.056 L
446.366 206.722 L
446.494 204.665 L
446.623 202.331 L
446.752 201.984 L
446.881 199.769 L
447.01 197.316 L
447.139 195.22 L
447.268 192.372 L
447.397 190.196 L
447.526 187.546 L
447.655 185.331 L
447.783 182.918 L
447.912 180.188 L
448.041 180.421 L
448.17 178.324 L
448.299 175.714 L
448.428 173.182 L
448.557 170.136 L
448.686 168.594 L
448.815 165.429 L
448.943 162.977 L
449.072 160.722 L
449.201 158.032 L
449.33 159.223 L
449.459 156.612 L
449.588 153.883 L
449.717 151.312 L
449.846 148.464 L
449.975 145.655 L
450.104 143.084 L
450.232 139.959 L
450.361 137.349 L
450.49 134.936 L
450.619 137.696 L
450.748 134.65 L
450.877 132.079 L
451.006 128.717 L
451.135 126.185 L
451.264 123.931 L
451.392 121.083 L
451.521 118.591 L
451.65 116.098 L
451.779 113.725 L
451.908 118.075 L
452.037 115.583 L
452.166 113.328 L
452.295 111.232 L
452.424 109.135 L
452.553 106.801 L
452.681 104.547 L
452.81 102.608 L
452.939 100.433 L
453.068 98.099 L
453.197 104.281 L
453.326 102.066 L
453.455 99.692 L
453.584 97.873 L
453.713 95.262 L
453.841 93.522 L
453.97 91.663 L
454.099 90.041 L
454.228 88.102 L
454.357 86.204 L
454.486 93.043 L
454.615 91.184 L
454.744 89.404 L
454.873 87.822 L
455.002 85.488 L
455.13 84.459 L
455.259 82.363 L
455.388 81.216 L
455.517 79.594 L
455.646 77.577 L
455.775 85.278 L
455.904 84.21 L
456.033 82.588 L
456.162 80.848 L
456.291 79.226 L
456.419 77.841 L
456.548 76.259 L
456.677 74.796 L
456.806 73.134 L
456.935 71.75 L
457.064 80.029 L
457.193 77.893 L
457.322 76.825 L
457.451 75.401 L
457.579 73.819 L
457.708 72.434 L
457.837 70.852 L
457.966 69.784 L
458.095 68.439 L
458.224 66.896 L
458.353 75.209 L
458.482 74.141 L
458.611 72.321 L
458.74 71.293 L
458.868 69.987 L
458.997 68.682 L
459.126 67.614 L
459.255 66.23 L
459.384 64.845 L
459.513 64.212 L
459.642 73.166 L
459.771 71.742 L
459.9 70.515 L
460.028 69.289 L
460.157 68.419 L
460.286 66.955 L
460.415 66.441 L
460.544 65.452 L
460.673 64.503 L
460.802 63.712 L
460.931 73.379 L
461.06 72.747 L
461.189 72.035 L
461.317 71.441 L
461.446 70.887 L
461.575 70.492 L
461.704 70.175 L
461.833 69.424 L
461.962 69.305 L
462.091 68.949 L
462.22 79.316 L
462.349 79.158 L
462.478 78.604 L
462.606 78.802 L
462.735 78.446 L
462.864 78.525 L
462.993 78.367 L
463.122 78.485 L
463.251 78.525 L
463.38 78.446 L
463.509 88.581 L
463.638 88.699 L
463.766 88.937 L
463.895 88.857 L
464.024 88.699 L
464.153 89.095 L
464.282 89.174 L
464.411 89.332 L
464.54 89.293 L
464.669 89.53 L
464.798 99.315 L
464.927 99.315 L
465.055 99.394 L
465.184 99.829 L
465.313 100.027 L
465.442 100.185 L
465.571 100.462 L
465.7 100.778 L
465.829 101.134 L
465.958 101.293 L
466.087 110.641 L
466.216 111.076 L
466.344 111.353 L
466.473 111.59 L
466.602 111.946 L
466.731 112.46 L
466.86 112.697 L
466.989 112.895 L
467.118 113.251 L
467.247 113.884 L
467.376 122.642 L
467.504 122.998 L
467.633 123.552 L
467.762 124.224 L
467.891 124.659 L
468.02 125.252 L
468.149 125.964 L
468.278 126.756 L
468.407 127.468 L
468.536 128.061 L
468.664 136.623 L
468.793 137.612 L
468.922 138.443 L
469.051 139.432 L
469.18 140.302 L
469.309 141.686 L
469.438 142.834 L
469.567 143.664 L
469.696 144.811 L
469.825 146.038 L
469.953 153.892 L
470.082 155.118 L
470.211 156.859 L
470.34 158.401 L
470.469 159.707 L
470.598 160.854 L
470.727 162.594 L
470.856 164.335 L
470.985 165.996 L
471.114 167.658 L
471.242 174.966 L
471.371 176.904 L
471.5 179.08 L
471.629 180.543 L
471.758 182.64 L
471.887 185.013 L
472.016 186.991 L
472.145 188.969 L
472.274 190.867 L
472.402 193.241 L
472.531 199.461 L
472.66 201.597 L
472.789 203.575 L
472.918 205.909 L
473.047 208.164 L
473.176 210.062 L
473.305 212.475 L
473.434 214.69 L
473.563 217.341 L
473.691 219.437 L
473.82 225.278 L
473.949 228.007 L
474.078 230.104 L
474.207 232.596 L
474.336 235.127 L
474.465 237.659 L
474.594 239.953 L
474.723 242.208 L
474.852 244.7 L
474.98 247.073 L
475.109 250.755 L
475.238 253.128 L
475.367 255.343 L
475.496 257.558 L
475.625 260.011 L
475.754 262.107 L
475.883 264.401 L
476.012 266.814 L
476.14 269.267 L
476.269 271.363 L
476.398 273.895 L
476.527 276.347 L
476.656 278.958 L
476.785 281.252 L
476.914 283.823 L
477.043 286.078 L
477.172 288.57 L
477.301 291.141 L
477.429 293.712 L
477.558 295.848 L
477.687 297.051 L
477.816 299.385 L
477.945 301.837 L
478.074 304.448 L
478.203 306.98 L
478.332 308.799 L
478.461 311.173 L
478.589 313.823 L
478.718 316.631 L
478.847 318.807 L
478.976 318.681 L
479.105 321.054 L
479.234 323.586 L
479.363 326.078 L
479.492 328.253 L
479.621 330.706 L
479.75 332.96 L
479.878 335.413 L
480.007 337.905 L
480.136 340.397 L
480.265 339.15 L
480.394 341.365 L
480.523 344.292 L
480.652 347.101 L
480.781 349.474 L
480.91 352.124 L
481.039 354.695 L
481.167 357.306 L
481.296 359.521 L
481.425 362.33 L
481.554 359.596 L
481.683 362.207 L
481.812 364.659 L
481.941 367.388 L
482.07 369.643 L
482.199 372.531 L
482.327 375.3 L
482.456 377.554 L
482.585 379.967 L
482.714 382.697 L
482.843 378.833 L
482.972 381.206 L
483.101 383.975 L
483.23 386.467 L
483.359 389.236 L
483.488 392.005 L
483.616 394.26 L
483.745 396.673 L
483.874 399.64 L
484.003 401.973 L
484.132 396.696 L
484.261 399.425 L
484.39 401.442 L
484.519 403.737 L
484.648 406.071 L
484.776 407.89 L
484.905 410.382 L
485.034 412.4 L
485.163 414.615 L
485.292 416.513 L
485.421 409.942 L
485.55 411.92 L
485.679 413.74 L
485.808 415.718 L
485.937 417.577 L
486.065 419.357 L
486.194 421.651 L
486.323 422.956 L
486.452 425.092 L
486.581 426.833 L
486.71 419.123 L
486.839 420.784 L
486.968 422.604 L
487.097 424.265 L
487.225 425.808 L
487.354 427.825 L
487.483 429.447 L
487.612 431.108 L
487.741 432.69 L
487.87 434.312 L
487.999 425.941 L
488.128 427.167 L
488.257 428.591 L
488.386 430.49 L
488.514 431.835 L
488.643 433.456 L
488.772 434.445 L
488.901 436.186 L
489.03 437.57 L
489.159 438.757 L
489.288 429.824 L
489.417 431.288 L
489.546 432.395 L
489.675 433.621 L
489.803 434.966 L
489.932 435.995 L
490.061 437.063 L
490.19 438.289 L
490.319 439.357 L
490.448 440.623 L
490.577 431.381 L
490.706 432.37 L
490.835 433.438 L
490.963 434.625 L
491.092 435.772 L
491.221 436.721 L
491.35 437.552 L
491.479 438.66 L
491.608 439.688 L
491.737 440.479 L
491.866 430.79 L
491.995 432.095 L
492.124 432.807 L
492.252 433.598 L
492.381 434.429 L
492.51 435.22 L
492.639 436.13 L
492.768 436.763 L
492.897 437.277 L
493.026 438.108 L
493.155 428.176 L
493.284 428.532 L
493.412 429.125 L
493.541 429.561 L
493.67 429.996 L
493.799 430.352 L
493.928 430.747 L
494.057 431.182 L
494.186 431.499 L
494.315 431.657 L
494.444 421.485 L
494.573 421.722 L
494.701 421.92 L
494.83 421.88 L
494.959 421.999 L
495.088 422.157 L
495.217 422.078 L
495.346 421.999 L
495.475 422.078 L
495.604 422.276 L
495.733 411.905 L
495.862 411.668 L
495.99 411.51 L
496.119 411.391 L
496.248 411.154 L
496.377 410.916 L
496.506 410.758 L
496.635 410.481 L
496.764 410.363 L
496.893 409.967 L
497.022 400.321 L
497.15 399.965 L
497.279 399.57 L
497.408 399.253 L
497.537 398.858 L
497.666 398.62 L
497.795 398.146 L
497.924 397.75 L
498.053 397.276 L
498.182 396.84 L
498.311 387.563 L
498.439 386.93 L
498.568 386.337 L
498.697 386.02 L
498.826 385.308 L
498.955 384.517 L
499.084 383.687 L
499.213 383.093 L
499.342 382.183 L
499.471 381.353 L
499.599 372.236 L
499.728 371.445 L
499.857 370.575 L
499.986 369.309 L
500.115 368.439 L
500.244 367.489 L
500.373 366.342 L
500.502 364.839 L
500.631 364.009 L
500.76 362.387 L
500.888 353.82 L
501.017 352.198 L
501.146 351.289 L
501.275 349.786 L
501.404 348.322 L
501.533 346.542 L
501.662 344.683 L
501.791 343.101 L
501.92 341.439 L
502.048 339.343 L
502.177 331.509 L
502.306 329.808 L
502.435 327.672 L
502.564 325.773 L
502.693 323.084 L
502.822 321.185 L
502.951 319.207 L
503.08 317.743 L
503.209 315.568 L
503.337 313.551 L
503.466 306.561 L
503.595 304.267 L
503.724 301.973 L
503.853 299.837 L
503.982 297.107 L
504.111 294.655 L
504.24 292.716 L
504.369 290.897 L
504.498 288.682 L
504.626 286.506 L
504.755 280.715 L
504.884 278.697 L
505.013 276.601 L
505.142 274.623 L
505.271 272.171 L
505.4 269.876 L
505.529 267.938 L
505.658 265.327 L
505.786 263.191 L
505.915 261.134 L
506.044 257.187 L
506.173 254.458 L
506.302 252.52 L
506.431 249.593 L
506.56 247.971 L
506.689 245.123 L
506.818 243.303 L
506.947 240.574 L
507.075 238.359 L
507.204 236.381 L
507.333 233.469 L
507.462 231.57 L
507.591 229.394 L
507.72 226.942 L
507.849 225.043 L
507.978 222.986 L
508.107 220.85 L
508.236 218.437 L
508.364 216.064 L
508.493 214.165 L
508.622 213.011 L
508.751 210.796 L
508.88 208.344 L
509.009 206.168 L
509.138 204.032 L
509.267 201.659 L
509.396 199.048 L
509.524 197.031 L
509.653 195.013 L
509.782 192.126 L
509.911 191.865 L
510.04 189.452 L
510.169 186.801 L
510.298 183.874 L
510.427 181.382 L
510.556 178.732 L
510.685 175.844 L
510.813 173.392 L
510.942 170.109 L
511.071 167.933 L
511.2 168.527 L
511.329 165.916 L
511.458 163.107 L
511.587 160.655 L
511.716 157.965 L
511.845 154.84 L
511.973 151.953 L
512.102 149.461 L
512.231 146.296 L
512.36 143.25 L
512.489 145.382 L
512.618 142.692 L
512.747 139.804 L
512.876 136.323 L
513.005 134.069 L
513.134 131.458 L
513.262 128.373 L
513.391 125.366 L
513.52 122.044 L
513.649 119.433 L
513.778 123.407 L
513.907 120.243 L
514.036 117.711 L
514.165 115.298 L
514.294 112.846 L
514.422 110.116 L
514.551 108.02 L
514.68 105.647 L
514.809 103.194 L
514.938 100.821 L
515.067 106.213 L
515.196 104.235 L
515.325 101.347 L
515.454 99.488 L
515.583 97.313 L
515.711 95.098 L
515.84 92.843 L
515.969 90.628 L
516.098 88.492 L
516.227 86.435 L
516.356 92.883 L
516.485 91.063 L
516.614 89.046 L
516.743 87.068 L
516.872 85.209 L
517 83.073 L
517.129 81.253 L
517.258 79.394 L
517.387 77.219 L
517.516 75.28 L
517.645 83.229 L
517.774 81.607 L
517.903 79.787 L
518.032 78.165 L
518.16 76.702 L
518.289 75.397 L
518.418 73.814 L
518.547 71.797 L
518.676 70.136 L
518.805 68.553 L
518.934 76.914 L
519.063 75.055 L
519.192 73.552 L
519.321 72.009 L
519.449 70.704 L
519.578 68.765 L
519.707 67.262 L
519.836 65.68 L
519.965 64.177 L
520.094 62.357 L
520.223 71.289 L
520.352 69.865 L
520.481 68.164 L
520.609 66.582 L
520.738 64.604 L
520.867 64.05 L
520.996 62.389 L
521.125 60.649 L
521.254 59.422 L
521.383 57.642 L
521.512 67.144 L
521.641 65.483 L
521.77 64.375 L
521.898 63.188 L
522.027 61.487 L
522.156 60.459 L
522.285 58.837 L
522.414 58.244 L
522.543 56.938 L
522.672 56.029 L
522.801 65.696 L
522.93 65.063 L
523.059 64.074 L
523.187 63.165 L
523.316 62.255 L
523.445 61.899 L
523.574 61.147 L
523.703 60.514 L
523.832 59.565 L
523.961 59.367 L
524.09 69.793 L
524.219 69.279 L
524.347 69.12 L
524.476 68.408 L
524.605 68.211 L
524.734 67.578 L
524.863 67.38 L
524.992 67.499 L
525.121 67.261 L
525.25 66.945 L
525.379 77.643 L
525.508 77.801 L
525.636 77.643 L
525.765 77.484 L
525.894 77.405 L
526.023 77.524 L
526.152 77.524 L
526.281 77.405 L
526.41 77.445 L
526.539 77.603 L
526.668 87.876 L
526.797 87.718 L
526.925 87.797 L
527.054 87.876 L
527.183 88.034 L
527.312 87.916 L
527.441 88.153 L
527.57 88.153 L
527.699 88.509 L
527.828 88.39 L
527.957 98.217 L
528.085 98.573 L
528.214 98.494 L
528.343 98.652 L
528.472 98.929 L
528.601 99.245 L
528.73 99.404 L
528.859 99.641 L
528.988 99.957 L
529.117 100.155 L
529.245 109.647 L
529.374 109.845 L
529.503 110.399 L
529.632 110.794 L
529.761 111.111 L
529.89 111.467 L
530.019 111.981 L
530.148 112.653 L
530.277 113.207 L
530.406 113.603 L
530.534 122.577 L
530.663 123.289 L
530.792 124.12 L
530.921 124.832 L
531.05 125.623 L
531.179 126.652 L
531.308 127.443 L
531.437 128.313 L
531.566 129.302 L
531.695 130.765 L
531.823 139.134 L
531.952 140.32 L
532.081 141.468 L
532.21 143.129 L
532.339 144.553 L
532.468 145.7 L
532.597 146.966 L
532.726 148.667 L
532.855 150.209 L
532.984 151.436 L
533.112 159.537 L
533.241 161.278 L
533.37 163.256 L
533.499 164.64 L
533.628 166.578 L
533.757 168.2 L
533.886 170.217 L
534.015 171.8 L
534.144 173.896 L
534.272 175.676 L
534.401 183.363 L
534.53 185.143 L
534.659 187.279 L
534.788 189.613 L
534.917 191.749 L
535.046 193.766 L
535.175 195.981 L
535.304 197.919 L
535.432 200.214 L
535.561 202.191 L
535.69 208.43 L
535.819 210.487 L
535.948 212.742 L
536.077 214.917 L
536.206 216.974 L
536.335 219.822 L
536.464 222.116 L
536.593 224.45 L
536.721 226.942 L
536.85 229.672 L
536.979 234.626 L
537.108 236.92 L
537.237 239.452 L
537.366 241.944 L
537.495 244.238 L
537.624 246.809 L
537.753 249.064 L
537.881 251.556 L
538.01 253.85 L
538.139 256.105 L
538.268 259.392 L
538.397 261.567 L
538.526 263.941 L
538.655 266.235 L
538.784 268.45 L
538.913 271.14 L
539.042 273.513 L
539.17 275.689 L
539.299 278.577 L
539.428 280.99 L
539.557 282.931 L
539.686 285.621 L
539.815 287.994 L
539.944 290.526 L
540.073 293.295 L
540.202 295.549 L
540.331 298.398 L
540.459 301.127 L
540.588 303.579 L
540.717 306.23 L
540.846 306.582 L
540.975 309.43 L
541.104 311.882 L
541.233 314.454 L
541.362 317.222 L
541.491 319.754 L
541.62 322.286 L
541.748 324.738 L
541.877 327.349 L
542.006 330.197 L
542.135 329.191 L
542.264 331.485 L
542.393 334.175 L
542.522 336.706 L
542.651 339.08 L
542.78 341.769 L
542.908 344.538 L
543.037 347.189 L
543.166 349.997 L
543.295 352.608 L
543.424 350.7 L
543.553 353.548 L
543.682 356 L
543.811 358.611 L
543.94 361.143 L
544.069 363.714 L
544.197 366.127 L
544.326 369.014 L
544.455 371.783 L
544.584 374.513 L
544.713 370.977 L
544.842 373.469 L
544.971 376.12 L
545.1 378.691 L
545.229 381.46 L
545.357 383.991 L
545.486 386.562 L
545.615 389.331 L
545.744 391.784 L
545.873 394.553 L
546.002 390.214 L
546.131 392.944 L
546.26 395.08 L
546.389 397.769 L
546.518 400.499 L
546.646 403.109 L
546.775 405.127 L
546.904 407.302 L
547.033 410.032 L
547.162 412.168 L
547.291 406.296 L
547.42 408.551 L
547.549 410.766 L
547.678 412.823 L
547.806 415.078 L
547.935 416.977 L
548.064 418.954 L
548.193 421.288 L
548.322 422.95 L
548.451 424.73 L
548.58 417.67 L
548.709 420.043 L
548.838 421.744 L
548.967 423.524 L
549.095 425.502 L
549.224 427.44 L
549.353 429.141 L
549.482 430.921 L
549.611 432.583 L
549.74 434.6 L
549.869 426.631 L
549.998 428.292 L
550.127 430.033 L
550.256 431.694 L
550.384 433.197 L
550.513 434.542 L
550.642 436.283 L
550.771 438.063 L
550.9 439.408 L
551.029 441.148 L
551.158 432.214 L
551.287 433.638 L
551.416 434.983 L
551.544 436.367 L
551.673 437.554 L
551.802 439.413 L
551.931 440.639 L
552.06 441.787 L
552.189 443.092 L
552.318 444.318 L
552.447 434.698 L
552.576 436.043 L
552.705 437.388 L
552.833 438.733 L
552.962 439.88 L
553.091 441.225 L
553.22 442.332 L
553.349 443.638 L
553.478 444.706 L
553.607 445.774 L
553.736 436.046 L
553.865 437.312 L
553.993 438.301 L
554.122 439.092 L
554.251 440.279 L
554.38 441.505 L
554.509 442.296 L
554.638 443.206 L
554.767 444.155 L
554.896 445.263 L
555.025 435.021 L
555.154 435.693 L
555.282 436.563 L
555.411 437.236 L
555.54 438.146 L
555.669 438.62 L
555.798 439.293 L
555.927 440.005 L
556.056 440.519 L
556.185 440.875 L
556.314 430.496 L
556.443 431.168 L
556.571 431.484 L
556.7 431.682 L
556.829 431.999 L
556.958 432.276 L
557.087 432.513 L
557.216 432.592 L
557.345 432.711 L
557.474 432.988 L
557.603 422.282 L
557.731 422.085 L
557.86 422.124 L
557.989 422.282 L
558.118 422.322 L
558.247 421.926 L
558.376 421.768 L
558.505 421.61 L
558.634 421.333 L
558.763 421.096 L
558.892 410.876 L
559.02 410.52 L
559.149 410.204 L
559.278 409.927 L
559.407 409.531 L
559.536 409.175 L
559.665 408.898 L
559.794 408.344 L
559.923 407.87 L
560.052 407.632 L
560.18 397.81 L
560.309 397.335 L
560.438 396.861 L
560.567 396.584 L
560.696 396.07 L
560.825 395.476 L
560.954 395.002 L
561.083 394.527 L
561.212 393.973 L
561.341 393.301 L
561.469 384.053 L
561.598 383.499 L
561.727 382.787 L
561.856 382.194 L
561.985 381.086 L
562.114 380.454 L
562.243 379.623 L
562.372 378.555 L
562.501 377.843 L
562.63 376.617 L
562.758 367.589 L
562.887 366.363 L
563.016 365.651 L
563.145 364.504 L
563.274 363.198 L
563.403 362.051 L
563.532 360.508 L
563.661 359.045 L
563.79 357.621 L
563.918 356.118 L
564.047 347.509 L
564.176 346.046 L
564.305 344.305 L
564.434 342.605 L
564.563 340.706 L
564.692 338.965 L
564.821 337.067 L
564.95 335.326 L
565.078 333.23 L
565.207 331.173 L
565.336 323.356 L
565.465 321.101 L
565.594 318.926 L
565.723 316.988 L
565.852 315.326 L
565.981 312.913 L
566.11 310.659 L
566.239 308.246 L
566.367 305.121 L
566.496 302.985 L
566.625 296.517 L
566.754 294.143 L
566.883 291.928 L
567.012 289.792 L
567.141 287.656 L
567.27 285.164 L
567.399 283.305 L
567.528 280.615 L
567.656 278.281 L
567.785 276.462 L
567.914 271.383 L
568.043 269.049 L
568.172 266.557 L
568.301 264.5 L
568.43 262.206 L
568.559 259.793 L
568.688 257.222 L
568.816 255.165 L
568.945 252.752 L
569.074 249.706 L
569.203 246.667 L
569.332 244.531 L
569.461 241.762 L
569.59 239.586 L
569.719 236.699 L
569.848 234.642 L
569.977 232.545 L
570.105 230.172 L
570.234 227.759 L
570.363 225.623 L
570.492 223.847 L
570.621 221.355 L
570.75 219.337 L
570.879 217.32 L
571.008 215.026 L
571.137 212.969 L
571.266 210.477 L
571.394 208.736 L
571.523 205.77 L
571.652 203.555 L
571.781 202.772 L
571.91 200.754 L
572.039 198.064 L
572.168 195.77 L
572.297 193.357 L
572.426 190.944 L
572.555 188.413 L
572.683 185.723 L
572.812 182.796 L
572.941 180.422 L
573.07 180.411 L
573.199 177.563 L
573.328 175.268 L
573.457 172.381 L
573.586 169.256 L
573.715 166.289 L
573.843 164.074 L
573.972 161.503 L
574.101 158.378 L
574.23 155.925 L
574.359 157.236 L
574.488 154.229 L
574.617 151.381 L
574.746 148.494 L
574.875 145.527 L
575.003 142.6 L
575.132 139.673 L
575.261 136.548 L
575.39 133.502 L
575.519 130.97 L
575.648 133.651 L
575.777 130.328 L
575.906 127.559 L
576.035 124.592 L
576.164 121.388 L
576.292 118.54 L
576.421 115.771 L
576.55 113.24 L
576.679 110.313 L
576.808 107.662 L
576.937 112.014 L
577.066 109.957 L
577.195 107.267 L
577.324 104.894 L
577.453 102.718 L
577.581 100.147 L
577.71 98.05 L
577.839 95.163 L
577.968 93.225 L
578.097 91.088 L
578.226 96.798 L
578.355 94.543 L
578.484 92.368 L
578.613 89.955 L
578.741 87.7 L
578.87 86.039 L
578.999 83.626 L
579.128 81.846 L
579.257 79.552 L
579.386 76.981 L
579.515 84.816 L
579.644 83.075 L
579.773 80.583 L
579.902 79.357 L
580.03 77.023 L
580.159 75.481 L
580.288 73.661 L
580.417 72.118 L
580.546 70.22 L
580.675 68.598 L
580.804 76.588 L
580.933 75.045 L
581.062 73.186 L
581.19 71.406 L
581.319 69.942 L
581.448 67.846 L
581.577 66.501 L
581.706 65.71 L
581.835 63.02 L
581.964 61.319 L
582.093 69.717 L
582.222 68.569 L
582.351 66.71 L
582.479 65.326 L
582.608 63.664 L
582.737 62.082 L
582.866 60.658 L
582.995 58.601 L
583.124 57.335 L
583.253 55.991 L
583.382 65.269 L
583.511 63.568 L
583.64 62.302 L
583.768 60.918 L
583.897 59.138 L
584.026 57.437 L
584.155 56.171 L
584.284 54.747 L
584.413 53.283 L
584.542 52.057 L
584.671 61.915 L
584.8 60.965 L
584.928 59.62 L
585.057 58.671 L
585.186 57.682 L
585.315 56.574 L
585.444 55.586 L
585.573 54.715 L
585.702 54.241 L
585.831 53.212 L
585.96 63.664 L
586.089 63.268 L
586.217 62.596 L
586.346 61.805 L
586.475 61.33 L
586.604 60.816 L
586.733 60.618 L
586.862 60.104 L
586.991 59.629 L
587.12 59.431 L
587.249 70.175 L
587.377 69.581 L
587.506 69.423 L
587.635 69.186 L
587.764 69.028 L
587.893 68.869 L
588.022 68.395 L
588.151 68.672 L
588.28 68.513 L
588.409 68.355 L
588.538 78.951 L
588.666 78.753 L
588.795 78.832 L
588.924 78.912 L
589.053 78.793 L
589.182 78.793 L
589.311 78.832 L
589.44 78.912 L
589.569 78.991 L
589.698 78.912 L
589.827 89.028 L
589.955 88.831 L
590.084 88.949 L
590.213 89.147 L
590.342 89.187 L
590.471 89.187 L
590.6 89.187 L
590.729 89.384 L
590.858 89.463 L
590.987 89.543 L
591.115 99.34 L
591.244 99.538 L
591.373 99.538 L
591.502 100.052 L
591.631 100.408 L
591.76 100.527 L
591.889 100.962 L
592.018 101.397 L
592.147 101.595 L
592.276 102.03 L
592.404 111.614 L
592.533 112.168 L
592.662 112.643 L
592.791 113.275 L
592.92 113.908 L
593.049 114.502 L
593.178 115.253 L
593.307 115.767 L
593.436 116.756 L
593.565 117.706 L
593.693 126.92 L
593.822 127.83 L
593.951 128.898 L
594.08 130.401 L
594.209 131.35 L
594.338 132.26 L
594.467 133.724 L
594.596 135.187 L
594.725 136.453 L
594.853 137.877 L
594.982 147.175 L
595.111 148.283 L
595.24 150.023 L
595.369 151.447 L
595.498 153.267 L
595.627 154.81 L
595.756 156.431 L
595.885 158.211 L
596.013 159.992 L
596.142 162.246 L
596.271 169.793 L
596.4 171.692 L
596.529 173.67 L
596.658 175.845 L
596.787 177.546 L
596.916 179.366 L
597.045 181.818 L
597.174 183.677 L
597.302 185.814 L
597.431 187.712 L
597.56 195.03 L
597.689 197.284 L
597.818 199.064 L
597.947 201.517 L
598.076 203.495 L
598.205 205.67 L
598.334 207.609 L
598.463 210.101 L
598.591 211.999 L
598.72 214.096 L
598.849 220.001 L
598.978 222.334 L
599.107 224.826 L
599.236 227.2 L
599.365 229.771 L
599.494 232.105 L
599.623 234.795 L
599.751 237.484 L
599.88 239.779 L
600.009 242.033 L
600.138 246.383 L
600.267 248.875 L
600.396 251.129 L
600.525 253.78 L
600.654 255.955 L
600.783 258.447 L
600.912 260.544 L
601.04 262.917 L
601.169 265.409 L
601.298 267.901 L
601.427 270.533 L
601.556 273.025 L
601.685 275.438 L
601.814 278.048 L
601.943 280.501 L
602.072 282.439 L
602.201 285.208 L
602.329 287.225 L
602.458 288.887 L
602.587 291.023 L
602.716 291.515 L
602.845 293.216 L
602.974 294.64 L
603.103 296.024 L
603.232 297.567 L
603.361 298.912 L
603.489 299.98 L
603.618 301.246 L
603.747 302.353 L
603.876 303.342 L
604.005 301.605 L
604.134 302.673 L
604.263 303.424 L
604.392 303.938 L
604.521 304.294 L
604.649 305.165 L
604.778 305.56 L
604.907 305.956 L
605.036 306.233 L
605.165 306.549 L
605.294 303.899 L
605.423 304.017 L
605.552 304.017 L
605.681 304.294 L
605.81 304.452 L
605.938 304.571 L
606.067 304.532 L
606.196 304.492 L
606.325 304.611 L
606.454 304.65 L
606.583 301.192 L
606.712 301.271 L
606.841 301.429 L
606.97 301.231 L
607.099 301.113 L
607.227 300.875 L
607.356 300.836 L
607.485 300.717 L
607.614 300.519 L
607.743 300.242 L
607.872 297.221 L
608.001 296.944 L
608.13 296.509 L
608.259 296.39 L
608.388 296.351 L
608.516 296.153 L
608.645 295.797 L
608.774 295.599 L
608.903 295.559 L
609.032 295.124 L
609.161 292.021 L
609.29 291.705 L
609.419 291.586 L
609.548 291.428 L
609.676 290.874 L
609.805 290.558 L
609.934 290.399 L
610.063 290.122 L
610.192 289.45 L
610.321 289.292 L
610.45 286.496 L
610.579 286.179 L
610.708 285.626 L
610.837 285.507 L
610.965 284.874 L
611.094 284.637 L
611.223 284.122 L
611.352 283.925 L
611.481 283.569 L
611.61 283.173 L
611.739 280.348 L
611.868 280.111 L
611.997 279.636 L
612.125 279.043 L
612.254 278.251 L
612.383 277.975 L
612.512 277.104 L
612.641 277.025 L
612.77 276.353 L
612.899 275.799 L
613.028 273.495 L
613.157 272.942 L
613.286 272.427 L
613.414 271.755 L
613.543 271.676 L
613.672 270.568 L
613.801 269.777 L
613.93 269.184 L
614.059 269.263 L
614.188 268.234 L
614.317 266.178 L
614.446 265.782 L
614.574 264.991 L
614.703 264.477 L
614.832 263.013 L
614.961 262.539 L
615.09 261.391 L
615.219 260.482 L
615.348 260.482 L
615.477 260.323 L
615.606 259.688 L
615.735 259.688 L
615.863 259.53 L
615.992 259.57 L
616.121 258.146 L
616.25 256.563 L
616.379 255.298 L
616.508 254.427 L
616.637 253.162 L
616.766 251.54 L
616.895 250.022 L
617.023 249.271 L
617.152 248.242 L
617.281 247.253 L
617.41 246.225 L
617.539 244.92 L
617.668 243.891 L
617.797 242.507 L
617.926 241.201 L
618.055 239.777 L
618.184 238.515 L
618.312 237.487 L
618.441 236.181 L
618.57 235.39 L
618.699 234.401 L
618.828 233.333 L
618.957 232.067 L
619.086 231.158 L
619.215 230.683 L
619.344 229.654 L
619.473 229.31 L
619.601 228.4 L
619.73 227.569 L
619.859 226.383 L
619.988 225.275 L
620.117 224.365 L
620.246 223.218 L
620.375 222.308 L
620.504 221.319 L
620.633 220.41 L
620.761 220.688 L
620.89 219.897 L
621.019 218.869 L
621.148 218.038 L
621.277 217.049 L
621.406 216.179 L
621.535 214.992 L
621.664 214.201 L
621.793 213.37 L
621.922 211.946 L
622.05 213.17 L
622.179 211.943 L
622.308 211.35 L
622.437 210.361 L
622.566 209.135 L
622.695 208.7 L
622.824 207.394 L
622.953 206.643 L
623.082 205.535 L
623.211 204.981 L
623.339 205.542 L
623.468 205.384 L
623.597 204.236 L
623.726 203.247 L
623.855 202.061 L
623.984 200.914 L
624.113 200.083 L
624.242 198.699 L
624.371 198.184 L
624.499 196.365 L
624.628 198.088 L
624.757 196.941 L
624.886 196.11 L
625.015 194.963 L
625.144 194.291 L
625.273 193.381 L
625.402 192.352 L
625.531 191.363 L
625.659 190.295 L
625.788 189.583 L
625.917 191.629 L
626.046 190.679 L
626.175 189.69 L
626.304 188.781 L
626.433 187.792 L
626.562 186.645 L
626.691 185.735 L
626.82 184.548 L
626.948 183.757 L
627.077 182.966 L
627.206 185.591 L
627.335 184.325 L
627.464 183.731 L
627.593 182.861 L
627.722 181.437 L
627.851 180.607 L
627.98 179.855 L
S
GR
%%Trailer
%%Pages: 1
%%EOF
