%!PS-Adobe-3.0 EPSF-3.0
%%Creator: (MATLAB, The Mathworks, Inc. Version 9.1.0.441655 \(R2016b\). Operating System: Windows 8)
%%Title: C:/Users/simon/Documents/Unief/M1/CACSD_MPC/Exercises/Practicum/cacsd/report/images/cutoff/xdot_normal.eps
%%CreationDate: 2017-05-17T20:47:20
%%Pages: (atend)
%%BoundingBox: 0 0 420 315
%%LanguageLevel: 3
%%EndComments
%%BeginProlog
%%BeginResource: procset (Apache XML Graphics Std ProcSet) 1.2 0
%%Version: 1.2 0
%%Copyright: (Copyright 2001-2003,2010 The Apache Software Foundation. License terms: http://www.apache.org/licenses/LICENSE-2.0)
/bd{bind def}bind def
/ld{load def}bd
/GR/grestore ld
/M/moveto ld
/LJ/setlinejoin ld
/C/curveto ld
/f/fill ld
/LW/setlinewidth ld
/GC/setgray ld
/t/show ld
/N/newpath ld
/CT/concat ld
/cp/closepath ld
/S/stroke ld
/L/lineto ld
/CC/setcmykcolor ld
/A/ashow ld
/GS/gsave ld
/RC/setrgbcolor ld
/RM/rmoveto ld
/ML/setmiterlimit ld
/re {4 2 roll M
1 index 0 rlineto
0 exch rlineto
neg 0 rlineto
cp } bd
/_ctm matrix def
/_tm matrix def
/BT { _ctm currentmatrix pop matrix _tm copy pop 0 0 moveto } bd
/ET { _ctm setmatrix } bd
/iTm { _ctm setmatrix _tm concat } bd
/Tm { _tm astore pop iTm 0 0 moveto } bd
/ux 0.0 def
/uy 0.0 def
/F {
  /Tp exch def
  /Tf exch def
  Tf findfont Tp scalefont setfont
  /cf Tf def  /cs Tp def
} bd
/ULS {currentpoint /uy exch def /ux exch def} bd
/ULE {
  /Tcx currentpoint pop def
  gsave
  newpath
  cf findfont cs scalefont dup
  /FontMatrix get 0 get /Ts exch def /FontInfo get dup
  /UnderlinePosition get Ts mul /To exch def
  /UnderlineThickness get Ts mul /Tt exch def
  ux uy To add moveto  Tcx uy To add lineto
  Tt setlinewidth stroke
  grestore
} bd
/OLE {
  /Tcx currentpoint pop def
  gsave
  newpath
  cf findfont cs scalefont dup
  /FontMatrix get 0 get /Ts exch def /FontInfo get dup
  /UnderlinePosition get Ts mul /To exch def
  /UnderlineThickness get Ts mul /Tt exch def
  ux uy To add cs add moveto Tcx uy To add cs add lineto
  Tt setlinewidth stroke
  grestore
} bd
/SOE {
  /Tcx currentpoint pop def
  gsave
  newpath
  cf findfont cs scalefont dup
  /FontMatrix get 0 get /Ts exch def /FontInfo get dup
  /UnderlinePosition get Ts mul /To exch def
  /UnderlineThickness get Ts mul /Tt exch def
  ux uy To add cs 10 mul 26 idiv add moveto Tcx uy To add cs 10 mul 26 idiv add lineto
  Tt setlinewidth stroke
  grestore
} bd
/QT {
/Y22 exch store
/X22 exch store
/Y21 exch store
/X21 exch store
currentpoint
/Y21 load 2 mul add 3 div exch
/X21 load 2 mul add 3 div exch
/X21 load 2 mul /X22 load add 3 div
/Y21 load 2 mul /Y22 load add 3 div
/X22 load /Y22 load curveto
} bd
/SSPD {
dup length /d exch dict def
{
/v exch def
/k exch def
currentpagedevice k known {
/cpdv currentpagedevice k get def
v cpdv ne {
/upd false def
/nullv v type /nulltype eq def
/nullcpdv cpdv type /nulltype eq def
nullv nullcpdv or
{
/upd true def
} {
/sametype v type cpdv type eq def
sametype {
v type /arraytype eq {
/vlen v length def
/cpdvlen cpdv length def
vlen cpdvlen eq {
0 1 vlen 1 sub {
/i exch def
/obj v i get def
/cpdobj cpdv i get def
obj cpdobj ne {
/upd true def
exit
} if
} for
} {
/upd true def
} ifelse
} {
v type /dicttype eq {
v {
/dv exch def
/dk exch def
/cpddv cpdv dk get def
dv cpddv ne {
/upd true def
exit
} if
} forall
} {
/upd true def
} ifelse
} ifelse
} if
} ifelse
upd true eq {
d k v put
} if
} if
} if
} forall
d length 0 gt {
d setpagedevice
} if
} bd
/RE { % /NewFontName [NewEncodingArray] /FontName RE -
  findfont dup length dict begin
  {
    1 index /FID ne
    {def} {pop pop} ifelse
  } forall
  /Encoding exch def
  /FontName 1 index def
  currentdict definefont pop
  end
} bind def
%%EndResource
%%BeginResource: procset (Apache XML Graphics EPS ProcSet) 1.0 0
%%Version: 1.0 0
%%Copyright: (Copyright 2002-2003 The Apache Software Foundation. License terms: http://www.apache.org/licenses/LICENSE-2.0)
/BeginEPSF { %def
/b4_Inc_state save def         % Save state for cleanup
/dict_count countdictstack def % Count objects on dict stack
/op_count count 1 sub def      % Count objects on operand stack
userdict begin                 % Push userdict on dict stack
/showpage { } def              % Redefine showpage, { } = null proc
0 setgray 0 setlinecap         % Prepare graphics state
1 setlinewidth 0 setlinejoin
10 setmiterlimit [ ] 0 setdash newpath
/languagelevel where           % If level not equal to 1 then
{pop languagelevel             % set strokeadjust and
1 ne                           % overprint to their defaults.
{false setstrokeadjust false setoverprint
} if
} if
} bd
/EndEPSF { %def
count op_count sub {pop} repeat            % Clean up stacks
countdictstack dict_count sub {end} repeat
b4_Inc_state restore
} bd
%%EndResource
%FOPBeginFontDict
%%IncludeResource: font Courier-Bold
%%IncludeResource: font Helvetica
%%IncludeResource: font Courier-BoldOblique
%%IncludeResource: font Courier-Oblique
%%IncludeResource: font Times-Roman
%%IncludeResource: font Helvetica-BoldOblique
%%IncludeResource: font Helvetica-Bold
%%IncludeResource: font Helvetica-Oblique
%%IncludeResource: font Times-BoldItalic
%%IncludeResource: font Courier
%%IncludeResource: font Times-Italic
%%IncludeResource: font Times-Bold
%%IncludeResource: font Symbol
%%IncludeResource: font ZapfDingbats
%FOPEndFontDict
%%BeginResource: encoding WinAnsiEncoding
/WinAnsiEncoding [
/.notdef /.notdef /.notdef /.notdef /.notdef
/.notdef /.notdef /.notdef /.notdef /.notdef
/.notdef /.notdef /.notdef /.notdef /.notdef
/.notdef /.notdef /.notdef /.notdef /.notdef
/.notdef /.notdef /.notdef /.notdef /.notdef
/.notdef /.notdef /.notdef /.notdef /.notdef
/.notdef /.notdef /space /exclam /quotedbl
/numbersign /dollar /percent /ampersand /quotesingle
/parenleft /parenright /asterisk /plus /comma
/hyphen /period /slash /zero /one
/two /three /four /five /six
/seven /eight /nine /colon /semicolon
/less /equal /greater /question /at
/A /B /C /D /E
/F /G /H /I /J
/K /L /M /N /O
/P /Q /R /S /T
/U /V /W /X /Y
/Z /bracketleft /backslash /bracketright /asciicircum
/underscore /quoteleft /a /b /c
/d /e /f /g /h
/i /j /k /l /m
/n /o /p /q /r
/s /t /u /v /w
/x /y /z /braceleft /bar
/braceright /asciitilde /bullet /Euro /bullet
/quotesinglbase /florin /quotedblbase /ellipsis /dagger
/daggerdbl /circumflex /perthousand /Scaron /guilsinglleft
/OE /bullet /Zcaron /bullet /bullet
/quoteleft /quoteright /quotedblleft /quotedblright /bullet
/endash /emdash /asciitilde /trademark /scaron
/guilsinglright /oe /bullet /zcaron /Ydieresis
/space /exclamdown /cent /sterling /currency
/yen /brokenbar /section /dieresis /copyright
/ordfeminine /guillemotleft /logicalnot /sfthyphen /registered
/macron /degree /plusminus /twosuperior /threesuperior
/acute /mu /paragraph /middot /cedilla
/onesuperior /ordmasculine /guillemotright /onequarter /onehalf
/threequarters /questiondown /Agrave /Aacute /Acircumflex
/Atilde /Adieresis /Aring /AE /Ccedilla
/Egrave /Eacute /Ecircumflex /Edieresis /Igrave
/Iacute /Icircumflex /Idieresis /Eth /Ntilde
/Ograve /Oacute /Ocircumflex /Otilde /Odieresis
/multiply /Oslash /Ugrave /Uacute /Ucircumflex
/Udieresis /Yacute /Thorn /germandbls /agrave
/aacute /acircumflex /atilde /adieresis /aring
/ae /ccedilla /egrave /eacute /ecircumflex
/edieresis /igrave /iacute /icircumflex /idieresis
/eth /ntilde /ograve /oacute /ocircumflex
/otilde /odieresis /divide /oslash /ugrave
/uacute /ucircumflex /udieresis /yacute /thorn
/ydieresis
] def
%%EndResource
%FOPBeginFontReencode
/Courier-Bold findfont
dup length dict begin
  {1 index /FID ne {def} {pop pop} ifelse} forall
  /Encoding WinAnsiEncoding def
  currentdict
end
/Courier-Bold exch definefont pop
/Helvetica findfont
dup length dict begin
  {1 index /FID ne {def} {pop pop} ifelse} forall
  /Encoding WinAnsiEncoding def
  currentdict
end
/Helvetica exch definefont pop
/Courier-BoldOblique findfont
dup length dict begin
  {1 index /FID ne {def} {pop pop} ifelse} forall
  /Encoding WinAnsiEncoding def
  currentdict
end
/Courier-BoldOblique exch definefont pop
/Courier-Oblique findfont
dup length dict begin
  {1 index /FID ne {def} {pop pop} ifelse} forall
  /Encoding WinAnsiEncoding def
  currentdict
end
/Courier-Oblique exch definefont pop
/Times-Roman findfont
dup length dict begin
  {1 index /FID ne {def} {pop pop} ifelse} forall
  /Encoding WinAnsiEncoding def
  currentdict
end
/Times-Roman exch definefont pop
/Helvetica-BoldOblique findfont
dup length dict begin
  {1 index /FID ne {def} {pop pop} ifelse} forall
  /Encoding WinAnsiEncoding def
  currentdict
end
/Helvetica-BoldOblique exch definefont pop
/Helvetica-Bold findfont
dup length dict begin
  {1 index /FID ne {def} {pop pop} ifelse} forall
  /Encoding WinAnsiEncoding def
  currentdict
end
/Helvetica-Bold exch definefont pop
/Helvetica-Oblique findfont
dup length dict begin
  {1 index /FID ne {def} {pop pop} ifelse} forall
  /Encoding WinAnsiEncoding def
  currentdict
end
/Helvetica-Oblique exch definefont pop
/Times-BoldItalic findfont
dup length dict begin
  {1 index /FID ne {def} {pop pop} ifelse} forall
  /Encoding WinAnsiEncoding def
  currentdict
end
/Times-BoldItalic exch definefont pop
/Courier findfont
dup length dict begin
  {1 index /FID ne {def} {pop pop} ifelse} forall
  /Encoding WinAnsiEncoding def
  currentdict
end
/Courier exch definefont pop
/Times-Italic findfont
dup length dict begin
  {1 index /FID ne {def} {pop pop} ifelse} forall
  /Encoding WinAnsiEncoding def
  currentdict
end
/Times-Italic exch definefont pop
/Times-Bold findfont
dup length dict begin
  {1 index /FID ne {def} {pop pop} ifelse} forall
  /Encoding WinAnsiEncoding def
  currentdict
end
/Times-Bold exch definefont pop
%FOPEndFontReencode
%%EndProlog
%%Page: 1 1
%%PageBoundingBox: 0 0 420 315
%%BeginPageSetup
[1 0 0 -1 0 315] CT
%%EndPageSetup
GS
[0.6 0 0 0.6 0 0] CT
1 GC
N
0 0 700 525 re
f
GR
GS
[0.6 0 0 0.6 0 0] CT
1 GC
N
0 0 700 525 re
f
GR
GS
[0.6 0 0 0.6 0 0] CT
1 GC
N
91 467 M
634 467 L
634 39 L
91 39 L
cp
f
GR
GS
[0.6 0 0 0.6 0 0] CT
0.149 GC
2 setlinecap
1 LJ
0.833 LW
N
91 467 M
634 467 L
S
GR
GS
[0.6 0 0 0.6 0 0] CT
0.149 GC
2 setlinecap
1 LJ
0.833 LW
N
91 39 M
634 39 L
S
GR
GS
[0.6 0 0 0.6 0 0] CT
0.149 GC
2 setlinecap
1 LJ
0.833 LW
N
91 467 M
91 461.57 L
S
GR
GS
[0.6 0 0 0.6 0 0] CT
0.149 GC
2 setlinecap
1 LJ
0.833 LW
N
175.844 467 M
175.844 461.57 L
S
GR
GS
[0.6 0 0 0.6 0 0] CT
0.149 GC
2 setlinecap
1 LJ
0.833 LW
N
260.688 467 M
260.688 461.57 L
S
GR
GS
[0.6 0 0 0.6 0 0] CT
0.149 GC
2 setlinecap
1 LJ
0.833 LW
N
345.531 467 M
345.531 461.57 L
S
GR
GS
[0.6 0 0 0.6 0 0] CT
0.149 GC
2 setlinecap
1 LJ
0.833 LW
N
430.375 467 M
430.375 461.57 L
S
GR
GS
[0.6 0 0 0.6 0 0] CT
0.149 GC
2 setlinecap
1 LJ
0.833 LW
N
515.219 467 M
515.219 461.57 L
S
GR
GS
[0.6 0 0 0.6 0 0] CT
0.149 GC
2 setlinecap
1 LJ
0.833 LW
N
600.063 467 M
600.063 461.57 L
S
GR
GS
[0.6 0 0 0.6 0 0] CT
0.149 GC
2 setlinecap
1 LJ
0.833 LW
N
91 39 M
91 44.43 L
S
GR
GS
[0.6 0 0 0.6 0 0] CT
0.149 GC
2 setlinecap
1 LJ
0.833 LW
N
175.844 39 M
175.844 44.43 L
S
GR
GS
[0.6 0 0 0.6 0 0] CT
0.149 GC
2 setlinecap
1 LJ
0.833 LW
N
260.688 39 M
260.688 44.43 L
S
GR
GS
[0.6 0 0 0.6 0 0] CT
0.149 GC
2 setlinecap
1 LJ
0.833 LW
N
345.531 39 M
345.531 44.43 L
S
GR
GS
[0.6 0 0 0.6 0 0] CT
0.149 GC
2 setlinecap
1 LJ
0.833 LW
N
430.375 39 M
430.375 44.43 L
S
GR
GS
[0.6 0 0 0.6 0 0] CT
0.149 GC
2 setlinecap
1 LJ
0.833 LW
N
515.219 39 M
515.219 44.43 L
S
GR
GS
[0.6 0 0 0.6 0 0] CT
0.149 GC
2 setlinecap
1 LJ
0.833 LW
N
600.063 39 M
600.063 44.43 L
S
GR
GS
[0.6 0 0 0.6 54.6 284.19999] CT
0.149 GC
/Helvetica 16.667 F
GS
[1 0 0 1 0 0] CT
-5 18 moveto 
1 -1 scale
(0) t 
GR
GR
GS
[0.6 0 0 0.6 105.50625 284.19999] CT
0.149 GC
/Helvetica 16.667 F
GS
[1 0 0 1 0 0] CT
-12 18 moveto 
1 -1 scale
(0.5) t 
GR
GR
GS
[0.6 0 0 0.6 156.4125 284.19999] CT
0.149 GC
/Helvetica 16.667 F
GS
[1 0 0 1 0 0] CT
-5 18 moveto 
1 -1 scale
(1) t 
GR
GR
GS
[0.6 0 0 0.6 207.31875 284.19999] CT
0.149 GC
/Helvetica 16.667 F
GS
[1 0 0 1 0 0] CT
-12 18 moveto 
1 -1 scale
(1.5) t 
GR
GR
GS
[0.6 0 0 0.6 258.225 284.19999] CT
0.149 GC
/Helvetica 16.667 F
GS
[1 0 0 1 0 0] CT
-5 18 moveto 
1 -1 scale
(2) t 
GR
GR
GS
[0.6 0 0 0.6 309.13125 284.19999] CT
0.149 GC
/Helvetica 16.667 F
GS
[1 0 0 1 0 0] CT
-12 18 moveto 
1 -1 scale
(2.5) t 
GR
GR
GS
[0.6 0 0 0.6 360.0375 284.19999] CT
0.149 GC
/Helvetica 16.667 F
GS
[1 0 0 1 0 0] CT
-5 18 moveto 
1 -1 scale
(3) t 
GR
GR
GS
[0.6 0 0 0.6 217.50016 298.40001] CT
0.149 GC
N
-30.462 13.244 M
-30.462 8.275 L
-31.962 8.275 L
-31.962 7.806 L
-30.791 7.806 -30.236 6.705 QT
-29.681 5.603 -29.681 4.322 QT
-29.166 4.322 L
-29.166 7.634 L
-26.619 7.634 L
-26.619 8.275 L
-29.166 8.275 L
-29.166 13.197 L
-29.166 13.947 -28.916 14.509 QT
-28.666 15.072 -28.009 15.072 QT
-27.4 15.072 -27.126 14.478 QT
-26.853 13.884 -26.853 13.197 QT
-26.853 12.134 L
-26.322 12.134 L
-26.322 13.244 L
-26.322 13.806 -26.533 14.353 QT
-26.744 14.9 -27.15 15.251 QT
-27.556 15.603 -28.134 15.603 QT
-29.212 15.603 -29.837 14.955 QT
-30.462 14.306 -30.462 13.244 QT
cp
f
GR
GS
[0.6 0 0 0.6 217.50016 298.40001] CT
0.149 GC
N
-24.63 15.4 M
-24.63 14.759 L
-24.005 14.759 -23.614 14.666 QT
-23.223 14.572 -23.223 14.197 QT
-23.223 9.275 L
-23.223 8.587 -23.489 8.431 QT
-23.755 8.275 -24.536 8.275 QT
-24.536 7.634 L
-21.958 7.447 L
-21.958 14.197 L
-21.958 14.572 -21.614 14.666 QT
-21.27 14.759 -20.692 14.759 QT
-20.692 15.4 L
-24.63 15.4 L
cp
-23.864 4.353 M
-23.864 3.962 -23.559 3.658 QT
-23.255 3.353 -22.88 3.353 QT
-22.614 3.353 -22.38 3.486 QT
-22.145 3.619 -22.012 3.861 QT
-21.88 4.103 -21.88 4.353 QT
-21.88 4.744 -22.177 5.041 QT
-22.473 5.337 -22.88 5.337 QT
-23.255 5.337 -23.559 5.041 QT
-23.864 4.744 -23.864 4.353 QT
cp
f
GR
GS
[0.6 0 0 0.6 217.50016 298.40001] CT
0.149 GC
N
-19.553 15.4 M
-19.553 14.759 L
-18.928 14.759 -18.537 14.666 QT
-18.146 14.572 -18.146 14.197 QT
-18.146 9.275 L
-18.146 8.806 -18.287 8.587 QT
-18.428 8.369 -18.701 8.322 QT
-18.975 8.275 -19.553 8.275 QT
-19.553 7.634 L
-16.943 7.447 L
-16.943 9.197 L
-16.584 8.431 -15.873 7.939 QT
-15.162 7.447 -14.334 7.447 QT
-12.256 7.447 -11.896 9.134 QT
-11.537 8.384 -10.842 7.916 QT
-10.146 7.447 -9.318 7.447 QT
-8.506 7.447 -7.943 7.712 QT
-7.381 7.978 -7.1 8.517 QT
-6.818 9.056 -6.818 9.869 QT
-6.818 14.197 L
-6.818 14.572 -6.42 14.666 QT
-6.021 14.759 -5.412 14.759 QT
-5.412 15.4 L
-9.537 15.4 L
-9.537 14.759 L
-8.928 14.759 -8.529 14.666 QT
-8.131 14.572 -8.131 14.197 QT
-8.131 9.931 L
-8.131 9.025 -8.389 8.47 QT
-8.646 7.916 -9.428 7.916 QT
-10.475 7.916 -11.146 8.751 QT
-11.818 9.587 -11.818 10.65 QT
-11.818 14.197 L
-11.818 14.572 -11.428 14.666 QT
-11.037 14.759 -10.412 14.759 QT
-10.412 15.4 L
-14.537 15.4 L
-14.537 14.759 L
-13.928 14.759 -13.529 14.666 QT
-13.131 14.572 -13.131 14.197 QT
-13.131 9.931 L
-13.131 9.041 -13.389 8.478 QT
-13.646 7.916 -14.428 7.916 QT
-15.475 7.916 -16.146 8.751 QT
-16.818 9.587 -16.818 10.65 QT
-16.818 14.197 L
-16.818 14.572 -16.428 14.666 QT
-16.037 14.759 -15.428 14.759 QT
-15.428 15.4 L
-19.553 15.4 L
cp
f
GR
GS
[0.6 0 0 0.6 217.50016 298.40001] CT
0.149 GC
N
-0.322 15.603 M
-1.415 15.603 -2.337 15.025 QT
-3.259 14.447 -3.783 13.486 QT
-4.306 12.525 -4.306 11.447 QT
-4.306 10.4 -3.83 9.447 QT
-3.353 8.494 -2.494 7.916 QT
-1.634 7.337 -0.572 7.337 QT
0.241 7.337 0.858 7.611 QT
1.475 7.884 1.866 8.376 QT
2.256 8.869 2.46 9.541 QT
2.663 10.212 2.663 11.009 QT
2.663 11.244 2.475 11.244 QT
-2.728 11.244 L
-2.728 11.431 L
-2.728 12.931 -2.126 14.001 QT
-1.525 15.072 -0.165 15.072 QT
0.381 15.072 0.858 14.83 QT
1.335 14.587 1.678 14.142 QT
2.022 13.697 2.147 13.197 QT
2.163 13.134 2.21 13.087 QT
2.256 13.041 2.319 13.041 QT
2.475 13.041 L
2.663 13.041 2.663 13.275 QT
2.413 14.291 1.569 14.947 QT
0.725 15.603 -0.322 15.603 QT
cp
-2.712 10.791 M
1.397 10.791 L
1.397 10.119 1.202 9.423 QT
1.006 8.728 0.569 8.267 QT
0.131 7.806 -0.572 7.806 QT
-1.603 7.806 -2.158 8.759 QT
-2.712 9.712 -2.712 10.791 QT
cp
f
GR
GS
[0.6 0 0 0.6 217.50016 298.40001] CT
0.149 GC
N
15.031 19.869 M
14.031 19.072 13.305 18.048 QT
12.578 17.025 12.117 15.869 QT
11.656 14.712 11.43 13.447 QT
11.203 12.181 11.203 10.9 QT
11.203 9.603 11.43 8.337 QT
11.656 7.072 12.125 5.908 QT
12.594 4.744 13.328 3.72 QT
14.063 2.697 15.031 1.931 QT
15.031 1.9 15.125 1.9 QT
15.297 1.9 L
15.344 1.9 15.391 1.947 QT
15.438 1.994 15.438 2.056 QT
15.438 2.134 15.391 2.166 QT
14.516 3.041 13.93 4.025 QT
13.344 5.009 12.992 6.119 QT
12.641 7.228 12.477 8.416 QT
12.313 9.603 12.313 10.9 QT
12.313 16.619 15.375 19.587 QT
15.438 19.65 15.438 19.744 QT
15.438 19.791 15.383 19.845 QT
15.328 19.9 15.297 19.9 QT
15.125 19.9 L
15.031 19.9 15.031 19.869 QT
cp
f
GR
GS
[0.6 0 0 0.6 217.50016 298.40001] CT
0.149 GC
N
18.145 14.306 M
18.63 15.134 20.083 15.134 QT
20.723 15.134 21.294 14.916 QT
21.864 14.697 22.239 14.267 QT
22.614 13.837 22.614 13.212 QT
22.614 12.759 22.278 12.455 QT
21.942 12.15 21.458 12.056 QT
20.489 11.853 L
19.817 11.697 19.387 11.236 QT
18.958 10.775 18.958 10.119 QT
18.958 9.322 19.395 8.712 QT
19.833 8.103 20.544 7.775 QT
21.255 7.447 22.02 7.447 QT
22.833 7.447 23.481 7.837 QT
24.13 8.228 24.13 8.994 QT
24.13 9.4 23.895 9.72 QT
23.661 10.041 23.239 10.041 QT
23.005 10.041 22.833 9.884 QT
22.661 9.728 22.661 9.494 QT
22.661 9.275 22.778 9.08 QT
22.895 8.884 23.098 8.767 QT
23.302 8.65 23.505 8.65 QT
23.348 8.259 22.911 8.087 QT
22.473 7.916 21.973 7.916 QT
21.52 7.916 21.067 8.095 QT
20.614 8.275 20.333 8.634 QT
20.052 8.994 20.052 9.478 QT
20.052 9.806 20.278 10.048 QT
20.505 10.291 20.848 10.4 QT
21.895 10.603 L
22.395 10.712 22.809 10.978 QT
23.223 11.244 23.466 11.658 QT
23.708 12.072 23.708 12.603 QT
23.708 13.259 23.333 13.916 QT
22.958 14.572 22.427 14.947 QT
21.458 15.603 20.067 15.603 QT
19.114 15.603 18.317 15.166 QT
17.52 14.728 17.52 13.853 QT
17.52 13.353 17.802 12.994 QT
18.083 12.634 18.583 12.634 QT
18.864 12.634 19.067 12.806 QT
19.27 12.978 19.27 13.275 QT
19.27 13.681 18.958 13.994 QT
18.645 14.306 18.239 14.306 QT
18.145 14.306 L
cp
f
GR
GS
[0.6 0 0 0.6 217.50016 298.40001] CT
0.149 GC
N
26.348 19.9 M
26.192 19.9 26.192 19.744 QT
26.192 19.666 26.223 19.634 QT
29.302 16.619 29.302 10.9 QT
29.302 5.181 26.255 2.212 QT
26.192 2.166 26.192 2.056 QT
26.192 1.994 26.239 1.947 QT
26.286 1.9 26.348 1.9 QT
26.52 1.9 L
26.567 1.9 26.598 1.931 QT
27.895 2.947 28.755 4.408 QT
29.614 5.869 30.012 7.525 QT
30.411 9.181 30.411 10.9 QT
30.411 12.181 30.2 13.416 QT
29.989 14.65 29.52 15.845 QT
29.052 17.041 28.325 18.056 QT
27.598 19.072 26.598 19.869 QT
26.567 19.9 26.52 19.9 QT
26.348 19.9 L
cp
f
GR
GS
[0.6 0 0 0.6 0 0] CT
0.149 GC
2 setlinecap
1 LJ
0.833 LW
N
91 467 M
91 39 L
S
GR
GS
[0.6 0 0 0.6 0 0] CT
0.149 GC
2 setlinecap
1 LJ
0.833 LW
N
634 467 M
634 39 L
S
GR
GS
[0.6 0 0 0.6 0 0] CT
0.149 GC
2 setlinecap
1 LJ
0.833 LW
N
91 467 M
96.43 467 L
S
GR
GS
[0.6 0 0 0.6 0 0] CT
0.149 GC
2 setlinecap
1 LJ
0.833 LW
N
91 413.5 M
96.43 413.5 L
S
GR
GS
[0.6 0 0 0.6 0 0] CT
0.149 GC
2 setlinecap
1 LJ
0.833 LW
N
91 360 M
96.43 360 L
S
GR
GS
[0.6 0 0 0.6 0 0] CT
0.149 GC
2 setlinecap
1 LJ
0.833 LW
N
91 306.5 M
96.43 306.5 L
S
GR
GS
[0.6 0 0 0.6 0 0] CT
0.149 GC
2 setlinecap
1 LJ
0.833 LW
N
91 253 M
96.43 253 L
S
GR
GS
[0.6 0 0 0.6 0 0] CT
0.149 GC
2 setlinecap
1 LJ
0.833 LW
N
91 199.5 M
96.43 199.5 L
S
GR
GS
[0.6 0 0 0.6 0 0] CT
0.149 GC
2 setlinecap
1 LJ
0.833 LW
N
91 146 M
96.43 146 L
S
GR
GS
[0.6 0 0 0.6 0 0] CT
0.149 GC
2 setlinecap
1 LJ
0.833 LW
N
91 92.5 M
96.43 92.5 L
S
GR
GS
[0.6 0 0 0.6 0 0] CT
0.149 GC
2 setlinecap
1 LJ
0.833 LW
N
91 39 M
96.43 39 L
S
GR
GS
[0.6 0 0 0.6 0 0] CT
0.149 GC
2 setlinecap
1 LJ
0.833 LW
N
634 467 M
628.57 467 L
S
GR
GS
[0.6 0 0 0.6 0 0] CT
0.149 GC
2 setlinecap
1 LJ
0.833 LW
N
634 413.5 M
628.57 413.5 L
S
GR
GS
[0.6 0 0 0.6 0 0] CT
0.149 GC
2 setlinecap
1 LJ
0.833 LW
N
634 360 M
628.57 360 L
S
GR
GS
[0.6 0 0 0.6 0 0] CT
0.149 GC
2 setlinecap
1 LJ
0.833 LW
N
634 306.5 M
628.57 306.5 L
S
GR
GS
[0.6 0 0 0.6 0 0] CT
0.149 GC
2 setlinecap
1 LJ
0.833 LW
N
634 253 M
628.57 253 L
S
GR
GS
[0.6 0 0 0.6 0 0] CT
0.149 GC
2 setlinecap
1 LJ
0.833 LW
N
634 199.5 M
628.57 199.5 L
S
GR
GS
[0.6 0 0 0.6 0 0] CT
0.149 GC
2 setlinecap
1 LJ
0.833 LW
N
634 146 M
628.57 146 L
S
GR
GS
[0.6 0 0 0.6 0 0] CT
0.149 GC
2 setlinecap
1 LJ
0.833 LW
N
634 92.5 M
628.57 92.5 L
S
GR
GS
[0.6 0 0 0.6 0 0] CT
0.149 GC
2 setlinecap
1 LJ
0.833 LW
N
634 39 M
628.57 39 L
S
GR
GS
[0.6 0 0 0.6 50.6 280.2] CT
0.149 GC
/Helvetica 16.667 F
GS
[1 0 0 1 0 0] CT
-39 7 moveto 
1 -1 scale
(-0.02) t 
GR
GR
GS
[0.6 0 0 0.6 50.6 248.1] CT
0.149 GC
/Helvetica 16.667 F
GS
[1 0 0 1 0 0] CT
-49 7 moveto 
1 -1 scale
(-0.015) t 
GR
GR
GS
[0.6 0 0 0.6 50.6 216] CT
0.149 GC
/Helvetica 16.667 F
GS
[1 0 0 1 0 0] CT
-39 7 moveto 
1 -1 scale
(-0.01) t 
GR
GR
GS
[0.6 0 0 0.6 50.6 183.9] CT
0.149 GC
/Helvetica 16.667 F
GS
[1 0 0 1 0 0] CT
-49 7 moveto 
1 -1 scale
(-0.005) t 
GR
GR
GS
[0.6 0 0 0.6 50.6 151.8] CT
0.149 GC
/Helvetica 16.667 F
GS
[1 0 0 1 0 0] CT
-10 7 moveto 
1 -1 scale
(0) t 
GR
GR
GS
[0.6 0 0 0.6 50.6 119.7] CT
0.149 GC
/Helvetica 16.667 F
GS
[1 0 0 1 0 0] CT
-43 7 moveto 
1 -1 scale
(0.005) t 
GR
GR
GS
[0.6 0 0 0.6 50.6 87.6] CT
0.149 GC
/Helvetica 16.667 F
GS
[1 0 0 1 0 0] CT
-34 7 moveto 
1 -1 scale
(0.01) t 
GR
GR
GS
[0.6 0 0 0.6 50.6 55.5] CT
0.149 GC
/Helvetica 16.667 F
GS
[1 0 0 1 0 0] CT
-43 7 moveto 
1 -1 scale
(0.015) t 
GR
GR
GS
[0.6 0 0 0.6 50.6 23.4] CT
0.149 GC
/Helvetica 16.667 F
GS
[1 0 0 1 0 0] CT
-34 7 moveto 
1 -1 scale
(0.02) t 
GR
GR
GS
[0 -0.6 0.6 0 18.2 151.79988] CT
0.149 GC
N
-0.521 -17.647 M
-0.521 -18.038 -0.225 -18.342 QT
0.072 -18.647 0.463 -18.647 QT
0.713 -18.647 0.947 -18.514 QT
1.182 -18.381 1.315 -18.139 QT
1.447 -17.897 1.447 -17.647 QT
1.447 -17.256 1.158 -16.959 QT
0.869 -16.663 0.463 -16.663 QT
0.072 -16.663 -0.225 -16.959 QT
-0.521 -17.256 -0.521 -17.647 QT
cp
f
GR
GS
[0 -0.6 0.6 0 18.2 151.79988] CT
0.149 GC
N
-3.833 -7.116 M
-3.52 -6.866 -2.942 -6.866 QT
-2.38 -6.866 -1.942 -7.413 QT
-1.505 -7.959 -1.348 -8.6 QT
-0.536 -11.788 L
-0.348 -12.663 -0.348 -12.975 QT
-0.348 -13.428 -0.598 -13.756 QT
-0.848 -14.084 -1.286 -14.084 QT
-1.864 -14.084 -2.364 -13.733 QT
-2.864 -13.381 -3.208 -12.827 QT
-3.551 -12.272 -3.692 -11.709 QT
-3.723 -11.6 -3.833 -11.6 QT
-4.051 -11.6 L
-4.192 -11.6 -4.192 -11.772 QT
-4.192 -11.819 L
-4.02 -12.491 -3.598 -13.124 QT
-3.176 -13.756 -2.567 -14.155 QT
-1.958 -14.553 -1.255 -14.553 QT
-0.598 -14.553 -0.067 -14.202 QT
0.464 -13.85 0.683 -13.241 QT
0.995 -13.803 1.472 -14.178 QT
1.949 -14.553 2.527 -14.553 QT
2.902 -14.553 3.308 -14.42 QT
3.714 -14.288 3.972 -14.006 QT
4.23 -13.725 4.23 -13.303 QT
4.23 -12.834 3.933 -12.506 QT
3.636 -12.178 3.183 -12.178 QT
2.886 -12.178 2.699 -12.366 QT
2.511 -12.553 2.511 -12.834 QT
2.511 -13.209 2.769 -13.499 QT
3.027 -13.788 3.386 -13.834 QT
3.058 -14.084 2.48 -14.084 QT
1.902 -14.084 1.48 -13.553 QT
1.058 -13.022 0.886 -12.35 QT
0.089 -9.178 L
-0.098 -8.459 -0.098 -7.991 QT
-0.098 -7.538 0.159 -7.202 QT
0.417 -6.866 0.839 -6.866 QT
1.683 -6.866 2.347 -7.616 QT
3.011 -8.366 3.23 -9.241 QT
3.261 -9.35 3.37 -9.35 QT
3.589 -9.35 L
3.652 -9.35 3.699 -9.303 QT
3.745 -9.256 3.745 -9.194 QT
3.745 -9.178 3.73 -9.147 QT
3.464 -8.069 2.652 -7.233 QT
1.839 -6.397 0.808 -6.397 QT
0.152 -6.397 -0.38 -6.756 QT
-0.911 -7.116 -1.13 -7.709 QT
-1.411 -7.194 -1.911 -6.795 QT
-2.411 -6.397 -2.973 -6.397 QT
-3.364 -6.397 -3.77 -6.538 QT
-4.176 -6.678 -4.434 -6.959 QT
-4.692 -7.241 -4.692 -7.663 QT
-4.692 -8.084 -4.395 -8.436 QT
-4.098 -8.788 -3.661 -8.788 QT
-3.364 -8.788 -3.161 -8.6 QT
-2.958 -8.413 -2.958 -8.131 QT
-2.958 -7.756 -3.208 -7.475 QT
-3.458 -7.194 -3.833 -7.116 QT
cp
f
GR
GS
[0.6 0 0 0.6 0 0] CT
0 0.447 0.741 RC
1 LJ
3.333 LW
N
91 260.327 M
91.848 255.121 L
92.697 255.121 L
93.545 244.708 L
94.394 261.108 L
95.242 250.695 L
96.091 250.695 L
96.939 242.885 L
97.787 245.489 L
98.636 253.298 L
99.484 248.092 L
100.333 250.695 L
101.181 253.298 L
102.03 255.901 L
102.878 239.757 L
103.727 244.963 L
104.575 244.963 L
105.423 255.376 L
106.272 234.551 L
107.12 242.36 L
107.969 252.773 L
108.817 247.566 L
109.666 242.36 L
110.514 244.963 L
111.363 252.677 L
112.211 252.677 L
113.059 255.28 L
113.908 247.47 L
114.756 255.28 L
115.605 260.486 L
116.453 250.073 L
117.302 244.867 L
118.15 260.486 L
118.998 255.28 L
119.847 242.389 L
120.695 250.198 L
121.544 252.801 L
122.392 255.405 L
123.241 250.198 L
124.089 244.992 L
124.938 258.008 L
125.786 258.008 L
126.634 247.595 L
127.483 252.801 L
128.331 262.102 L
129.18 262.102 L
130.028 251.69 L
130.877 241.277 L
131.725 262.102 L
132.573 262.102 L
133.422 241.277 L
134.27 246.483 L
135.119 256.896 L
135.967 254.293 L
136.816 240.368 L
137.664 250.78 L
138.512 253.384 L
139.361 253.384 L
140.209 248.177 L
141.058 250.78 L
141.906 258.59 L
142.755 255.987 L
143.603 253.384 L
144.452 253.384 L
145.3 263.464 L
146.148 260.861 L
146.997 255.655 L
147.845 258.258 L
148.694 255.655 L
149.542 258.258 L
150.391 255.655 L
151.239 242.639 L
152.088 242.639 L
152.936 253.052 L
153.784 243.807 L
154.633 235.998 L
155.481 246.411 L
156.33 238.601 L
157.178 217.776 L
158.027 228.188 L
158.875 222.982 L
159.723 235.998 L
160.572 222.982 L
161.42 230.792 L
162.269 234.339 L
163.117 239.545 L
163.966 226.529 L
164.814 229.132 L
165.663 234.339 L
166.511 242.148 L
167.359 231.735 L
168.208 231.735 L
169.056 234.339 L
169.905 236.942 L
170.753 244.143 L
171.602 238.936 L
172.45 244.143 L
173.298 244.143 L
174.147 241.539 L
174.995 233.73 L
175.844 246.746 L
176.692 244.143 L
177.541 238.936 L
178.389 238.936 L
179.238 239.751 L
180.086 242.354 L
180.934 234.545 L
181.783 239.751 L
182.631 244.957 L
183.48 250.164 L
184.328 247.56 L
185.177 244.957 L
186.025 244.957 L
186.873 244.957 L
187.722 250.07 L
188.57 247.467 L
189.419 265.689 L
190.267 250.07 L
191.116 247.467 L
191.964 237.054 L
192.813 247.467 L
193.661 255.276 L
194.509 244.863 L
195.358 247.467 L
196.206 248.597 L
197.055 256.407 L
197.903 243.391 L
198.752 248.597 L
199.6 245.994 L
200.448 261.613 L
201.297 245.994 L
202.145 238.184 L
202.994 251.2 L
203.842 248.597 L
204.691 255.502 L
205.539 242.487 L
206.387 250.296 L
207.236 252.899 L
208.084 252.899 L
208.933 239.883 L
209.781 258.106 L
210.63 250.296 L
211.478 252.899 L
212.327 247.693 L
213.175 254.537 L
214.023 254.537 L
214.872 231.108 L
215.72 246.727 L
216.569 257.14 L
217.417 251.934 L
218.266 241.521 L
219.114 251.934 L
219.962 254.537 L
220.811 246.727 L
221.659 243.531 L
222.508 248.737 L
223.356 256.547 L
224.205 253.944 L
225.053 238.325 L
225.902 248.737 L
226.75 248.737 L
227.598 248.737 L
228.447 246.134 L
229.295 243.531 L
230.144 252.391 L
230.992 252.391 L
231.841 249.788 L
232.689 247.185 L
233.537 247.185 L
234.386 254.994 L
235.234 244.582 L
236.083 247.185 L
236.931 254.994 L
237.78 254.994 L
238.628 242.213 L
239.477 244.817 L
240.325 255.229 L
241.173 255.229 L
242.022 250.023 L
242.87 250.023 L
243.719 263.039 L
244.567 257.832 L
245.416 252.626 L
246.264 244.817 L
247.113 264.598 L
247.961 256.788 L
248.809 248.979 L
249.658 248.979 L
250.506 256.788 L
251.355 267.201 L
252.203 256.788 L
253.052 256.788 L
253.9 259.392 L
254.748 264.598 L
255.597 244.504 L
256.445 244.504 L
257.294 247.107 L
258.142 252.313 L
258.991 241.9 L
259.839 244.504 L
260.688 260.123 L
261.536 252.313 L
262.384 247.107 L
263.233 252.313 L
264.081 260.798 L
264.93 260.798 L
265.778 258.195 L
266.627 255.592 L
267.475 260.798 L
268.323 263.401 L
269.172 250.385 L
270.02 247.782 L
270.869 260.798 L
271.717 255.592 L
272.566 252.583 L
273.414 252.583 L
274.263 257.789 L
275.111 260.392 L
275.959 247.376 L
276.808 242.17 L
277.656 262.995 L
278.505 260.392 L
279.353 255.186 L
280.202 247.376 L
281.05 252.744 L
281.898 257.95 L
282.747 242.331 L
283.595 242.331 L
284.444 247.537 L
285.292 257.95 L
286.141 247.537 L
286.989 257.95 L
287.837 257.95 L
288.686 263.156 L
289.534 252.843 L
290.383 255.446 L
291.231 255.446 L
292.08 258.049 L
292.928 252.843 L
293.777 242.43 L
294.625 250.239 L
295.473 263.255 L
296.322 255.446 L
297.17 250.239 L
298.019 258.11 L
298.867 252.903 L
299.716 245.094 L
300.564 252.903 L
301.413 260.713 L
302.261 258.11 L
303.109 250.3 L
303.958 252.903 L
304.806 250.3 L
305.655 252.903 L
306.503 256.138 L
307.352 250.932 L
308.2 250.932 L
309.048 258.741 L
309.897 240.519 L
310.745 253.535 L
311.594 258.741 L
312.442 258.741 L
313.291 248.328 L
314.139 250.932 L
314.988 249.721 L
315.836 252.324 L
316.684 244.514 L
317.533 244.514 L
318.381 254.927 L
319.23 254.927 L
320.078 254.927 L
320.927 236.705 L
321.775 257.53 L
322.623 254.927 L
323.472 240.573 L
324.32 245.78 L
325.169 248.383 L
326.017 256.193 L
326.866 248.383 L
327.714 250.986 L
328.563 250.986 L
329.411 253.589 L
330.259 245.78 L
331.108 250.986 L
331.956 266.194 L
332.805 253.178 L
333.653 253.178 L
334.502 255.781 L
335.35 250.575 L
336.198 260.988 L
337.047 253.178 L
337.895 258.384 L
338.744 255.781 L
339.592 255.781 L
340.441 250.69 L
341.289 237.674 L
342.138 258.5 L
342.986 250.69 L
343.834 248.087 L
344.683 240.277 L
345.531 250.69 L
346.38 253.293 L
347.228 250.69 L
348.077 250.69 L
348.925 256.788 L
349.773 254.185 L
350.622 243.772 L
351.47 248.978 L
352.319 248.978 L
353.167 264.597 L
354.016 254.185 L
354.864 246.375 L
355.712 259.391 L
356.561 256.788 L
357.409 244.913 L
358.258 239.707 L
359.106 252.723 L
359.955 252.723 L
360.803 250.12 L
361.652 247.517 L
362.5 255.326 L
363.348 250.12 L
364.197 257.929 L
365.045 247.517 L
365.894 253.24 L
366.742 255.843 L
367.591 253.24 L
368.439 245.431 L
369.288 255.843 L
370.136 258.447 L
370.984 248.034 L
371.833 250.637 L
372.681 258.447 L
373.53 258.447 L
374.378 253.147 L
375.227 245.338 L
376.075 255.751 L
376.923 250.544 L
377.772 255.751 L
378.62 242.735 L
379.469 255.751 L
380.317 255.751 L
381.166 260.957 L
382.014 253.147 L
382.863 258.297 L
383.711 258.297 L
384.559 250.487 L
385.408 250.487 L
386.256 253.091 L
387.105 258.297 L
387.953 253.091 L
388.802 245.281 L
389.65 258.297 L
390.498 255.694 L
391.347 251.047 L
392.195 248.443 L
393.044 251.047 L
393.892 258.856 L
394.741 253.65 L
395.589 240.634 L
396.438 253.65 L
397.286 256.253 L
398.134 243.237 L
398.983 248.443 L
399.831 246.594 L
400.68 259.61 L
401.528 246.594 L
402.377 246.594 L
403.225 257.007 L
404.073 259.61 L
404.922 254.404 L
405.77 249.197 L
406.619 251.8 L
407.467 254.404 L
408.316 241.256 L
409.164 243.86 L
410.013 251.669 L
410.861 246.463 L
411.709 251.669 L
412.558 238.653 L
413.406 251.669 L
414.255 243.86 L
415.103 238.653 L
415.952 238.653 L
416.8 253.597 L
417.648 256.201 L
418.497 253.597 L
419.345 248.391 L
420.194 258.804 L
421.042 250.994 L
421.891 232.772 L
422.739 243.185 L
423.587 250.994 L
424.436 250.994 L
425.284 242.954 L
426.133 240.351 L
426.981 250.764 L
427.83 245.557 L
428.678 240.351 L
429.527 248.161 L
430.375 250.764 L
431.223 248.161 L
432.072 253.367 L
432.92 240.351 L
433.769 259.846 L
434.617 262.45 L
435.466 246.831 L
436.314 252.037 L
437.163 254.64 L
438.011 257.243 L
438.859 257.243 L
439.708 246.831 L
440.556 257.243 L
441.405 262.45 L
442.253 238.982 L
443.102 249.395 L
443.95 254.601 L
444.798 254.601 L
445.647 249.395 L
446.495 244.189 L
447.344 246.792 L
448.192 259.808 L
449.041 254.601 L
449.889 249.395 L
450.737 254.804 L
451.586 265.217 L
452.434 257.407 L
453.283 254.804 L
454.131 262.614 L
454.98 260.01 L
455.828 249.598 L
456.677 252.201 L
457.525 260.01 L
458.373 265.217 L
459.222 248.902 L
460.07 251.505 L
460.919 256.711 L
461.767 256.711 L
462.616 254.108 L
463.464 251.505 L
464.313 261.917 L
465.161 264.521 L
466.009 233.282 L
466.858 251.505 L
467.706 255.689 L
468.555 260.896 L
469.403 247.88 L
470.252 247.88 L
471.1 258.293 L
471.948 263.499 L
472.797 255.689 L
473.645 253.086 L
474.494 266.102 L
475.342 258.293 L
476.191 249.445 L
477.039 257.255 L
477.887 265.064 L
478.736 257.255 L
479.584 254.652 L
480.433 252.048 L
481.281 259.858 L
482.13 262.461 L
482.978 244.239 L
483.827 246.842 L
484.675 261.23 L
485.523 256.023 L
486.372 245.611 L
487.22 248.214 L
488.069 253.42 L
488.917 263.833 L
489.766 248.214 L
490.614 253.42 L
491.462 258.626 L
492.311 261.23 L
493.159 245.038 L
494.008 245.038 L
494.856 258.054 L
495.705 255.451 L
496.553 252.848 L
497.402 242.435 L
498.25 252.848 L
499.098 258.054 L
499.947 252.848 L
500.795 247.641 L
501.644 255.92 L
502.492 258.523 L
503.341 245.507 L
504.189 245.507 L
505.038 250.714 L
505.886 255.92 L
506.734 248.11 L
507.583 250.714 L
508.431 261.126 L
509.28 263.729 L
510.128 249.587 L
510.977 244.38 L
511.825 257.396 L
512.673 257.396 L
513.522 254.793 L
514.37 244.38 L
515.219 257.396 L
516.067 260 L
516.916 252.19 L
517.764 252.19 L
518.612 256.11 L
519.461 261.317 L
520.309 248.301 L
521.158 245.698 L
522.006 258.713 L
522.855 261.317 L
523.703 256.11 L
524.552 250.904 L
525.4 253.507 L
526.248 256.11 L
527.097 249.704 L
527.945 247.101 L
528.794 254.91 L
529.642 262.72 L
530.491 257.513 L
531.339 252.307 L
532.188 254.91 L
533.036 257.513 L
533.884 252.307 L
534.733 249.704 L
535.581 253.579 L
536.43 261.388 L
537.278 253.579 L
538.127 253.579 L
538.975 250.976 L
539.823 253.579 L
540.672 245.769 L
541.52 256.182 L
542.369 248.372 L
543.217 261.388 L
544.066 250.752 L
544.914 248.149 L
545.763 255.959 L
546.611 253.355 L
547.459 253.355 L
548.308 258.562 L
549.156 250.752 L
550.005 253.355 L
550.853 245.546 L
551.702 258.562 L
552.55 264.636 L
553.398 264.636 L
554.247 251.62 L
555.095 249.016 L
555.944 264.636 L
556.792 256.826 L
557.641 254.223 L
558.489 256.826 L
559.338 262.032 L
560.186 251.62 L
561.034 244.527 L
561.883 247.13 L
562.731 254.939 L
563.58 257.543 L
564.428 241.923 L
565.277 252.336 L
566.125 247.13 L
566.973 254.939 L
567.822 247.13 L
568.67 241.923 L
569.519 255.606 L
570.367 260.812 L
571.216 255.606 L
572.064 255.606 L
572.912 253.003 L
573.761 253.003 L
574.609 250.399 L
575.458 255.606 L
576.306 255.606 L
577.155 260.812 L
578.003 254.6 L
578.852 246.791 L
579.7 259.807 L
580.548 254.6 L
581.397 249.394 L
582.245 251.997 L
583.094 259.807 L
583.942 259.807 L
584.791 251.997 L
585.639 251.997 L
586.487 251.38 L
587.336 256.586 L
588.184 248.776 L
589.033 246.173 L
589.881 253.983 L
590.73 264.396 L
591.578 253.983 L
592.427 243.57 L
593.275 253.983 L
594.123 259.189 L
594.972 257.211 L
595.82 244.195 L
596.669 257.211 L
597.517 259.814 L
598.366 252.005 L
599.214 246.799 L
600.063 257.211 L
600.911 262.418 L
601.759 241.592 L
602.608 252.005 L
603.456 255.586 L
604.305 255.586 L
605.153 247.777 L
606.002 250.38 L
606.85 258.189 L
607.698 252.983 L
608.547 247.777 L
609.395 245.174 L
610.244 255.586 L
611.092 258.189 L
611.941 249.382 L
612.789 241.572 L
613.638 257.191 L
614.486 251.985 L
615.334 236.366 L
616.183 241.572 L
617.031 257.191 L
S
GR
%%Trailer
%%Pages: 1
%%EOF
