%!PS-Adobe-3.0 EPSF-3.0
%%Creator: (MATLAB, The Mathworks, Inc. Version 9.1.0.441655 \(R2016b\). Operating System: Windows 8)
%%Title: C:/Users/simon/Documents/Unief/M1/CACSD_MPC/Exercises/Practicum/cacsd/report/images/poles_lqr.eps
%%CreationDate: 2017-05-11T19:45:13
%%Pages: (atend)
%%BoundingBox: 0 0 420 315
%%LanguageLevel: 3
%%EndComments
%%BeginProlog
%%BeginResource: procset (Apache XML Graphics Std ProcSet) 1.2 0
%%Version: 1.2 0
%%Copyright: (Copyright 2001-2003,2010 The Apache Software Foundation. License terms: http://www.apache.org/licenses/LICENSE-2.0)
/bd{bind def}bind def
/ld{load def}bd
/GR/grestore ld
/M/moveto ld
/LJ/setlinejoin ld
/C/curveto ld
/f/fill ld
/LW/setlinewidth ld
/GC/setgray ld
/t/show ld
/N/newpath ld
/CT/concat ld
/cp/closepath ld
/S/stroke ld
/L/lineto ld
/CC/setcmykcolor ld
/A/ashow ld
/GS/gsave ld
/RC/setrgbcolor ld
/RM/rmoveto ld
/ML/setmiterlimit ld
/re {4 2 roll M
1 index 0 rlineto
0 exch rlineto
neg 0 rlineto
cp } bd
/_ctm matrix def
/_tm matrix def
/BT { _ctm currentmatrix pop matrix _tm copy pop 0 0 moveto } bd
/ET { _ctm setmatrix } bd
/iTm { _ctm setmatrix _tm concat } bd
/Tm { _tm astore pop iTm 0 0 moveto } bd
/ux 0.0 def
/uy 0.0 def
/F {
  /Tp exch def
  /Tf exch def
  Tf findfont Tp scalefont setfont
  /cf Tf def  /cs Tp def
} bd
/ULS {currentpoint /uy exch def /ux exch def} bd
/ULE {
  /Tcx currentpoint pop def
  gsave
  newpath
  cf findfont cs scalefont dup
  /FontMatrix get 0 get /Ts exch def /FontInfo get dup
  /UnderlinePosition get Ts mul /To exch def
  /UnderlineThickness get Ts mul /Tt exch def
  ux uy To add moveto  Tcx uy To add lineto
  Tt setlinewidth stroke
  grestore
} bd
/OLE {
  /Tcx currentpoint pop def
  gsave
  newpath
  cf findfont cs scalefont dup
  /FontMatrix get 0 get /Ts exch def /FontInfo get dup
  /UnderlinePosition get Ts mul /To exch def
  /UnderlineThickness get Ts mul /Tt exch def
  ux uy To add cs add moveto Tcx uy To add cs add lineto
  Tt setlinewidth stroke
  grestore
} bd
/SOE {
  /Tcx currentpoint pop def
  gsave
  newpath
  cf findfont cs scalefont dup
  /FontMatrix get 0 get /Ts exch def /FontInfo get dup
  /UnderlinePosition get Ts mul /To exch def
  /UnderlineThickness get Ts mul /Tt exch def
  ux uy To add cs 10 mul 26 idiv add moveto Tcx uy To add cs 10 mul 26 idiv add lineto
  Tt setlinewidth stroke
  grestore
} bd
/QT {
/Y22 exch store
/X22 exch store
/Y21 exch store
/X21 exch store
currentpoint
/Y21 load 2 mul add 3 div exch
/X21 load 2 mul add 3 div exch
/X21 load 2 mul /X22 load add 3 div
/Y21 load 2 mul /Y22 load add 3 div
/X22 load /Y22 load curveto
} bd
/SSPD {
dup length /d exch dict def
{
/v exch def
/k exch def
currentpagedevice k known {
/cpdv currentpagedevice k get def
v cpdv ne {
/upd false def
/nullv v type /nulltype eq def
/nullcpdv cpdv type /nulltype eq def
nullv nullcpdv or
{
/upd true def
} {
/sametype v type cpdv type eq def
sametype {
v type /arraytype eq {
/vlen v length def
/cpdvlen cpdv length def
vlen cpdvlen eq {
0 1 vlen 1 sub {
/i exch def
/obj v i get def
/cpdobj cpdv i get def
obj cpdobj ne {
/upd true def
exit
} if
} for
} {
/upd true def
} ifelse
} {
v type /dicttype eq {
v {
/dv exch def
/dk exch def
/cpddv cpdv dk get def
dv cpddv ne {
/upd true def
exit
} if
} forall
} {
/upd true def
} ifelse
} ifelse
} if
} ifelse
upd true eq {
d k v put
} if
} if
} if
} forall
d length 0 gt {
d setpagedevice
} if
} bd
/RE { % /NewFontName [NewEncodingArray] /FontName RE -
  findfont dup length dict begin
  {
    1 index /FID ne
    {def} {pop pop} ifelse
  } forall
  /Encoding exch def
  /FontName 1 index def
  currentdict definefont pop
  end
} bind def
%%EndResource
%%BeginResource: procset (Apache XML Graphics EPS ProcSet) 1.0 0
%%Version: 1.0 0
%%Copyright: (Copyright 2002-2003 The Apache Software Foundation. License terms: http://www.apache.org/licenses/LICENSE-2.0)
/BeginEPSF { %def
/b4_Inc_state save def         % Save state for cleanup
/dict_count countdictstack def % Count objects on dict stack
/op_count count 1 sub def      % Count objects on operand stack
userdict begin                 % Push userdict on dict stack
/showpage { } def              % Redefine showpage, { } = null proc
0 setgray 0 setlinecap         % Prepare graphics state
1 setlinewidth 0 setlinejoin
10 setmiterlimit [ ] 0 setdash newpath
/languagelevel where           % If level not equal to 1 then
{pop languagelevel             % set strokeadjust and
1 ne                           % overprint to their defaults.
{false setstrokeadjust false setoverprint
} if
} if
} bd
/EndEPSF { %def
count op_count sub {pop} repeat            % Clean up stacks
countdictstack dict_count sub {end} repeat
b4_Inc_state restore
} bd
%%EndResource
%FOPBeginFontDict
%%IncludeResource: font Courier-Bold
%%IncludeResource: font Helvetica
%%IncludeResource: font Courier-BoldOblique
%%IncludeResource: font Courier-Oblique
%%IncludeResource: font Times-Roman
%%IncludeResource: font Helvetica-BoldOblique
%%IncludeResource: font Helvetica-Bold
%%IncludeResource: font Helvetica-Oblique
%%IncludeResource: font Times-BoldItalic
%%IncludeResource: font Courier
%%IncludeResource: font Times-Italic
%%IncludeResource: font Times-Bold
%%IncludeResource: font Symbol
%%IncludeResource: font ZapfDingbats
%FOPEndFontDict
%%BeginResource: encoding WinAnsiEncoding
/WinAnsiEncoding [
/.notdef /.notdef /.notdef /.notdef /.notdef
/.notdef /.notdef /.notdef /.notdef /.notdef
/.notdef /.notdef /.notdef /.notdef /.notdef
/.notdef /.notdef /.notdef /.notdef /.notdef
/.notdef /.notdef /.notdef /.notdef /.notdef
/.notdef /.notdef /.notdef /.notdef /.notdef
/.notdef /.notdef /space /exclam /quotedbl
/numbersign /dollar /percent /ampersand /quotesingle
/parenleft /parenright /asterisk /plus /comma
/hyphen /period /slash /zero /one
/two /three /four /five /six
/seven /eight /nine /colon /semicolon
/less /equal /greater /question /at
/A /B /C /D /E
/F /G /H /I /J
/K /L /M /N /O
/P /Q /R /S /T
/U /V /W /X /Y
/Z /bracketleft /backslash /bracketright /asciicircum
/underscore /quoteleft /a /b /c
/d /e /f /g /h
/i /j /k /l /m
/n /o /p /q /r
/s /t /u /v /w
/x /y /z /braceleft /bar
/braceright /asciitilde /bullet /Euro /bullet
/quotesinglbase /florin /quotedblbase /ellipsis /dagger
/daggerdbl /circumflex /perthousand /Scaron /guilsinglleft
/OE /bullet /Zcaron /bullet /bullet
/quoteleft /quoteright /quotedblleft /quotedblright /bullet
/endash /emdash /asciitilde /trademark /scaron
/guilsinglright /oe /bullet /zcaron /Ydieresis
/space /exclamdown /cent /sterling /currency
/yen /brokenbar /section /dieresis /copyright
/ordfeminine /guillemotleft /logicalnot /sfthyphen /registered
/macron /degree /plusminus /twosuperior /threesuperior
/acute /mu /paragraph /middot /cedilla
/onesuperior /ordmasculine /guillemotright /onequarter /onehalf
/threequarters /questiondown /Agrave /Aacute /Acircumflex
/Atilde /Adieresis /Aring /AE /Ccedilla
/Egrave /Eacute /Ecircumflex /Edieresis /Igrave
/Iacute /Icircumflex /Idieresis /Eth /Ntilde
/Ograve /Oacute /Ocircumflex /Otilde /Odieresis
/multiply /Oslash /Ugrave /Uacute /Ucircumflex
/Udieresis /Yacute /Thorn /germandbls /agrave
/aacute /acircumflex /atilde /adieresis /aring
/ae /ccedilla /egrave /eacute /ecircumflex
/edieresis /igrave /iacute /icircumflex /idieresis
/eth /ntilde /ograve /oacute /ocircumflex
/otilde /odieresis /divide /oslash /ugrave
/uacute /ucircumflex /udieresis /yacute /thorn
/ydieresis
] def
%%EndResource
%FOPBeginFontReencode
/Courier-Bold findfont
dup length dict begin
  {1 index /FID ne {def} {pop pop} ifelse} forall
  /Encoding WinAnsiEncoding def
  currentdict
end
/Courier-Bold exch definefont pop
/Helvetica findfont
dup length dict begin
  {1 index /FID ne {def} {pop pop} ifelse} forall
  /Encoding WinAnsiEncoding def
  currentdict
end
/Helvetica exch definefont pop
/Courier-BoldOblique findfont
dup length dict begin
  {1 index /FID ne {def} {pop pop} ifelse} forall
  /Encoding WinAnsiEncoding def
  currentdict
end
/Courier-BoldOblique exch definefont pop
/Courier-Oblique findfont
dup length dict begin
  {1 index /FID ne {def} {pop pop} ifelse} forall
  /Encoding WinAnsiEncoding def
  currentdict
end
/Courier-Oblique exch definefont pop
/Times-Roman findfont
dup length dict begin
  {1 index /FID ne {def} {pop pop} ifelse} forall
  /Encoding WinAnsiEncoding def
  currentdict
end
/Times-Roman exch definefont pop
/Helvetica-BoldOblique findfont
dup length dict begin
  {1 index /FID ne {def} {pop pop} ifelse} forall
  /Encoding WinAnsiEncoding def
  currentdict
end
/Helvetica-BoldOblique exch definefont pop
/Helvetica-Bold findfont
dup length dict begin
  {1 index /FID ne {def} {pop pop} ifelse} forall
  /Encoding WinAnsiEncoding def
  currentdict
end
/Helvetica-Bold exch definefont pop
/Helvetica-Oblique findfont
dup length dict begin
  {1 index /FID ne {def} {pop pop} ifelse} forall
  /Encoding WinAnsiEncoding def
  currentdict
end
/Helvetica-Oblique exch definefont pop
/Times-BoldItalic findfont
dup length dict begin
  {1 index /FID ne {def} {pop pop} ifelse} forall
  /Encoding WinAnsiEncoding def
  currentdict
end
/Times-BoldItalic exch definefont pop
/Courier findfont
dup length dict begin
  {1 index /FID ne {def} {pop pop} ifelse} forall
  /Encoding WinAnsiEncoding def
  currentdict
end
/Courier exch definefont pop
/Times-Italic findfont
dup length dict begin
  {1 index /FID ne {def} {pop pop} ifelse} forall
  /Encoding WinAnsiEncoding def
  currentdict
end
/Times-Italic exch definefont pop
/Times-Bold findfont
dup length dict begin
  {1 index /FID ne {def} {pop pop} ifelse} forall
  /Encoding WinAnsiEncoding def
  currentdict
end
/Times-Bold exch definefont pop
%FOPEndFontReencode
%%EndProlog
%%Page: 1 1
%%PageBoundingBox: 0 0 420 315
%%BeginPageSetup
[1 0 0 -1 0 315] CT
%%EndPageSetup
GS
[0.6 0 0 0.6 0 0] CT
1 GC
N
0 0 700 525 re
f
GR
GS
[0.6 0 0 0.6 0 0] CT
1 GC
N
0 0 700 525 re
f
GR
GS
[0.6 0 0 0.6 0 0] CT
1 GC
N
91 467 M
634 467 L
634 39 L
91 39 L
cp
f
GR
GS
[0.6 0 0 0.6 0 0] CT
0.149 GC
2 setlinecap
1 LJ
0.833 LW
N
91 467 M
634 467 L
S
GR
GS
[0.6 0 0 0.6 0 0] CT
0.149 GC
2 setlinecap
1 LJ
0.833 LW
N
91 39 M
634 39 L
S
GR
GS
[0.6 0 0 0.6 0 0] CT
0.149 GC
2 setlinecap
1 LJ
0.833 LW
N
131.522 467 M
131.522 461.57 L
S
GR
GS
[0.6 0 0 0.6 0 0] CT
0.149 GC
2 setlinecap
1 LJ
0.833 LW
N
212.567 467 M
212.567 461.57 L
S
GR
GS
[0.6 0 0 0.6 0 0] CT
0.149 GC
2 setlinecap
1 LJ
0.833 LW
N
293.612 467 M
293.612 461.57 L
S
GR
GS
[0.6 0 0 0.6 0 0] CT
0.149 GC
2 setlinecap
1 LJ
0.833 LW
N
374.657 467 M
374.657 461.57 L
S
GR
GS
[0.6 0 0 0.6 0 0] CT
0.149 GC
2 setlinecap
1 LJ
0.833 LW
N
455.702 467 M
455.702 461.57 L
S
GR
GS
[0.6 0 0 0.6 0 0] CT
0.149 GC
2 setlinecap
1 LJ
0.833 LW
N
536.746 467 M
536.746 461.57 L
S
GR
GS
[0.6 0 0 0.6 0 0] CT
0.149 GC
2 setlinecap
1 LJ
0.833 LW
N
617.791 467 M
617.791 461.57 L
S
GR
GS
[0.6 0 0 0.6 0 0] CT
0.149 GC
2 setlinecap
1 LJ
0.833 LW
N
131.522 39 M
131.522 44.43 L
S
GR
GS
[0.6 0 0 0.6 0 0] CT
0.149 GC
2 setlinecap
1 LJ
0.833 LW
N
212.567 39 M
212.567 44.43 L
S
GR
GS
[0.6 0 0 0.6 0 0] CT
0.149 GC
2 setlinecap
1 LJ
0.833 LW
N
293.612 39 M
293.612 44.43 L
S
GR
GS
[0.6 0 0 0.6 0 0] CT
0.149 GC
2 setlinecap
1 LJ
0.833 LW
N
374.657 39 M
374.657 44.43 L
S
GR
GS
[0.6 0 0 0.6 0 0] CT
0.149 GC
2 setlinecap
1 LJ
0.833 LW
N
455.702 39 M
455.702 44.43 L
S
GR
GS
[0.6 0 0 0.6 0 0] CT
0.149 GC
2 setlinecap
1 LJ
0.833 LW
N
536.746 39 M
536.746 44.43 L
S
GR
GS
[0.6 0 0 0.6 0 0] CT
0.149 GC
2 setlinecap
1 LJ
0.833 LW
N
617.791 39 M
617.791 44.43 L
S
GR
GS
[0.6 0 0 0.6 78.91343 284.19999] CT
0.149 GC
/Helvetica 16.667 F
GS
[1 0 0 1 0 0] CT
-12.5 18 moveto 
1 -1 scale
(-60) t 
GR
GR
GS
[0.6 0 0 0.6 127.5403 284.19999] CT
0.149 GC
/Helvetica 16.667 F
GS
[1 0 0 1 0 0] CT
-12.5 18 moveto 
1 -1 scale
(-50) t 
GR
GR
GS
[0.6 0 0 0.6 176.16716 284.19999] CT
0.149 GC
/Helvetica 16.667 F
GS
[1 0 0 1 0 0] CT
-12.5 18 moveto 
1 -1 scale
(-40) t 
GR
GR
GS
[0.6 0 0 0.6 224.79402 284.19999] CT
0.149 GC
/Helvetica 16.667 F
GS
[1 0 0 1 0 0] CT
-12.5 18 moveto 
1 -1 scale
(-30) t 
GR
GR
GS
[0.6 0 0 0.6 273.4209 284.19999] CT
0.149 GC
/Helvetica 16.667 F
GS
[1 0 0 1 0 0] CT
-12.5 18 moveto 
1 -1 scale
(-20) t 
GR
GR
GS
[0.6 0 0 0.6 322.04777 284.19999] CT
0.149 GC
/Helvetica 16.667 F
GS
[1 0 0 1 0 0] CT
-12.5 18 moveto 
1 -1 scale
(-10) t 
GR
GR
GS
[0.6 0 0 0.6 370.67461 284.19999] CT
0.149 GC
/Helvetica 16.667 F
GS
[1 0 0 1 0 0] CT
-5 18 moveto 
1 -1 scale
(0) t 
GR
GR
GS
[0.6 0 0 0.6 217.50016 298.40001] CT
0.149 GC
N
-35.997 15.4 M
-35.997 14.759 L
-34.137 14.759 -34.137 14.197 QT
-34.137 4.306 L
-34.137 3.744 -35.997 3.744 QT
-35.997 3.103 L
-30.34 3.103 L
-29.325 3.103 -28.215 3.47 QT
-27.106 3.837 -26.356 4.58 QT
-25.606 5.322 -25.606 6.369 QT
-25.606 7.119 -26.059 7.712 QT
-26.512 8.306 -27.223 8.705 QT
-27.934 9.103 -28.668 9.275 QT
-27.856 9.556 -27.254 10.173 QT
-26.653 10.791 -26.528 11.587 QT
-26.278 13.181 L
-26.09 14.259 -25.903 14.791 QT
-25.715 15.322 -25.043 15.322 QT
-24.481 15.322 -24.208 14.806 QT
-23.934 14.291 -23.934 13.666 QT
-23.934 13.603 -23.879 13.556 QT
-23.825 13.509 -23.762 13.509 QT
-23.59 13.509 L
-23.418 13.509 -23.418 13.744 QT
-23.418 14.244 -23.614 14.712 QT
-23.809 15.181 -24.168 15.486 QT
-24.528 15.791 -25.028 15.791 QT
-26.34 15.791 -27.27 15.15 QT
-28.2 14.509 -28.2 13.259 QT
-28.2 11.65 L
-28.2 10.759 -28.825 10.119 QT
-29.45 9.478 -30.356 9.478 QT
-32.528 9.478 L
-32.528 14.197 L
-32.528 14.759 -30.668 14.759 QT
-30.668 15.4 L
-35.997 15.4 L
cp
-32.528 9.009 M
-30.59 9.009 L
-29.106 9.009 -28.325 8.408 QT
-27.543 7.806 -27.543 6.369 QT
-27.543 4.931 -28.317 4.337 QT
-29.09 3.744 -30.59 3.744 QT
-31.606 3.744 L
-31.934 3.744 -32.114 3.767 QT
-32.293 3.791 -32.411 3.916 QT
-32.528 4.041 -32.528 4.306 QT
-32.528 9.009 L
cp
f
GR
GS
[0.6 0 0 0.6 217.50016 298.40001] CT
0.149 GC
N
-18.611 15.603 M
-19.704 15.603 -20.626 15.025 QT
-21.548 14.447 -22.072 13.486 QT
-22.595 12.525 -22.595 11.447 QT
-22.595 10.4 -22.118 9.447 QT
-21.642 8.494 -20.782 7.916 QT
-19.923 7.337 -18.861 7.337 QT
-18.048 7.337 -17.431 7.611 QT
-16.814 7.884 -16.423 8.376 QT
-16.032 8.869 -15.829 9.541 QT
-15.626 10.212 -15.626 11.009 QT
-15.626 11.244 -15.814 11.244 QT
-21.017 11.244 L
-21.017 11.431 L
-21.017 12.931 -20.415 14.001 QT
-19.814 15.072 -18.454 15.072 QT
-17.907 15.072 -17.431 14.83 QT
-16.954 14.587 -16.611 14.142 QT
-16.267 13.697 -16.142 13.197 QT
-16.126 13.134 -16.079 13.087 QT
-16.032 13.041 -15.97 13.041 QT
-15.814 13.041 L
-15.626 13.041 -15.626 13.275 QT
-15.876 14.291 -16.72 14.947 QT
-17.564 15.603 -18.611 15.603 QT
cp
-21.001 10.791 M
-16.892 10.791 L
-16.892 10.119 -17.087 9.423 QT
-17.282 8.728 -17.72 8.267 QT
-18.157 7.806 -18.861 7.806 QT
-19.892 7.806 -20.447 8.759 QT
-21.001 9.712 -21.001 10.791 QT
cp
f
GR
GS
[0.6 0 0 0.6 217.50016 298.40001] CT
0.149 GC
N
-14.228 13.634 M
-14.228 12.556 -13.384 11.884 QT
-12.541 11.212 -11.361 10.939 QT
-10.181 10.666 -9.103 10.666 QT
-9.103 9.931 L
-9.103 9.4 -9.337 8.916 QT
-9.572 8.431 -10.001 8.119 QT
-10.431 7.806 -10.947 7.806 QT
-12.15 7.806 -12.759 8.337 QT
-12.431 8.337 -12.205 8.595 QT
-11.978 8.853 -11.978 9.197 QT
-11.978 9.556 -12.228 9.814 QT
-12.478 10.072 -12.837 10.072 QT
-13.197 10.072 -13.455 9.814 QT
-13.712 9.556 -13.712 9.197 QT
-13.712 8.259 -12.845 7.798 QT
-11.978 7.337 -10.947 7.337 QT
-10.212 7.337 -9.478 7.65 QT
-8.744 7.962 -8.275 8.541 QT
-7.806 9.119 -7.806 9.884 QT
-7.806 13.947 L
-7.806 14.291 -7.658 14.587 QT
-7.509 14.884 -7.181 14.884 QT
-6.884 14.884 -6.744 14.587 QT
-6.603 14.291 -6.603 13.947 QT
-6.603 12.791 L
-6.072 12.791 L
-6.072 13.947 L
-6.072 14.337 -6.283 14.705 QT
-6.494 15.072 -6.845 15.291 QT
-7.197 15.509 -7.619 15.509 QT
-8.15 15.509 -8.533 15.095 QT
-8.916 14.681 -8.947 14.119 QT
-9.291 14.806 -9.939 15.205 QT
-10.587 15.603 -11.322 15.603 QT
-12.009 15.603 -12.673 15.4 QT
-13.337 15.197 -13.783 14.759 QT
-14.228 14.322 -14.228 13.634 QT
cp
-12.759 13.634 M
-12.759 14.259 -12.298 14.697 QT
-11.837 15.134 -11.197 15.134 QT
-10.619 15.134 -10.142 14.837 QT
-9.666 14.541 -9.384 14.041 QT
-9.103 13.541 -9.103 12.994 QT
-9.103 11.119 L
-9.931 11.119 -10.783 11.384 QT
-11.634 11.65 -12.197 12.22 QT
-12.759 12.791 -12.759 13.634 QT
cp
f
GR
GS
[0.6 0 0 0.6 217.50016 298.40001] CT
0.149 GC
N
-5.233 15.4 M
-5.233 14.759 L
-4.608 14.759 -4.218 14.666 QT
-3.827 14.572 -3.827 14.197 QT
-3.827 4.744 L
-3.827 4.259 -3.968 4.048 QT
-4.108 3.837 -4.382 3.791 QT
-4.655 3.744 -5.233 3.744 QT
-5.233 3.103 L
-2.561 2.916 L
-2.561 14.197 L
-2.561 14.572 -2.163 14.666 QT
-1.764 14.759 -1.155 14.759 QT
-1.155 15.4 L
-5.233 15.4 L
cp
f
GR
GS
[0.6 0 0 0.6 217.50016 298.40001] CT
0.149 GC
N
6.142 13.634 M
6.142 12.556 6.986 11.884 QT
7.83 11.212 9.01 10.939 QT
10.189 10.666 11.267 10.666 QT
11.267 9.931 L
11.267 9.4 11.033 8.916 QT
10.799 8.431 10.369 8.119 QT
9.939 7.806 9.424 7.806 QT
8.22 7.806 7.611 8.337 QT
7.939 8.337 8.166 8.595 QT
8.392 8.853 8.392 9.197 QT
8.392 9.556 8.142 9.814 QT
7.892 10.072 7.533 10.072 QT
7.174 10.072 6.916 9.814 QT
6.658 9.556 6.658 9.197 QT
6.658 8.259 7.525 7.798 QT
8.392 7.337 9.424 7.337 QT
10.158 7.337 10.892 7.65 QT
11.627 7.962 12.095 8.541 QT
12.564 9.119 12.564 9.884 QT
12.564 13.947 L
12.564 14.291 12.713 14.587 QT
12.861 14.884 13.189 14.884 QT
13.486 14.884 13.627 14.587 QT
13.767 14.291 13.767 13.947 QT
13.767 12.791 L
14.299 12.791 L
14.299 13.947 L
14.299 14.337 14.088 14.705 QT
13.877 15.072 13.525 15.291 QT
13.174 15.509 12.752 15.509 QT
12.22 15.509 11.838 15.095 QT
11.455 14.681 11.424 14.119 QT
11.08 14.806 10.431 15.205 QT
9.783 15.603 9.049 15.603 QT
8.361 15.603 7.697 15.4 QT
7.033 15.197 6.588 14.759 QT
6.142 14.322 6.142 13.634 QT
cp
7.611 13.634 M
7.611 14.259 8.072 14.697 QT
8.533 15.134 9.174 15.134 QT
9.752 15.134 10.228 14.837 QT
10.705 14.541 10.986 14.041 QT
11.267 13.541 11.267 12.994 QT
11.267 11.119 L
10.439 11.119 9.588 11.384 QT
8.736 11.65 8.174 12.22 QT
7.611 12.791 7.611 13.634 QT
cp
f
GR
GS
[0.6 0 0 0.6 217.50016 298.40001] CT
0.149 GC
N
14.809 15.4 M
14.809 14.759 L
15.497 14.759 16.106 14.494 QT
16.715 14.228 17.137 13.697 QT
18.762 11.619 L
16.637 8.853 L
16.325 8.462 15.95 8.369 QT
15.575 8.275 14.903 8.275 QT
14.903 7.634 L
18.637 7.634 L
18.637 8.275 L
18.403 8.275 18.2 8.376 QT
17.997 8.478 17.997 8.681 QT
17.997 8.759 18.043 8.853 QT
19.481 10.728 L
20.575 9.337 L
20.793 9.072 20.793 8.806 QT
20.793 8.587 20.645 8.431 QT
20.497 8.275 20.262 8.275 QT
20.262 7.634 L
23.575 7.634 L
23.575 8.275 L
22.872 8.275 22.262 8.541 QT
21.653 8.806 21.231 9.337 QT
19.809 11.15 L
22.122 14.197 L
22.45 14.587 22.825 14.673 QT
23.2 14.759 23.887 14.759 QT
23.887 15.4 L
20.137 15.4 L
20.137 14.759 L
20.356 14.759 20.559 14.658 QT
20.762 14.556 20.762 14.353 QT
20.762 14.275 20.715 14.197 QT
19.09 12.056 L
17.793 13.697 L
17.59 13.931 17.59 14.228 QT
17.59 14.447 17.747 14.603 QT
17.903 14.759 18.09 14.759 QT
18.09 15.4 L
14.809 15.4 L
cp
f
GR
GS
[0.6 0 0 0.6 217.50016 298.40001] CT
0.149 GC
N
24.813 15.4 M
24.813 14.759 L
25.438 14.759 25.829 14.666 QT
26.219 14.572 26.219 14.197 QT
26.219 9.275 L
26.219 8.587 25.954 8.431 QT
25.688 8.275 24.907 8.275 QT
24.907 7.634 L
27.485 7.447 L
27.485 14.197 L
27.485 14.572 27.829 14.666 QT
28.173 14.759 28.751 14.759 QT
28.751 15.4 L
24.813 15.4 L
cp
25.579 4.353 M
25.579 3.962 25.883 3.658 QT
26.188 3.353 26.563 3.353 QT
26.829 3.353 27.063 3.486 QT
27.298 3.619 27.43 3.861 QT
27.563 4.103 27.563 4.353 QT
27.563 4.744 27.266 5.041 QT
26.969 5.337 26.563 5.337 QT
26.188 5.337 25.883 5.041 QT
25.579 4.744 25.579 4.353 QT
cp
f
GR
GS
[0.6 0 0 0.6 217.50016 298.40001] CT
0.149 GC
N
29.953 15.447 M
29.953 12.509 L
29.953 12.369 30.109 12.369 QT
30.328 12.369 L
30.437 12.369 30.468 12.509 QT
30.984 15.134 32.906 15.134 QT
33.75 15.134 34.328 14.744 QT
34.906 14.353 34.906 13.541 QT
34.906 12.962 34.46 12.556 QT
34.015 12.15 33.39 11.994 QT
32.187 11.759 L
31.578 11.634 31.085 11.361 QT
30.593 11.087 30.273 10.634 QT
29.953 10.181 29.953 9.587 QT
29.953 8.791 30.375 8.283 QT
30.796 7.775 31.46 7.556 QT
32.125 7.337 32.906 7.337 QT
33.828 7.337 34.515 7.822 QT
35.031 7.369 L
35.031 7.337 35.109 7.337 QT
35.25 7.337 L
35.296 7.337 35.343 7.384 QT
35.39 7.431 35.39 7.478 QT
35.39 9.837 L
35.39 10.009 35.25 10.009 QT
35.031 10.009 L
34.875 10.009 34.875 9.837 QT
34.875 8.9 34.351 8.33 QT
33.828 7.759 32.89 7.759 QT
32.078 7.759 31.484 8.056 QT
30.89 8.353 30.89 9.087 QT
30.89 9.587 31.312 9.908 QT
31.734 10.228 32.312 10.369 QT
33.531 10.587 L
34.156 10.728 34.687 11.064 QT
35.218 11.4 35.531 11.908 QT
35.843 12.416 35.843 13.056 QT
35.843 13.712 35.617 14.189 QT
35.39 14.666 34.992 14.986 QT
34.593 15.306 34.046 15.455 QT
33.5 15.603 32.906 15.603 QT
31.781 15.603 30.984 14.853 QT
30.312 15.556 L
30.312 15.603 30.218 15.603 QT
30.109 15.603 L
29.953 15.603 29.953 15.447 QT
cp
f
GR
GS
[0.6 0 0 0.6 0 0] CT
0.149 GC
2 setlinecap
1 LJ
0.833 LW
N
91 467 M
91 39 L
S
GR
GS
[0.6 0 0 0.6 0 0] CT
0.149 GC
2 setlinecap
1 LJ
0.833 LW
N
634 467 M
634 39 L
S
GR
GS
[0.6 0 0 0.6 0 0] CT
0.149 GC
2 setlinecap
1 LJ
0.833 LW
N
91 467 M
96.43 467 L
S
GR
GS
[0.6 0 0 0.6 0 0] CT
0.149 GC
2 setlinecap
1 LJ
0.833 LW
N
91 395.667 M
96.43 395.667 L
S
GR
GS
[0.6 0 0 0.6 0 0] CT
0.149 GC
2 setlinecap
1 LJ
0.833 LW
N
91 324.333 M
96.43 324.333 L
S
GR
GS
[0.6 0 0 0.6 0 0] CT
0.149 GC
2 setlinecap
1 LJ
0.833 LW
N
91 253 M
96.43 253 L
S
GR
GS
[0.6 0 0 0.6 0 0] CT
0.149 GC
2 setlinecap
1 LJ
0.833 LW
N
91 181.667 M
96.43 181.667 L
S
GR
GS
[0.6 0 0 0.6 0 0] CT
0.149 GC
2 setlinecap
1 LJ
0.833 LW
N
91 110.333 M
96.43 110.333 L
S
GR
GS
[0.6 0 0 0.6 0 0] CT
0.149 GC
2 setlinecap
1 LJ
0.833 LW
N
91 39 M
96.43 39 L
S
GR
GS
[0.6 0 0 0.6 0 0] CT
0.149 GC
2 setlinecap
1 LJ
0.833 LW
N
634 467 M
628.57 467 L
S
GR
GS
[0.6 0 0 0.6 0 0] CT
0.149 GC
2 setlinecap
1 LJ
0.833 LW
N
634 395.667 M
628.57 395.667 L
S
GR
GS
[0.6 0 0 0.6 0 0] CT
0.149 GC
2 setlinecap
1 LJ
0.833 LW
N
634 324.333 M
628.57 324.333 L
S
GR
GS
[0.6 0 0 0.6 0 0] CT
0.149 GC
2 setlinecap
1 LJ
0.833 LW
N
634 253 M
628.57 253 L
S
GR
GS
[0.6 0 0 0.6 0 0] CT
0.149 GC
2 setlinecap
1 LJ
0.833 LW
N
634 181.667 M
628.57 181.667 L
S
GR
GS
[0.6 0 0 0.6 0 0] CT
0.149 GC
2 setlinecap
1 LJ
0.833 LW
N
634 110.333 M
628.57 110.333 L
S
GR
GS
[0.6 0 0 0.6 0 0] CT
0.149 GC
2 setlinecap
1 LJ
0.833 LW
N
634 39 M
628.57 39 L
S
GR
GS
[0.6 0 0 0.6 50.59998 280.2] CT
0.149 GC
/Helvetica 16.667 F
GS
[1 0 0 1 0 0] CT
-16 7 moveto 
1 -1 scale
(-3) t 
GR
GR
GS
[0.6 0 0 0.6 50.59998 237.39999] CT
0.149 GC
/Helvetica 16.667 F
GS
[1 0 0 1 0 0] CT
-16 7 moveto 
1 -1 scale
(-2) t 
GR
GR
GS
[0.6 0 0 0.6 50.59998 194.60001] CT
0.149 GC
/Helvetica 16.667 F
GS
[1 0 0 1 0 0] CT
-16 7 moveto 
1 -1 scale
(-1) t 
GR
GR
GS
[0.6 0 0 0.6 50.59998 151.8] CT
0.149 GC
/Helvetica 16.667 F
GS
[1 0 0 1 0 0] CT
-10 7 moveto 
1 -1 scale
(0) t 
GR
GR
GS
[0.6 0 0 0.6 50.59998 109] CT
0.149 GC
/Helvetica 16.667 F
GS
[1 0 0 1 0 0] CT
-10 7 moveto 
1 -1 scale
(1) t 
GR
GR
GS
[0.6 0 0 0.6 50.59998 66.2] CT
0.149 GC
/Helvetica 16.667 F
GS
[1 0 0 1 0 0] CT
-10 7 moveto 
1 -1 scale
(2) t 
GR
GR
GS
[0.6 0 0 0.6 50.59998 23.4] CT
0.149 GC
/Helvetica 16.667 F
GS
[1 0 0 1 0 0] CT
-10 7 moveto 
1 -1 scale
(3) t 
GR
GR
GS
[0 -0.6 0.6 0 38.00001 151.79988] CT
0.149 GC
N
-58.937 -6.6 M
-58.937 -7.241 L
-56.999 -7.241 -56.999 -7.803 QT
-56.999 -17.694 L
-56.999 -18.256 -58.937 -18.256 QT
-58.937 -18.897 L
-53.374 -18.897 L
-53.374 -18.256 L
-55.312 -18.256 -55.312 -17.694 QT
-55.312 -7.803 L
-55.312 -7.241 -53.374 -7.241 QT
-53.374 -6.6 L
-58.937 -6.6 L
cp
f
GR
GS
[0 -0.6 0.6 0 38.00001 151.79988] CT
0.149 GC
N
-52.254 -6.6 M
-52.254 -7.241 L
-51.629 -7.241 -51.238 -7.334 QT
-50.847 -7.428 -50.847 -7.803 QT
-50.847 -12.725 L
-50.847 -13.194 -50.988 -13.413 QT
-51.129 -13.631 -51.402 -13.678 QT
-51.675 -13.725 -52.254 -13.725 QT
-52.254 -14.366 L
-49.644 -14.553 L
-49.644 -12.803 L
-49.285 -13.569 -48.574 -14.061 QT
-47.863 -14.553 -47.035 -14.553 QT
-44.957 -14.553 -44.597 -12.866 QT
-44.238 -13.616 -43.543 -14.084 QT
-42.847 -14.553 -42.019 -14.553 QT
-41.207 -14.553 -40.644 -14.288 QT
-40.082 -14.022 -39.8 -13.483 QT
-39.519 -12.944 -39.519 -12.131 QT
-39.519 -7.803 L
-39.519 -7.428 -39.121 -7.334 QT
-38.722 -7.241 -38.113 -7.241 QT
-38.113 -6.6 L
-42.238 -6.6 L
-42.238 -7.241 L
-41.629 -7.241 -41.23 -7.334 QT
-40.832 -7.428 -40.832 -7.803 QT
-40.832 -12.069 L
-40.832 -12.975 -41.09 -13.53 QT
-41.347 -14.084 -42.129 -14.084 QT
-43.175 -14.084 -43.847 -13.249 QT
-44.519 -12.413 -44.519 -11.35 QT
-44.519 -7.803 L
-44.519 -7.428 -44.129 -7.334 QT
-43.738 -7.241 -43.113 -7.241 QT
-43.113 -6.6 L
-47.238 -6.6 L
-47.238 -7.241 L
-46.629 -7.241 -46.23 -7.334 QT
-45.832 -7.428 -45.832 -7.803 QT
-45.832 -12.069 L
-45.832 -12.959 -46.09 -13.522 QT
-46.347 -14.084 -47.129 -14.084 QT
-48.175 -14.084 -48.847 -13.249 QT
-49.519 -12.413 -49.519 -11.35 QT
-49.519 -7.803 L
-49.519 -7.428 -49.129 -7.334 QT
-48.738 -7.241 -48.129 -7.241 QT
-48.129 -6.6 L
-52.254 -6.6 L
cp
f
GR
GS
[0 -0.6 0.6 0 38.00001 151.79988] CT
0.149 GC
N
-36.788 -8.366 M
-36.788 -9.444 -35.945 -10.116 QT
-35.101 -10.788 -33.921 -11.061 QT
-32.741 -11.334 -31.663 -11.334 QT
-31.663 -12.069 L
-31.663 -12.6 -31.898 -13.084 QT
-32.132 -13.569 -32.562 -13.881 QT
-32.991 -14.194 -33.507 -14.194 QT
-34.71 -14.194 -35.32 -13.663 QT
-34.991 -13.663 -34.765 -13.405 QT
-34.538 -13.147 -34.538 -12.803 QT
-34.538 -12.444 -34.788 -12.186 QT
-35.038 -11.928 -35.398 -11.928 QT
-35.757 -11.928 -36.015 -12.186 QT
-36.273 -12.444 -36.273 -12.803 QT
-36.273 -13.741 -35.405 -14.202 QT
-34.538 -14.663 -33.507 -14.663 QT
-32.773 -14.663 -32.038 -14.35 QT
-31.304 -14.038 -30.835 -13.459 QT
-30.366 -12.881 -30.366 -12.116 QT
-30.366 -8.053 L
-30.366 -7.709 -30.218 -7.413 QT
-30.07 -7.116 -29.741 -7.116 QT
-29.445 -7.116 -29.304 -7.413 QT
-29.163 -7.709 -29.163 -8.053 QT
-29.163 -9.209 L
-28.632 -9.209 L
-28.632 -8.053 L
-28.632 -7.663 -28.843 -7.295 QT
-29.054 -6.928 -29.405 -6.709 QT
-29.757 -6.491 -30.179 -6.491 QT
-30.71 -6.491 -31.093 -6.905 QT
-31.476 -7.319 -31.507 -7.881 QT
-31.851 -7.194 -32.499 -6.795 QT
-33.148 -6.397 -33.882 -6.397 QT
-34.57 -6.397 -35.234 -6.6 QT
-35.898 -6.803 -36.343 -7.241 QT
-36.788 -7.678 -36.788 -8.366 QT
cp
-35.32 -8.366 M
-35.32 -7.741 -34.859 -7.303 QT
-34.398 -6.866 -33.757 -6.866 QT
-33.179 -6.866 -32.702 -7.163 QT
-32.226 -7.459 -31.945 -7.959 QT
-31.663 -8.459 -31.663 -9.006 QT
-31.663 -10.881 L
-32.491 -10.881 -33.343 -10.616 QT
-34.195 -10.35 -34.757 -9.78 QT
-35.32 -9.209 -35.32 -8.366 QT
cp
f
GR
GS
[0 -0.6 0.6 0 38.00001 151.79988] CT
0.149 GC
N
-27.84 -5.194 M
-27.84 -5.834 -27.372 -6.311 QT
-26.903 -6.788 -26.262 -6.991 QT
-26.622 -7.272 -26.809 -7.686 QT
-26.997 -8.1 -26.997 -8.553 QT
-26.997 -9.397 -26.465 -10.053 QT
-27.293 -10.866 -27.293 -11.913 QT
-27.293 -12.475 -27.051 -12.967 QT
-26.809 -13.459 -26.379 -13.819 QT
-25.95 -14.178 -25.418 -14.366 QT
-24.887 -14.553 -24.34 -14.553 QT
-23.262 -14.553 -22.418 -13.928 QT
-22.043 -14.319 -21.543 -14.538 QT
-21.043 -14.756 -20.497 -14.756 QT
-20.106 -14.756 -19.856 -14.483 QT
-19.606 -14.209 -19.606 -13.819 QT
-19.606 -13.6 -19.778 -13.428 QT
-19.95 -13.256 -20.168 -13.256 QT
-20.387 -13.256 -20.559 -13.428 QT
-20.731 -13.6 -20.731 -13.819 QT
-20.731 -14.147 -20.512 -14.288 QT
-21.434 -14.288 -22.106 -13.647 QT
-21.778 -13.319 -21.583 -12.85 QT
-21.387 -12.381 -21.387 -11.913 QT
-21.387 -11.147 -21.809 -10.538 QT
-22.231 -9.928 -22.918 -9.584 QT
-23.606 -9.241 -24.34 -9.241 QT
-25.325 -9.241 -26.137 -9.788 QT
-26.403 -9.428 -26.403 -8.991 QT
-26.403 -8.522 -26.09 -8.163 QT
-25.778 -7.803 -25.293 -7.803 QT
-23.825 -7.803 L
-22.747 -7.803 -21.887 -7.608 QT
-21.028 -7.413 -20.442 -6.834 QT
-19.856 -6.256 -19.856 -5.194 QT
-19.856 -4.397 -20.528 -3.874 QT
-21.2 -3.35 -22.122 -3.124 QT
-23.043 -2.897 -23.84 -2.897 QT
-24.637 -2.897 -25.567 -3.124 QT
-26.497 -3.35 -27.168 -3.874 QT
-27.84 -4.397 -27.84 -5.194 QT
cp
-26.825 -5.194 M
-26.825 -4.584 -26.333 -4.178 QT
-25.84 -3.772 -25.145 -3.577 QT
-24.45 -3.381 -23.84 -3.381 QT
-23.231 -3.381 -22.536 -3.577 QT
-21.84 -3.772 -21.356 -4.178 QT
-20.872 -4.584 -20.872 -5.194 QT
-20.872 -6.131 -21.731 -6.413 QT
-22.59 -6.694 -23.825 -6.694 QT
-25.293 -6.694 L
-25.715 -6.694 -26.059 -6.491 QT
-26.403 -6.288 -26.614 -5.936 QT
-26.825 -5.584 -26.825 -5.194 QT
cp
-24.34 -9.725 M
-22.809 -9.725 -22.809 -11.913 QT
-22.809 -12.85 -23.137 -13.459 QT
-23.465 -14.069 -24.34 -14.069 QT
-25.215 -14.069 -25.543 -13.459 QT
-25.872 -12.85 -25.872 -11.913 QT
-25.872 -11.319 -25.747 -10.834 QT
-25.622 -10.35 -25.286 -10.038 QT
-24.95 -9.725 -24.34 -9.725 QT
cp
f
GR
GS
[0 -0.6 0.6 0 38.00001 151.79988] CT
0.149 GC
N
-18.627 -6.6 M
-18.627 -7.241 L
-18.002 -7.241 -17.611 -7.334 QT
-17.221 -7.428 -17.221 -7.803 QT
-17.221 -12.725 L
-17.221 -13.413 -17.486 -13.569 QT
-17.752 -13.725 -18.533 -13.725 QT
-18.533 -14.366 L
-15.955 -14.553 L
-15.955 -7.803 L
-15.955 -7.428 -15.611 -7.334 QT
-15.267 -7.241 -14.689 -7.241 QT
-14.689 -6.6 L
-18.627 -6.6 L
cp
-17.861 -17.647 M
-17.861 -18.038 -17.556 -18.342 QT
-17.252 -18.647 -16.877 -18.647 QT
-16.611 -18.647 -16.377 -18.514 QT
-16.142 -18.381 -16.01 -18.139 QT
-15.877 -17.897 -15.877 -17.647 QT
-15.877 -17.256 -16.174 -16.959 QT
-16.471 -16.663 -16.877 -16.663 QT
-17.252 -16.663 -17.556 -16.959 QT
-17.861 -17.256 -17.861 -17.647 QT
cp
f
GR
GS
[0 -0.6 0.6 0 38.00001 151.79988] CT
0.149 GC
N
-13.55 -6.6 M
-13.55 -7.241 L
-12.925 -7.241 -12.534 -7.334 QT
-12.144 -7.428 -12.144 -7.803 QT
-12.144 -12.725 L
-12.144 -13.194 -12.284 -13.413 QT
-12.425 -13.631 -12.698 -13.678 QT
-12.972 -13.725 -13.55 -13.725 QT
-13.55 -14.366 L
-10.94 -14.553 L
-10.94 -12.803 L
-10.581 -13.569 -9.87 -14.061 QT
-9.159 -14.553 -8.331 -14.553 QT
-7.081 -14.553 -6.448 -13.959 QT
-5.815 -13.366 -5.815 -12.131 QT
-5.815 -7.803 L
-5.815 -7.428 -5.425 -7.334 QT
-5.034 -7.241 -4.409 -7.241 QT
-4.409 -6.6 L
-8.534 -6.6 L
-8.534 -7.241 L
-7.925 -7.241 -7.526 -7.334 QT
-7.128 -7.428 -7.128 -7.803 QT
-7.128 -12.069 L
-7.128 -12.959 -7.386 -13.522 QT
-7.644 -14.084 -8.425 -14.084 QT
-9.472 -14.084 -10.144 -13.249 QT
-10.815 -12.413 -10.815 -11.35 QT
-10.815 -7.803 L
-10.815 -7.428 -10.425 -7.334 QT
-10.034 -7.241 -9.425 -7.241 QT
-9.425 -6.6 L
-13.55 -6.6 L
cp
f
GR
GS
[0 -0.6 0.6 0 38.00001 151.79988] CT
0.149 GC
N
-3.177 -8.366 M
-3.177 -9.444 -2.333 -10.116 QT
-1.49 -10.788 -0.31 -11.061 QT
0.87 -11.334 1.948 -11.334 QT
1.948 -12.069 L
1.948 -12.6 1.714 -13.084 QT
1.479 -13.569 1.049 -13.881 QT
0.62 -14.194 0.104 -14.194 QT
-1.099 -14.194 -1.708 -13.663 QT
-1.38 -13.663 -1.154 -13.405 QT
-0.927 -13.147 -0.927 -12.803 QT
-0.927 -12.444 -1.177 -12.186 QT
-1.427 -11.928 -1.786 -11.928 QT
-2.146 -11.928 -2.404 -12.186 QT
-2.661 -12.444 -2.661 -12.803 QT
-2.661 -13.741 -1.794 -14.202 QT
-0.927 -14.663 0.104 -14.663 QT
0.839 -14.663 1.573 -14.35 QT
2.307 -14.038 2.776 -13.459 QT
3.245 -12.881 3.245 -12.116 QT
3.245 -8.053 L
3.245 -7.709 3.393 -7.413 QT
3.542 -7.116 3.87 -7.116 QT
4.167 -7.116 4.307 -7.413 QT
4.448 -7.709 4.448 -8.053 QT
4.448 -9.209 L
4.979 -9.209 L
4.979 -8.053 L
4.979 -7.663 4.768 -7.295 QT
4.557 -6.928 4.206 -6.709 QT
3.854 -6.491 3.432 -6.491 QT
2.901 -6.491 2.518 -6.905 QT
2.135 -7.319 2.104 -7.881 QT
1.76 -7.194 1.112 -6.795 QT
0.464 -6.397 -0.271 -6.397 QT
-0.958 -6.397 -1.622 -6.6 QT
-2.286 -6.803 -2.732 -7.241 QT
-3.177 -7.678 -3.177 -8.366 QT
cp
-1.708 -8.366 M
-1.708 -7.741 -1.247 -7.303 QT
-0.786 -6.866 -0.146 -6.866 QT
0.432 -6.866 0.909 -7.163 QT
1.385 -7.459 1.667 -7.959 QT
1.948 -8.459 1.948 -9.006 QT
1.948 -10.881 L
1.12 -10.881 0.268 -10.616 QT
-0.583 -10.35 -1.146 -9.78 QT
-1.708 -9.209 -1.708 -8.366 QT
cp
f
GR
GS
[0 -0.6 0.6 0 38.00001 151.79988] CT
0.149 GC
N
5.74 -6.6 M
5.74 -7.241 L
6.349 -7.241 6.747 -7.334 QT
7.146 -7.428 7.146 -7.803 QT
7.146 -12.725 L
7.146 -13.194 6.997 -13.413 QT
6.849 -13.631 6.576 -13.678 QT
6.302 -13.725 5.74 -13.725 QT
5.74 -14.366 L
8.318 -14.553 L
8.318 -12.803 L
8.599 -13.584 9.138 -14.069 QT
9.677 -14.553 10.443 -14.553 QT
10.974 -14.553 11.396 -14.241 QT
11.818 -13.928 11.818 -13.397 QT
11.818 -13.084 11.583 -12.842 QT
11.349 -12.6 11.005 -12.6 QT
10.677 -12.6 10.443 -12.834 QT
10.208 -13.069 10.208 -13.397 QT
10.208 -13.881 10.552 -14.084 QT
10.443 -14.084 L
9.708 -14.084 9.247 -13.561 QT
8.786 -13.038 8.591 -12.256 QT
8.396 -11.475 8.396 -10.756 QT
8.396 -7.803 L
8.396 -7.241 10.146 -7.241 QT
10.146 -6.6 L
5.74 -6.6 L
cp
f
GR
GS
[0 -0.6 0.6 0 38.00001 151.79988] CT
0.149 GC
N
13.686 -3.647 M
14.03 -3.381 14.451 -3.381 QT
15.576 -3.381 16.295 -5.084 QT
16.92 -6.6 L
14.217 -13.209 L
14.045 -13.538 13.709 -13.631 QT
13.373 -13.725 12.795 -13.725 QT
12.795 -14.366 L
16.576 -14.366 L
16.576 -13.725 L
15.576 -13.725 15.576 -13.303 QT
15.576 -13.225 15.592 -13.194 QT
17.608 -8.272 L
19.405 -12.694 L
19.451 -12.834 19.451 -13.006 QT
19.451 -13.225 19.334 -13.389 QT
19.217 -13.553 19.03 -13.639 QT
18.842 -13.725 18.608 -13.725 QT
18.608 -14.366 L
21.592 -14.366 L
21.592 -13.725 L
21.045 -13.725 20.623 -13.475 QT
20.201 -13.225 19.983 -12.725 QT
16.858 -5.084 L
16.623 -4.506 16.287 -4.022 QT
15.951 -3.538 15.483 -3.225 QT
15.014 -2.913 14.451 -2.913 QT
13.795 -2.913 13.295 -3.342 QT
12.795 -3.772 12.795 -4.413 QT
12.795 -4.756 13.022 -4.983 QT
13.248 -5.209 13.592 -5.209 QT
13.811 -5.209 13.99 -5.108 QT
14.17 -5.006 14.272 -4.834 QT
14.373 -4.663 14.373 -4.413 QT
14.373 -4.131 14.178 -3.905 QT
13.983 -3.678 13.686 -3.647 QT
cp
f
GR
GS
[0 -0.6 0.6 0 38.00001 151.79988] CT
0.149 GC
N
28.957 -8.366 M
28.957 -9.444 29.801 -10.116 QT
30.645 -10.788 31.824 -11.061 QT
33.004 -11.334 34.082 -11.334 QT
34.082 -12.069 L
34.082 -12.6 33.848 -13.084 QT
33.613 -13.569 33.184 -13.881 QT
32.754 -14.194 32.238 -14.194 QT
31.035 -14.194 30.426 -13.663 QT
30.754 -13.663 30.981 -13.405 QT
31.207 -13.147 31.207 -12.803 QT
31.207 -12.444 30.957 -12.186 QT
30.707 -11.928 30.348 -11.928 QT
29.988 -11.928 29.731 -12.186 QT
29.473 -12.444 29.473 -12.803 QT
29.473 -13.741 30.34 -14.202 QT
31.207 -14.663 32.238 -14.663 QT
32.973 -14.663 33.707 -14.35 QT
34.442 -14.038 34.91 -13.459 QT
35.379 -12.881 35.379 -12.116 QT
35.379 -8.053 L
35.379 -7.709 35.528 -7.413 QT
35.676 -7.116 36.004 -7.116 QT
36.301 -7.116 36.442 -7.413 QT
36.582 -7.709 36.582 -8.053 QT
36.582 -9.209 L
37.113 -9.209 L
37.113 -8.053 L
37.113 -7.663 36.903 -7.295 QT
36.692 -6.928 36.34 -6.709 QT
35.988 -6.491 35.567 -6.491 QT
35.035 -6.491 34.653 -6.905 QT
34.27 -7.319 34.238 -7.881 QT
33.895 -7.194 33.246 -6.795 QT
32.598 -6.397 31.863 -6.397 QT
31.176 -6.397 30.512 -6.6 QT
29.848 -6.803 29.403 -7.241 QT
28.957 -7.678 28.957 -8.366 QT
cp
30.426 -8.366 M
30.426 -7.741 30.887 -7.303 QT
31.348 -6.866 31.988 -6.866 QT
32.567 -6.866 33.043 -7.163 QT
33.52 -7.459 33.801 -7.959 QT
34.082 -8.459 34.082 -9.006 QT
34.082 -10.881 L
33.254 -10.881 32.403 -10.616 QT
31.551 -10.35 30.988 -9.78 QT
30.426 -9.209 30.426 -8.366 QT
cp
f
GR
GS
[0 -0.6 0.6 0 38.00001 151.79988] CT
0.149 GC
N
37.624 -6.6 M
37.624 -7.241 L
38.311 -7.241 38.921 -7.506 QT
39.53 -7.772 39.952 -8.303 QT
41.577 -10.381 L
39.452 -13.147 L
39.14 -13.538 38.765 -13.631 QT
38.39 -13.725 37.718 -13.725 QT
37.718 -14.366 L
41.452 -14.366 L
41.452 -13.725 L
41.218 -13.725 41.015 -13.624 QT
40.811 -13.522 40.811 -13.319 QT
40.811 -13.241 40.858 -13.147 QT
42.296 -11.272 L
43.39 -12.663 L
43.608 -12.928 43.608 -13.194 QT
43.608 -13.413 43.46 -13.569 QT
43.311 -13.725 43.077 -13.725 QT
43.077 -14.366 L
46.39 -14.366 L
46.39 -13.725 L
45.686 -13.725 45.077 -13.459 QT
44.468 -13.194 44.046 -12.663 QT
42.624 -10.85 L
44.936 -7.803 L
45.265 -7.413 45.64 -7.327 QT
46.015 -7.241 46.702 -7.241 QT
46.702 -6.6 L
42.952 -6.6 L
42.952 -7.241 L
43.171 -7.241 43.374 -7.342 QT
43.577 -7.444 43.577 -7.647 QT
43.577 -7.725 43.53 -7.803 QT
41.905 -9.944 L
40.608 -8.303 L
40.405 -8.069 40.405 -7.772 QT
40.405 -7.553 40.561 -7.397 QT
40.718 -7.241 40.905 -7.241 QT
40.905 -6.6 L
37.624 -6.6 L
cp
f
GR
GS
[0 -0.6 0.6 0 38.00001 151.79988] CT
0.149 GC
N
47.628 -6.6 M
47.628 -7.241 L
48.253 -7.241 48.644 -7.334 QT
49.034 -7.428 49.034 -7.803 QT
49.034 -12.725 L
49.034 -13.413 48.769 -13.569 QT
48.503 -13.725 47.722 -13.725 QT
47.722 -14.366 L
50.3 -14.553 L
50.3 -7.803 L
50.3 -7.428 50.644 -7.334 QT
50.987 -7.241 51.566 -7.241 QT
51.566 -6.6 L
47.628 -6.6 L
cp
48.394 -17.647 M
48.394 -18.038 48.698 -18.342 QT
49.003 -18.647 49.378 -18.647 QT
49.644 -18.647 49.878 -18.514 QT
50.112 -18.381 50.245 -18.139 QT
50.378 -17.897 50.378 -17.647 QT
50.378 -17.256 50.081 -16.959 QT
49.784 -16.663 49.378 -16.663 QT
49.003 -16.663 48.698 -16.959 QT
48.394 -17.256 48.394 -17.647 QT
cp
f
GR
GS
[0 -0.6 0.6 0 38.00001 151.79988] CT
0.149 GC
N
52.768 -6.553 M
52.768 -9.491 L
52.768 -9.631 52.924 -9.631 QT
53.143 -9.631 L
53.252 -9.631 53.283 -9.491 QT
53.799 -6.866 55.721 -6.866 QT
56.564 -6.866 57.143 -7.256 QT
57.721 -7.647 57.721 -8.459 QT
57.721 -9.038 57.275 -9.444 QT
56.83 -9.85 56.205 -10.006 QT
55.002 -10.241 L
54.393 -10.366 53.9 -10.639 QT
53.408 -10.913 53.088 -11.366 QT
52.768 -11.819 52.768 -12.413 QT
52.768 -13.209 53.189 -13.717 QT
53.611 -14.225 54.275 -14.444 QT
54.939 -14.663 55.721 -14.663 QT
56.643 -14.663 57.33 -14.178 QT
57.846 -14.631 L
57.846 -14.663 57.924 -14.663 QT
58.064 -14.663 L
58.111 -14.663 58.158 -14.616 QT
58.205 -14.569 58.205 -14.522 QT
58.205 -12.163 L
58.205 -11.991 58.064 -11.991 QT
57.846 -11.991 L
57.689 -11.991 57.689 -12.163 QT
57.689 -13.1 57.166 -13.67 QT
56.643 -14.241 55.705 -14.241 QT
54.893 -14.241 54.299 -13.944 QT
53.705 -13.647 53.705 -12.913 QT
53.705 -12.413 54.127 -12.092 QT
54.549 -11.772 55.127 -11.631 QT
56.346 -11.413 L
56.971 -11.272 57.502 -10.936 QT
58.033 -10.6 58.346 -10.092 QT
58.658 -9.584 58.658 -8.944 QT
58.658 -8.288 58.432 -7.811 QT
58.205 -7.334 57.807 -7.014 QT
57.408 -6.694 56.861 -6.545 QT
56.314 -6.397 55.721 -6.397 QT
54.596 -6.397 53.799 -7.147 QT
53.127 -6.444 L
53.127 -6.397 53.033 -6.397 QT
52.924 -6.397 L
52.768 -6.397 52.768 -6.553 QT
cp
f
GR
GS
[0.6 0 0 0.6 71.0894 151.8] CT
0 0.447 0.741 RC
10.0 ML
3.333 LW
N
4.5 -0.5 M
4.5 -3.261 2.261 -5.5 -0.5 -5.5 C
-3.261 -5.5 -5.5 -3.261 -5.5 -0.5 C
-5.5 2.261 -3.261 4.5 -0.5 4.5 C
2.261 4.5 4.5 2.261 4.5 -0.5 C
S
GR
GS
[0.6 0 0 0.6 356.23733 60.03944] CT
0 0.447 0.741 RC
10.0 ML
3.333 LW
N
4.5 -0.5 M
4.5 -3.261 2.261 -5.5 -0.5 -5.5 C
-3.261 -5.5 -5.5 -3.261 -5.5 -0.5 C
-5.5 2.261 -3.261 4.5 -0.5 4.5 C
2.261 4.5 4.5 2.261 4.5 -0.5 C
S
GR
GS
[0.6 0 0 0.6 356.23733 243.56056] CT
0 0.447 0.741 RC
10.0 ML
3.333 LW
N
4.5 -0.5 M
4.5 -3.261 2.261 -5.5 -0.5 -5.5 C
-3.261 -5.5 -5.5 -3.261 -5.5 -0.5 C
-5.5 2.261 -3.261 4.5 -0.5 4.5 C
2.261 4.5 4.5 2.261 4.5 -0.5 C
S
GR
GS
[0.6 0 0 0.6 354.18245 151.8] CT
0 0.447 0.741 RC
10.0 ML
3.333 LW
N
4.5 -0.5 M
4.5 -3.261 2.261 -5.5 -0.5 -5.5 C
-3.261 -5.5 -5.5 -3.261 -5.5 -0.5 C
-5.5 2.261 -3.261 4.5 -0.5 4.5 C
2.261 4.5 4.5 2.261 4.5 -0.5 C
S
GR
GS
[0.6 0 0 0.6 0 0] CT
1 0 0 RC
1 LJ
3.333 LW
N
617.791 467 M
617.791 39 L
S
GR
%%Trailer
%%Pages: 1
%%EOF
